1621934942|00:00:30:29:1c:b1|80
1622019215|00:0a:f5:49:a3:90|78
1621838479|00:0c:e7:00:6c:76|73
1622029187|00:0c:e7:00:b4:c0|71
1621943841|00:0c:e7:00:e2:df|60
1621946027|00:0c:e7:00:e5:cf|74
1621845539|00:0c:e7:01:71:2c|72
1621856555|00:0c:e7:01:76:dd|56
1621856353|00:0c:e7:01:9b:5e|60
1622010887|00:0c:e7:02:8a:2e|68
1621950507|00:0c:e7:02:8d:e5|78
1621862980|00:0c:e7:02:d2:5e|77
1621950386|00:0c:e7:03:27:ba|68
1621931941|00:0c:e7:04:00:dd|72
1621853293|00:0c:e7:04:05:b2|56
1622018413|00:0c:e7:04:39:1d|63
1622033389|00:0c:e7:04:bc:70|53
1621926331|00:0c:e7:04:e6:d8|78
1622027605|00:0c:e7:05:21:23|66
1621942611|00:0c:e7:05:3b:26|64
1621845121|00:0c:e7:05:50:22|77
1622030322|00:0c:e7:05:5d:f0|75
1621923951|00:0c:e7:05:62:1a|71
1621840647|00:0c:e7:05:83:2f|76
1621857255|00:0c:e7:05:dc:fe|76
1622011055|00:0c:e7:06:07:bd|68
1622021964|00:0c:e7:06:86:7f|69
1622030889|00:0c:e7:06:91:13|54
1621846060|00:0c:e7:06:fa:63|60
1621930683|00:0c:e7:08:3c:74|68
1621859797|00:0c:e7:08:a6:71|67
1621949555|00:0c:e7:08:db:b7|81
1621840948|00:0c:e7:09:87:36|68
1622011475|00:0c:e7:09:98:d0|63
1621936608|00:0c:e7:09:a6:0e|70
1622026667|00:0c:e7:0a:17:f2|75
1621856531|00:0c:e7:0a:b9:08|53
1622029684|00:0c:e7:0c:11:6a|72
1621859842|00:0c:e7:0c:23:4d|73
1622018594|00:0c:e7:0c:23:84|67
1621945225|00:0c:e7:0c:7a:9c|69
1621944457|00:0c:e7:0d:81:95|68
1622022564|00:0c:e7:0d:ca:f9|73
1622031274|00:0c:e7:0e:a1:ce|75
1622016202|00:0c:e7:0e:c2:64|90
1622010368|00:0c:e7:0f:18:f3|74
1622031590|00:0c:e7:0f:3f:31|79
1622011373|00:0c:e7:0f:8d:41|72
1621930614|00:0c:e7:0f:98:f6|78
1621945602|00:0c:e7:0f:b9:59|64
1621931774|00:0c:e7:10:2d:7b|72
1622012465|00:0c:e7:10:bd:3f|72
1621863703|00:0c:e7:11:b0:43|89
1622017979|00:0c:e7:12:2b:82|84
1621922657|00:0c:e7:12:2f:b4|68
1621850233|00:0c:e7:12:9e:21|78
1622028599|00:0c:e7:12:d2:e5|71
1621946293|00:0c:e7:12:ef:3d|72
1621941569|00:0c:e7:12:f2:fb|72
1621930664|00:0c:e7:13:08:25|61
1621838596|00:0c:e7:13:f0:fa|75
1621938381|00:0c:e7:14:1c:55|77
1621843104|00:0c:e7:14:4b:05|73
1621926495|00:0c:e7:14:5a:ec|56
1621947138|00:0c:e7:14:99:98|72
1621840828|00:0c:e7:14:bb:c4|72
1621843815|00:0c:e7:14:fb:34|78
1621945221|00:0c:e7:15:07:fd|70
1621856538|00:0c:e7:17:24:84|59
1621944917|00:0c:e7:17:74:b6|75
1622025931|00:0c:e7:17:7a:43|76
1621923296|00:0c:e7:17:96:19|79
1622030112|00:0c:e7:17:fb:eb|69
1621928495|00:0c:e7:18:07:8f|69
1621943499|00:0c:e7:18:14:49|75
1621927346|00:0c:e7:18:6f:0d|64
1621858619|00:0c:e7:18:da:6f|79
1621922735|00:0c:e7:19:2d:8d|68
1621860063|00:0c:e7:19:52:b9|71
1621942367|00:0c:e7:1a:b0:bd|58
1622014197|00:0c:e7:1a:dc:76|61
1621859233|00:0c:e7:1b:0f:d4|69
1622024633|00:0c:e7:1b:10:a6|82
1622024450|00:0c:e7:1b:2a:50|71
1621859720|00:0c:e7:1b:57:81|76
1621923489|00:0c:e7:1b:d1:8c|77
1621838601|00:0c:e7:1c:60:12|68
1622028391|00:0c:e7:1c:69:09|67
1621862613|00:0c:e7:1c:7d:3f|69
1621837210|00:0c:e7:1c:81:e1|69
1621841436|00:0c:e7:1c:b9:2f|73
1621860243|00:0c:e7:1d:30:e7|65
1621854866|00:0c:e7:1d:42:1a|68
1622027317|00:0c:e7:1d:75:bf|57
1621846779|00:0c:e7:1d:90:56|69
1622028218|00:0c:e7:1e:41:09|69
1621928973|00:0c:e7:1f:85:a2|66
1621923706|00:0c:e7:1f:8c:72|76
1622027769|00:0c:e7:1f:b5:10|75
1622018762|00:0c:e7:1f:f3:67|86
1621928242|00:0c:e7:20:0c:4f|85
1621849290|00:0c:e7:20:ce:9d|82
1621845459|00:0c:e7:20:d9:7c|68
1621929583|00:0c:e7:20:f0:d1|76
1622026083|00:0c:e7:21:54:42|73
1621850113|00:0c:e7:21:9c:68|87
1622027182|00:0c:e7:21:c4:a3|70
1621840346|00:0c:e7:22:5c:41|63
1621854598|00:0c:e7:22:9d:3b|71
1621930113|00:0c:e7:22:e4:34|72
1622021591|00:0c:e7:23:ea:e0|77
1621937597|00:0c:e7:24:9e:54|71
1621864484|00:0c:e7:25:0d:3a|71
1622018603|00:0c:e7:25:24:a9|67
1621850256|00:0c:e7:26:5e:eb|71
1621851847|00:0c:e7:26:7d:0d|82
1621945364|00:0c:e7:26:81:7f|71
1621847965|00:0c:e7:26:a5:b9|78
1621846744|00:0c:e7:28:79:59|73
1621938610|00:0c:e7:29:62:8f|82
1622012720|00:0c:e7:29:9e:d6|88
1621856983|00:0c:e7:29:e6:37|57
1621844053|00:0c:e7:2b:86:38|66
1621949090|00:0c:e7:2b:96:cb|64
1621938564|00:0c:e7:2b:de:ce|65
1621849128|00:0c:e7:2c:06:62|77
1622022991|00:0c:e7:2c:0f:94|69
1621946790|00:0c:e7:2c:c2:7b|79
1621838602|00:0c:e7:2c:c3:ec|65
1621943697|00:0c:e7:2d:17:8c|84
1622028627|00:0c:e7:2d:d4:55|82
1621855149|00:0c:e7:2d:fd:62|72
1621846388|00:0c:e7:2d:fe:40|85
1621950412|00:0c:e7:2e:32:da|74
1621926146|00:0c:e7:2f:1e:d4|66
1621937086|00:0c:e7:2f:9a:91|79
1621862492|00:0c:e7:2f:a5:08|75
1621931764|00:0c:e7:2f:ae:9a|83
1621938738|00:0c:e7:2f:e6:83|83
1621938808|00:0c:e7:30:80:bb|66
1622026366|00:0c:e7:31:56:76|76
1621922428|00:0c:e7:31:c6:80|72
1621935906|00:0c:e7:32:b9:94|69
1621943217|00:0c:e7:33:31:9b|67
1622028656|00:0c:e7:33:47:5d|68
1622032157|00:0c:e7:33:47:c5|58
1621849061|00:0c:e7:33:93:58|72
1621851179|00:0c:e7:33:ba:93|76
1621937325|00:0c:e7:34:11:13|79
1622032188|00:0c:e7:34:4b:21|59
1621848558|00:0c:e7:34:d0:89|75
1622028704|00:0c:e7:34:ed:eb|71
1621854803|00:0c:e7:35:4d:c6|67
1621948367|00:0c:e7:35:d9:72|72
1622016358|00:0c:e7:36:3d:d0|74
1621944497|00:0c:e7:36:a8:df|73
1621923357|00:0c:e7:36:ae:54|77
1621948489|00:0c:e7:37:72:3b|71
1621930372|00:0c:e7:37:e4:52|64
1621952471|00:0c:e7:38:16:f3|92
1621838610|00:0c:e7:38:44:e8|70
1621858852|00:0c:e7:38:63:69|60
1621937025|00:0c:e7:39:10:1c|73
1621844479|00:0c:e7:39:17:17|64
1621839633|00:0c:e7:39:bd:9d|73
1621863787|00:0c:e7:39:bd:e5|65
1622030567|00:0c:e7:39:e3:a5|66
1621933024|00:0c:e7:3b:32:fd|65
1621941544|00:0c:e7:3b:37:d4|74
1622033386|00:0c:e7:3b:8a:f5|61
1622017907|00:0c:e7:3c:29:8f|70
1621857009|00:0c:e7:3c:99:92|55
1622018454|00:0c:e7:3e:60:23|58
1621863097|00:0c:e7:3e:69:cc|72
1621947018|00:0c:e7:3e:69:e4|77
1621923117|00:0c:e7:3e:9d:62|87
1621923460|00:0c:e7:3f:db:2b|70
1621924229|00:0c:e7:3f:fb:e8|57
1621857864|00:0c:e7:40:9d:04|77
1622015903|00:0c:e7:40:a0:e2|70
1621933634|00:0c:e7:41:50:c4|70
1621931851|00:0c:e7:41:8b:46|79
1621923363|00:0c:e7:41:c4:c4|65
1621930493|00:0c:e7:41:e8:64|67
1621858964|00:0c:e7:42:b2:99|74
1621930437|00:0c:e7:42:f2:a0|74
1621923184|00:0c:e7:44:3e:b7|64
1621845655|00:0c:e7:44:4f:0a|71
1622021649|00:0c:e7:44:e1:ff|77
1621942698|00:0c:e7:44:f4:91|74
1622011009|00:0c:e7:44:f7:ef|70
1621930106|00:0c:e7:44:fb:ec|74
1621945127|00:0c:e7:44:fc:69|52
1621849265|00:0c:e7:45:1a:e3|83
1622025026|00:0c:e7:45:78:5e|76
1621929662|00:0c:e7:45:d2:f2|66
1622014530|00:0c:e7:46:26:ae|70
1621930128|00:0c:e7:47:19:ac|76
1621942690|00:0c:e7:47:e7:8a|66
1621854062|00:0c:e7:48:2a:e1|74
1621942552|00:0c:e7:48:60:01|68
1622021085|00:0c:e7:48:a3:ac|78
1621948338|00:0c:e7:48:dd:11|69
1621856480|00:0c:e7:49:b9:56|55
1621927177|00:0c:e7:49:c7:55|76
1621848678|00:0c:e7:49:f9:94|76
1621929607|00:0c:e7:4a:15:e9|73
1621864848|00:0c:e7:4a:3a:fc|74
1621923531|00:0c:e7:4a:c2:d8|77
1622024446|00:0c:e7:4b:6a:ae|73
1622015935|00:0c:e7:4c:c5:51|79
1621945019|00:0c:e7:4d:15:8f|70
1621850452|00:0c:e7:4d:20:6a|77
1621848067|00:0c:e7:4d:64:82|61
1621843778|00:0c:e7:4d:f2:ef|67
1621944677|00:0c:e7:4e:2d:cf|60
1621928975|00:0c:e7:4e:b1:b8|76
1622020860|00:0c:e7:4f:27:31|74
1621923607|00:0c:e7:4f:40:37|74
1621938351|00:0c:e7:4f:56:06|73
1621859378|00:0c:e7:4f:cb:0a|67
1622023239|00:0c:e7:50:97:d1|77
1621933301|00:0c:e7:50:b3:b5|80
1622010280|00:0c:e7:51:3d:0a|60
1621946414|00:0c:e7:51:5d:44|72
1622030550|00:0c:e7:51:cd:fd|64
1621941593|00:0c:e7:52:42:ff|63
1621943798|00:0c:e7:52:57:2e|73
1622032322|00:0c:e7:52:e5:26|74
1621862501|00:0c:e7:53:22:8d|76
1622026947|00:0c:e7:53:23:82|69
1621923342|00:0c:e7:53:84:a3|70
1622028622|00:0c:e7:53:96:b5|78
1621864276|00:0c:e7:53:b3:a9|58
1621930461|00:0c:e7:54:53:90|65
1621854287|00:0c:e7:54:f2:bd|65
1622010271|00:0c:e7:55:09:a0|61
1622014060|00:0c:e7:55:22:17|72
1621853725|00:0c:e7:55:bf:75|79
1621860859|00:0c:e7:55:e8:ab|78
1621939778|00:0c:e7:56:14:c8|83
1621855549|00:0c:e7:56:55:2d|75
1621860211|00:0c:e7:56:d0:df|77
1621838115|00:0c:e7:56:db:67|62
1622022553|00:0c:e7:56:e8:fa|71
1622017969|00:0c:e7:57:15:9d|72
1621927898|00:0c:e7:57:17:a6|70
1622031468|00:0c:e7:57:20:3c|81
1621947699|00:0c:e7:57:27:22|73
1621857037|00:0c:e7:57:8d:25|70
1621940465|00:0c:e7:57:96:df|88
1621946341|00:0c:e7:58:2f:8f|73
1621932269|00:0c:e7:59:74:44|68
1621841786|00:0c:e7:59:a0:3c|76
1621854233|00:0c:e7:59:b0:1a|78
1621923174|00:0c:e7:59:b4:ee|66
1622026570|00:0c:e7:59:db:c1|74
1621935579|00:0c:e7:5a:59:94|57
1622025641|00:0c:e7:5b:ac:65|84
1621947257|00:0c:e7:5b:d0:ec|65
1622026647|00:0c:e7:5c:98:39|67
1622028136|00:0c:e7:5c:e7:ba|79
1622012787|00:0c:e7:5d:e5:05|75
1622009636|00:0c:e7:5e:35:e6|72
1621946184|00:0c:e7:5e:86:c2|76
1621861029|00:0c:e7:5e:8f:d4|77
1622017869|00:0c:e7:5e:aa:9c|72
1621856982|00:0c:e7:5f:04:fe|53
1622011866|00:0c:e7:5f:44:f3|79
1621854986|00:0c:e7:5f:4a:3e|83
1622028596|00:0c:e7:5f:61:18|69
1621861940|00:0c:e7:60:62:f4|80
1621949207|00:0c:e7:60:bb:95|72
1622018355|00:0c:e7:60:ed:d7|73
1621945124|00:0c:e7:61:11:ec|51
1621935477|00:0c:e7:61:94:3f|72
1621936247|00:0c:e7:61:9c:fa|78
1622027290|00:0c:e7:61:9f:ee|59
1622026422|00:0c:e7:61:a7:26|77
1622011736|00:0c:e7:61:db:0d|70
1621945499|00:0c:e7:61:f0:72|72
1621852737|00:0c:e7:61:f6:f3|77
1621929875|00:0c:e7:61:fd:49|72
1621846977|00:0c:e7:63:26:6c|70
1621949034|00:0c:e7:63:2c:f6|79
1621848086|00:0c:e7:63:c9:d2|60
1621928463|00:0c:e7:63:ed:25|73
1622032708|00:0c:e7:65:26:ac|80
1621844062|00:0c:e7:65:68:76|67
1621930431|00:0c:e7:65:88:d7|78
1621950405|00:0c:e7:65:b1:e8|72
1622027681|00:0c:e7:65:b7:5c|75
1621926316|00:0c:e7:65:f5:f6|74
1621849101|00:0c:e7:66:1e:10|64
1621850575|00:0c:e7:66:44:b2|79
1621923171|00:0c:e7:66:65:6f|72
1621923598|00:0c:e7:66:65:e7|63
1621932234|00:0c:e7:66:b3:41|71
1621859501|00:0c:e7:68:21:01|69
1621929666|00:0c:e7:68:4c:6c|68
1621950319|00:0c:e7:68:cc:59|77
1621860270|00:0c:e7:69:79:06|61
1622031833|00:0c:e7:69:e7:df|65
1621942267|00:0c:e7:6a:0f:ea|76
1621928746|00:0c:e7:6a:c8:a7|72
1621923615|00:0c:e7:6b:0b:b4|79
1621928975|00:0c:e7:6b:2b:8a|73
1621937593|00:0c:e7:6b:dd:75|76
1621843807|00:0c:e7:6c:61:58|71
1622019362|00:0c:e7:6c:b9:89|79
1621844471|00:0c:e7:6d:74:3d|76
1621936183|00:0c:e7:6d:ae:b8|76
1621943683|00:0c:e7:6e:b4:8c|83
1622027284|00:0c:e7:6f:40:a6|58
1621940264|00:0c:e7:6f:f9:da|63
1621945360|00:0c:e7:70:1b:2b|71
1621943819|00:0c:e7:70:53:8e|68
1621841395|00:0c:e7:70:63:61|76
1621863301|00:0c:e7:70:d8:41|71
1621849539|00:0c:e7:70:ea:9a|78
1621854847|00:0c:e7:71:25:79|66
1621945378|00:0c:e7:71:4b:c8|65
1622030973|00:0c:e7:71:4b:f6|76
1622026458|00:0c:e7:71:4c:62|78
1621930725|00:0c:e7:71:5f:91|63
1622029466|00:0c:e7:71:b8:23|80
1621929468|00:0c:e7:71:f4:0e|69
1622027248|00:0c:e7:72:c3:d4|81
1621930803|00:0c:e7:72:d9:23|62
1621923255|00:0c:e7:73:06:60|79
1621948604|00:0c:e7:73:29:df|75
1621847012|00:0c:e7:73:42:7d|73
1621940333|00:0c:e7:73:dd:a2|76
1621857998|00:0c:e7:73:de:78|75
1621928848|00:0c:e7:74:40:83|69
1621938621|00:0c:e7:74:5a:1d|70
1621924058|00:0c:e7:74:83:2f|69
1621926274|00:0c:e7:74:9c:e3|62
1622030034|00:0c:e7:75:ac:2c|71
1622018119|00:0c:e7:76:1a:a0|90
1622027369|00:0c:e7:76:71:d5|66
1621858907|00:0c:e7:76:c0:bb|74
1621927677|00:0c:e7:77:58:3e|82
1621950234|00:0c:e7:77:a1:5e|78
1621950791|00:0c:e7:77:a1:fc|89
1621924078|00:0c:e7:77:a7:83|73
1622010872|00:0c:e7:78:63:77|66
1621849123|00:0c:e7:78:8e:10|67
1621928688|00:0c:e7:78:a2:da|71
1622026449|00:0c:e7:78:f0:19|68
1622027647|00:0c:e7:79:28:08|81
1621864496|00:0c:e7:79:31:07|72
1621946905|00:0c:e7:79:60:06|58
1621949425|00:0c:e7:79:75:c2|71
1622019240|00:0c:e7:7a:1f:61|74
1621928512|00:0c:e7:7a:88:41|71
1621860331|00:0c:e7:7a:8f:3a|78
1621932148|00:0c:e7:7b:08:a7|69
1621858869|00:0c:e7:7b:8b:48|56
1621848088|00:0c:e7:7b:c7:b0|74
1621838605|00:0c:e7:7c:97:17|63
1622024691|00:0c:e7:7d:33:b3|76
1621841118|00:0c:e7:7d:43:99|77
1621863623|00:0c:e7:7d:bd:77|54
1621930446|00:0c:e7:7d:d3:02|75
1621846969|00:0c:e7:7d:d3:10|71
1621946898|00:0c:e7:7d:f5:57|74
1621930376|00:0c:e7:7e:0e:e5|64
1622010861|00:0c:e7:7e:99:18|52
1621936504|00:0c:e7:7e:bd:f7|73
1621846022|00:0c:e7:7f:3a:08|71
1621942375|00:0c:e7:7f:44:ad|65
1622025583|00:0c:e7:7f:69:84|72
1621853266|00:0c:e7:7f:78:17|73
1622026175|00:0c:e7:80:25:38|78
1622027345|00:0c:e7:80:53:d5|68
1622018742|00:0c:e7:80:6a:84|68
1622014880|00:0c:e7:80:89:c1|84
1621858071|00:0c:e7:80:c4:39|76
1622029189|00:0c:e7:81:33:ba|72
1622023845|00:0c:e7:81:57:ca|64
1621949390|00:0c:e7:81:91:73|68
1621946774|00:0c:e7:82:27:f0|74
1621944862|00:0c:e7:82:58:55|74
1621937199|00:0c:e7:82:71:22|78
1621848919|00:0c:e7:83:2d:5d|74
1622028593|00:0c:e7:83:3c:6a|57
1621923499|00:0c:e7:83:77:f8|73
1621857791|00:0c:e7:84:21:8e|78
1621837246|00:0c:e7:84:52:cb|72
1621945215|00:0c:e7:84:85:b0|73
1621945487|00:0c:e7:84:bc:4f|79
1622031954|00:0c:e7:85:08:5e|56
1622025397|00:0c:e7:85:6f:5d|69
1621838374|00:0c:e7:85:f2:1b|66
1621862129|00:0c:e7:86:01:ae|71
1622018686|00:0c:e7:86:3e:af|62
1621950341|00:0c:e7:86:89:fa|73
1621858553|00:0c:e7:86:f4:ba|73
1621924067|00:0c:e7:87:07:9b|72
1621937651|00:0c:e7:87:30:c1|72
1621860372|00:0c:e7:87:3e:44|75
1621922550|00:0c:e7:87:e1:0a|66
1622024675|00:0c:e7:88:29:2d|74
1621936592|00:0c:e7:88:2a:9a|73
1621850088|00:0c:e7:88:52:49|74
1621849198|00:0c:e7:89:33:44|68
1621859322|00:0c:e7:89:99:80|65
1621931677|00:0c:e7:89:ab:b8|62
1621930440|00:0c:e7:89:af:76|63
1622009224|00:0c:e7:89:e7:20|77
1621859052|00:0c:e7:8a:a4:61|65
1621850207|00:0c:e7:8a:cc:3c|75
1622015724|00:0c:e7:8b:60:6a|63
1621843770|00:0c:e7:8b:a8:70|71
1622028523|00:0c:e7:8c:11:c3|79
1622026683|00:0c:e7:8c:27:00|67
1621844608|00:0c:e7:8c:32:23|71
1622025948|00:0c:e7:8c:ab:8c|74
1621860349|00:0c:e7:8c:d0:07|57
1622026824|00:0c:e7:8c:f6:9f|74
1621931697|00:0c:e7:8d:4f:92|73
1621860737|00:0c:e7:8d:5d:c9|77
1621837992|00:0c:e7:8d:67:0f|65
1622030126|00:0c:e7:8d:77:08|72
1621930555|00:0c:e7:8d:96:92|74
1621855999|00:0c:e7:8e:b7:bd|64
1621930969|00:0c:e7:8e:d1:c6|77
1621857109|00:0c:e7:8e:ed:5b|59
1621945116|00:0c:e7:8f:16:e8|54
1622029957|00:0c:e7:8f:4e:02|79
1621934561|00:0c:e7:90:f8:0c|56
1621948218|00:0c:e7:91:6f:1a|64
1621846429|00:0c:e7:92:33:ac|74
1621944759|00:0c:e7:92:34:f4|73
1622026052|00:0c:e7:92:e0:30|80
1621949909|00:0c:e7:93:66:10|91
1621945256|00:0c:e7:94:09:ca|70
1621938149|00:0c:e7:94:e7:bc|74
1621929251|00:0c:e7:95:67:27|71
1622014188|00:0c:e7:96:53:5d|55
1622026231|00:0c:e7:96:7c:c0|76
1621862993|00:0c:e7:96:dd:2b|70
1621930128|00:0c:e7:96:e4:aa|71
1621931770|00:0c:e7:96:ef:a7|72
1621924024|00:0c:e7:97:21:6b|70
1621849194|00:0c:e7:97:28:17|83
1622027174|00:0c:e7:98:1a:a5|79
1621932136|00:0c:e7:98:75:bf|71
1621923585|00:0c:e7:98:8f:90|66
1621841820|00:0c:e7:98:b2:68|74
1622027943|00:0c:e7:99:da:99|79
1621946561|00:0c:e7:99:df:39|70
1621848668|00:0c:e7:9a:6f:e4|69
1621932024|00:0c:e7:9a:75:7d|67
1621858571|00:0c:e7:9a:cc:ad|73
1621923530|00:0c:e7:9b:18:55|83
1621862008|00:0c:e7:9b:e7:e7|72
1621856730|00:0c:e7:9c:0e:23|59
1621846909|00:0c:e7:9c:24:e6|76
1621924081|00:0c:e7:9c:25:1d|69
1622030487|00:0c:e7:9c:2f:3c|63
1621946316|00:0c:e7:9d:7e:42|68
1621944155|00:0c:e7:9d:f1:c6|72
1621922808|00:0c:e7:9d:f3:97|78
1622016487|00:0c:e7:9e:5c:12|72
1622028539|00:0c:e7:9e:79:7a|69
1621862806|00:0c:e7:9f:32:3f|78
1621861575|00:0c:e7:9f:51:7f|70
1622010853|00:0c:e7:9f:b4:c8|60
1622010073|00:0c:e7:9f:cb:48|72
1621864767|00:0c:e7:a0:04:11|74
1621947082|00:0c:e7:a0:16:10|70
1621941585|00:0c:e7:a0:3c:1b|63
1621927617|00:0c:e7:a0:45:9c|65
1621950356|00:0c:e7:a0:e8:50|75
1621850710|00:0c:e7:a1:64:de|81
1622022678|00:0c:e7:a2:19:9f|70
1621933004|00:0c:e7:a2:8a:13|68
1621948726|00:0c:e7:a2:99:0b|67
1622021066|00:0c:e7:a2:ba:0b|76
1621928745|00:0c:e7:a2:c0:cc|74
1621843398|00:0c:e7:a3:4a:a6|63
1621854224|00:0c:e7:a4:10:b8|63
1621934417|00:0c:e7:a4:42:1e|74
1621923636|00:0c:e7:a4:46:fd|68
1621844454|00:0c:e7:a4:84:cc|72
1621853321|00:0c:e7:a4:fa:25|68
1621938581|00:0c:e7:a5:3f:76|65
1621927103|00:0c:e7:a5:60:6a|70
1622032168|00:0c:e7:a5:72:6c|60
1621842143|00:0c:e7:a5:80:55|74
1621934202|00:0c:e7:a6:3e:36|72
1621860952|00:0c:e7:a7:43:75|59
1621854504|00:0c:e7:a7:87:da|76
1622034240|00:0c:e7:a7:cc:fb|81
1622027320|00:0c:e7:a8:08:f3|76
1621932144|00:0c:e7:a8:b6:fa|68
1621859684|00:0c:e7:a8:cd:6c|72
1621862322|00:0c:e7:a8:d5:98|73
1621854874|00:0c:e7:aa:15:bb|72
1621937446|00:0c:e7:aa:46:9c|73
1621943018|00:0c:e7:aa:5d:54|86
1621849066|00:0c:e7:aa:5d:89|67
1621858845|00:0c:e7:ab:14:6d|61
1621860069|00:0c:e7:ab:dd:0f|74
1621931298|00:0c:e7:ac:33:b1|60
1621935664|00:0c:e7:ac:9a:9c|69
1621836940|00:0c:e7:ac:d6:0a|72
1621863444|00:0c:e7:ad:b7:81|67
1621924217|00:0c:e7:ae:bb:31|74
1621931111|00:0c:e7:ae:bc:7d|74
1622028570|00:0c:e7:ae:f0:8c|77
1621862222|00:0c:e7:af:14:36|75
1621932527|00:0c:e7:b0:06:34|79
1622024465|00:0c:e7:b0:09:8a|70
1622023914|00:0c:e7:b0:8f:68|76
1621842163|00:0c:e7:b0:f4:a2|75
1621930855|00:0c:e7:b1:42:4a|60
1621848057|00:0c:e7:b2:24:a5|76
1621923041|00:0c:e7:b3:81:98|74
1621838391|00:0c:e7:b4:d2:31|61
1622028264|00:0c:e7:b5:60:6d|74
1621859477|00:0c:e7:b5:78:69|74
1621855005|00:0c:e7:b5:7e:cf|71
1621931077|00:0c:e7:b5:93:8e|75
1621857742|00:0c:e7:b6:00:35|76
1622015713|00:0c:e7:b7:02:22|69
1621854269|00:0c:e7:b7:21:9b|81
1621858424|00:0c:e7:b7:36:24|81
1621943059|00:0c:e7:b7:eb:1e|75
1621859805|00:0c:e7:b8:38:ff|70
1621923219|00:0c:e7:b8:39:16|76
1621853534|00:0c:e7:b9:0b:df|68
1621944527|00:0c:e7:b9:19:8d|67
1622022103|00:0c:e7:b9:64:f3|69
1621942757|00:0c:e7:b9:65:fd|69
1621860324|00:0c:e7:b9:67:78|56
1622032506|00:0c:e7:b9:ed:31|71
1622033431|00:0c:e7:b9:f7:ef|53
1621922956|00:0c:e7:ba:85:6c|68
1621854309|00:0c:e7:ba:e4:a8|62
1622018536|00:0c:e7:bb:34:0e|72
1621947172|00:0c:e7:bb:8b:9f|62
1622028628|00:0c:e7:bb:8e:b5|72
1622024524|00:0c:e7:bb:b1:06|67
1621853745|00:0c:e7:bc:7f:04|62
1621837047|00:0c:e7:bc:93:ff|75
1622021098|00:0c:e7:bc:95:2b|74
1622016026|00:0c:e7:bc:b5:61|63
1621923351|00:0c:e7:bd:b4:37|72
1621837752|00:0c:e7:bd:de:89|76
1622016812|00:0c:e7:bd:e4:f2|84
1621934686|00:0c:e7:be:6a:5f|62
1621860470|00:0c:e7:bf:22:50|69
1622028634|00:0c:e7:bf:29:40|83
1621853402|00:0c:e7:bf:b5:0b|62
1621931540|00:0c:e7:bf:f2:21|66
1622021719|00:0c:e7:c0:1e:55|75
1621928824|00:0c:e7:c0:3d:fa|77
1622008819|00:0c:e7:c0:6f:11|60
1621935232|00:0c:e7:c0:d5:8d|84
1621838229|00:0c:e7:c1:1a:a2|64
1621863347|00:0c:e7:c1:56:22|71
1621862966|00:0c:e7:c1:6d:20|71
1621931825|00:0c:e7:c1:cd:8b|70
1621923588|00:0c:e7:c2:1d:0c|73
1622033682|00:0c:e7:c2:8d:87|70
1621862683|00:0c:e7:c2:ab:1e|70
1622016688|00:0c:e7:c2:bd:25|90
1622027947|00:0c:e7:c2:df:30|82
1621936229|00:0c:e7:c3:75:ab|57
1621860291|00:0c:e7:c3:78:12|59
1621842062|00:0c:e7:c3:c5:66|76
1621936672|00:0c:e7:c5:0c:08|64
1622009161|00:0c:e7:c5:3d:6a|68
1621938681|00:0c:e7:c5:5a:6e|64
1621849070|00:0c:e7:c5:73:52|63
1622027124|00:0c:e7:c5:db:0b|74
1621841861|00:0c:e7:c6:1d:70|79
1621935715|00:0c:e7:c6:3f:8e|80
1621948469|00:0c:e7:c6:94:fe|71
1621838571|00:0c:e7:c6:c3:1b|67
1621930834|00:0c:e7:c7:20:8a|69
1621842082|00:0c:e7:c7:fd:73|75
1621846838|00:0c:e7:c8:ad:8d|69
1621854279|00:0c:e7:c9:0e:9f|61
1622028544|00:0c:e7:c9:50:54|71
1621924357|00:0c:e7:c9:61:17|72
1621855780|00:0c:e7:c9:62:da|82
1622027659|00:0c:e7:c9:91:81|84
1621922929|00:0c:e7:c9:a2:91|61
1621923828|00:0c:e7:c9:a5:f2|70
1621860365|00:0c:e7:c9:b5:14|76
1621930407|00:0c:e7:ca:04:89|75
1622021354|00:0c:e7:ca:55:bb|73
1622024877|00:0c:e7:ca:5b:0e|83
1621849092|00:0c:e7:cb:a2:6b|65
1621936957|00:0c:e7:cb:fa:8a|74
1622012721|00:0c:e7:cc:3e:18|76
1621836690|00:0c:e7:cc:76:47|81
1622011980|00:0c:e7:cc:79:7b|72
1621864605|00:0c:e7:cc:9d:88|72
1621948706|00:0c:e7:cd:24:c4|74
1621949035|00:0c:e7:cd:30:d1|72
1621928507|00:0c:e7:cd:36:82|83
1621946635|00:0c:e7:cd:6e:53|73
1621941316|00:0c:e7:cd:73:2b|77
1621854869|00:0c:e7:cd:f0:3a|82
1621856030|00:0c:e7:ce:d0:ad|68
1621838532|00:0c:e7:ce:ee:3c|74
1622011861|00:0c:e7:cf:37:4b|64
1621858963|00:0c:e7:cf:5b:a2|73
1621863102|00:0c:e7:cf:e2:b0|73
1621856974|00:0c:e7:cf:fb:da|61
1621838573|00:0c:e7:d0:b1:7c|69
1622010645|00:0c:e7:d0:fd:5e|66
1622025948|00:0c:e7:d1:1e:4d|70
1621849130|00:0c:e7:d1:48:52|71
1621844813|00:0c:e7:d1:6b:79|78
1622020295|00:0c:e7:d2:13:3a|92
1621927177|00:0c:e7:d2:64:20|88
1621930908|00:0c:e7:d2:93:ea|80
1621853144|00:0c:e7:d2:ea:b8|75
1621849119|00:0c:e7:d2:eb:a3|68
1621943711|00:0c:e7:d3:42:4d|59
1622010147|00:0c:e7:d3:ae:65|73
1621939492|00:0c:e7:d3:b8:c2|83
1622016781|00:0c:e7:d5:50:9f|64
1622025153|00:0c:e7:d5:d2:64|76
1621849229|00:0c:e7:d7:07:af|77
1621923239|00:0c:e7:d7:37:69|60
1621930536|00:0c:e7:d7:ae:a3|70
1622024677|00:0c:e7:d8:b9:05|74
1621942192|00:0c:e7:d8:bf:e5|75
1621948065|00:0c:e7:d9:0b:af|74
1622030745|00:0c:e7:d9:3b:f2|75
1621950421|00:0c:e7:d9:7e:3d|66
1622016695|00:0c:e7:da:be:7c|62
1622033779|00:0c:e7:db:67:5a|59
1621845647|00:0c:e7:db:8a:ab|70
1622030042|00:0c:e7:dc:13:ec|68
1621846105|00:0c:e7:dc:9b:de|75
1622017846|00:0c:e7:dd:89:74|69
1621922977|00:0c:e7:dd:b2:29|58
1622009056|00:0c:e7:de:07:56|71
1621948830|00:0c:e7:de:56:1f|72
1621928842|00:0c:e7:de:bf:1e|74
1621923762|00:0c:e7:de:df:9f|64
1621949212|00:0c:e7:de:e0:dc|70
1622017966|00:0c:e7:df:09:9d|66
1622028500|00:0c:e7:df:1c:5f|68
1622024796|00:0c:e7:df:58:f1|75
1621853544|00:0c:e7:e0:95:20|76
1621950467|00:0c:e7:e1:28:7a|79
1621923375|00:0c:e7:e2:5d:c3|76
1622014665|00:0c:e7:e3:5f:06|86
1621844058|00:0c:e7:e3:e7:76|66
1621860843|00:0c:e7:e4:03:d4|77
1621838528|00:0c:e7:e4:3b:5c|79
1622024008|00:0c:e7:e4:43:b9|63
1621838027|00:0c:e7:e4:79:98|67
1621944818|00:0c:e7:e4:af:ce|78
1621862127|00:0c:e7:e5:49:59|76
1621927112|00:0c:e7:e5:7a:e7|72
1621928584|00:0c:e7:e5:96:7f|69
1622010766|00:0c:e7:e5:a7:2f|54
1622010269|00:0c:e7:e5:be:c7|79
1621922488|00:0c:e7:e5:dd:7f|70
1621862894|00:0c:e7:e6:1e:fe|73
1621949398|00:0c:e7:e6:4e:9b|68
1622024497|00:0c:e7:e6:94:50|74
1621853790|00:0c:e7:e6:bf:23|72
1621948361|00:0c:e7:e8:0a:a1|72
1621838562|00:0c:e7:e8:20:39|70
1621857065|00:0c:e7:e8:5a:39|54
1621938389|00:0c:e7:e8:5f:44|73
1621850837|00:0c:e7:e8:af:64|76
1621940343|00:0c:e7:e9:2f:d9|75
1622017397|00:0c:e7:ea:29:7f|91
1621861101|00:0c:e7:ea:59:58|73
1621857196|00:0c:e7:ea:7b:78|62
1621931343|00:0c:e7:ea:87:66|63
1621946598|00:0c:e7:eb:0a:49|69
1622018434|00:0c:e7:eb:21:20|60
1621837202|00:0c:e7:eb:46:db|69
1621934601|00:0c:e7:eb:61:8f|70
1621857579|00:0c:e7:ec:b8:61|57
1621846772|00:0c:e7:ec:e9:90|70
1621945252|00:0c:e7:ed:9b:24|70
1621861073|00:0c:e7:ed:9c:b9|75
1622033311|00:0c:e7:ed:bd:7c|80
1621863914|00:0c:e7:ee:89:62|75
1622033051|00:0c:e7:ef:1d:58|74
1621938641|00:0c:e7:ef:2a:75|68
1621930505|00:0c:e7:ef:d4:cc|72
1621845144|00:0c:e7:f0:5c:51|76
1621837629|00:0c:e7:f0:92:1f|75
1622018205|00:0c:e7:f0:e4:9c|87
1621930775|00:0c:e7:f0:ed:7e|57
1621859599|00:0c:e7:f1:02:64|77
1621928202|00:0c:e7:f1:52:07|71
1622022779|00:0c:e7:f1:6f:95|85
1621863250|00:0c:e7:f1:be:88|66
1621931781|00:0c:e7:f1:cd:76|76
1622016574|00:0c:e7:f2:38:dc|71
1621837997|00:0c:e7:f2:df:24|67
1621936220|00:0c:e7:f3:1e:af|79
1622033410|00:0c:e7:f3:c5:5c|56
1622028583|00:0c:e7:f4:20:19|66
1621863049|00:0c:e7:f5:62:d7|81
1621860728|00:0c:e7:f5:7b:21|77
1621928830|00:0c:e7:f5:a9:f5|71
1622017745|00:0c:e7:f6:09:ac|52
1621864155|00:0c:e7:f6:22:9f|73
1622018726|00:0c:e7:f6:a2:8c|70
1622028606|00:0c:e7:f7:25:41|76
1621943631|00:0c:e7:f7:30:57|66
1622030881|00:0c:e7:f7:64:97|56
1621930622|00:0c:e7:f7:a4:e6|75
1621850211|00:0c:e7:f7:e6:0f|72
1621841853|00:0c:e7:f8:95:03|74
1622028373|00:0c:e7:f9:26:a5|71
1622028408|00:0c:e7:f9:45:6d|85
1622027740|00:0c:e7:f9:df:a3|66
1622028815|00:0c:e7:fa:7e:ca|60
1622018258|00:0c:e7:fb:fc:7a|75
1621841824|00:0c:e7:fc:5c:68|81
1622029230|00:0c:e7:fc:ad:b5|77
1622029109|00:0c:e7:fc:c8:8e|71
1621930112|00:0c:e7:fd:b3:df|71
1622012108|00:0c:e7:fd:b6:1b|81
1622018706|00:0c:e7:fd:c8:d0|65
1621927400|00:0c:e7:fe:13:42|64
1621859398|00:0c:e7:fe:76:57|81
1621938700|00:0c:e7:ff:85:3c|72
1621937157|00:0c:e7:ff:cd:69|75
1621837742|00:21:84:37:49:18|71
1622013371|00:23:0d:94:ba:45|67
1622022834|00:23:15:d1:c3:3d|79
1621844494|00:23:15:d1:c3:3d|76
1621936713|00:23:a7:48:a2:c8|72
1621927055|00:26:69:01:9e:90|87
1622013204|00:28:f8:2b:3a:45|84
1621924078|00:28:f8:2b:3a:45|81
1622012996|00:28:f8:2b:3a:46|79
1621923927|00:28:f8:2b:3a:46|83
1621933275|00:28:f8:71:23:48|75
1622012942|00:28:f8:a0:5f:cd|86
1621923065|00:28:f8:a0:5f:cd|79
1621929060|00:32:0c:6f:65:0a|76
1622008841|00:7c:2d:ed:47:c4|74
1621935989|00:7c:2d:ed:47:c4|72
1621924281|00:8a:fe:e6:ab:01|78
1621923897|00:9d:6b:37:5f:0d|78
1622009499|00:ae:fa:56:cc:3c|67
1621838463|00:ae:fa:56:cc:3c|75
1621922882|00:ae:fa:56:cc:3c|66
1622015451|00:b5:d0:43:ef:a1|78
1621923232|00:b5:d0:43:ef:a1|68
1622020793|00:bb:60:b8:26:26|73
1622008974|00:e1:8c:ba:cb:c9|78
1621836584|00:e1:8c:ba:cb:c9|80
1621923358|00:e1:8c:ba:cb:c9|81
1622009149|00:e1:8c:ba:cb:ca|78
1621844914|00:e1:8c:f2:db:1d|80
1621839809|00:ec:0a:4a:48:36|83
1621845426|01:47:62:12:68:14|77
1621849359|01:5a:1e:9d:50:13|85
1621842902|01:65:a4:5f:4e:7d|77
1621856448|01:82:6d:57:a9:43|74
1621838124|01:a4:50:f1:dc:ee|82
1621948489|01:c9:3a:91:34:a2|71
1622020828|03:13:07:78:3e:8c|63
1621857990|04:54:f6:4c:ff:ca|82
1621927924|04:b4:29:e2:5d:23|75
1621850475|04:b4:29:e2:5d:23|90
1621937654|04:ba:8d:bd:77:f7|68
1621857059|04:c2:3e:97:7d:77|86
1622017306|04:c8:07:14:72:ac|75
1622023047|04:d3:b0:8f:79:fb|75
1621847577|04:d3:b0:8f:79:fb|83
1621951034|04:d3:b0:91:05:19|90
1622018584|04:d6:aa:0e:68:12|82
1621842086|04:d6:aa:0f:30:00|82
1622023178|04:d6:aa:1f:68:71|75
1622015506|04:d6:aa:22:9d:01|78
1622012619|04:d6:aa:35:8e:52|88
1621860444|04:d6:aa:3b:68:ab|81
1621868062|04:d6:aa:41:21:f7|94
1622011129|04:d6:aa:53:53:0f|81
1622012686|04:d6:aa:57:50:a9|77
1622014872|04:d6:aa:68:2a:b1|92
1621839784|04:d6:aa:68:2a:b1|69
1621933060|04:d6:aa:6e:b9:2d|65
1622012704|04:d6:aa:71:42:e1|85
1621836047|04:d6:aa:71:42:e1|86
1621841829|04:d6:aa:9b:fd:43|78
1622025325|04:d6:aa:ac:07:a9|79
1621856643|04:d6:aa:b2:ac:f8|74
1622021173|04:d6:aa:e2:02:b3|87
1621926330|04:d6:aa:fa:aa:64|80
1621836078|04:d6:aa:fa:aa:64|83
1621922879|04:e5:36:32:d3:38|77
1621847428|04:e5:36:32:d3:38|81
1622008922|04:ed:33:b4:0c:99|87
1621931829|04:ed:33:b4:0c:99|75
1622009151|04:ed:33:b4:55:7d|77
1621954636|04:f1:28:60:01:fe|88
1621850801|05:0d:56:8b:a3:af|72
1622013012|05:5b:7d:5c:02:b9|86
1621932109|05:9f:5b:42:4c:bc|73
1621838391|05:b8:12:10:af:cb|71
1622022689|07:0a:2c:e9:14:6f|72
1621837051|07:34:b5:6b:8e:24|76
1622033743|07:73:b9:49:21:d0|73
1621931591|07:93:18:b2:1a:80|68
1621929371|07:99:f4:72:45:bb|69
1621929247|08:58:74:79:bf:33|81
1621837371|08:bf:a0:86:62:24|83
1621846544|08:bf:a0:86:b3:c8|75
1622031821|08:c5:e1:0b:3c:74|76
1621922452|08:c5:e1:0c:ff:06|77
1621943172|08:c5:e1:16:e3:48|61
1622031279|08:c5:e1:19:81:72|76
1622010823|08:c5:e1:25:31:82|77
1621843286|08:c5:e1:38:21:27|72
1621837653|08:c5:e1:42:40:4e|74
1621946578|08:c5:e1:45:b7:54|79
1622027901|08:c5:e1:90:81:e1|75
1621949075|08:c5:e1:b2:ea:71|58
1621933471|08:c5:e1:b3:d4:86|83
1621927517|08:c5:e1:ee:9d:ac|78
1621922958|08:c5:e1:f5:a9:e4|75
1622015935|08:f6:9c:1e:79:d1|74
1621842193|09:6c:af:b7:8d:2c|64
1621942125|09:92:af:64:95:11|61
1621850465|0b:3b:0b:9e:37:54|79
1621854136|0b:59:66:a2:fb:bb|77
1621846093|0b:ae:da:79:ad:c7|61
1621853772|0b:c7:fb:76:0b:21|75
1622023506|0c:1e:72:29:e0:d5|78
1621924371|0c:2c:54:62:9b:fd|74
1621864266|0c:2c:54:62:9b:fd|76
1621948012|0c:54:15:a8:3c:07|87
1622031068|0c:54:15:a8:3c:07|88
1621861515|0c:54:15:a8:3c:07|91
1621844847|0c:70:4a:db:bf:d9|73
1621936048|0c:84:70:a7:0c:cc|81
1621925498|0c:8c:24:bf:0f:65|71
1622030189|0c:8c:24:bf:12:72|70
1622009887|0c:96:e6:76:6e:eb|79
1621927800|0c:96:e6:76:6e:eb|79
1622028731|0c:96:e6:76:6f:a7|82
1621935960|0c:96:e6:76:6f:a7|76
1621945531|0c:f3:46:ce:ad:6b|75
1621836021|0c:f3:46:da:25:9d|86
1621851101|0d:16:cb:c2:d6:01|69
1621947054|0d:2b:77:42:b1:9e|74
1621846314|0d:53:82:a6:82:39|75
1621850768|0d:55:b2:18:17:92|79
1622020452|0d:5e:5c:f3:e0:cd|71
1621924520|0d:73:31:c8:51:8d|76
1621839571|0d:bb:57:d1:a6:c4|80
1621838323|0d:cb:85:ee:60:77|70
1621850989|0d:ea:4b:ba:b7:61|74
1621940146|0d:f4:a7:2b:eb:50|79
1621839464|0d:f6:f1:f6:39:5b|72
1621837778|0f:27:69:a5:39:3c|75
1621838791|0f:2e:f0:d9:ad:00|75
1621855523|0f:52:3b:7c:ae:d4|71
1621949293|0f:94:d5:1e:3c:b4|69
1621927261|0f:d0:9a:49:b8:5f|77
1621946250|0f:f8:f5:b9:d9:1e|60
1622017281|10:02:b5:46:93:5d|70
1622009279|10:02:b5:50:2c:65|74
1622011265|10:02:b5:50:2c:66|71
1622021885|10:28:d5:a3:bc:0e|67
1622017738|10:32:7e:b2:2a:d6|82
1622009539|10:3f:44:1a:3f:b3|65
1621950495|10:3f:44:25:21:0b|83
1621946909|10:3f:44:ea:54:fb|92
1621944839|10:41:7f:39:23:31|84
1621868323|10:41:7f:db:c7:9a|89
1621862134|10:44:00:39:7b:c9|76
1622029622|10:44:00:db:24:32|70
1621928549|10:50:a5:8a:9c:d5|76
1621923558|10:63:c8:31:5c:ab|79
1621840446|10:75:9b:92:27:f0|71
1621843673|10:96:dc:1f:be:5b|68
1621947560|10:a9:a3:22:64:de|81
1621947549|10:bc:97:b6:c7:cd|72
1622019265|10:bc:97:b6:c7:cd|74
1621932882|10:d7:b0:95:71:d6|84
1621946312|10:e9:53:54:47:62|68
1621844011|10:e9:53:54:47:62|75
1621850017|11:96:73:a9:c1:5a|75
1622020201|11:b6:b1:0c:61:77|71
1622014672|11:e8:35:4d:c7:f9|68
1621840199|11:f0:8f:87:31:d6|66
1621935192|13:38:4d:bd:71:ef|78
1621849919|13:54:23:ed:64:67|76
1621946778|13:78:ab:b3:ae:f3|73
1622022989|13:8e:43:2d:ef:e1|78
1621935433|13:ed:b3:9c:76:0a|73
1621952842|14:12:d5:f8:93:17|89
1621931412|14:1f:78:e1:97:31|79
1622017147|14:20:5e:e9:17:7a|72
1621840373|14:32:d1:72:61:5f|82
1621930795|14:4f:8a:c2:9b:92|78
1621854378|14:4f:8a:c2:9b:92|81
1621939949|14:56:8e:76:31:29|78
1621867009|14:56:8e:b3:ad:8c|92
1622020011|14:7d:da:42:8b:32|78
1621928589|14:a5:1a:df:ea:83|72
1621928407|14:ab:c5:3c:8d:fe|72
1621857114|14:ab:c5:e0:f6:55|79
1621857224|14:f6:d8:04:b1:3b|89
1621855933|14:f6:d8:e8:64:c2|85
1621864469|14:f6:d8:ea:4c:73|88
1621949234|15:66:68:6c:da:c3|70
1621862489|15:85:a9:ee:94:33|78
1621852855|15:9e:15:94:5f:c2|66
1621842007|15:a4:58:6f:d9:ed|86
1621945984|15:b8:70:9a:c2:67|74
1621846709|15:dc:c9:38:74:f8|69
1621853250|17:24:f0:3b:dc:fb|73
1621940293|17:6f:0d:79:94:06|79
1621945461|17:8c:d5:39:37:e5|77
1621929599|17:ab:49:54:71:d1|90
1622010339|17:c6:04:27:bd:af|73
1621855518|17:d8:8e:ab:9a:d2|73
1621863654|18:17:85:7c:f7:a7|74
1621950674|18:3a:2d:21:96:c5|91
1622012676|18:3e:ef:c0:6f:98|72
1621930556|18:3e:ef:c5:75:f3|75
1622012947|18:3e:ef:c5:75:f3|79
1622017535|18:47:3d:e4:68:0b|82
1622012094|18:47:3d:e4:91:f7|74
1621857427|18:47:3d:e4:91:f7|73
1621935413|18:47:3d:e4:91:f7|84
1621840653|18:49:85:52:4c:c8|71
1622025445|18:56:80:35:8b:ad|74
1621944852|18:56:80:35:8c:98|82
1621937356|18:56:80:35:8d:fb|81
1622011966|18:a7:65:e7:a0:d2|68
1621851503|18:cc:18:9b:9e:2a|67
1621922502|18:cc:18:9b:9e:2b|66
1621851945|18:cc:18:9b:9e:2b|66
1622014499|18:cc:18:b8:8d:8c|86
1622029231|18:d8:69:62:c4:67|92
1622012619|18:db:8e:12:83:46|68
1622027134|18:f6:43:1c:6b:4b|76
1621948712|18:fa:93:2d:73:e3|67
1621923356|19:4f:27:30:3e:f8|74
1621949448|19:70:87:ab:09:8e|72
1621948700|19:83:65:cf:b1:52|70
1621837758|19:89:6a:6f:12:ee|71
1621855624|19:98:62:fa:11:a2|79
1621852267|19:b0:60:a5:ba:8c|79
1621841789|1b:1b:e4:e6:f9:e7|76
1622012881|1b:2d:38:8c:6b:29|70
1621852781|1b:aa:78:18:7b:32|80
1622023269|1c:10:e4:0f:48:39|65
1622029371|1c:1a:c0:21:43:e9|80
1621943751|1c:1a:c0:21:43:e9|83
1622020137|1c:1b:57:14:f1:c6|90
1621837757|1c:1f:7a:04:9b:a4|69
1622020461|1c:42:7d:90:43:fb|68
1622012059|1c:97:08:1d:dc:19|80
1621857770|1c:ab:94:df:4c:7b|79
1621924290|1c:b4:c6:33:35:20|83
1622010627|1c:b7:96:f7:c1:2b|84
1621951092|1c:b7:96:f7:c1:2b|89
1621837044|1c:b7:96:f7:c1:2b|84
1622023009|1c:cc:d6:fa:18:ff|76
1622022693|1c:ce:59:52:e2:f8|73
1621943908|1d:21:85:52:ab:57|73
1621947380|1d:74:36:33:13:7e|79
1621948510|1d:9a:4a:83:dd:b3|72
1621927661|1d:9d:d0:1a:78:e6|85
1621933815|1d:9e:12:82:8a:7a|79
1621852823|1d:a7:2c:e3:6d:c9|78
1621850275|1d:b0:85:6b:0d:98|73
1621947134|1d:b5:5d:19:20:7e|84
1621853847|1d:d5:dc:4c:74:bb|70
1621946662|1d:d7:a6:df:db:c5|78
1621936687|1f:37:0b:a3:f0:c7|83
1622032353|1f:b7:ff:40:02:2d|81
1622031295|20:31:1c:de:3c:e7|90
1621851260|20:43:54:7e:85:1b|69
1621927325|20:65:be:ec:48:0b|78
1621853796|20:79:18:30:2d:75|76
1621852601|20:79:18:30:2d:76|76
1621844794|20:79:18:7f:09:90|90
1622022985|20:89:22:73:92:02|75
1621866259|20:a6:0c:30:2f:19|70
1621851776|20:f4:78:5f:a7:3e|91
1621839399|21:0b:c3:25:5e:7e|75
1621924650|21:28:8b:23:e0:29|81
1621854550|21:d3:02:39:7e:53|71
1622023804|23:df:1e:bb:90:57|66
1621840203|23:f4:51:44:13:f3|71
1621863043|24:17:26:5b:73:30|76
1622024180|24:18:1d:09:da:56|70
1622018537|24:18:1d:0a:05:13|66
1622023187|24:18:1d:17:3e:65|70
1621930703|24:18:1d:1d:c0:95|79
1622017052|24:18:1d:83:a5:e4|90
1622018927|24:18:1d:8c:86:db|75
1621922741|24:18:1d:8c:86:db|83
1621850252|24:18:1d:8c:86:db|84
1621941886|24:18:1d:92:2c:71|65
1622010934|24:18:1d:aa:40:de|79
1621929723|24:18:1d:aa:40:de|78
1622012087|24:18:1d:fc:01:80|76
1621842248|24:2a:24:4d:a5:b4|75
1621926160|24:77:03:25:42:f4|69
1621948796|24:b3:e7:88:0d:76|59
1622024100|24:ba:d6:31:64:b7|84
1621952888|24:c2:42:b7:21:6b|90
1621866953|24:db:ed:f6:7d:f2|87
1621940134|24:e3:14:49:87:16|76
1622022326|24:e3:14:49:87:16|86
1621838328|24:e3:14:49:87:16|69
1622020170|24:ee:9a:06:ae:05|94
1621848518|24:ee:9a:06:ae:05|89
1622026712|24:ee:9a:3a:90:ad|72
1621837215|24:ee:9a:53:b0:1a|66
1621943845|24:ee:9a:65:e8:5c|71
1622015492|24:ee:9a:7a:a1:66|70
1621946346|24:ff:be:da:9d:d7|62
1621936660|25:03:d0:ac:2b:d1|63
1621837553|25:2c:b8:ae:95:9a|78
1621851237|25:a8:87:8e:e3:ee|77
1621855312|25:af:51:6c:57:93|68
1621854998|25:b5:84:fc:ce:5b|75
1621929068|25:c3:98:56:48:c3|83
1621928599|25:d9:7e:16:af:84|74
1621851544|25:eb:25:b8:09:ec|75
1621941272|25:fd:10:c2:7c:46|71
1621923336|27:06:c7:60:a6:14|80
1621850929|27:17:77:ef:1a:4c|69
1621839657|27:1d:55:46:cb:18|67
1621927956|27:2d:78:bf:aa:27|75
1621927105|27:43:ec:40:04:44|77
1622031227|27:52:db:49:7e:d3|81
1621935666|27:5a:34:12:7a:14|80
1621947534|27:75:f5:21:85:10|79
1621861215|27:f4:b7:35:03:d8|73
1622026625|28:02:d8:b1:3b:a3|90
1621934188|28:16:a8:71:f7:46|79
1621933809|28:2a:19:e6:75:3a|73
1621837247|28:33:34:e8:78:45|56
1621844083|28:39:5e:d7:66:99|86
1621842191|28:56:66:02:3a:cc|70
1621840561|28:56:c9:bf:26:0d|68
1621841481|28:5d:1f:27:30:79|79
1621922479|28:6a:ba:d3:9b:29|75
1621838713|28:7f:cf:de:a4:d1|69
1622020310|28:7f:cf:de:a4:d2|64
1621836024|28:fb:d3:fa:8e:c1|79
1621931302|29:17:66:d3:55:45|71
1621936364|29:18:09:a6:10:f8|68
1621929729|29:1c:ca:1c:9e:3d|67
1621941067|29:29:d3:25:78:2f|69
1621933035|29:44:75:a7:6f:a0|73
1621946264|29:54:22:7f:06:06|56
1622021750|29:ce:42:72:0c:58|72
1621947810|29:d2:06:56:df:92|81
1621850962|29:f8:14:52:73:fd|77
1622021566|2b:03:e4:b3:6c:cb|75
1621854799|2b:a8:d2:43:81:6e|86
1621840342|2c:15:f5:dc:55:ec|69
1621939184|2c:1a:b6:be:10:d9|70
1621932030|2c:22:29:28:58:c6|73
1621930619|2c:27:70:77:37:e9|78
1621937084|2c:2a:c2:bf:00:8f|72
1621923390|2c:4c:c6:b7:b9:e7|82
1621864658|2c:61:5b:66:f6:96|75
1621948761|2c:74:14:b6:d9:05|83
1621838398|2c:9b:8d:d8:f6:b7|79
1621861529|2c:d5:c7:6a:83:d6|74
1621839516|2c:ef:39:33:3a:41|76
1621943816|2c:f9:bb:4e:9b:b6|78
1621927055|2c:fd:ab:58:b4:35|90
1621952958|2c:fd:b5:af:70:9c|88
1621928373|2d:06:75:3c:d7:a2|77
1621948358|2d:35:bb:e2:d3:3f|73
1621849753|2d:46:e0:c5:b0:84|75
1621949038|2d:64:47:bb:75:90|87
1622017256|2d:a0:66:67:48:0c|74
1621939868|2d:bf:68:34:bb:9e|79
1621861086|2f:60:71:cc:cf:35|69
1622027873|2f:b2:2a:3c:5a:32|84
1621923319|2f:c4:e1:38:28:67|70
1622014665|30:07:4d:0d:9e:da|84
1622012185|30:07:4d:44:ce:2b|80
1622017833|30:07:4d:4d:3e:bd|86
1622012782|30:07:4d:54:65:25|81
1621837650|30:07:4d:54:65:25|82
1621930499|30:07:4d:6a:3f:82|72
1621941506|30:07:4d:80:01:1b|78
1621925529|30:07:4d:8f:de:25|81
1622014516|30:07:4d:9e:b8:95|71
1621849175|30:07:4d:ab:fc:07|83
1621842551|30:07:4d:bd:c3:37|75
1621843922|30:45:96:13:af:68|75
1622033209|30:45:96:91:00:4d|69
1621854100|30:52:ab:96:e5:24|74
1621952997|30:6f:d7:8a:02:81|92
1621862000|30:89:d3:15:65:4a|75
1621926443|30:95:e3:3d:c3:80|66
1621856855|30:95:e3:3d:c3:80|67
1621856600|30:a1:fa:08:3e:e2|82
1622022152|30:a9:de:da:03:a2|75
1621934863|30:a9:de:da:03:a2|77
1622018228|30:a9:de:da:6f:70|79
1621950155|30:a9:de:da:bb:de|67
1622029143|30:dc:c4:2f:d0:c3|68
1621839625|31:19:92:35:0d:7d|81
1622020362|31:6d:ab:0e:21:5f|79
1621853898|31:6f:36:b9:2e:f9|74
1621944094|31:d0:00:17:de:a0|75
1621948481|33:3f:e3:ee:04:d5|65
1621854502|33:48:58:de:84:5d|70
1621856497|33:86:11:e6:4b:4f|70
1621837091|34:07:96:2b:a7:4a|81
1622021161|34:07:a0:fb:aa:55|63
1621861617|34:0a:69:2e:37:91|70
1622018657|34:12:f9:4e:a2:8a|73
1621848236|34:12:f9:4e:a2:8a|68
1621933176|34:12:f9:4e:a2:8a|69
1621937332|34:12:f9:70:a4:23|80
1622028552|34:12:f9:70:a4:23|81
1621856481|34:12:f9:70:a4:23|86
1622016361|34:12:f9:fd:68:af|78
1622013218|34:1c:f0:6f:ba:34|73
1622024101|34:2e:b7:d8:05:ef|75
1621937838|34:2e:b7:d8:05:ef|91
1622020169|34:36:3b:85:1e:32|72
1621927979|34:36:3b:86:fc:56|88
1622008842|34:41:5d:a6:33:67|77
1621837733|34:41:5d:a6:33:67|79
1622012610|34:41:5d:bf:bd:e6|79
1621843934|34:41:5d:bf:bd:e6|75
1621951786|34:41:5d:cb:be:ac|94
1621865341|34:41:5d:cb:be:ac|95
1621951030|34:41:5d:cb:c5:14|89
1622009339|34:41:5d:cb:c5:14|93
1621862540|34:41:5d:cb:c5:14|92
1622013391|34:79:16:22:40:61|76
1622031621|34:79:16:93:df:77|85
1621945096|34:8b:75:0e:6a:79|80
1621859191|34:8b:75:0e:6a:79|83
1621945089|34:8b:75:ec:bd:d7|69
1621922837|34:a3:95:b2:3b:55|66
1621838059|34:a3:95:b2:3b:55|84
1621851059|34:b0:2a:24:75:00|69
1621840320|34:b2:0a:83:96:1a|76
1621949156|34:b2:0a:f1:08:04|77
1621923832|34:bb:1f:ce:36:a8|80
1621836067|34:c9:3d:9f:50:34|76
1621864398|34:e0:da:8e:76:c7|81
1622009205|34:e1:2d:6a:a5:09|76
1621922441|34:e1:2d:6a:a5:09|80
1621863035|34:e1:2d:6a:a5:09|79
1621935692|34:e2:fd:63:27:23|83
1622013364|34:f3:9a:02:63:bd|88
1622030021|34:f3:9a:2a:8d:de|86
1622011134|34:f3:9a:6e:9e:f2|72
1621849474|34:f3:9a:6e:9e:f2|66
1621927344|34:f3:9a:6e:9e:f2|64
1621934905|34:f4:22:cb:fd:49|80
1621942427|35:2b:e5:c7:22:88|77
1622023726|35:3b:11:2b:c6:bf|70
1621848069|35:53:4f:5f:da:6c|76
1621860508|35:8f:67:e6:66:c6|70
1621852524|35:ce:61:23:2d:26|78
1622026915|35:d6:fd:94:60:0c|80
1621924113|35:ff:7c:f5:80:65|79
1621860993|37:15:b0:e1:81:52|67
1622016402|37:31:c3:14:87:41|84
1621854934|37:65:bc:89:52:df|79
1621929754|37:66:ee:cc:f0:a8|74
1621855656|37:df:28:f3:1c:f2|74
1621837640|38:2d:e8:20:69:7d|73
1621934734|38:53:9c:8e:25:c3|71
1621838090|38:62:0b:e0:75:78|72
1621947416|38:87:e1:fd:0c:cf|77
1622013866|38:c9:86:0b:5c:b2|77
1622009947|38:f9:d3:2b:3c:dd|86
1621838529|38:f9:d3:2b:3c:dd|79
1621944395|38:fb:14:b5:65:67|82
1621848857|38:fb:14:b5:65:67|87
1621848302|39:8f:07:f8:65:14|78
1621848953|39:a8:66:f9:21:a0|82
1621850476|39:b1:00:d9:09:53|77
1622017263|39:df:53:7e:c9:5f|72
1621850830|39:fc:14:c2:36:94|74
1621853069|3b:0a:54:4e:bd:82|79
1621930002|3b:95:57:87:55:3b|77
1621949546|3b:c0:8b:4c:3e:1b|66
1621937387|3b:de:06:33:d8:49|77
1621940391|3c:05:18:a9:cf:83|81
1622028512|3c:06:3a:aa:ed:92|80
1621946707|3c:18:f7:82:13:dc|71
1621940832|3c:20:f6:db:c2:50|75
1622017620|3c:22:fb:30:93:b2|78
1621837616|3c:22:fb:c1:52:89|84
1621944805|3c:57:6c:b9:fe:44|88
1622033783|3c:57:6c:c7:6e:20|85
1621837901|3c:57:6c:c7:6e:20|81
1622010953|3c:57:6c:c7:9d:04|76
1621930396|3c:58:c2:bf:97:d5|78
1622014815|3c:58:c2:bf:97:d5|75
1621858508|3c:58:c2:bf:97:d5|72
1622025508|3c:58:c2:d4:c6:91|76
1622026318|3c:58:c2:d4:c6:92|71
1621853490|3c:58:c2:d4:c6:92|77
1621926731|3c:77:e6:7c:87:b2|69
1622008815|3c:91:80:02:54:2d|58
1621836667|3c:9c:0f:65:12:38|70
1622010333|3c:db:16:2f:cb:6c|80
1622019633|3c:f8:62:34:95:fe|73
1622009605|3c:fa:43:b8:27:dd|72
1621861593|3c:fa:43:b8:27:dd|78
1621950686|3d:95:ff:81:ed:3f|73
1621837303|3d:ac:e1:c5:75:99|70
1621856462|3d:bb:f2:8c:18:06|72
1621839200|3d:cf:a8:fb:e6:2d|78
1621929229|3f:2b:38:9a:82:af|76
1621926742|3f:39:e0:f6:67:2f|75
1622022850|3f:96:8c:07:e9:ab|71
1621841133|3f:a2:c1:8a:f3:62|71
1621852318|3f:a6:25:fa:cb:d5|73
1621836596|3f:f4:74:7d:a8:8b|80
1622032720|40:3f:41:20:c3:87|77
1621947836|40:3f:8c:43:77:ac|68
1622032345|40:40:a7:53:24:c8|91
1621948677|40:40:a7:53:24:c8|93
1622010177|40:4e:36:f8:3b:38|89
1621856186|40:9b:cd:9c:d9:ad|86
1621935673|40:a1:08:a0:c9:a3|65
1621929717|40:a1:08:c5:1b:4c|86
1621863514|40:bc:60:80:3b:6d|89
1621949215|40:d3:ae:e7:c5:66|87
1621865384|40:d3:ae:fc:3d:e0|84
1621940139|40:d7:af:0b:89:56|77
1622019963|40:f3:08:72:89:2d|88
1621931112|40:f3:08:72:89:2d|72
1621836138|40:f5:20:44:c4:48|77
1622013211|40:f5:20:44:c5:24|80
1621836169|40:f5:20:44:c5:24|78
1621925511|40:f5:20:44:c5:24|76
1621857683|40:f5:20:44:c6:14|77
1621841023|40:f5:20:44:c6:2c|88
1622017980|40:f5:20:44:c6:44|77
1621923465|40:f5:20:44:c6:44|71
1621836071|40:f5:20:44:c6:44|78
1621836277|40:f5:20:44:c7:98|88
1622011523|40:f5:20:44:c8:9c|70
1621836060|40:f5:20:44:c8:9c|85
1622016402|40:f5:20:44:c8:e4|70
1621836351|40:f5:20:44:c8:e4|70
1621934099|40:f5:20:44:c9:0c|74
1621841094|40:f5:20:44:c9:0c|79
1621836273|40:f5:20:44:c9:90|85
1621928483|40:f5:20:44:c9:e4|75
1622017506|40:f5:20:44:c9:e4|78
1621836703|40:f5:20:44:c9:e4|80
1621922948|40:f5:20:44:ca:1c|72
1622012004|40:f5:20:44:ca:70|77
1621923281|40:f5:20:44:ca:70|74
1621846376|40:f5:20:44:ca:7c|80
1621928962|40:f5:20:44:cb:80|84
1621844128|40:f5:20:44:cb:80|81
1622009163|40:f5:20:44:cb:a4|78
1621841538|40:f5:20:44:cb:ac|88
1621836070|40:f5:20:46:c2:dc|67
1622017520|40:f5:20:46:c2:f8|78
1621836518|40:f5:20:46:c2:f8|78
1621858931|40:f5:20:46:c3:94|80
1622015372|40:f5:20:46:c4:08|81
1621836074|40:f5:20:46:c4:c0|62
1621924648|40:f5:20:46:c4:d0|84
1621836169|40:f5:20:46:c4:d0|78
1621945502|40:f5:20:46:c5:c0|75
1622012883|40:f5:20:46:c5:c0|79
1621844495|40:f5:20:46:c5:c0|84
1622016234|40:f5:20:46:c8:38|70
1621836356|40:f5:20:46:c8:38|79
1621947863|40:f5:20:48:8c:e0|82
1621836360|40:f5:20:48:8c:e0|80
1621930190|40:f5:20:48:8c:e8|78
1621840214|40:f5:20:48:8c:e8|73
1621924651|40:f5:20:48:8d:34|79
1621836063|40:f5:20:48:8d:34|83
1621840210|40:f5:20:48:8e:54|84
1622012658|40:f5:20:48:8f:00|71
1621836289|40:f5:20:48:8f:00|71
1621855741|41:10:1c:da:bc:31|74
1621949796|41:74:15:13:cb:28|65
1621837301|41:74:66:47:2f:84|78
1621862915|41:75:62:a5:a3:eb|79
1622019940|41:b3:09:fe:b0:79|77
1621924056|41:b3:24:fb:10:34|79
1622013287|43:1d:dd:9e:91:12|72
1621849295|43:6d:96:74:db:5a|76
1621929145|43:71:0f:20:d0:3a|75
1621950282|43:fe:1b:2b:fc:ee|79
1621946247|43:fe:a4:ee:2e:13|59
1621942650|44:1e:27:67:30:fb|76
1621843002|44:4a:db:60:cc:2b|54
1622021149|44:4a:db:6d:b5:0e|86
1621946213|44:59:e3:7e:36:5c|86
1621928942|44:5c:e9:b1:ba:ac|66
1621922957|44:74:df:07:ae:79|75
1621941855|44:82:81:53:55:65|59
1621836263|44:85:00:18:d4:ae|69
1621863817|44:85:00:71:9c:56|86
1621949868|44:95:db:38:4c:fe|75
1621927325|44:da:f2:82:aa:16|70
1621928262|44:db:2c:09:f2:30|74
1622021061|44:f1:15:5d:1f:97|75
1621838340|45:59:35:e4:74:7d|73
1621838557|45:8d:3e:cc:9a:92|72
1621924309|45:f9:10:ff:9e:f2|71
1621861040|47:46:41:d9:a9:5c|77
1621856701|47:83:bc:23:13:5c|83
1622029392|47:fa:ce:cb:cd:34|72
1621928242|48:37:3b:73:a2:37|71
1621940118|48:5a:3f:8c:45:8b|64
1621923047|48:60:5f:2d:d1:3d|73
1621850062|48:79:4d:9d:c3:35|89
1622024835|48:89:e7:62:ab:79|71
1621836813|48:89:e7:fd:05:48|85
1621949812|48:89:e7:fd:05:84|79
1622017226|48:9c:ba:d6:4d:ea|71
1622034159|48:9d:24:7b:8d:28|80
1621851609|48:9d:24:7b:8d:28|75
1621947170|48:9d:24:7b:8d:28|86
1622010252|48:9d:24:84:5e:fd|73
1621843590|48:9d:24:84:5e:fd|78
1621923176|48:9d:24:84:5e:fd|79
1621929530|48:9d:d1:28:e9:c9|71
1622016302|48:9d:d1:28:e9:c9|71
1621842833|48:9d:d1:28:e9:c9|80
1621859731|48:9d:d1:96:f5:45|89
1621858464|48:a4:72:08:65:ec|80
1621836032|48:a4:72:4d:bd:e0|65
1621843641|48:a4:72:9d:22:81|78
1621923329|48:a4:72:9d:22:81|85
1622011717|48:a4:72:b2:c6:04|76
1621842116|48:b0:b5:3f:15:a1|82
1622034488|48:ba:4e:d5:d1:40|92
1621937918|48:f9:e4:55:d2:d9|68
1621953714|48:fc:b6:5b:13:08|88
1622032716|48:fc:b6:64:fc:c6|91
1621953342|48:fc:b6:64:fc:c6|82
1622030138|48:fc:b6:ef:1b:8b|85
1621857824|48:fc:b6:ef:1b:8b|80
1621852564|48:fd:a3:f0:59:19|89
1621924165|49:3e:d5:f4:ba:2e|78
1621930358|49:47:17:f7:1c:e6|78
1622025640|49:6f:6e:dc:89:03|88
1621851541|49:6f:e7:9b:c8:57|74
1621862672|49:91:d4:be:4a:1a|81
1622010839|49:bd:f1:29:04:d5|77
1621839616|49:d3:3f:ee:77:25|69
1621849925|4b:07:a9:0c:a0:2f|73
1621841732|4b:c5:ca:e4:b5:6a|80
1621927363|4b:e9:7f:32:0d:a5|72
1621837068|4c:00:47:e8:3d:f9|73
1621837951|4c:18:9a:42:e8:07|78
1621931641|4c:1a:85:a2:35:cd|69
1622016001|4c:1d:96:13:48:86|80
1622018714|4c:1d:96:ab:7a:98|89
1621923134|4c:1d:96:e6:e2:4f|64
1621842037|4c:1d:96:e6:e2:4f|65
1622018955|4c:34:88:68:ce:64|76
1621926027|4c:34:88:69:ba:b3|78
1622018610|4c:6a:65:85:5a:d4|89
1621841348|4c:6a:f6:c4:21:d3|80
1621935828|4c:74:bf:77:fc:32|77
1621845433|4c:74:bf:77:fc:32|76
1621947099|4c:b2:70:b8:68:85|78
1621947081|4c:dd:31:5f:ff:00|75
1622018326|4c:dd:31:f3:32:57|87
1621850121|4c:dd:31:f3:32:57|78
1621933104|4c:dd:31:f3:32:57|73
1622034144|4c:fd:c3:53:00:9b|73
1622018061|4d:38:39:aa:ed:7a|84
1621928307|4d:57:b1:c7:62:f4|77
1621838596|4d:78:2d:d9:d2:44|80
1622032188|4d:a3:fd:a2:ba:02|70
1621863967|4d:b4:6b:7d:57:43|71
1621836196|4d:bb:80:51:13:58|78
1621945465|4d:dd:a1:8f:41:1c|84
1621856434|4d:ee:b2:e3:07:a2|80
1622016400|4f:4a:1a:c1:fe:1f|83
1621937085|4f:53:2c:73:ed:06|74
1621840362|4f:7a:85:6c:90:98|76
1621927342|4f:e3:06:18:5d:21|83
1621842003|4f:f0:89:51:81:5f|84
1621929368|50:17:4e:d6:61:96|77
1622009267|50:2f:9b:79:b6:5c|73
1622020359|50:3d:c6:c1:6f:9a|80
1621860724|50:3d:c6:c1:6f:9a|90
1621928742|50:53:10:7b:b6:96|75
1621923877|50:53:24:17:2c:f2|76
1622023895|50:7a:55:6a:4c:08|79
1621952011|50:7a:55:6a:4c:08|77
1621839085|50:82:d5:78:f0:22|78
1622025411|50:8b:50:62:cc:da|83
1621851358|50:8e:dd:a8:37:a3|70
1621853719|50:8f:42:64:cb:bc|75
1622022808|50:eb:71:1f:71:01|77
1622024217|50:eb:71:9b:04:dd|80
1621942266|50:eb:71:9b:04:dd|72
1621942804|50:ed:3c:09:23:26|70
1622030975|50:ed:3c:2c:57:cc|66
1621953227|50:f0:d3:17:27:1a|79
1621851024|50:f1:16:e9:3c:1c|72
1621930343|50:f5:09:56:88:c5|78
1621923338|51:25:07:69:81:68|78
1621930443|51:2c:5a:c1:52:c9|77
1622021114|51:96:03:6b:fc:e1|69
1621946060|51:ac:28:2d:07:50|82
1621929029|51:ad:ca:0f:4e:17|75
1622023946|53:46:91:e0:e2:e5|76
1621851453|53:4e:a6:83:55:53|68
1621924499|53:7f:7e:92:35:0d|81
1621840450|53:8d:ec:14:f1:23|73
1622028509|53:e9:36:ff:c6:58|79
1621928487|54:09:10:b6:a8:39|74
1621943596|54:3e:34:2a:ea:69|76
1621856803|54:43:1c:b9:a5:08|79
1622012614|54:8d:5a:0d:02:fa|77
1621937120|54:8d:5a:c5:96:d5|71
1621937128|54:8d:5a:c5:96:d6|66
1622014866|54:8d:5a:cb:de:2d|76
1621856432|54:8d:5a:cb:de:2d|83
1622014879|54:8d:5a:cb:de:2e|74
1621856417|54:8d:5a:cb:de:2e|78
1622009719|54:95:a4:4a:9a:b9|89
1621945921|54:9f:21:46:70:5d|73
1622012658|54:b8:02:02:df:ea|81
1621852614|54:b8:02:48:6e:df|91
1621949241|54:fa:a0:70:4c:31|74
1621928427|54:fc:f0:9b:2d:2f|67
1621928165|54:ff:ea:9c:2a:e2|81
1621840397|55:1a:ca:6e:6f:7e|72
1622017955|55:4f:0f:1a:bd:0c|58
1621837036|55:57:1d:f8:94:36|81
1622013571|55:61:37:ef:b0:9e|73
1621922950|55:88:9a:6e:89:cb|78
1621929016|57:2b:18:d9:08:a9|76
1621941835|57:34:08:04:44:12|73
1622030132|57:40:b5:62:9c:4e|65
1621947455|57:95:a7:37:1d:5c|75
1621839570|57:b4:f3:29:99:6b|67
1621838207|58:00:e3:ef:c0:a1|86
1621924241|58:0b:37:87:09:1d|73
1622026766|58:40:4e:49:df:87|74
1621860843|58:85:a2:1e:1a:3b|83
1621856517|58:85:e9:ae:82:a3|90
1621862716|58:a0:23:ed:af:94|85
1621937841|58:a0:23:ed:af:fd|85
1621946411|58:b6:00:6e:75:62|65
1621945419|58:fb:84:02:5b:84|67
1622029157|59:1e:41:a2:d9:f7|68
1622013215|59:59:7c:cc:18:5e|83
1622028341|59:85:50:78:6a:2b|73
1621926169|59:88:22:bc:7b:5f|78
1621945477|59:93:3d:e6:91:ff|78
1621941856|59:f4:ec:5a:e9:a4|76
1622013126|5b:0c:e0:55:b4:3e|73
1622014491|5b:5d:66:70:8c:ea|86
1621859690|5b:6c:92:c6:0e:bf|86
1621855314|5b:75:ae:0d:d3:bb|76
1621855961|5b:a6:61:61:55:f0|78
1621836944|5b:bc:93:2f:b2:0d|78
1621928655|5b:d3:e2:17:21:7b|70
1621931332|5c:0d:ca:4c:f5:20|71
1621843793|5c:2e:59:cd:eb:27|86
1622010713|5c:36:db:c3:b6:a7|73
1621846535|5c:5f:67:89:19:67|76
1621943254|5c:5f:67:d0:66:fa|80
1621948047|5c:66:6c:b6:c5:67|85
1621850487|5c:70:17:1e:5d:ef|78
1621839598|5c:89:b5:4d:6a:cc|74
1621845605|5c:9c:a5:ad:ac:67|79
1621853863|5c:a1:0e:2f:a7:1a|75
1621838297|5c:ba:ef:f6:8b:49|70
1621922651|5c:c5:d4:b2:7b:72|83
1621922658|5c:c5:d4:e0:7a:95|66
1621946321|5c:e5:3d:c2:e4:1f|53
1621934633|5c:ea:1d:15:9a:b1|85
1621944345|5c:ea:1d:90:12:d5|76
1621853904|5d:03:73:4f:03:b1|82
1622013260|5d:77:96:21:a3:af|70
1622018135|5d:a6:19:02:03:52|74
1621841425|5f:08:b3:2d:1e:81|76
1621927179|5f:32:aa:d8:69:ec|72
1622030768|5f:55:cd:fa:59:82|73
1621840463|5f:6e:b5:67:fd:a4|71
1621947852|60:1d:91:fc:07:38|93
1621934657|60:21:01:8e:5e:c1|71
1622024343|60:23:a4:df:d8:d0|72
1621851458|60:23:a4:df:d8:d0|67
1621934700|60:23:a4:df:d8:f4|72
1621854650|60:23:a4:df:d8:f4|71
1621850061|60:43:a6:a0:bf:cb|78
1621941042|60:9e:0f:ec:94:6c|87
1622016723|60:af:6d:bd:f9:85|72
1622014173|60:f1:89:47:1a:46|80
1621951231|60:f1:89:47:1a:46|87
1621849243|60:f1:89:7b:53:56|75
1622028227|60:f2:62:1c:af:a3|58
1621848529|60:f2:62:1c:af:a3|78
1622025249|60:f2:62:dc:93:e9|71
1622028554|60:f2:62:dc:9d:30|76
1622011115|60:f6:77:ce:29:a8|75
1621838542|60:f6:77:ce:29:a8|71
1621928715|60:f6:77:ce:29:a8|69
1622016754|61:3b:6e:f3:5a:ce|75
1621932053|61:6e:27:cd:b3:30|80
1621854092|61:86:c7:d8:0a:e0|76
1621928170|61:88:32:02:1c:40|86
1621948431|61:c2:6c:ca:80:9e|77
1622014281|61:d1:2c:62:38:89|84
1621840478|61:d6:13:f0:54:29|74
1621923369|63:4a:84:af:a6:d8|71
1621853974|63:68:6c:77:ce:3d|79
1621860935|63:e6:b2:f4:0f:2a|72
1621846420|63:fb:c6:a9:11:90|73
1622027309|64:03:7f:d2:b9:4b|83
1622010062|64:07:62:f2:1a:68|74
1621927537|64:1d:2c:5b:2d:e3|81
1622013222|64:5d:86:ac:f5:da|89
1621935750|64:5d:86:ac:f5:da|75
1621928070|64:76:ba:d5:3a:32|75
1621850898|64:82:50:89:0f:de|75
1622029865|64:8c:dd:c6:41:96|80
1621948563|64:9a:4e:30:16:e5|89
1621852815|64:a5:76:2f:fb:27|79
1621841466|64:c7:53:de:88:90|85
1621932813|64:c8:90:ab:1b:51|73
1622010588|65:0a:99:8f:1c:df|67
1621845199|65:bb:9e:b1:39:21|63
1621930989|65:da:5c:c7:a4:cb|68
1621927962|65:dd:bc:64:61:90|68
1621928657|67:0f:23:6e:75:47|79
1621929207|67:46:26:cc:cb:5e|69
1621928790|67:53:97:4f:1a:0d|74
1621840551|67:53:b8:3c:ae:b1|83
1621846510|67:7b:dc:5f:07:8c|71
1621923350|67:bf:5e:af:ef:8b|75
1622009447|67:d4:9c:eb:64:e2|69
1621853783|68:17:29:0d:95:e4|74
1621946704|68:22:49:1e:d9:60|66
1621847014|68:27:37:8d:c9:21|77
1621926421|68:27:37:8d:c9:21|81
1621851141|68:4e:61:de:cd:e7|66
1622011339|68:54:5a:6e:b0:db|73
1621930915|68:54:5a:6e:b0:dc|73
1621838009|68:54:5a:6e:b0:dc|72
1621839504|68:5a:c5:57:8f:06|65
1622012774|68:5a:cf:c3:cc:d5|59
1621853921|68:66:a5:f1:42:0e|71
1621931185|68:69:a9:a8:13:a4|71
1622023611|68:db:f5:d4:61:f3|64
1621866658|68:e7:c2:ef:d6:d1|87
1621943116|68:ec:c5:55:ea:47|84
1622029175|69:10:36:4f:2e:ad|74
1622010650|69:36:c2:22:c4:b3|77
1621841430|69:50:9a:79:63:ba|63
1621837287|69:51:11:3b:a9:65|84
1621929293|69:92:96:19:ec:ab|72
1622023108|69:ef:b7:9f:38:3a|83
1622011017|6b:64:5d:98:f3:c6|74
1621923017|6b:a6:d7:c5:6b:29|82
1621850849|6b:b5:85:1a:45:7f|71
1622018559|6b:e7:fd:4b:30:48|76
1621944497|6b:f1:cc:8e:99:cf|71
1621855737|6c:03:86:c3:73:71|68
1621924285|6c:1d:a2:27:58:31|83
1621927660|6c:41:b0:e2:88:18|84
1622022554|6c:4d:73:a6:bc:3e|80
1622009098|6c:ab:31:15:d8:de|84
1621851470|6c:ac:a5:25:63:6c|63
1621853075|6c:b4:ed:91:92:9c|80
1621846535|6c:c7:ec:13:a2:7c|78
1622019354|6c:c7:ec:2a:5f:70|73
1621941908|6c:c7:ec:2f:66:92|83
1621922781|6c:c7:ec:47:f7:6f|83
1621852536|6c:c7:ec:47:f7:6f|80
1621929003|6c:c7:ec:6a:7c:e3|79
1621838240|6c:c7:ec:6a:7c:e3|77
1621922784|6c:c7:ec:95:56:a5|86
1622009969|6c:c7:ec:9c:24:73|81
1621862404|6c:c7:ec:b7:6b:82|82
1622019856|6c:c7:ec:d0:dd:39|74
1621853211|6c:c7:ec:d9:eb:c7|66
1622031093|6c:d1:37:7d:df:1f|83
1621944596|6d:4d:b5:f7:ef:b2|79
1621863776|6d:72:94:0a:14:b2|67
1621854328|6d:87:d3:8c:5b:cc|75
1622027689|6d:93:7d:2a:ad:7a|77
1622033366|6d:f0:36:43:86:a4|65
1621927663|6d:f2:3e:7d:68:cf|75
1621931312|6f:29:f3:45:a8:17|69
1621853192|6f:2a:02:68:b8:df|69
1621929358|6f:30:06:1d:78:97|86
1621865067|6f:56:29:22:8c:62|81
1621842170|6f:5d:8c:95:76:53|74
1621947194|6f:66:04:d6:cf:07|81
1621855439|6f:77:45:b3:77:28|77
1622008809|70:03:9f:01:40:fe|74
1621926029|70:3a:51:31:43:10|78
1621927741|70:5a:ac:20:df:c7|83
1621948973|70:5a:ac:ef:24:ad|93
1621928737|70:5a:ac:f0:f6:28|76
1621848813|70:5a:ac:f0:f6:28|72
1622032274|70:5c:df:4a:74:6a|63
1621842831|70:5e:dd:cd:8f:a6|64
1622021062|70:9c:d1:12:b5:e2|76
1621926034|70:9c:d1:12:b5:e2|78
1622013387|70:bb:e9:cd:22:99|79
1622030570|70:bc:10:73:00:91|76
1621933971|70:bc:10:73:00:91|86
1621939502|70:bc:10:7c:10:e6|70
1621864017|70:c9:4e:6e:e5:71|81
1621863837|70:dc:56:4f:55:ab|76
1621853563|71:0a:56:fc:16:78|76
1621855623|71:2a:44:9d:04:bf|81
1622013869|71:2d:a8:99:ec:71|75
1621934320|71:58:46:c6:f0:e6|78
1621949171|71:5e:c6:d1:0f:71|70
1621941412|71:a2:43:3e:71:b1|64
1621865719|71:b1:cb:27:1d:0a|81
1621850795|71:c3:87:89:d5:6e|68
1621840332|71:da:7b:61:b3:3c|74
1621941638|71:eb:15:df:88:97|78
1622010989|73:31:90:fc:28:09|78
1621930938|74:58:18:7c:af:b7|72
1621860667|74:70:fd:a6:ca:ed|80
1622016970|74:70:fd:a6:d8:3a|75
1621934285|74:b5:87:9a:a6:69|76
1622010708|74:d8:3e:9e:5b:d8|69
1621850192|74:d8:3e:9e:5b:d8|73
1621922568|74:d8:3e:9e:5b:d8|72
1622019207|74:d8:3e:fe:c1:21|82
1622010597|74:d8:3e:ff:41:a5|78
1621937753|74:df:bf:48:3b:01|76
1621866953|74:eb:80:c8:60:bc|90
1621923141|74:eb:80:f8:50:48|72
1621851111|77:46:e1:65:f6:37|71
1621858402|77:47:0a:ad:af:c8|77
1621850908|77:74:50:70:5f:56|70
1621838124|77:87:f4:30:af:01|77
1622010853|77:b0:d8:f2:53:08|81
1621856565|78:05:6b:46:b2:48|86
1622018510|78:2d:47:cf:16:22|79
1621836290|78:46:b6:13:09:38|73
1621847812|78:4b:87:da:53:bb|83
1621922714|78:4b:87:da:53:bb|79
1621849876|78:4f:43:38:11:e5|71
1621842684|78:4f:43:7b:f4:81|89
1622016481|78:4f:43:85:e8:b3|79
1621838555|78:51:0c:00:97:9f|75
1622024499|78:62:32:b7:71:79|72
1622024431|78:64:c0:d7:8f:dd|81
1621842016|78:71:de:4f:97:7a|71
1621851702|78:88:6d:5c:3f:98|81
1621838542|78:95:6c:5a:01:6c|74
1621851004|78:9b:15:ea:44:44|72
1622014138|78:c3:e9:59:e2:18|70
1622031615|78:dd:d9:83:94:9f|94
1621953946|78:dd:d9:83:94:9f|92
1621837881|78:dd:d9:83:94:9f|92
1622026904|79:8c:67:33:94:c2|84
1621949445|79:e4:6d:66:a8:25|70
1621838178|7b:af:15:7c:c9:f3|84
1621922916|7b:b8:5a:54:ab:5f|75
1621946628|7c:0b:ed:55:c1:90|62
1621854065|7c:19:92:c9:fb:0f|72
1622016569|7c:1c:68:8e:b9:5c|77
1621842110|7c:23:02:38:90:f2|75
1621929454|7c:23:02:e9:66:ce|71
1621836764|7c:3c:0a:f1:cc:b9|73
1621857181|7c:3d:26:d7:c8:8f|79
1622025328|7c:46:85:5f:52:5c|83
1621928610|7c:46:85:5f:52:5c|86
1621927582|7c:4c:87:e7:4b:64|83
1621836705|7c:58:5d:0d:24:94|81
1621945585|7c:67:a2:8c:fe:92|96
1621948113|7c:67:a2:8e:06:1b|90
1621864438|7c:67:a2:8e:06:1b|92
1622015671|7c:67:a2:8e:07:60|92
1621925223|7c:76:35:7c:a9:07|80
1622014820|7c:76:35:7c:b3:2a|84
1621837280|7c:7b:93:aa:11:eb|73
1621845721|7c:89:56:cd:4f:1c|82
1622024758|7c:8a:e1:f5:db:b3|84
1621931786|7c:8f:5c:94:31:86|75
1622014809|7c:a1:77:29:f7:9c|68
1621922771|7c:a1:77:29:f7:9c|87
1621840471|7c:d3:92:b1:e3:54|69
1621954055|7c:d6:61:ca:d8:95|89
1621867721|7c:d6:61:ca:d8:95|89
1622011298|7c:fd:6b:55:58:df|87
1621943086|7c:fd:6b:55:58:df|93
1621928635|7d:0c:a7:08:eb:3e|80
1621942750|7d:3b:12:c7:1a:54|83
1622013394|7d:66:6d:d3:d0:08|78
1621852829|7d:6b:40:b2:f6:bd|82
1622021223|7d:c2:79:07:76:16|66
1622013538|7d:d9:2f:e3:1d:dd|73
1621937851|7d:e2:c1:45:08:d1|88
1621850712|7d:eb:9f:24:64:da|77
1621927647|7d:f6:2c:1e:3d:2d|81
1621836584|7f:0f:cd:de:0a:40|83
1621927941|7f:13:9c:4c:c3:f2|77
1621845141|7f:14:80:4f:1f:69|81
1621857778|7f:29:d4:75:35:7e|81
1622025487|7f:43:fd:0a:e8:c2|82
1622023134|7f:9f:4d:16:e4:6f|70
1621850487|7f:a7:fe:f1:f8:22|78
1622010044|7f:a8:1e:32:fc:81|85
1621928279|7f:c9:26:f5:21:de|74
1621850775|7f:d6:38:1c:cc:2c|75
1621850912|80:1a:7c:88:ae:dd|72
1621855339|80:32:53:75:0e:95|82
1621943809|80:34:e3:91:f9:d4|74
1622009795|80:35:c1:cf:2b:90|91
1621841534|80:4b:df:36:c8:7c|84
1621951568|80:4e:70:6c:6f:ea|90
1622010812|80:4e:70:fd:17:d8|85
1621922417|80:4e:70:fd:17:d8|79
1622019371|80:62:6c:78:cb:9b|85
1621929448|80:65:6d:75:b5:3a|79
1621929371|80:76:dc:55:e2:c7|69
1621951517|80:7a:bf:a1:9c:08|92
1621948497|80:7f:cd:a8:88:62|76
1622010820|80:81:fc:e1:5b:2b|64
1622030119|80:94:25:53:54:f8|68
1622028745|80:a1:b5:36:e6:dc|78
1621946227|80:a4:75:4d:fa:c2|55
1621855730|80:ac:4c:54:21:11|80
1622021847|80:b0:3d:a5:57:b5|72
1621845134|80:b0:3d:a5:57:b5|81
1621927369|80:b0:3d:a5:57:b5|76
1621928679|80:be:05:5e:ca:8c|77
1621854632|80:be:05:5e:ca:8c|85
1622012517|80:c7:0b:ea:ae:de|74
1622010107|80:ce:b9:c3:b8:65|87
1621837632|80:ce:b9:c3:b8:65|72
1621927314|80:ce:b9:c3:b8:65|68
1621951829|80:ce:b9:d5:f7:95|83
1622023167|80:ce:b9:d5:f7:95|89
1621848661|80:ce:b9:d5:f7:95|87
1621940232|81:73:35:9b:12:45|75
1622019602|83:07:65:5c:01:26|85
1621838200|83:09:12:e0:5c:4c|81
1621945939|83:31:64:dc:ba:57|71
1621852418|83:3e:68:65:1f:19|77
1621857501|83:c1:68:8c:77:3f|73
1621927918|84:06:0f:a8:e2:66|82
1621851114|84:0c:d6:18:3b:15|68
1621949495|84:0e:50:00:e2:ba|68
1622016785|84:1b:77:f4:e8:31|87
1621923329|84:1b:77:fd:b2:95|61
1622020460|84:2e:27:37:89:04|80
1621945917|84:2e:27:37:89:04|71
1621846409|84:30:87:f8:4b:ae|75
1621927865|84:3d:2d:6f:af:fa|68
1621841717|84:66:5d:c1:1c:f5|67
1621948838|84:ab:1a:b3:bb:92|73
1622019192|84:c5:a6:fb:2b:f6|77
1621934099|84:c5:a6:fb:2b:f6|84
1621863647|85:5c:01:4a:e9:b4|81
1621944707|85:c2:c1:bf:d6:5b|81
1621840797|85:ca:d3:b4:ab:69|78
1621855339|87:47:4f:c8:f1:c6|81
1621839560|87:56:d1:91:46:a5|71
1621950095|87:6a:d1:bb:85:76|71
1621923261|87:d3:e7:cf:03:31|78
1621926734|87:f4:98:04:c5:14|81
1622033042|88:07:4b:e7:cf:33|79
1621932694|88:0c:45:3c:13:19|77
1622017113|88:10:8f:97:53:63|77
1621930386|88:10:8f:97:53:63|74
1621836161|88:10:8f:d4:f2:8e|76
1622011525|88:53:95:0f:37:0f|90
1621942239|88:5f:e8:71:02:5b|74
1621927536|88:62:8a:93:06:a7|83
1622015626|88:66:a5:d8:5e:8f|87
1622014320|88:83:22:2d:7d:2f|82
1621844993|88:83:22:2d:7d:2f|77
1621852396|88:83:22:3c:80:56|71
1621933817|88:83:22:83:fe:a6|73
1622018906|88:83:5d:96:cd:b0|90
1621857272|88:83:5d:96:cd:b0|85
1621938660|88:9f:6f:85:f1:10|86
1622009139|88:9f:6f:8a:4f:1e|80
1621864550|88:9f:fa:fe:a3:03|82
1621940000|88:b1:11:2a:a0:53|82
1621849985|88:b1:11:2a:a0:53|76
1621856112|88:b1:11:2a:a0:54|81
1622028185|88:b1:11:d8:e8:bb|84
1621929986|88:b1:11:d8:e8:bb|83
1622012268|88:b4:a6:00:42:f6|76
1621840321|88:b4:a6:00:68:e5|74
1621843808|88:b4:a6:03:d7:8b|75
1621838177|88:b4:a6:05:a2:56|77
1621843903|88:b4:a6:06:11:c5|72
1622012204|88:b4:a6:09:14:c8|69
1622013478|88:b4:a6:0e:19:cd|83
1622012992|88:b4:a6:13:1e:d2|75
1621837218|88:b4:a6:13:e7:9b|75
1622013459|88:b4:a6:16:21:d5|77
1621838389|88:b4:a6:16:21:d5|71
1621837077|88:b4:a6:1b:26:da|81
1621841502|88:b4:a6:1b:83:37|87
1622013376|88:b4:a6:1d:ab:5f|74
1621839067|88:b4:a6:23:f7:ab|73
1622013001|88:b4:a6:24:20:d4|79
1622013095|88:b4:a6:26:59:0d|74
1622012926|88:b4:a6:28:6a:1e|77
1622012239|88:b4:a6:28:90:44|66
1621932530|88:b4:a6:2c:5d:11|76
1621837360|88:b4:a6:2d:38:ec|74
1621836933|88:b4:a6:2f:3a:ee|77
1621844001|88:b4:a6:2f:4f:03|74
1622013031|88:b4:a6:30:98:4c|76
1621932549|88:b4:a6:31:3c:f0|70
1622012972|88:b4:a6:38:7a:2e|74
1621844048|88:b4:a6:39:22:d6|69
1622013515|88:b4:a6:3a:ff:b3|81
1621836858|88:b4:a6:3b:7d:31|77
1622012992|88:b4:a6:3d:48:fc|72
1621841850|88:b4:a6:3f:4a:fe|83
1622013060|88:b4:a6:41:de:92|76
1621838035|88:b4:a6:42:16:ca|74
1622013021|88:b4:a6:43:08:bc|74
1621840371|88:b4:a6:45:ad:61|82
1622013163|88:b4:a6:48:8a:3e|75
1621837360|88:b4:a6:4a:55:09|74
1621923268|88:b4:a6:4c:b4:31|81
1622012204|88:b4:a6:50:5b:0f|70
1621838272|88:b4:a6:55:86:3a|76
1621836811|88:b4:a6:58:63:17|73
1622013011|88:b4:a6:5a:c0:74|79
1621844039|88:b4:a6:5b:44:f8|77
1621839874|88:b4:a6:5d:44:f8|81
1621843664|88:b4:a6:5f:6a:1e|78
1621842905|88:b4:a6:61:81:35|80
1621839559|88:b4:a6:61:a3:20|70
1622012154|88:b4:a6:68:aa:27|74
1622012119|88:b4:a6:69:74:28|70
1621839402|88:b4:a6:6b:76:2a|76
1622013124|88:b4:a6:6c:e7:9b|76
1622012309|88:b4:a6:73:7e:32|72
1622013075|88:b4:a6:75:5c:d9|78
1621839307|88:b4:a6:78:83:37|75
1621837660|88:b4:a6:81:1e:09|77
1622012328|88:b4:a6:85:c7:7b|74
1622012851|88:b4:a6:86:91:45|81
1622013258|88:b4:a6:8c:ce:82|74
1621839646|88:b4:a6:90:b0:64|74
1621837725|88:b4:a6:91:d3:87|79
1621932607|88:b4:a6:92:66:1a|69
1621932863|88:b4:a6:95:21:d5|78
1622012945|88:b4:a6:96:5b:0f|76
1621932691|88:b4:a6:97:5a:d7|74
1621837313|88:b4:a6:9a:a5:59|73
1621836162|88:b4:a6:9d:a8:5c|81
1621932280|88:b4:a6:9e:2a:de|76
1622012219|88:b4:a6:9f:05:b9|69
1622013336|88:b4:a6:9f:51:05|79
1622013391|88:b4:a6:9f:9b:4f|85
1621932691|88:b4:a6:a0:74:28|75
1621838130|88:b4:a6:a3:42:f6|76
1621933016|88:b4:a6:a3:ae:62|78
1621843610|88:b4:a6:a7:0f:8c|84
1622013277|88:b4:a6:ab:b6:33|74
1622012136|88:b4:a6:ac:80:34|68
1622013105|88:b4:a6:ae:b9:6d|80
1621923285|88:b4:a6:b2:3e:f2|71
1621841476|88:b4:a6:b5:f7:74|71
1622012145|88:b4:a6:b6:42:f6|71
1621838767|88:b4:a6:b6:c1:75|72
1622012328|88:b4:a6:b8:c3:77|71
1621837678|88:b4:a6:b9:b3:67|83
1621837960|88:b4:a6:bd:91:45|78
1622012288|88:b4:a6:be:00:b4|74
1621932899|88:b4:a6:c0:02:b6|81
1622012842|88:b4:a6:c0:4c:00|77
1621838625|88:b4:a6:c1:cc:80|67
1622013499|88:b4:a6:c4:06:ba|80
1621839019|88:b4:a6:c5:bd:71|82
1621932958|88:b4:a6:c6:d1:85|75
1621932549|88:b4:a6:ca:0c:c0|72
1621840197|88:b4:a6:d8:1a:ce|75
1622013229|88:b4:a6:da:e5:99|75
1621838294|88:b4:a6:db:e6:9a|77
1622013011|88:b4:a6:de:e9:9d|74
1621841016|88:b4:a6:e2:11:c5|82
1621839307|88:b4:a6:e3:82:ff|75
1621841306|88:b4:a6:e8:87:04|75
1621844039|88:b4:a6:e9:1c:d0|74
1622012184|88:b4:a6:e9:f4:a8|82
1621838177|88:b4:a6:eb:f6:aa|77
1622013219|88:b4:a6:ec:2e:e2|73
1621839401|88:b4:a6:ef:31:e5|76
1621931649|88:b4:a6:fd:be:72|66
1621838672|88:b4:a6:fe:09:bd|71
1621837313|88:b4:a6:fe:51:05|72
1621855280|88:df:d4:8c:67:47|80
1621863896|88:fd:37:2a:39:5c|82
1621935311|89:1b:cc:d5:fb:a8|76
1621941251|89:4f:db:f5:81:e3|63
1621923190|89:93:c0:ad:41:ab|74
1621837061|89:d7:80:d0:72:54|72
1621849650|89:ff:98:c3:27:6c|74
1622018733|8b:24:e7:3a:ee:77|88
1622018401|8b:3c:a9:87:16:97|76
1621932145|8b:3d:95:89:3f:27|66
1621854139|8b:62:01:b5:91:de|78
1621849518|8b:c1:d7:ed:da:06|74
1621935651|8b:ca:1e:20:10:df|77
1621938477|8b:f0:ba:80:c2:2c|73
1621861230|8c:25:05:4a:7c:0b|79
1621840943|8c:45:00:15:f4:b0|84
1622031471|8c:45:00:81:6e:07|89
1621850632|8c:45:00:81:6e:07|82
1621865849|8c:45:00:a5:d0:51|89
1621854546|8c:45:00:a6:14:bc|93
1621843973|8c:65:f7:b6:0c:d0|79
1621933419|8c:72:f6:b7:d1:9a|70
1621837795|8c:79:f5:0e:b8:f0|74
1622009401|8c:79:f5:0e:e4:f6|69
1621858137|8c:85:90:0f:e9:0e|84
1621927324|8c:85:90:75:1d:84|79
1621944350|8c:85:90:82:46:a4|90
1621849664|8c:85:90:82:46:a4|85
1621927208|8c:85:90:86:b9:e0|81
1621837346|8c:a1:bb:ac:02:c1|79
1622013273|8c:b3:10:53:72:57|74
1622021559|8c:b8:4a:06:98:1a|74
1621857899|8c:b8:4a:06:98:1a|85
1622019301|8c:b8:4a:1e:2f:28|80
1621846720|8c:b8:4a:1e:2f:28|80
1622022279|8c:b8:4a:2a:69:06|77
1621940115|8c:b8:4a:32:b9:fe|80
1622015601|8c:b8:4a:8a:21:cd|73
1621836881|8c:c0:eb:64:3a:2e|78
1621846506|8c:c6:81:1a:f3:5b|79
1622019553|8c:c6:81:6f:e4:42|79
1621943881|8c:c6:81:6f:e4:42|78
1621843927|8c:cb:fb:bc:c4:71|83
1621946288|8c:e5:5a:2a:ec:29|64
1621944812|8c:eb:c6:b3:94:55|68
1621864327|8c:eb:c6:b3:94:55|77
1621940372|8c:f5:a3:05:e2:47|74
1622017132|8c:f5:a3:05:e2:47|83
1621850297|8c:f5:a3:05:e2:47|68
1621849849|8c:f5:a3:66:8f:b4|70
1621934237|8c:f5:a3:d7:cc:2d|78
1621944170|8c:f5:a3:dd:36:35|75
1621854977|8c:f8:20:c5:fa:41|69
1621935852|8d:3c:66:5e:96:64|73
1621929046|8d:4e:da:53:db:20|77
1621947865|8d:64:e6:78:2b:dc|89
1621854925|8d:72:e2:af:bd:59|70
1621851608|8d:7c:1b:03:97:b9|72
1621949809|8d:9e:b2:ed:7e:01|67
1621837605|8d:b2:5f:e5:f0:5c|77
1621946537|8d:fc:5b:5c:2d:4e|64
1621932265|8f:38:d8:be:45:e1|71
1621946449|8f:91:7b:b0:24:ee|75
1621949440|8f:94:43:61:5c:2b|62
1621837810|8f:99:1e:05:a9:54|72
1621837019|90:0b:d1:79:10:5c|80
1621846302|90:29:72:5e:84:c3|67
1622025463|90:2b:02:57:a1:ce|85
1622027270|90:32:4b:78:24:79|76
1621858232|90:32:4b:78:24:79|74
1621935508|90:32:4b:78:24:79|72
1621854552|90:4b:22:6d:1c:a7|68
1622014514|90:61:ae:fc:b8:d1|86
1621927565|90:61:ae:fc:b8:d1|85
1621932786|90:78:41:9c:91:90|79
1621927719|90:84:30:55:cb:21|81
1622033044|90:b2:1f:c1:c7:6c|70
1622023128|90:b6:86:fe:db:11|84
1621862054|90:cc:df:c0:c1:9b|76
1621836816|90:d0:43:ee:c2:68|86
1621940954|90:f1:36:5b:71:3d|76
1622010823|91:01:34:3e:08:51|74
1621950022|91:50:50:e6:3f:3b|66
1622026967|91:6b:db:a8:18:35|82
1622019504|91:a3:da:f6:29:33|54
1622013961|91:df:f5:c4:85:e0|80
1622010001|91:fd:f6:41:d5:09|75
1622009084|93:0f:8a:dd:12:2f|62
1621843830|93:20:d2:f3:d4:ba|84
1622028286|93:6a:f9:98:ef:bb|79
1621924323|93:a7:46:ae:a1:d2|73
1621931163|93:e3:37:fe:8e:a7|68
1621927689|94:0a:49:43:5e:ff|80
1622034210|94:0e:6b:f0:ee:7c|68
1621850458|94:0e:6b:f0:ee:7c|76
1621931294|94:2d:dc:7d:a3:40|71
1621840923|94:5f:55:5b:7d:92|73
1621849075|94:65:2d:3f:ef:09|72
1621837020|94:65:2d:d0:cc:ac|71
1621934939|94:65:2d:dc:ac:48|72
1622022828|94:65:2d:dc:ac:48|84
1621862822|94:65:2d:dc:ac:48|70
1622012836|94:65:9c:66:64:df|75
1622026211|94:76:b7:01:d4:81|84
1622017517|94:7b:e7:71:55:ad|63
1621839646|94:7f:af:c8:ae:00|68
1621928438|94:96:41:1d:16:2f|77
1621949339|94:aa:7d:db:e9:c3|73
1622029202|94:b1:0a:d0:e1:56|84
1622025018|94:b8:6d:92:f1:99|85
1621931582|94:bb:04:e9:fe:50|78
1622015464|94:bf:2d:d8:c3:d6|70
1622014371|94:bf:2d:d9:86:60|60
1621940464|94:c4:fb:80:0e:66|84
1621929502|94:ce:36:7f:80:05|71
1621923549|94:e7:0b:af:a6:68|85
1621949484|95:3b:91:ac:55:39|66
1621941838|95:7c:35:64:26:96|75
1621949350|95:86:d7:c6:b7:46|67
1621839467|95:88:06:34:c3:d4|73
1621850200|95:bf:08:1a:6d:e8|75
1621855621|95:ce:c1:21:8c:9d|80
1621926402|95:f9:e0:7d:2e:10|64
1621946866|97:15:99:7e:73:94|78
1621851550|97:34:20:14:84:2f|74
1621938379|97:89:dc:39:1d:13|79
1621853938|97:fe:39:b9:d7:ae|74
1622017430|98:09:cf:64:f4:d2|77
1622020290|98:0d:51:52:c1:f2|67
1621836854|98:22:ef:b9:ba:91|79
1621928761|98:2c:88:f4:97:d5|73
1622009572|98:2c:bc:2f:53:a0|72
1621927222|98:2c:bc:60:15:5d|71
1622018749|98:3b:8f:0d:da:4b|70
1621852888|98:3e:a0:be:ce:ee|72
1621949655|98:45:ef:ce:58:2d|77
1621946408|98:46:0a:9b:6f:48|83
1621836015|98:54:1b:a2:7e:ed|71
1621836130|98:54:1b:a2:7e:ee|77
1622030237|98:54:1b:be:fb:b3|70
1621861506|98:5f:d3:ef:60:c3|85
1621852240|98:6f:60:a6:1b:89|79
1621935451|98:74:da:bf:d8:a6|81
1622033858|98:74:da:c1:4d:d7|81
1621931878|98:9c:57:8c:2f:d2|73
1621858091|98:9c:57:8c:2f:d2|72
1622028578|98:af:65:33:9c:0d|80
1621950732|98:ca:33:db:07:c7|74
1621855815|98:ca:33:db:07:c7|75
1622013479|98:dd:ea:d5:7d:a7|85
1621928625|98:dd:ea:d5:7d:a7|82
1621857476|98:e0:d9:32:cb:b8|81
1622014826|98:f1:70:1b:a8:59|70
1621923431|98:f1:70:1b:a8:59|67
1621857189|99:2d:5f:b7:4c:56|79
1621950838|99:37:09:1b:79:c7|73
1622013249|99:3a:47:4b:77:9d|68
1621946192|99:5b:f3:df:de:cf|62
1622013015|99:85:f6:6b:23:17|64
1621864004|9b:03:53:a7:55:d1|74
1622032388|9b:1a:c4:d3:00:c4|69
1621841391|9b:3b:6a:0d:7d:d9|85
1621861554|9b:85:7b:55:ec:c5|70
1621929738|9b:ac:d8:6f:47:df|75
1621853695|9b:e6:fa:ea:21:8f|79
1621841849|9b:ed:d9:81:9d:7e|79
1621946518|9c:0c:b6:6b:63:a7|64
1621949452|9c:12:66:91:1a:1b|62
1621925524|9c:29:76:e3:f8:50|67
1622013905|9c:29:76:e3:f8:51|67
1621927665|9c:29:76:e3:f8:51|62
1621935356|9c:2b:d2:83:d2:89|69
1621841775|9c:2b:d2:83:d2:89|83
1622032198|9c:30:5b:6b:fa:a5|69
1621937454|9c:30:5b:6b:fa:a5|71
1621949985|9c:7f:f5:98:83:48|64
1621940107|9c:a5:13:54:fc:35|72
1621929793|9c:b6:d0:97:1b:9d|77
1621939319|9c:f3:87:bd:74:b8|77
1621857431|9c:f3:87:c7:31:92|84
1621932110|9d:25:fb:25:13:d5|71
1621950025|9d:2c:fe:c5:35:01|76
1622010709|9d:31:a2:a1:b2:b4|82
1621837103|9d:73:bf:01:19:96|81
1621933388|9d:ba:79:37:06:91|74
1621935742|9d:e5:b7:c4:14:e1|81
1621935469|9f:17:cb:30:4f:85|76
1621923287|9f:19:e0:c1:4f:05|69
1622024750|9f:4d:3c:db:45:5d|75
1622012135|9f:58:95:ce:e4:6a|79
1621852792|9f:5b:72:7f:71:59|77
1621950345|9f:65:d1:f2:66:d0|79
1621839817|9f:b0:28:cb:a2:be|70
1622010095|9f:ee:0f:ef:a1:0d|77
1622021527|a0:4e:a7:21:11:91|86
1621836179|a0:6c:7e:56:0d:78|86
1622016763|a0:6f:aa:87:90:60|79
1621946039|a0:78:17:93:ae:cf|82
1621941917|a0:86:23:75:3b:06|64
1621940863|a0:88:b4:15:4b:ec|69
1621841923|a0:8e:31:86:74:91|79
1621926717|a0:9b:66:6f:33:0d|73
1621849369|a0:a4:c5:b1:fc:ba|67
1621927217|a0:c9:a0:b6:a2:46|77
1621866032|a0:c9:a0:c0:d4:4a|86
1621846067|a0:c9:a0:c6:aa:1b|68
1622025033|a0:cc:2b:07:93:fa|90
1621923284|a0:cc:2b:c8:75:21|88
1621848026|a0:cc:2b:c8:75:21|76
1621849731|a0:d3:7a:c0:eb:12|92
1621937056|a0:ef:f3:3f:f2:2a|73
1621928882|a1:1a:b4:ab:8f:1e|86
1622010231|a1:34:b8:1f:ad:65|82
1621949331|a1:50:6c:6b:d7:95|62
1622009993|a1:85:9a:7c:e8:c4|70
1621928939|a1:a7:3c:47:f0:e8|77
1621837042|a3:40:d0:af:77:bb|75
1621935116|a3:80:11:29:cb:3f|65
1621850574|a3:ff:3d:dd:d4:2c|72
1621942269|a4:2b:5c:1c:51:9a|71
1622012479|a4:45:19:4d:3c:4e|83
1621844239|a4:45:19:4d:3c:4e|85
1621837770|a4:55:90:c4:5e:e6|80
1622029129|a4:59:f5:00:cc:db|74
1621923742|a4:5a:b0:24:68:ae|68
1621854190|a4:60:db:19:05:ca|75
1621940223|a4:7d:65:ba:0f:2e|72
1622011392|a4:83:e7:a4:7e:33|70
1621949738|a4:83:e7:a4:7e:33|79
1622026277|a4:8d:60:be:1b:e7|82
1621939870|a4:9b:4f:e3:b2:98|75
1621937367|a4:9e:79:d8:ed:f0|83
1622024289|a4:b1:c1:d6:51:cd|62
1621860964|a4:b1:c1:d6:51:cd|70
1621939428|a4:b1:c1:d6:51:cd|65
1621859440|a4:c3:f0:c9:2c:cd|86
1622025240|a4:c4:94:45:e4:58|80
1621942796|a4:c4:94:45:e4:58|80
1622029715|a4:cd:9c:64:c2:cb|78
1621842807|a4:d1:8c:e7:72:e8|83
1621854916|a4:d9:31:d8:79:11|72
1622024170|a4:e4:b8:80:55:71|82
1621851907|a4:e4:b8:80:55:71|76
1621937184|a4:e4:b8:80:55:71|70
1621844824|a4:e4:b8:94:90:67|83
1621838579|a5:39:a3:8e:be:71|83
1621949689|a5:3e:82:57:72:c3|70
1621943829|a5:40:5b:09:59:5c|75
1621848079|a5:45:c6:11:22:06|75
1622017592|a5:59:85:5a:7c:72|71
1621935398|a5:7d:b4:ee:16:9b|77
1621852145|a5:bc:94:02:78:71|73
1621939338|a5:d2:f7:f0:d4:b2|76
1621929932|a5:ec:04:f9:04:3e|67
1621937332|a7:14:90:93:bb:f6|78
1621864039|a7:1b:1b:09:3d:ad|76
1621857209|a7:21:65:4b:0d:3e|81
1621923325|a7:26:2d:4e:e3:43|76
1621923386|a7:2e:b7:95:50:43|71
1621949086|a7:6a:71:c6:6c:60|70
1622020698|a7:9c:ce:7a:59:74|62
1621854958|a8:16:c1:55:89:c3|67
1621927260|a8:20:6a:d4:14:da|72
1621852176|a8:31:b1:6e:b5:75|80
1621952969|a8:47:3d:c6:ac:92|89
1621844931|a8:66:7f:64:04:08|76
1622009949|a8:6d:aa:0c:8a:69|82
1621844146|a8:6d:aa:c8:e6:41|82
1621844219|a8:70:89:25:71:f1|75
1621841927|a8:81:7e:89:8b:2f|68
1621929873|a8:81:7e:8f:3c:21|81
1622017605|a8:81:7e:8f:3c:21|78
1621839527|a8:81:7e:8f:3c:21|77
1621953679|a8:96:75:35:9a:40|80
1621851201|a8:96:75:63:da:d8|81
1621934692|a8:9c:ed:6d:c8:bd|74
1622014840|a8:9c:ed:6d:c8:bd|79
1621852178|a8:9c:ed:6d:c8:bd|86
1621932847|a8:9f:ba:bd:95:dc|86
1621861380|a8:9f:ba:bd:95:dc|95
1621862952|a8:db:03:3d:3f:11|85
1621928855|a8:db:03:54:b1:1d|69
1622010898|a8:db:03:54:b1:1d|81
1621847309|a8:db:03:7d:f4:eb|67
1621928662|a9:5f:12:c2:46:c6|72
1621931818|a9:8e:f2:5a:f7:ff|69
1621855664|a9:97:c0:de:24:42|75
1622013881|a9:a8:67:c2:de:3e|75
1621862593|a9:c1:60:ba:f0:72|91
1621855339|a9:c9:5a:0f:34:b1|83
1621838349|ab:67:e8:40:57:27|79
1621943348|ab:7f:72:d0:04:51|76
1622014983|ab:bd:74:e2:c0:c3|74
1622020567|ab:c8:03:51:2b:c3|67
1621837311|ab:fc:a9:40:8c:7a|84
1622008885|ac:07:5f:2a:c1:44|88
1621931555|ac:15:f4:d2:c5:f3|69
1621843795|ac:2a:4e:c3:5c:40|63
1621853087|ac:4b:6c:ac:1d:33|81
1621948009|ac:57:75:3e:62:5e|84
1621934215|ac:64:cf:f4:01:6b|78
1621942543|ac:92:32:f5:48:dd|77
1621849606|ac:c8:40:93:dc:9f|80
1621942731|ac:d5:64:02:f7:bf|78
1622018958|ac:de:f7:66:d6:f1|71
1622024369|ac:fd:ce:37:75:12|78
1621857003|ac:fd:ce:37:75:12|74
1622009407|ad:26:5e:3c:d7:96|89
1621946229|ad:9c:da:32:63:8d|57
1621933089|ad:a9:6a:0f:73:7c|88
1621855609|ad:b7:6b:fd:2b:46|80
1621933281|ad:b7:96:f5:38:e8|74
1621852733|ad:c3:8c:39:ec:13|79
1621931933|ad:e1:cf:31:30:0e|56
1621937835|ad:f7:99:b6:c9:e6|80
1621862624|af:04:56:24:f5:83|75
1621927712|af:08:6c:3f:ac:45|70
1621850697|af:1e:dc:ec:91:0e|69
1622022779|af:98:85:3e:0f:fe|69
1621929709|af:b5:aa:8f:a4:bb|77
1621856444|af:c8:3b:23:60:1a|74
1622029853|b0:10:08:da:13:1b|77
1621841426|b0:12:bd:8a:e4:73|62
1621943860|b0:35:9f:9d:d0:e1|79
1621923070|b0:35:b5:e5:7c:80|72
1621849173|b0:35:b5:e5:7c:80|81
1621838680|b0:6f:e0:1e:1e:e8|89
1621840929|b0:6f:e0:b0:41:f2|73
1622011480|b0:70:2d:bc:e2:2a|78
1621951024|b0:72:bf:42:e9:d6|78
1621922946|b0:a2:e7:cf:24:4c|81
1621856035|b0:a2:e7:cf:24:4c|81
1621925527|b0:a4:60:9d:d8:bb|65
1621854401|b0:c7:6f:c1:32:d1|68
1621942469|b0:c7:75:af:cf:4f|82
1621923367|b0:ce:23:db:18:ea|76
1621925489|b0:e1:7e:a6:4b:f5|61
1621853108|b0:e1:7e:a6:4b:f5|66
1622019624|b0:e2:35:27:28:ef|83
1621949265|b0:e2:35:27:28:ef|84
1622017556|b0:e2:35:c0:c3:11|77
1622012956|b0:e2:35:c0:db:b6|77
1621856978|b0:e2:35:c0:db:b6|84
1621852667|b0:e2:35:c0:db:d9|83
1622029021|b0:e2:35:c0:ef:53|79
1621840390|b0:e2:35:c0:ef:53|76
1622025850|b0:e2:35:c1:19:46|78
1621856107|b0:e2:35:c1:19:46|86
1622020172|b0:e2:35:c1:1c:05|83
1622012845|b0:e2:35:c1:26:0e|78
1621948938|b0:e2:35:c1:26:0e|80
1621927860|b0:e2:35:c1:27:b1|85
1622020142|b0:e2:35:c1:2f:22|81
1621847013|b0:e2:35:c1:2f:22|78
1621929830|b0:e2:35:c1:2f:22|82
1621933256|b0:e5:ed:99:de:a8|76
1621929557|b0:fc:36:a9:6a:2f|88
1621948889|b0:fc:36:aa:71:6b|90
1621927740|b0:fc:36:b0:b2:ab|86
1621836004|b0:fc:36:b1:07:25|80
1622021926|b1:04:c9:0c:a3:83|67
1621946404|b1:52:e5:9f:a4:df|65
1621860386|b1:64:2f:15:98:bf|75
1621924127|b1:74:a4:e1:11:de|81
1621857863|b1:be:88:9e:d5:51|78
1621927533|b1:c6:31:d6:7e:4d|84
1621942148|b1:d8:60:8d:b0:f5|72
1621850164|b3:2c:b5:70:30:ba|79
1621840671|b3:79:7f:18:5a:2f|65
1621848024|b3:7b:f2:3d:29:b9|69
1621935206|b3:82:c0:ed:d3:d6|76
1621852533|b3:91:e1:d4:6f:e6|79
1621929817|b3:b3:fb:da:e0:ad|79
1621846801|b3:c5:2f:ba:63:a0|69
1621940516|b3:e0:f5:7a:7d:6c|77
1621852509|b3:e8:12:bd:7f:3b|74
1621851741|b3:ec:c0:6a:cf:f9|74
1621937848|b4:0a:34:bc:d5:03|85
1621838803|b4:4d:bb:89:ce:9f|80
1621837559|b4:6b:fc:d3:24:03|79
1622015545|b4:74:43:65:6d:79|88
1621932958|b4:8b:19:da:a2:ef|76
1621943997|b4:8d:6a:47:b8:18|72
1621864199|b4:8e:40:96:da:48|79
1621943909|b4:b6:8d:e0:1d:cd|73
1621930455|b4:ce:40:fb:07:0d|87
1621938456|b4:cf:46:03:7a:f6|85
1622032601|b5:17:38:37:bd:1b|77
1622023746|b5:32:61:fc:4b:e8|68
1621948350|b5:65:72:38:0c:20|72
1621946522|b5:e0:79:c3:fd:81|78
1621935241|b7:30:bb:62:98:6a|86
1621950346|b7:3e:b8:b0:32:c6|80
1621850763|b7:75:d7:0f:e7:31|80
1621928006|b7:af:35:fe:f3:ae|67
1621850080|b7:b5:dc:e3:54:00|71
1621937289|b8:08:d9:3e:8d:ad|82
1621845574|b8:31:b5:7f:12:31|68
1621952030|b8:44:d9:b6:64:87|88
1622009885|b8:53:ac:c7:31:1b|86
1621932280|b8:57:d8:a1:22:3a|66
1622032056|b8:8a:60:ed:5d:50|71
1622015484|b8:8b:ff:e7:4c:a8|66
1622009430|b8:9a:2a:af:32:ff|68
1622008846|b8:c9:b5:39:58:b9|83
1622025453|b8:d7:af:02:86:de|82
1621948298|b8:d7:af:02:86:de|84
1622027403|b8:d7:af:0b:b1:a7|71
1622030964|b8:d7:af:b6:77:f7|81
1621943560|b8:d7:af:b6:77:f7|76
1621940268|b8:e9:1a:90:36:5b|77
1622009454|b8:ee:65:67:04:86|73
1621848637|b8:f6:b1:d7:72:ad|84
1621928655|b8:fd:a7:a4:18:06|71
1621936615|b9:35:d0:6a:3b:53|68
1621843771|b9:6c:a3:c5:ff:54|69
1621932028|b9:7d:79:1b:27:0b|66
1621923109|b9:80:ff:d7:dc:24|80
1621929477|b9:c8:75:72:2b:ce|71
1622011525|b9:e0:c8:1d:54:e1|81
1622010333|b9:e1:1d:92:5c:bb|81
1621840349|bb:06:71:56:6f:a7|71
1621935457|bb:2f:18:26:79:f4|76
1621856163|bb:49:e9:4e:fc:a0|83
1621947902|bb:4f:6f:4a:91:2e|77
1621837808|bb:8c:33:9a:d0:42|84
1621927076|bb:8d:60:e7:b7:b2|73
1622030182|bb:cd:0d:53:cb:ed|73
1621945851|bc:06:7e:39:99:de|79
1621848091|bc:09:63:1d:0b:b5|72
1622008868|bc:09:63:8a:18:66|73
1622016363|bc:17:b8:3f:bb:e6|75
1621938974|bc:2e:f6:68:9a:c7|73
1622021119|bc:2f:3d:e3:70:cf|78
1621923069|bc:2f:3d:e3:70:cf|80
1621853891|bc:2f:3d:e3:70:cf|71
1621949318|bc:30:1d:39:f9:6c|76
1621836260|bc:3a:ea:bc:1f:8c|72
1621859222|bc:3d:85:c0:5c:7b|72
1621929158|bc:44:34:12:cb:e5|76
1621859206|bc:54:51:9e:bb:86|81
1621923839|bc:83:85:0f:41:06|77
1622021275|bc:83:85:12:f8:91|77
1621934249|bc:83:85:ef:10:d6|64
1621836677|bc:83:85:ef:10:d6|62
1621922961|bc:b2:d9:a5:37:c7|74
1621841317|bc:e2:65:e0:6d:34|74
1621850475|bc:e6:24:19:d0:e3|83
1621932285|bc:ff:eb:b9:b9:35|78
1621924059|bd:2b:62:d9:e8:58|79
1621846712|bf:07:87:7a:81:b5|74
1621850647|bf:32:cc:d7:11:95|71
1621840816|bf:37:d5:17:9b:3e|64
1621929212|bf:9b:15:bb:85:6d|72
1621943373|bf:b4:6d:dc:f7:f4|73
1621854058|bf:f4:42:42:3c:21|75
1622009822|c0:05:d9:8f:64:24|77
1622010345|c0:17:4d:13:3f:73|90
1621860868|c0:17:4d:13:3f:73|90
1622030608|c0:17:4d:14:52:71|69
1621836196|c0:17:4d:14:52:71|72
1621854851|c0:17:4d:2f:18:3f|85
1621840362|c0:17:4d:38:2f:34|89
1622030498|c0:17:4d:c7:46:e7|91
1621943204|c0:2e:25:69:d9:07|72
1621842267|c0:60:e3:fb:dc:46|72
1622019000|c0:67:c1:d3:08:c9|76
1621930771|c0:7b:7e:c7:e7:41|72
1621850353|c0:b5:d7:d9:00:6d|75
1621929233|c0:b6:58:52:15:74|69
1621859269|c0:b6:f9:3d:5a:8b|76
1621943991|c0:b6:f9:3d:5a:8b|73
1622031172|c0:b6:f9:aa:5f:0f|85
1621850146|c0:b6:f9:aa:5f:0f|73
1621922987|c0:b8:83:7c:e7:4b|69
1622016725|c0:b8:83:7c:e7:4b|77
1621850797|c0:b8:83:7c:e7:4b|64
1621840539|c0:b8:83:c9:f2:c5|63
1622017819|c0:bd:c8:fb:69:ef|68
1622009388|c0:d2:dd:66:05:c5|75
1621923284|c0:d2:dd:66:05:c5|75
1622032387|c0:d2:f3:84:bf:02|68
1621860219|c0:ee:fb:9c:f6:1c|81
1621950792|c0:ee:fb:e0:6f:e0|81
1622012792|c0:ee:fb:e0:6f:e0|86
1621864521|c0:ee:fb:e0:6f:e0|85
1621946570|c1:0f:35:c2:35:5c|63
1622022446|c1:22:31:05:01:18|74
1621949262|c1:2e:c4:fe:ce:05|67
1621945917|c1:2f:ad:6e:c4:9f|76
1621837045|c1:48:5e:e1:b8:8b|77
1622028750|c1:5f:5e:72:95:ce|71
1621849696|c1:97:a1:bf:14:6b|84
1621855332|c1:b8:13:54:1b:7e|85
1621925496|c1:c4:94:b1:10:16|68
1621839584|c3:0b:e0:1b:0f:6e|73
1621846215|c3:0d:57:4f:e7:c6|70
1621945484|c3:27:ad:ef:9d:b1|72
1621845992|c3:40:13:da:13:6c|66
1622009870|c3:54:ad:4b:43:75|76
1621932499|c3:a3:ce:a1:3f:1d|75
1621927045|c3:bc:6a:7e:48:4f|77
1621838224|c4:06:83:25:f3:02|83
1622016526|c4:06:83:5e:86:3c|77
1621853111|c4:06:83:5e:86:3c|86
1622022673|c4:1b:a2:e9:5e:75|72
1622009372|c4:57:6e:4e:d2:b7|67
1621855223|c4:67:f5:e3:0d:52|87
1621929576|c4:8c:33:f3:c8:35|79
1622013530|c4:8e:8f:f3:80:bd|74
1621852036|c4:91:0c:b6:e6:85|73
1621934208|c4:9d:ed:1e:a5:b5|72
1621836142|c4:9d:ed:1e:a5:b5|70
1621923417|c4:9f:4c:84:b2:8b|86
1622009349|c5:0b:c9:11:04:ab|78
1621931566|c5:14:3f:32:f4:e9|78
1621861625|c5:3a:c2:cb:97:a2|74
1621840676|c5:86:0b:44:37:e7|71
1621948996|c5:a0:b9:9a:20:92|65
1621839542|c5:ed:3d:d8:30:fe|66
1621841864|c7:b6:b9:a2:27:5f|80
1622022966|c7:ed:7c:3f:74:c8|85
1621861220|c7:f0:b1:0d:83:f8|75
1621922996|c8:02:10:bf:67:e0|69
1622019462|c8:02:10:bf:67:e0|69
1621841794|c8:02:10:bf:67:e0|71
1622008871|c8:1e:e7:8e:1a:bc|74
1621853676|c8:1e:e7:8e:1a:bc|81
1622020570|c8:34:8e:63:06:4e|83
1621939626|c8:53:58:51:4f:15|83
1621949484|c8:6c:cf:46:e7:62|63
1622021995|c8:6e:3f:9f:14:72|72
1621837109|c8:ab:1d:10:c2:68|80
1621927646|c8:c9:96:c8:42:7e|71
1621838240|c8:ca:ee:87:d8:b2|79
1621929201|c8:d0:83:0f:25:c6|86
1622017514|c8:d0:83:0f:25:c6|88
1621850162|c8:d0:83:0f:25:c6|74
1622011233|c8:e1:a7:09:48:a2|84
1621923421|c8:e1:a7:09:48:a2|76
1622013555|c8:e9:ca:6f:8b:ee|75
1621941092|c8:f7:33:db:5a:83|67
1621850514|c8:f9:09:e0:b3:9b|77
1622020830|c9:16:67:11:98:50|65
1621937144|c9:49:92:5a:40:90|76
1622023324|c9:72:fb:a1:5c:79|82
1621838047|c9:b7:d0:34:b8:33|71
1621839433|c9:ef:50:7e:bf:9c|78
1621850313|cb:16:d7:d4:b0:ec|79
1621850872|cb:1b:76:44:ff:5c|59
1621944943|cb:5a:7e:05:ef:88|84
1621863327|cb:ab:e9:94:70:92|76
1621840207|cb:b8:8a:e7:cb:9e|70
1621852745|cc:20:e8:9f:f7:61|86
1622026172|cc:21:19:3d:04:29|91
1621859257|cc:21:19:89:75:37|69
1621949649|cc:30:35:90:5e:ac|64
1621855526|cc:3d:82:4f:04:39|81
1621947609|cc:41:c6:f9:df:1d|86
1621836030|cc:46:4e:cf:02:6e|74
1622009863|cc:71:44:75:37:7e|64
1621855510|cc:af:17:39:75:f2|80
1622016354|cc:c0:79:fa:30:3d|89
1621939537|cc:c0:79:fa:30:3d|91
1621841330|cc:c7:60:86:61:5f|60
1622019001|cc:cd:4e:5f:12:ac|67
1622019514|cc:e9:e7:88:5c:73|72
1622016671|cf:24:d8:5f:8e:5b|83
1621928859|cf:87:87:20:ac:be|91
1621943558|cf:bc:e6:c1:9d:e6|76
1621842078|cf:cb:ae:47:fa:3d|80
1621936699|d0:25:98:6f:08:4c|82
1621847400|d0:25:98:a4:d0:04|76
1622024264|d0:31:69:52:b0:7c|88
1621861425|d0:5c:23:30:e8:f0|68
1622015919|d0:6c:9a:34:37:ac|79
1622021527|d0:b1:28:fc:62:77|87
1621854572|d0:b1:28:fc:62:77|91
1621928921|d0:b4:08:65:04:0f|76
1622014502|d0:b6:5a:9b:fa:b2|81
1622010930|d0:c6:37:12:3b:3f|73
1621836824|d0:c6:37:12:3b:3f|78
1621847435|d0:c6:37:d6:fa:fb|89
1621864808|d0:d0:03:0a:93:28|83
1621851232|d1:06:a9:c6:f3:ef|72
1622032041|d1:10:48:9b:3f:1e|77
1621949800|d1:27:2d:1a:c1:b7|77
1621939629|d1:60:b6:0a:e7:43|79
1621931184|d1:68:e0:da:68:cb|79
1621854580|d1:88:14:b0:16:14|79
1622019335|d1:91:55:9a:4e:11|68
1621853960|d1:9c:f5:b2:06:6e|82
1622013535|d1:af:16:18:e6:c3|78
1621838579|d1:c8:df:26:d9:2f|71
1621946315|d1:e9:01:44:17:bf|63
1621950234|d1:fd:8f:18:88:f5|69
1621932752|d3:5b:1e:24:3b:81|73
1621838608|d3:72:b8:d9:9e:27|72
1621927655|d3:88:e7:bd:91:99|77
1621932626|d3:dc:7a:ac:60:bd|75
1621838557|d3:df:6f:1a:30:90|74
1621923059|d4:17:c8:5a:2b:6c|78
1621927268|d4:38:7a:5a:bd:f3|76
1621837707|d4:3b:04:79:25:8e|65
1622018494|d4:3b:04:a0:aa:55|84
1621931416|d4:3b:04:a0:aa:55|81
1621841847|d4:3b:04:a0:aa:55|75
1621943093|d4:4d:a4:fb:89:da|77
1621944765|d4:62:ea:38:0c:a1|80
1621836731|d4:6d:6d:e0:e8:c2|77
1621838630|d4:72:fe:06:e0:df|82
1621850836|d4:7b:e4:6f:0e:de|68
1621941577|d4:7d:8e:05:fa:23|72
1621837085|d4:90:9c:95:53:5d|81
1621864802|d4:9d:c0:43:9c:44|74
1622020052|d4:a3:3d:b6:d7:24|70
1622030893|d4:a8:75:46:49:ef|91
1621842559|d4:ae:05:39:ce:27|82
1621953626|d4:b7:61:a0:63:88|93
1621931071|d4:d2:52:b8:18:02|81
1621922493|d4:d2:52:b8:18:70|78
1621927386|d4:d5:81:ba:07:97|66
1622023715|d4:d6:05:be:27:94|62
1621928175|d5:4b:fd:4f:74:f8|74
1621849904|d5:c0:24:b9:ed:1b|73
1621942833|d5:c1:04:f8:d4:4f|67
1622016387|d5:d2:61:fe:72:65|77
1621930495|d5:fe:4e:49:a6:e1|87
1621950222|d7:0d:d4:9d:2d:a9|73
1621857864|d7:32:78:39:05:69|77
1621839436|d7:80:63:3c:df:b1|83
1621927829|d7:8f:98:fe:5f:9f|75
1621861534|d7:b5:94:ea:64:96|75
1621853927|d7:ec:aa:4a:7e:42|72
1621856597|d7:fa:bb:ad:ad:e5|66
1621948387|d8:03:e7:36:84:43|80
1621841853|d8:15:2e:c9:94:3d|76
1621936211|d8:1c:79:ad:a4:d0|74
1622025679|d8:1e:dd:b0:55:af|64
1621866585|d8:1e:dd:b0:68:df|89
1621952017|d8:32:e3:50:2a:2a|85
1621837957|d8:44:49:84:96:98|71
1621940314|d8:4c:90:b3:ff:30|73
1622014303|d8:4c:90:b3:ff:30|75
1621859631|d8:4c:90:b3:ff:30|74
1621934738|d8:68:c3:8c:38:c1|78
1621948493|d8:7a:e0:4c:e0:11|75
1621837537|d8:80:1c:9b:5b:e6|86
1621838462|d8:88:d2:26:0d:33|69
1621841029|d8:91:97:f8:69:d1|72
1622015213|d8:9e:61:e8:92:59|85
1621840649|d8:9e:61:e8:92:59|67
1621843589|d8:bb:2c:f3:51:ac|65
1621837927|d8:c4:6a:d0:71:0a|89
1622030460|d8:f2:ca:11:cb:b4|77
1621861611|d8:f2:ca:11:cb:b4|80
1622009876|d8:f2:ca:b4:e4:9d|77
1621838536|d9:15:60:54:ce:fa|64
1621838540|d9:39:20:d6:c5:87|80
1622021299|d9:4b:8d:be:8c:72|64
1621840459|d9:5a:2a:9f:df:fb|71
1622018134|d9:e2:b2:01:42:e2|71
1621929569|d9:e7:3f:d0:81:77|85
1621929756|db:09:dc:d2:bc:f6|73
1622014141|db:0e:b1:7b:d3:d8|70
1621924007|db:0f:76:c8:15:3f|77
1621855722|db:96:62:bc:9a:69|82
1621841009|dc:1e:42:eb:2b:cf|71
1622027093|dc:37:14:6b:95:f7|81
1621930184|dc:66:72:c8:54:03|68
1621943531|dc:72:9b:76:b1:e2|72
1621842043|dc:7c:3b:c8:0c:d8|74
1621932489|dc:85:de:c0:4c:df|85
1622009438|dc:85:de:c0:4c:df|89
1622032509|dc:8b:28:41:99:fc|74
1621944549|dc:8b:28:65:9c:35|72
1622023321|dc:8b:28:77:df:e4|76
1621844183|dc:8b:28:94:fa:ac|83
1621855605|dc:98:24:3a:a4:26|77
1622021735|dc:a9:04:8b:73:d0|75
1621941481|dc:b7:2e:bb:2b:e4|88
1622031871|dc:b7:2e:bb:2b:e4|74
1621854946|dc:b7:2e:bb:2b:e4|76
1622029653|dc:ef:ca:39:fb:f1|88
1622009153|dc:f0:90:bf:1e:84|70
1621836037|dc:f0:90:bf:1e:84|76
1621922708|dc:f0:90:bf:1e:84|64
1622030687|dc:fb:48:11:89:79|75
1621923583|dc:fb:48:8a:de:c8|69
1621849773|dc:fb:48:8a:de:c8|79
1621923470|dc:fb:8a:b5:f3:b8|71
1621929189|dd:61:10:19:22:05|69
1621839545|dd:cb:70:c9:5d:e8|67
1621854589|dd:d7:4e:20:e8:f0|86
1622028600|dd:d9:8a:85:2e:ab|72
1621846294|dd:f3:2d:25:34:85|74
1621857595|df:4a:f0:57:78:3b|80
1621929175|df:7c:36:00:21:93|78
1621850702|df:b8:ef:74:b9:63|76
1621949967|df:d8:76:0c:b0:b2|89
1621948594|df:ec:d6:21:00:aa|65
1621861576|e0:25:f7:41:ad:42|70
1621944255|e0:5f:45:bc:fa:7e|76
1621928204|e0:83:b6:04:a9:e4|67
1621838108|e0:89:7e:16:7b:fc|82
1622009123|e0:aa:96:0b:f7:ce|85
1621850964|e0:b5:2d:0b:9b:1b|85
1621923767|e0:ca:94:84:33:6f|86
1621837092|e0:ca:94:84:33:6f|89
1621851188|e0:f8:71:10:35:1e|72
1621928413|e1:14:a0:21:35:ff|81
1622009085|e1:48:e4:0a:38:1f|79
1621937266|e1:71:89:38:51:c6|76
1621948817|e1:74:96:51:97:25|83
1621944475|e1:95:07:83:45:fe|73
1621853264|e1:ba:ea:96:c9:19|80
1621851528|e1:cb:0b:a4:83:b7|77
1621946582|e3:0d:26:a4:4f:91|75
1621940139|e3:0f:fb:5e:ad:82|77
1622027895|e3:49:95:34:c0:9c|82
1621941949|e3:65:03:8d:54:d0|64
1621944840|e3:65:05:3b:dd:a3|74
1621838732|e3:dc:39:61:eb:63|77
1622022835|e4:0e:ee:7e:92:40|75
1621943856|e4:0e:ee:7e:92:40|77
1621933967|e4:0e:ee:e4:dd:b8|79
1621847588|e4:2b:34:e5:1f:49|77
1621922446|e4:a4:71:ae:bb:90|80
1622012401|e4:aa:ea:cd:96:f3|76
1622031046|e4:b3:18:4b:d3:f4|91
1621948800|e4:b3:18:4b:d3:f4|94
1622009569|e4:b3:18:9c:52:34|80
1621924003|e4:b3:18:9c:52:34|81
1621852543|e4:b3:18:c7:54:bb|83
1622013175|e4:b3:18:e9:1f:15|82
1621840202|e4:c4:83:e8:a7:f7|76
1621839824|e4:f3:82:17:c3:92|74
1621923259|e4:f8:9c:34:dd:d4|69
1621837039|e4:fc:cf:8a:f6:6b|72
1621856433|e5:83:84:05:9b:7e|73
1621947819|e5:bb:97:cf:8b:d4|81
1622018916|e5:d4:e6:1c:79:a4|76
1621948522|e7:0e:6d:ce:6d:2c|70
1621936991|e7:44:10:12:21:a5|83
1622027863|e7:53:14:96:37:78|79
1621931124|e7:55:20:23:b5:57|80
1622013103|e7:5a:51:b6:2f:d9|63
1621935762|e7:73:dd:f8:6d:b9|86
1621838249|e7:d0:22:a1:dd:92|76
1621934863|e8:1e:14:06:94:77|78
1621862794|e8:26:31:95:7d:f0|79
1621848962|e8:2a:ea:19:b9:2d|81
1622034113|e8:50:8b:7a:0c:7c|72
1622026144|e8:5a:8b:49:a2:a9|93
1622013139|e8:5a:8b:62:63:17|73
1621938689|e8:5a:8b:62:63:17|69
1621837681|e8:5a:8b:62:63:17|84
1621854094|e8:93:09:2e:01:ee|80
1621861199|e8:a8:4b:da:97:7b|75
1621949086|e8:aa:7c:e4:eb:14|69
1622020541|e8:d0:fc:f6:9c:2f|84
1621838459|e8:da:08:7a:25:23|73
1621948560|e9:30:2a:31:7b:cd|69
1621852029|e9:59:24:e1:e1:90|74
1621844036|e9:78:10:d8:04:15|78
1622028645|e9:be:53:7c:27:ab|61
1621949463|e9:ce:c3:d3:8e:aa|66
1621850588|eb:0e:c2:dd:79:2a|77
1621930191|eb:3d:2a:1f:c5:b2|80
1621933690|eb:82:c7:b5:4a:21|74
1621949862|eb:cc:f6:98:c1:1f|71
1621929537|eb:d7:da:4f:1d:34|84
1621950107|eb:ee:70:3a:93:bd|70
1621839582|ec:01:ee:d0:10:6f|69
1622009120|ec:10:7b:f3:d2:5f|90
1621945044|ec:1f:72:11:3b:8d|76
1622029441|ec:1f:72:11:3b:8d|87
1621843973|ec:1f:72:11:3b:8d|71
1621935680|ec:1f:72:2b:f8:b6|82
1622030094|ec:1f:72:66:0c:0a|79
1622020432|ec:1f:72:7b:e0:80|73
1621923069|ec:1f:72:7b:e0:80|83
1622012590|ec:1f:72:80:10:d2|71
1621836147|ec:1f:72:83:9f:04|71
1621851307|ec:1f:72:b7:fe:85|73
1621853163|ec:28:c5:e7:c6:39|75
1621946068|ec:77:57:14:6f:ee|81
1622020355|ec:8c:9a:d6:70:98|86
1621940387|ec:8c:9a:d6:70:98|77
1621840547|ec:9b:f3:ab:a6:5a|72
1621929576|ec:ce:1c:ef:75:35|76
1621840324|ec:de:f7:71:67:35|68
1622029009|ec:e1:8e:be:1d:1e|71
1622021207|ec:f4:17:47:02:e2|63
1621948339|ed:1e:83:99:72:55|80
1621949619|ed:23:f3:5b:52:b1|66
1621854399|ed:44:f8:9f:e9:21|70
1622033457|ed:b4:59:a7:44:29|71
1621855053|ed:d2:6a:db:23:31|73
1621861647|ed:f0:59:fa:83:f0|80
1621837653|ed:f4:53:e5:e3:44|84
1621933697|ef:15:7e:f2:c3:e0|78
1621946660|ef:16:78:5b:a6:c7|76
1621948025|ef:25:b5:12:e2:c2|80
1621843027|ef:32:5c:54:0d:4d|75
1621853793|ef:49:29:08:67:4c|71
1621853924|ef:95:d2:a1:f8:3d|75
1621840430|ef:9a:3c:46:34:58|73
1621942394|ef:b9:29:43:50:86|72
1621950273|f0:05:34:da:5f:40|81
1621938286|f0:0b:5c:40:77:e4|75
1621845186|f0:18:98:6a:15:28|68
1621854140|f0:25:74:20:e1:2f|74
1622032486|f0:28:34:b2:1c:5f|67
1622013043|f0:32:4e:5e:64:45|71
1621841401|f0:3e:82:b0:72:82|78
1622015674|f0:67:28:a0:bf:5d|77
1621837032|f0:6d:78:5a:ad:4d|71
1621838752|f0:6e:0b:e3:c3:f7|65
1621935220|f0:79:60:24:57:02|79
1621840917|f0:79:60:24:57:02|77
1621937833|f0:98:9d:9e:ea:42|85
1622014150|f0:98:9d:9e:ea:42|76
1621845848|f0:98:9d:9e:ea:42|81
1621838762|f0:98:9d:ae:7a:e1|75
1621935040|f0:99:b6:d1:3c:7b|77
1621843880|f0:99:b6:d1:3c:7b|69
1621928875|f0:a6:0c:8e:6a:17|73
1622027608|f0:c5:60:0c:3b:f3|70
1622018970|f0:d5:bf:29:6a:bc|83
1622016617|f0:d5:bf:29:6a:bd|80
1622014981|f0:d5:bf:bb:9e:41|73
1622013337|f0:d5:bf:bb:9e:42|70
1621923682|f0:d5:bf:bb:9e:42|73
1621945897|f0:f5:5e:db:f0:3a|81
1622023099|f1:19:54:b8:1d:38|75
1622011644|f1:5f:bb:c3:40:bd|75
1621941202|f1:80:a9:97:f5:cf|70
1621848770|f1:fb:08:88:de:01|74
1621944654|f3:3f:8e:df:35:fd|87
1621933864|f3:48:bd:b2:6c:be|83
1621855034|f3:6b:78:55:bd:b5|71
1621860960|f3:83:19:df:15:61|84
1622013640|f3:d1:1b:32:0f:a1|76
1622016547|f4:06:69:66:c2:22|80
1621839764|f4:06:69:66:c2:22|70
1622026152|f4:07:30:8d:e7:17|81
1621856467|f4:0b:9f:41:62:98|75
1622014156|f4:0e:22:b7:7d:3f|72
1621930889|f4:0f:24:1f:fc:8b|73
1621945211|f4:5c:89:a9:4f:db|88
1621948889|f4:60:51:48:f3:e2|69
1622029710|f4:8c:50:c8:a5:14|84
1622022169|f4:8c:50:d5:79:e7|79
1621850542|f4:8c:50:d5:79:e7|85
1622011189|f4:96:34:99:a8:36|76
1622018518|f4:96:34:99:a8:37|73
1621854872|f4:96:34:99:a8:37|78
1621923748|f4:96:34:99:a8:37|82
1622013558|f4:c2:48:1c:39:41|85
1621836772|f4:c2:48:73:ec:87|61
1622027294|f4:c2:48:8a:0b:85|87
1621923793|f4:c2:a0:cb:20:4c|92
1622019644|f4:e6:55:b2:f3:73|76
1621923299|f4:fc:e0:62:d8:f4|76
1621837352|f5:49:be:e3:30:50|87
1622028746|f5:67:25:c4:11:d5|77
1621928383|f7:00:5d:12:53:7f|79
1622024734|f7:20:1d:aa:3b:13|74
1621924281|f7:20:5b:e1:61:65|83
1621938819|f7:8c:35:6d:6c:1b|85
1621854389|f7:c6:fd:58:a3:0d|72
1622030624|f7:d2:f3:8a:48:e8|80
1621840666|f7:f4:3b:60:f8:40|67
1621856315|f8:59:71:32:6d:e3|83
1621922788|f8:59:71:32:6d:e3|83
1621933781|f8:59:71:c5:e1:12|81
1621845635|f8:59:71:c5:e1:12|89
1621930708|f8:63:3f:94:59:80|81
1621854963|f8:78:de:90:ff:38|84
1621846521|f8:87:f1:43:7e:38|78
1622014503|f8:94:c2:09:20:f9|77
1622012059|f8:94:c2:09:21:30|69
1621938499|f8:94:c2:09:21:30|84
1621932007|f8:a0:48:6e:47:90|66
1621922485|f8:a2:d6:e3:d6:4d|75
1621940589|f8:ac:65:80:24:5b|77
1621836002|f8:c3:9e:bd:24:a8|64
1622011772|f8:da:0c:4e:06:cb|73
1621846092|f8:e4:e3:67:29:6f|78
1621933478|f8:e4:e3:91:ee:c0|66
1621855199|f8:e4:e3:91:ee:c0|81
1621923148|f8:e4:e3:e4:6a:06|72
1621837583|f8:e4:e3:e4:6a:06|76
1621923490|f8:e4:e3:e4:6b:eb|84
1621922684|f8:e4:e3:e4:6b:ec|79
1621941752|f8:e7:a0:21:57:77|79
1621839051|f8:e9:4e:b0:58:77|84
1621931183|f8:ff:c2:03:88:ee|87
1622015259|f8:ff:c2:53:af:bc|72
1621926395|f8:ff:c2:53:af:bc|78
1622020347|f8:ff:c2:55:88:41|79
1621927501|f9:1f:16:8e:34:48|73
1621948424|f9:25:d8:5c:b1:be|84
1621929114|f9:59:e0:88:c6:6d|73
1621923125|f9:6b:6b:5c:7e:70|77
1621846522|f9:ba:80:57:0d:65|70
1622028515|f9:c5:12:12:16:7f|78
1621851926|fb:23:d7:45:a2:81|75
1621838249|fb:99:e2:03:f4:eb|79
1621943911|fb:af:34:ca:09:a2|73
1621923345|fb:c4:97:2c:5d:a6|77
1621837750|fb:d6:4a:5f:97:60|73
1622014398|fb:fa:ea:2d:12:ef|76
1621931299|fc:1a:e9:77:c3:c3|73
1621844057|fc:42:03:bf:e2:94|76
1622009833|fc:66:cf:e1:47:39|75
1621855556|fc:77:74:f2:8e:66|74
1622011216|fc:77:74:f2:c7:db|74
1621923438|fc:77:74:f2:c7:db|73
1621944736|fc:aa:b6:64:33:e0|80
1621856452|fc:ca:b5:4e:0c:2b|71
1622012018|fc:db:b3:1b:cb:72|69
1621860144|fc:f2:36:0f:7b:3e|73
1621841968|fd:94:b2:17:0e:89|91
1621850374|fd:d5:e4:d3:44:40|66
1622013212|fd:de:7e:57:46:02|76
1621949046|ff:2b:da:c0:7e:7a|67
1621851008|ff:8d:d7:f8:a6:93|73
1622013252|ff:e2:17:88:1a:67|71
1622016409|ff:e7:99:29:9a:e0|81