1622029558|00:01:2f:f4:ad:00|69
1622021258|00:0a:f5:49:a3:90|82
1621931211|00:0a:f5:49:a3:90|73
1621932701|00:0c:e7:00:16:5f|83
1621838479|00:0c:e7:00:6c:76|77
1621927978|00:0c:e7:00:7a:f1|77
1621841894|00:0c:e7:00:82:19|77
1621861834|00:0c:e7:00:8f:c2|78
1621845540|00:0c:e7:01:71:2c|80
1621856555|00:0c:e7:01:76:dd|68
1621864967|00:0c:e7:01:f7:e3|72
1621944627|00:0c:e7:02:65:4a|72
1621950507|00:0c:e7:02:8d:e5|78
1621838212|00:0c:e7:02:97:c6|75
1621862981|00:0c:e7:02:d2:5e|78
1621841192|00:0c:e7:03:05:23|73
1621938116|00:0c:e7:03:a3:72|66
1622028657|00:0c:e7:03:cb:eb|74
1621836700|00:0c:e7:03:e0:80|80
1622011840|00:0c:e7:04:d5:2e|78
1621926330|00:0c:e7:04:e6:d8|79
1621927948|00:0c:e7:05:0a:d1|78
1621858760|00:0c:e7:05:4a:5c|68
1622018986|00:0c:e7:05:59:12|79
1621923950|00:0c:e7:05:62:1a|83
1621840647|00:0c:e7:05:83:2f|82
1621849039|00:0c:e7:05:c0:c3|61
1622026205|00:0c:e7:05:d7:33|80
1621943589|00:0c:e7:06:1e:56|71
1621927287|00:0c:e7:06:82:5d|74
1621930226|00:0c:e7:06:bc:00|71
1621937105|00:0c:e7:06:cd:a3|57
1621846059|00:0c:e7:06:fa:63|81
1621930242|00:0c:e7:07:47:7f|75
1621854389|00:0c:e7:07:9f:fd|71
1621949555|00:0c:e7:08:db:b7|77
1621851407|00:0c:e7:09:82:d1|68
1621844254|00:0c:e7:09:8b:05|80
1621864727|00:0c:e7:09:8b:ee|73
1621844246|00:0c:e7:09:fb:70|70
1622026667|00:0c:e7:0a:17:f2|79
1622033442|00:0c:e7:0a:52:99|75
1621864363|00:0c:e7:0a:9b:31|73
1621925067|00:0c:e7:0a:d5:ab|71
1621935903|00:0c:e7:0a:f1:eb|86
1622029685|00:0c:e7:0c:11:6a|77
1621943477|00:0c:e7:0d:1e:20|72
1621864053|00:0c:e7:0d:6e:48|75
1621935290|00:0c:e7:0d:81:f5|93
1621858579|00:0c:e7:0d:ba:3c|69
1622022564|00:0c:e7:0d:ca:f9|76
1621949825|00:0c:e7:0e:4b:2c|76
1622031683|00:0c:e7:0e:e0:ca|93
1621943466|00:0c:e7:0f:4c:3f|75
1621930707|00:0c:e7:12:95:11|84
1621850233|00:0c:e7:12:9e:21|74
1621930664|00:0c:e7:13:08:25|77
1621837807|00:0c:e7:13:2b:94|73
1621838596|00:0c:e7:13:f0:fa|77
1621843104|00:0c:e7:14:4b:05|77
1622011494|00:0c:e7:14:83:89|82
1621849207|00:0c:e7:15:88:cb|70
1621944447|00:0c:e7:15:a0:b3|78
1621855531|00:0c:e7:15:a6:f2|75
1621931766|00:0c:e7:16:96:3e|76
1621925253|00:0c:e7:16:ed:34|74
1621856539|00:0c:e7:17:24:84|74
1621923295|00:0c:e7:17:96:19|83
1622030112|00:0c:e7:17:fb:eb|76
1621928496|00:0c:e7:18:07:8f|75
1621943498|00:0c:e7:18:14:49|78
1621942473|00:0c:e7:18:18:10|68
1621947511|00:0c:e7:18:3c:88|76
1621860063|00:0c:e7:19:52:b9|70
1621838315|00:0c:e7:19:79:e5|77
1621849181|00:0c:e7:19:87:14|76
1621922513|00:0c:e7:19:a6:b3|91
1621847469|00:0c:e7:1a:2d:4a|78
1621860029|00:0c:e7:1b:13:1d|75
1621846717|00:0c:e7:1b:3e:1e|66
1621842285|00:0c:e7:1b:72:c1|79
1621946372|00:0c:e7:1b:ab:d6|75
1621923679|00:0c:e7:1c:0d:9a|77
1622028391|00:0c:e7:1c:69:09|71
1621844463|00:0c:e7:1c:91:97|83
1621948478|00:0c:e7:1c:e3:40|73
1621930144|00:0c:e7:1d:12:6a|71
1622030225|00:0c:e7:1d:2f:34|79
1621932497|00:0c:e7:1d:54:db|84
1621923915|00:0c:e7:1d:7d:4c|72
1621947997|00:0c:e7:1d:ae:5a|79
1621864037|00:0c:e7:1e:65:b5|71
1621922651|00:0c:e7:1e:c7:9e|77
1621846909|00:0c:e7:1f:79:f7|75
1621943620|00:0c:e7:20:08:07|72
1621928309|00:0c:e7:20:70:d3|77
1621926563|00:0c:e7:21:18:c6|79
1622027182|00:0c:e7:21:c4:a3|83
1621857972|00:0c:e7:22:52:0a|72
1622027164|00:0c:e7:22:63:a4|76
1621854598|00:0c:e7:22:9d:3b|74
1622017915|00:0c:e7:22:c8:9a|77
1621937195|00:0c:e7:23:01:ba|59
1621856653|00:0c:e7:23:7d:e5|74
1621842700|00:0c:e7:23:86:fe|80
1621922758|00:0c:e7:23:d3:d1|72
1622026659|00:0c:e7:24:d1:c6|73
1621864484|00:0c:e7:25:0d:3a|70
1621858923|00:0c:e7:25:44:9c|74
1621936470|00:0c:e7:25:e6:a9|76
1621946629|00:0c:e7:26:05:e7|74
1621859111|00:0c:e7:26:0c:a7|77
1621850256|00:0c:e7:26:5e:eb|73
1621858523|00:0c:e7:26:98:53|71
1621933607|00:0c:e7:26:9c:bf|64
1621857118|00:0c:e7:27:91:9c|70
1621924615|00:0c:e7:27:ba:35|76
1621853171|00:0c:e7:27:ef:ef|73
1621935640|00:0c:e7:28:1e:7b|69
1621938611|00:0c:e7:29:62:8f|74
1621858697|00:0c:e7:29:b1:3b|76
1622028303|00:0c:e7:2a:4f:60|76
1621928776|00:0c:e7:2b:1e:82|76
1621949005|00:0c:e7:2b:a8:e9|90
1621938564|00:0c:e7:2b:de:ce|83
1622022991|00:0c:e7:2c:0f:94|70
1621849074|00:0c:e7:2c:25:12|75
1621860897|00:0c:e7:2c:53:bb|74
1621931944|00:0c:e7:2c:bd:85|72
1621838602|00:0c:e7:2c:c3:ec|86
1621847421|00:0c:e7:2d:12:36|80
1621865090|00:0c:e7:2d:42:28|80
1621948356|00:0c:e7:2d:fb:47|70
1621937537|00:0c:e7:2e:3d:d7|77
1621937085|00:0c:e7:2f:9a:91|63
1621930212|00:0c:e7:2f:db:31|80
1621938738|00:0c:e7:2f:e6:83|75
1621927416|00:0c:e7:2f:fe:7f|65
1621859356|00:0c:e7:30:f6:45|73
1621839345|00:0c:e7:31:0e:67|66
1621928473|00:0c:e7:31:0f:89|78
1621849005|00:0c:e7:31:45:00|69
1622026366|00:0c:e7:31:56:76|74
1621944697|00:0c:e7:31:60:f4|70
1621930663|00:0c:e7:31:8a:09|76
1621863731|00:0c:e7:32:40:a8|78
1621935906|00:0c:e7:32:b9:94|80
1622027456|00:0c:e7:32:fb:81|75
1621837507|00:0c:e7:33:91:53|84
1621932203|00:0c:e7:33:b4:57|74
1622028528|00:0c:e7:34:8e:03|70
1621926041|00:0c:e7:35:2b:76|76
1621855154|00:0c:e7:35:31:6b|74
1621858120|00:0c:e7:35:4a:ff|73
1622016359|00:0c:e7:36:3d:d0|80
1621948969|00:0c:e7:37:d4:26|85
1621952471|00:0c:e7:38:16:f3|87
1621947077|00:0c:e7:38:38:48|81
1621925651|00:0c:e7:38:94:f0|74
1621946847|00:0c:e7:38:b8:ca|68
1621837415|00:0c:e7:38:e5:25|77
1622032165|00:0c:e7:38:fd:71|83
1621937026|00:0c:e7:39:10:1c|72
1621946479|00:0c:e7:39:33:7b|74
1621836424|00:0c:e7:3a:72:c2|78
1621862325|00:0c:e7:3b:2f:67|72
1621945852|00:0c:e7:3b:89:2d|74
1622033385|00:0c:e7:3b:8a:f5|71
1621856112|00:0c:e7:3b:aa:fa|75
1621942821|00:0c:e7:3c:c4:5b|69
1621948470|00:0c:e7:3d:1e:ac|72
1621849146|00:0c:e7:3d:9a:e4|74
1622009048|00:0c:e7:3d:b1:40|76
1622018454|00:0c:e7:3e:60:23|70
1621923457|00:0c:e7:3e:a5:bf|75
1621926477|00:0c:e7:3f:13:f2|72
1622028112|00:0c:e7:3f:29:f0|81
1621853646|00:0c:e7:3f:57:7a|80
1622019206|00:0c:e7:3f:91:cb|90
1621925136|00:0c:e7:3f:f9:44|76
1621937917|00:0c:e7:40:3f:3a|82
1621948586|00:0c:e7:40:6e:58|69
1622010170|00:0c:e7:41:4e:34|68
1622032183|00:0c:e7:41:5a:aa|80
1621836567|00:0c:e7:41:e6:ae|74
1621948131|00:0c:e7:42:08:8d|77
1621855648|00:0c:e7:42:44:b3|75
1622016206|00:0c:e7:42:4f:af|81
1621930438|00:0c:e7:42:f2:a0|68
1622028267|00:0c:e7:43:19:46|76
1621935886|00:0c:e7:43:3a:4d|89
1621838189|00:0c:e7:43:66:64|70
1621943335|00:0c:e7:43:b2:5c|76
1621944875|00:0c:e7:43:fe:bc|78
1621926199|00:0c:e7:44:87:6b|84
1621949027|00:0c:e7:44:d3:26|70
1621860412|00:0c:e7:45:bb:a8|73
1621929662|00:0c:e7:45:d2:f2|70
1621935365|00:0c:e7:45:dd:49|76
1621932821|00:0c:e7:46:16:a6|95
1622018751|00:0c:e7:46:c6:e0|85
1621923620|00:0c:e7:46:d8:87|82
1621838591|00:0c:e7:47:1a:c2|78
1621930599|00:0c:e7:47:a0:1e|87
1621930775|00:0c:e7:48:40:77|73
1621861162|00:0c:e7:48:53:45|68
1622029836|00:0c:e7:48:96:34|73
1622008954|00:0c:e7:48:a9:16|77
1621948338|00:0c:e7:48:dd:11|73
1621863609|00:0c:e7:48:e0:98|73
1621836540|00:0c:e7:48:e4:3e|72
1622012468|00:0c:e7:49:94:a5|77
1621856481|00:0c:e7:49:b9:56|70
1621923303|00:0c:e7:4a:2e:1f|85
1621849017|00:0c:e7:4c:13:79|76
1621948364|00:0c:e7:4c:62:21|70
1621854014|00:0c:e7:4c:b6:ad|80
1621855773|00:0c:e7:4c:d8:eb|72
1622029561|00:0c:e7:4c:e3:69|76
1621945019|00:0c:e7:4d:15:8f|82
1621927548|00:0c:e7:4d:78:69|71
1621864515|00:0c:e7:4d:b8:11|77
1621926191|00:0c:e7:4d:e8:85|75
1621944677|00:0c:e7:4e:2d:cf|78
1621923496|00:0c:e7:4e:8a:97|84
1621926408|00:0c:e7:4e:cc:4e|66
1621944919|00:0c:e7:4e:ea:3d|76
1621950427|00:0c:e7:4f:5a:94|76
1621932297|00:0c:e7:50:79:0a|77
1621862078|00:0c:e7:51:04:5e|71
1621844372|00:0c:e7:51:5b:46|84
1622014667|00:0c:e7:51:97:21|72
1622030038|00:0c:e7:52:25:c0|78
1622029069|00:0c:e7:52:96:d0|81
1621943209|00:0c:e7:52:cc:13|77
1622032322|00:0c:e7:52:e5:26|75
1621933624|00:0c:e7:53:70:9d|65
1621924620|00:0c:e7:53:c7:72|81
1621931333|00:0c:e7:53:e5:e0|82
1621844238|00:0c:e7:54:45:4d|69
1621854287|00:0c:e7:54:f2:bd|80
1621845338|00:0c:e7:54:f9:72|88
1622014061|00:0c:e7:55:22:17|78
1621854085|00:0c:e7:56:01:2f|72
1621930929|00:0c:e7:56:cc:8a|60
1621928904|00:0c:e7:57:38:48|91
1621862370|00:0c:e7:58:13:30|75
1622013856|00:0c:e7:58:42:8d|71
1621945276|00:0c:e7:59:10:0d|74
1622030860|00:0c:e7:59:3b:3b|73
1622029312|00:0c:e7:59:99:00|91
1621949690|00:0c:e7:5a:27:2d|78
1621936712|00:0c:e7:5a:46:0b|65
1622024216|00:0c:e7:5a:c0:f7|66
1621844037|00:0c:e7:5b:4d:79|70
1621860617|00:0c:e7:5c:b2:19|74
1621858990|00:0c:e7:5d:31:00|73
1621938478|00:0c:e7:5d:6c:92|70
1621933667|00:0c:e7:5d:75:c1|84
1621946936|00:0c:e7:5d:82:5a|75
1621862441|00:0c:e7:5e:54:df|76
1622032078|00:0c:e7:5e:72:10|79
1621842869|00:0c:e7:5f:01:85|72
1621844270|00:0c:e7:5f:b4:9d|74
1622013305|00:0c:e7:60:9d:31|65
1621949207|00:0c:e7:60:bb:95|72
1622032443|00:0c:e7:60:fc:ec|87
1621926683|00:0c:e7:61:9d:4c|72
1621945499|00:0c:e7:61:f0:72|64
1621932512|00:0c:e7:62:4e:eb|77
1621844029|00:0c:e7:62:70:a2|64
1621945145|00:0c:e7:63:51:32|72
1622008991|00:0c:e7:64:03:92|84
1621931855|00:0c:e7:64:9e:bd|69
1621924446|00:0c:e7:65:5d:b5|95
1621944566|00:0c:e7:65:7a:78|78
1622028903|00:0c:e7:66:9d:a6|73
1621949334|00:0c:e7:68:28:df|83
1621929666|00:0c:e7:68:4c:6c|70
1621922677|00:0c:e7:69:5e:11|77
1621926445|00:0c:e7:69:9b:b1|71
1622015517|00:0c:e7:6a:0b:bd|69
1622017523|00:0c:e7:6a:6c:37|77
1622021681|00:0c:e7:6a:86:30|76
1622019773|00:0c:e7:6a:dc:83|84
1622017887|00:0c:e7:6c:17:e9|86
1621843370|00:0c:e7:6c:3a:ae|84
1621836621|00:0c:e7:6c:93:81|91
1621858093|00:0c:e7:6c:e3:b3|72
1621837775|00:0c:e7:6d:3a:59|64
1622028682|00:0c:e7:6d:85:7c|80
1621948194|00:0c:e7:6e:bc:25|74
1621928739|00:0c:e7:6f:29:af|74
1622019633|00:0c:e7:70:1e:91|74
1621841044|00:0c:e7:70:7c:cf|77
1621849539|00:0c:e7:70:ea:9a|76
1622026458|00:0c:e7:71:4c:62|68
1621949882|00:0c:e7:71:5f:2f|75
1622029467|00:0c:e7:71:b8:23|76
1621858884|00:0c:e7:71:be:99|77
1622031106|00:0c:e7:71:e7:72|79
1621923254|00:0c:e7:73:06:60|70
1621945757|00:0c:e7:73:c7:dc|75
1621929681|00:0c:e7:74:f2:d9|67
1622022703|00:0c:e7:75:36:99|68
1621943117|00:0c:e7:75:e8:0e|67
1621858907|00:0c:e7:76:c0:bb|63
1621946656|00:0c:e7:77:19:42|73
1622015815|00:0c:e7:77:88:c6|73
1621924078|00:0c:e7:77:a7:83|80
1622016797|00:0c:e7:78:52:81|75
1621863238|00:0c:e7:78:7a:d0|77
1621846614|00:0c:e7:78:f7:f6|85
1621864496|00:0c:e7:79:31:07|70
1621849043|00:0c:e7:79:64:6a|68
1621947632|00:0c:e7:7a:65:28|76
1621946274|00:0c:e7:7a:a3:0d|71
1621851286|00:0c:e7:7a:ab:69|68
1621935366|00:0c:e7:7a:c9:2a|73
1621858869|00:0c:e7:7b:8b:48|75
1621859431|00:0c:e7:7b:ae:14|69
1621845912|00:0c:e7:7c:33:fe|76
1622014632|00:0c:e7:7c:fe:bd|84
1621863623|00:0c:e7:7d:bd:77|81
1621930446|00:0c:e7:7d:d3:02|73
1622021057|00:0c:e7:7d:f4:06|70
1621843694|00:0c:e7:7e:bc:43|83
1621942375|00:0c:e7:7f:44:ad|77
1621932837|00:0c:e7:7f:5c:de|85
1622025280|00:0c:e7:7f:5f:7d|76
1622025583|00:0c:e7:7f:69:84|78
1621842264|00:0c:e7:7f:6a:dd|68
1622016057|00:0c:e7:7f:bd:83|71
1622016450|00:0c:e7:81:31:6b|90
1622029190|00:0c:e7:81:33:ba|77
1622023845|00:0c:e7:81:57:ca|81
1621949390|00:0c:e7:81:91:73|77
1621946774|00:0c:e7:82:27:f0|74
1622024014|00:0c:e7:82:55:dc|73
1622016420|00:0c:e7:82:62:d3|72
1621923284|00:0c:e7:82:94:e0|81
1621847477|00:0c:e7:83:10:4a|79
1622028593|00:0c:e7:83:3c:6a|72
1621861343|00:0c:e7:83:85:e8|71
1621857791|00:0c:e7:84:21:8e|70
1621837843|00:0c:e7:84:21:f2|75
1622025397|00:0c:e7:85:6f:5d|88
1621925282|00:0c:e7:86:2f:1d|79
1621855508|00:0c:e7:86:36:11|78
1621929747|00:0c:e7:86:85:8f|78
1621937651|00:0c:e7:87:30:c1|74
1621860372|00:0c:e7:87:3e:44|73
1621851721|00:0c:e7:87:fd:12|76
1621942595|00:0c:e7:88:05:13|68
1621857877|00:0c:e7:88:4d:51|66
1622028630|00:0c:e7:8a:16:03|81
1621846604|00:0c:e7:8a:cd:ba|76
1621855523|00:0c:e7:8b:12:47|67
1621926473|00:0c:e7:8b:38:20|76
1621935011|00:0c:e7:8b:79:05|80
1622028523|00:0c:e7:8c:11:c3|71
1622016363|00:0c:e7:8c:26:42|76
1622026683|00:0c:e7:8c:27:00|76
1621849141|00:0c:e7:8c:7d:cf|82
1622025948|00:0c:e7:8c:ab:8c|77
1621922988|00:0c:e7:8c:b6:33|81
1621863429|00:0c:e7:8d:0e:9a|70
1621849029|00:0c:e7:8d:39:e6|65
1621848436|00:0c:e7:8d:55:7d|69
1622030127|00:0c:e7:8d:77:08|79
1622029958|00:0c:e7:8f:4e:02|70
1621940037|00:0c:e7:8f:d2:81|68
1622015640|00:0c:e7:8f:fd:3e|69
1622031179|00:0c:e7:90:2c:5f|72
1621849007|00:0c:e7:90:4e:87|76
1621860538|00:0c:e7:90:71:65|70
1621946420|00:0c:e7:90:94:d0|74
1621850134|00:0c:e7:90:a9:15|75
1621938124|00:0c:e7:90:bc:5e|62
1622018516|00:0c:e7:90:fb:70|58
1621948218|00:0c:e7:91:6f:1a|77
1621848998|00:0c:e7:92:88:db|63
1621948098|00:0c:e7:92:8c:65|79
1621941250|00:0c:e7:94:74:b5|79
1621838515|00:0c:e7:94:9c:97|73
1621938149|00:0c:e7:94:e7:bc|77
1621858157|00:0c:e7:95:33:62|70
1621933404|00:0c:e7:95:4f:8a|75
1621929251|00:0c:e7:95:67:27|71
1621843802|00:0c:e7:95:aa:42|84
1621925742|00:0c:e7:95:ca:e6|83
1621934641|00:0c:e7:96:3b:3a|72
1621930991|00:0c:e7:96:75:b9|91
1622026231|00:0c:e7:96:7c:c0|71
1621923720|00:0c:e7:96:d1:b2|72
1621931770|00:0c:e7:96:ef:a7|75
1621934621|00:0c:e7:97:08:95|80
1621860094|00:0c:e7:97:14:a2|75
1621864045|00:0c:e7:97:7f:87|71
1621922673|00:0c:e7:97:c8:40|72
1621861639|00:0c:e7:9a:19:65|82
1621932024|00:0c:e7:9a:75:7d|68
1621936891|00:0c:e7:9a:bf:54|70
1621858571|00:0c:e7:9a:cc:ad|68
1622016587|00:0c:e7:9b:1b:b6|77
1622015290|00:0c:e7:9b:48:99|87
1622011424|00:0c:e7:9b:5b:18|71
1622016442|00:0c:e7:9b:85:39|83
1621856730|00:0c:e7:9c:0e:23|76
1621857376|00:0c:e7:9c:15:e2|75
1622029351|00:0c:e7:9c:88:5b|68
1621924243|00:0c:e7:9d:a1:ed|81
1621930798|00:0c:e7:9e:37:e8|73
1621861440|00:0c:e7:9e:5b:6e|75
1621933246|00:0c:e7:9f:1a:56|78
1622028687|00:0c:e7:9f:93:2b|65
1622010852|00:0c:e7:9f:b4:c8|73
1621853966|00:0c:e7:a0:76:61|84
1622025624|00:0c:e7:a0:bd:fc|72
1622013567|00:0c:e7:a0:ea:2a|84
1621852091|00:0c:e7:a1:50:79|77
1621928745|00:0c:e7:a2:c0:cc|67
1621837399|00:0c:e7:a3:5a:a3|65
1621862077|00:0c:e7:a4:01:e5|77
1622022541|00:0c:e7:a4:95:0b|73
1621845907|00:0c:e7:a4:f0:a7|73
1621864395|00:0c:e7:a5:44:fe|70
1621932622|00:0c:e7:a5:8a:c0|78
1621854784|00:0c:e7:a6:d9:c5|77
1621924922|00:0c:e7:a6:f8:b5|81
1621949297|00:0c:e7:a7:44:2d|69
1622028778|00:0c:e7:a7:81:df|68
1621848046|00:0c:e7:a7:f3:a5|78
1621845253|00:0c:e7:a8:7c:42|79
1621844575|00:0c:e7:a8:c1:d1|83
1621937513|00:0c:e7:a9:72:15|86
1621946385|00:0c:e7:aa:1b:15|79
1621859683|00:0c:e7:aa:40:11|71
1622011545|00:0c:e7:aa:4c:12|77
1621853525|00:0c:e7:aa:e5:81|75
1621858844|00:0c:e7:ab:14:6d|75
1622028257|00:0c:e7:ab:2c:56|79
1621860069|00:0c:e7:ab:dd:0f|69
1621849238|00:0c:e7:ac:48:04|68
1621934836|00:0c:e7:ac:55:15|64
1621845317|00:0c:e7:ac:db:89|71
1621846106|00:0c:e7:ad:2f:bc|75
1621847406|00:0c:e7:ad:dc:25|77
1621842505|00:0c:e7:ad:fe:08|65
1621849031|00:0c:e7:ae:05:c7|75
1621836925|00:0c:e7:ae:08:3d|78
1621928258|00:0c:e7:ae:0d:1c|71
1622021517|00:0c:e7:af:59:74|78
1622025807|00:0c:e7:af:a7:d9|79
1622030837|00:0c:e7:b0:54:fd|80
1621863675|00:0c:e7:b0:60:cd|72
1621842098|00:0c:e7:b0:a6:d9|72
1621842163|00:0c:e7:b0:f4:a2|84
1621836942|00:0c:e7:b1:e6:c8|68
1621848056|00:0c:e7:b2:24:a5|68
1622025567|00:0c:e7:b2:79:ef|75
1622028955|00:0c:e7:b2:de:5e|72
1622014166|00:0c:e7:b3:30:4f|72
1621842994|00:0c:e7:b4:21:7e|80
1621849243|00:0c:e7:b5:44:a3|72
1621859478|00:0c:e7:b5:78:69|77
1621942642|00:0c:e7:b5:84:95|78
1621931077|00:0c:e7:b5:93:8e|68
1621857742|00:0c:e7:b6:00:35|79
1621844743|00:0c:e7:b6:a4:e9|73
1622013574|00:0c:e7:b7:af:19|89
1621946805|00:0c:e7:b7:d7:94|73
1621859805|00:0c:e7:b8:38:ff|74
1621946713|00:0c:e7:b8:f6:08|78
1621941814|00:0c:e7:b9:1b:80|71
1621942756|00:0c:e7:b9:65:fd|79
1621860324|00:0c:e7:b9:67:78|74
1622031346|00:0c:e7:b9:a2:15|72
1621858638|00:0c:e7:b9:c4:b3|90
1622032505|00:0c:e7:b9:ed:31|74
1621936775|00:0c:e7:bb:e4:9e|78
1621936835|00:0c:e7:bc:65:fa|75
1621942584|00:0c:e7:bc:7a:62|84
1621848982|00:0c:e7:bd:15:a8|67
1621841069|00:0c:e7:bd:18:fb|75
1621848515|00:0c:e7:bd:51:f8|73
1621848343|00:0c:e7:bd:bc:cd|76
1621837752|00:0c:e7:bd:de:89|83
1621848422|00:0c:e7:be:7f:18|75
1621861085|00:0c:e7:be:88:7d|72
1622014797|00:0c:e7:be:cd:9a|74
1621938355|00:0c:e7:be:f2:67|78
1621945041|00:0c:e7:bf:7f:e7|86
1621931540|00:0c:e7:bf:f2:21|72
1622024747|00:0c:e7:c0:65:bd|79
1621865096|00:0c:e7:c0:73:57|79
1621923247|00:0c:e7:c0:a7:57|78
1621856916|00:0c:e7:c1:18:c7|80
1621925555|00:0c:e7:c1:39:28|73
1621848720|00:0c:e7:c1:b5:65|74
1621931825|00:0c:e7:c1:cd:8b|68
1621922642|00:0c:e7:c2:0e:4f|77
1621841490|00:0c:e7:c2:bb:56|86
1621934084|00:0c:e7:c3:30:5b|88
1621847349|00:0c:e7:c3:51:78|82
1621860291|00:0c:e7:c3:78:12|68
1621849106|00:0c:e7:c3:91:c9|73
1622028412|00:0c:e7:c3:b3:62|58
1621839231|00:0c:e7:c4:02:12|75
1621925577|00:0c:e7:c4:49:cc|71
1622016263|00:0c:e7:c4:b5:65|71
1621849991|00:0c:e7:c4:fc:56|77
1622009161|00:0c:e7:c5:3d:6a|83
1621923449|00:0c:e7:c5:a3:6f|87
1621861449|00:0c:e7:c6:6c:d9|93
1621948469|00:0c:e7:c6:94:fe|85
1621924588|00:0c:e7:c6:dd:77|76
1621842081|00:0c:e7:c7:fd:73|74
1622028544|00:0c:e7:c9:50:54|75
1621857224|00:0c:e7:c9:89:d0|76
1621922928|00:0c:e7:c9:a2:91|72
1621860365|00:0c:e7:c9:b5:14|80
1622021354|00:0c:e7:ca:55:bb|70
1622024877|00:0c:e7:ca:5b:0e|76
1622016083|00:0c:e7:ca:5d:6c|68
1622026778|00:0c:e7:ca:7c:4c|69
1621948646|00:0c:e7:ca:88:7a|72
1621850120|00:0c:e7:cb:b1:ef|76
1621864606|00:0c:e7:cc:9d:88|72
1621934661|00:0c:e7:cd:29:2d|72
1621946634|00:0c:e7:cd:6e:53|74
1621847228|00:0c:e7:ce:3f:02|75
1621838532|00:0c:e7:ce:ee:3c|73
1621864102|00:0c:e7:cf:31:27|80
1622019653|00:0c:e7:cf:c8:d9|68
1621858101|00:0c:e7:cf:cd:87|70
1621842221|00:0c:e7:d0:d9:25|76
1621934682|00:0c:e7:d1:3b:73|75
1621837964|00:0c:e7:d1:4f:71|69
1622018807|00:0c:e7:d1:4f:ee|79
1621848918|00:0c:e7:d1:a0:3b|71
1621940062|00:0c:e7:d1:b9:77|72
1621843770|00:0c:e7:d1:c9:db|79
1621943882|00:0c:e7:d2:36:85|71
1621938510|00:0c:e7:d2:45:f8|73
1621935110|00:0c:e7:d2:9c:02|64
1621837387|00:0c:e7:d2:e0:c8|92
1621927970|00:0c:e7:d2:fa:9f|78
1622020892|00:0c:e7:d3:af:05|76
1621836974|00:0c:e7:d4:17:74|67
1621952989|00:0c:e7:d4:1e:c6|93
1621849870|00:0c:e7:d5:08:0b|67
1621856876|00:0c:e7:d5:da:11|69
1621849096|00:0c:e7:d6:ad:32|81
1621945740|00:0c:e7:d6:f7:f3|75
1621836947|00:0c:e7:d7:78:4e|71
1622011187|00:0c:e7:d7:b4:6f|73
1621937078|00:0c:e7:d7:c1:de|72
1622024676|00:0c:e7:d8:b9:05|81
1622030746|00:0c:e7:d9:3b:f2|69
1621847078|00:0c:e7:d9:45:6a|76
1621950421|00:0c:e7:d9:7e:3d|85
1621925547|00:0c:e7:d9:c6:fb|72
1621935679|00:0c:e7:da:9e:7d|71
1622024211|00:0c:e7:da:e2:84|78
1622025532|00:0c:e7:da:ea:09|72
1621943905|00:0c:e7:dc:fd:a3|71
1621931819|00:0c:e7:dd:61:3d|70
1622023603|00:0c:e7:dd:90:10|79
1621928017|00:0c:e7:dd:a6:f0|68
1621836476|00:0c:e7:dd:a9:75|74
1621935721|00:0c:e7:de:8e:95|84
1621846123|00:0c:e7:de:ca:40|72
1621946393|00:0c:e7:de:cb:b5|71
1622015169|00:0c:e7:de:d5:3e|80
1622028500|00:0c:e7:df:1c:5f|84
1621836545|00:0c:e7:df:2d:06|65
1622024796|00:0c:e7:df:58:f1|83
1622028614|00:0c:e7:e1:19:dd|80
1621950207|00:0c:e7:e2:35:3a|76
1621934740|00:0c:e7:e2:9f:c1|66
1622022889|00:0c:e7:e2:d9:3f|76
1621946239|00:0c:e7:e3:78:40|74
1621860843|00:0c:e7:e4:03:d4|75
1621858264|00:0c:e7:e4:25:5f|81
1621837940|00:0c:e7:e4:27:0d|64
1621838528|00:0c:e7:e4:3b:5c|76
1621937607|00:0c:e7:e5:8f:e9|74
1622024497|00:0c:e7:e6:94:50|78
1621948361|00:0c:e7:e8:0a:a1|78
1621938388|00:0c:e7:e8:5f:44|72
1621865087|00:0c:e7:e9:fb:73|72
1621928895|00:0c:e7:ea:83:23|73
1621842126|00:0c:e7:ea:ca:25|81
1622018434|00:0c:e7:eb:21:20|83
1622019984|00:0c:e7:eb:b7:12|82
1621923343|00:0c:e7:ec:0c:20|76
1621849212|00:0c:e7:ec:6d:c5|74
1621846771|00:0c:e7:ec:e9:90|82
1621861073|00:0c:e7:ed:9c:b9|78
1622016805|00:0c:e7:ed:a1:77|77
1622028378|00:0c:e7:ee:65:7a|85
1621938641|00:0c:e7:ef:2a:75|85
1622022561|00:0c:e7:ef:6a:88|80
1621851369|00:0c:e7:ef:d5:11|64
1621842056|00:0c:e7:f0:17:e3|77
1622024084|00:0c:e7:f0:1e:54|81
1621837629|00:0c:e7:f0:92:1f|67
1621859599|00:0c:e7:f1:02:64|69
1622025243|00:0c:e7:f1:06:8c|74
1622019254|00:0c:e7:f1:3e:f6|64
1621928202|00:0c:e7:f1:52:07|79
1621923615|00:0c:e7:f1:b2:8b|74
1621941574|00:0c:e7:f2:75:98|79
1621848728|00:0c:e7:f3:06:10|76
1621930121|00:0c:e7:f3:5c:97|71
1621942799|00:0c:e7:f3:76:3d|72
1621861803|00:0c:e7:f3:86:3d|76
1621925216|00:0c:e7:f4:cb:6e|67
1621837823|00:0c:e7:f5:00:9a|72
1621860728|00:0c:e7:f5:7b:21|69
1621858644|00:0c:e7:f5:c6:a4|75
1621865022|00:0c:e7:f6:23:45|75
1621942533|00:0c:e7:f6:68:77|80
1621853023|00:0c:e7:f6:9a:4c|76
1622018727|00:0c:e7:f6:a2:8c|85
1621847366|00:0c:e7:f7:61:99|73
1621848038|00:0c:e7:f7:6f:fd|77
1621844554|00:0c:e7:f7:e0:05|77
1621841314|00:0c:e7:f8:9a:07|82
1621863550|00:0c:e7:f9:53:ce|84
1621926852|00:0c:e7:f9:6a:44|74
1621838524|00:0c:e7:f9:de:f0|71
1622028815|00:0c:e7:fa:7e:ca|69
1621925646|00:0c:e7:fa:c6:96|79
1622018258|00:0c:e7:fb:fc:7a|90
1622029109|00:0c:e7:fc:c8:8e|84
1621925422|00:0c:e7:fd:79:f5|71
1621935622|00:0c:e7:fd:bf:84|71
1621855090|00:0c:e7:fe:1a:1d|78
1621857118|00:0c:e7:fe:7c:69|82
1621864112|00:0c:e7:ff:02:88|74
1621849613|00:0c:e7:ff:08:91|84
1621925989|00:0c:e7:ff:6d:37|80
1621937156|00:0c:e7:ff:cd:69|73
1621925745|00:12:0e:9a:cc:ca|86
1621946091|00:1b:12:4b:fe:f2|60
1622013371|00:23:0d:94:ba:45|76
1622022836|00:23:15:d1:c3:3d|78
1621843452|00:23:15:d1:c3:3d|84
1621936713|00:23:a7:48:a2:c8|82
1622031703|00:25:d3:8c:99:31|95
1621930059|00:26:69:01:9e:90|84
1622013809|00:28:f8:2b:3a:45|73
1621923935|00:28:f8:2b:3a:45|67
1622012995|00:28:f8:2b:3a:46|73
1621923924|00:28:f8:2b:3a:46|76
1621933199|00:28:f8:71:23:48|76
1622008931|00:28:f8:a0:5f:cd|68
1621842707|00:34:fe:fe:9e:f2|77
1622027234|00:71:cc:62:e8:8b|85
1621925941|00:7c:2d:eb:0f:c6|63
1621928797|00:7c:2d:ed:47:c4|70
1622008841|00:7c:2d:ed:47:c4|74
1621924281|00:8a:fe:e6:ab:01|73
1621926596|00:9a:cd:41:fa:ff|82
1621928542|00:9b:5d:fd:ac:92|72
1621924501|00:9d:6b:37:5f:0d|86
1622013427|00:ae:fa:56:cc:3c|75
1621950210|00:ae:fa:56:cc:3c|91
1621836830|00:ae:fa:56:cc:3c|86
1621924975|00:b4:4f:27:f4:67|83
1621938674|00:b5:d0:43:ef:a1|85
1622023090|00:b5:d0:43:ef:a1|76
1621838855|00:b5:d0:43:ef:a1|86
1622020191|00:bb:60:b8:26:26|75
1621937806|00:d6:ae:40:70:0b|88
1621924258|00:e1:8c:ba:cb:c9|80
1621836648|00:e1:8c:ba:cb:c9|93
1622009146|00:e1:8c:ba:cb:ca|87
1621849691|00:e1:8c:ba:cb:ca|92
1621837034|00:e1:8c:f2:db:1d|90
1621928077|01:36:92:bb:f5:ad|68
1621849386|01:4b:3e:06:55:de|83
1621840727|01:52:32:69:df:7b|70
1621849358|01:5a:1e:9d:50:13|79
1621852430|01:78:02:7b:58:0d|67
1621856447|01:82:6d:57:a9:43|77
1621929178|01:95:4e:e0:c5:ad|73
1621947424|01:c3:1a:4a:ec:8d|83
1621948489|01:c9:3a:91:34:a2|81
1621842321|03:31:7c:80:41:b3|83
1621854902|03:4a:3f:89:c1:30|84
1621841923|03:8d:65:1e:2a:79|83
1621839784|03:e2:5a:3b:f6:92|72
1621839436|04:7c:f4:20:a7:42|64
1621861163|04:8c:9a:ba:b7:97|78
1621850476|04:b4:29:e2:5d:23|67
1621937549|04:ba:8d:bd:77:f7|83
1621856825|04:c2:3e:97:7d:77|72
1621836791|04:d1:6e:ad:13:1b|75
1622018894|04:d6:aa:0e:68:12|70
1621841973|04:d6:aa:0f:30:00|86
1622025767|04:d6:aa:1f:68:71|91
1622014824|04:d6:aa:22:9d:01|82
1622024011|04:d6:aa:35:8e:52|93
1621863048|04:d6:aa:3b:68:ab|89
1621868085|04:d6:aa:41:21:f7|92
1622013700|04:d6:aa:53:53:0f|88
1622012747|04:d6:aa:57:50:a9|83
1622009143|04:d6:aa:65:0d:c1|94
1622021503|04:d6:aa:68:2a:b1|86
1621838601|04:d6:aa:68:2a:b1|80
1621932307|04:d6:aa:6e:b9:2d|80
1621843424|04:d6:aa:9b:fd:43|79
1622025185|04:d6:aa:ac:07:a9|68
1621856385|04:d6:aa:b2:ac:f8|84
1621941803|04:d6:aa:da:21:0c|91
1622017520|04:d6:aa:e2:02:b3|85
1621863652|04:d6:aa:e2:02:b3|88
1621926999|04:d6:aa:fa:aa:64|83
1621923728|04:e5:36:32:d3:38|69
1622019274|04:e5:36:32:d3:38|68
1621845580|04:e5:36:32:d3:38|69
1621926807|04:ea:c4:3e:e2:99|71
1622009283|04:ed:33:b4:0c:99|69
1622009330|04:ed:33:b4:55:7d|70
1621854055|05:b2:e2:93:3e:37|80
1621949593|05:ef:b5:9b:7c:f2|66
1621949748|07:97:0b:b2:3c:07|76
1621846491|07:c0:ee:0c:9a:14|80
1621925017|08:25:25:2c:de:13|89
1622030883|08:25:25:7c:ff:b5|87
1621863477|08:25:25:ff:23:da|91
1621948618|08:3f:78:26:fc:b5|79
1621857686|08:58:44:62:70:c8|87
1621936857|08:7f:98:90:11:b9|76
1622016682|08:7f:98:90:11:b9|92
1621840794|08:7f:98:90:11:b9|90
1621846605|08:bf:a0:86:b3:c8|83
1622032000|08:c5:e1:0b:3c:74|77
1621923316|08:c5:e1:0c:ff:06|78
1621943173|08:c5:e1:16:e3:48|83
1622018884|08:c5:e1:19:81:72|72
1621932397|08:c5:e1:19:81:72|72
1622010823|08:c5:e1:25:31:82|63
1621937547|08:c5:e1:25:31:82|64
1621843836|08:c5:e1:38:21:27|78
1621946623|08:c5:e1:45:b7:54|88
1621864502|08:c5:e1:71:bd:b1|88
1622029398|08:c5:e1:90:81:e1|79
1621932911|08:c5:e1:b3:d4:86|75
1621926962|08:c5:e1:ee:9d:ac|79
1621923147|08:c5:e1:f5:a9:e4|83
1621837668|08:ce:9e:f9:d9:9f|70
1622014527|08:f6:9c:1e:79:d1|62
1622029160|08:fb:f3:b8:e9:fe|86
1621840309|09:14:69:59:f3:ab|80
1621927070|09:39:ec:d8:6c:a8|64
1622009930|09:45:89:37:1b:7b|86
1621852821|09:5d:d9:8e:58:9a|72
1621949556|09:ad:10:1f:be:61|69
1621926414|09:cf:3f:49:fd:a9|57
1621862638|09:da:1e:d4:4c:74|73
1621927959|0b:67:f0:7e:00:2f|67
1621846093|0b:ae:da:79:ad:c7|71
1621854015|0c:18:97:04:5e:4a|76
1621948578|0c:40:41:43:63:1b|86
1621860200|0c:59:73:71:0f:89|77
1621842441|0c:70:4a:db:bf:d9|81
1621853950|0c:75:01:72:09:56|68
1622012091|0c:7a:15:8e:46:44|76
1621924508|0c:8c:24:bf:0f:65|72
1622030099|0c:8c:24:bf:12:72|66
1621945978|0c:8f:78:f0:32:d8|66
1621862384|0c:8f:ff:17:4a:75|86
1621928538|0c:96:e6:76:6e:eb|95
1621844275|0c:96:e6:76:6f:a7|91
1621930256|0c:d6:0e:0f:f8:90|76
1621930487|0c:db:68:31:a9:ef|77
1621945775|0c:f3:46:ce:ad:6b|84
1622032763|0c:f3:46:f6:ca:79|83
1621849828|0c:f3:46:f6:ca:79|87
1621924794|0c:f3:46:f6:ca:79|89
1621851083|0d:04:ba:e6:6d:94|71
1621851100|0d:16:cb:c2:d6:01|69
1621940099|0d:4a:b7:47:c4:db|67
1621925387|0d:5a:d9:5b:03:ff|72
1621926124|0d:81:9d:10:b8:56|75
1621949435|0d:b9:e5:ff:ee:ee|73
1621838790|0f:2e:f0:d9:ad:00|85
1621925317|0f:44:01:6e:e2:01|69
1621855522|0f:52:3b:7c:ae:d4|85
1621854470|0f:52:3d:df:42:f7|71
1621849907|0f:53:d2:4e:85:d5|67
1621851445|0f:7b:72:f6:c1:85|90
1621842866|0f:c4:4c:25:50:5f|73
1622017380|0f:d0:4b:2a:04:41|82
1621927261|0f:d0:9a:49:b8:5f|72
1622017230|10:02:b5:46:93:5d|68
1622014505|10:02:b5:50:2c:65|85
1622011288|10:02:b5:50:2c:66|83
1621853716|10:32:7e:c0:40:29|68
1622009291|10:3f:44:1a:3f:b3|87
1621861187|10:3f:44:1a:3f:b3|90
1621864392|10:3f:44:22:f9:8f|89
1621845222|10:3f:44:25:21:0b|81
1621863279|10:3f:44:30:53:13|95
1621844177|10:3f:44:ea:54:fb|81
1621945987|10:41:7f:39:23:31|89
1621838505|10:44:00:1d:6c:1f|82
1621859176|10:44:00:39:7b:c9|76
1621923599|10:63:c8:31:5c:ab|80
1621925289|10:87:06:ba:9b:cb|77
1622029528|10:8a:b6:97:54:4f|65
1622031864|10:9a:48:09:26:81|87
1621952233|10:bc:97:b6:c7:cd|89
1621864234|10:bc:97:b6:c7:cd|77
1621931846|10:e9:53:54:47:62|83
1621852416|10:e9:53:54:47:62|84
1621949478|10:fa:64:42:f1:7f|87
1621839703|11:18:25:04:9e:56|74
1621853091|11:2f:c4:16:88:72|65
1621850010|11:5a:a0:66:e0:4e|81
1621937166|11:e0:3a:2c:89:97|70
1621931405|14:1f:78:e1:97:31|87
1622019365|14:20:5e:e9:17:7a|74
1621924319|14:2c:99:4d:0b:e9|77
1622012475|14:4f:8a:c2:9b:92|90
1621854378|14:4f:8a:c2:9b:92|89
1621940933|14:56:8e:76:31:29|80
1621954790|14:56:8e:77:c8:f1|84
1621837327|14:5e:2f:c0:be:0f|71
1621938874|14:69:de:51:f1:36|85
1621927927|14:7d:da:42:8b:32|86
1622021289|14:7d:da:42:8b:32|86
1621851612|14:7d:da:42:8b:32|78
1621944098|14:7d:da:8d:59:80|86
1621849946|14:85:9d:af:d5:e9|79
1621928989|14:9d:09:ec:e3:91|81
1621857182|14:ab:c5:e0:f6:55|75
1621938727|14:e3:62:4f:b9:8c|72
1621952992|14:f7:95:21:64:63|86
1621925314|15:78:9c:61:c6:cb|70
1621861987|15:85:6f:5c:51:d5|92
1621841684|15:ef:35:cd:65:23|70
1621855809|17:20:fd:ad:cd:a4|92
1621928651|17:3f:9e:57:5c:96|75
1621841982|17:51:d3:75:c6:7c|71
1621926352|17:aa:bc:e4:ad:4c|72
1621840916|17:bc:ae:54:dc:6d|76
1621855235|17:c3:ff:72:c7:99|71
1622029807|18:22:7e:b2:db:1e|92
1622017602|18:26:49:76:c5:a5|74
1621950646|18:3a:2d:21:96:c5|93
1622021963|18:3e:ef:c0:6f:98|87
1621850056|18:3e:ef:c0:6f:98|76
1621935871|18:47:3d:e4:91:f7|86
1622016663|18:47:3d:e4:91:f7|85
1621857550|18:47:3d:e4:91:f7|85
1622025445|18:56:80:35:8b:ad|86
1621949670|18:56:80:35:8c:98|84
1621863031|18:56:80:35:8c:98|73
1622013475|18:56:80:35:8d:fb|87
1621857341|18:56:80:ff:35:66|73
1621849684|18:5f:9b:cc:a3:95|73
1621952909|18:68:83:a9:ce:22|81
1622020048|18:76:42:90:ec:65|81
1621839869|18:76:7e:c0:c8:49|88
1621846296|18:7e:b9:30:20:00|74
1621861249|18:c2:8b:25:58:b5|81
1621851229|18:cc:18:9b:9e:2a|79
1621922447|18:cc:18:9b:9e:2a|77
1621922501|18:cc:18:9b:9e:2b|77
1621851944|18:cc:18:9b:9e:2b|78
1622023399|18:cc:18:b8:8d:8c|93
1621854295|18:cf:f0:16:0d:bc|69
1622027093|18:f6:43:1c:6b:4b|86
1621838463|19:56:a0:96:f4:e3|67
1621841587|19:5c:12:5d:72:0a|82
1621928004|19:7c:66:06:47:cc|69
1621840994|19:83:ab:44:38:9c|74
1621837160|19:bf:7c:92:7a:cd|74
1621946111|1b:17:db:d6:a6:79|61
1621839406|1b:6e:50:f5:b3:ac|63
1621836945|1b:84:84:2b:55:a2|84
1622032531|1b:9b:40:ae:68:53|75
1621852187|1b:ad:df:38:34:ef|72
1621938052|1b:d5:60:7d:91:5f|79
1622030998|1c:04:e8:ee:91:1e|82
1622013547|1c:15:1f:59:1c:27|83
1622013188|1c:15:2e:d4:8a:37|88
1621853147|1c:1a:c0:21:43:e9|87
1621842419|1c:23:e2:6d:71:3a|68
1621922842|1c:4d:70:23:62:6b|85
1622008827|1c:4d:70:23:62:6b|84
1621840826|1c:4d:70:23:62:6b|86
1621858211|1c:67:58:4a:ec:ad|84
1621948648|1c:cc:d6:2a:fa:04|89
1622014385|1c:cc:d6:2a:fa:04|94
1621862847|1c:cc:d6:2a:fa:04|88
1622016696|1c:cc:d6:ea:11:47|56
1622022984|1c:cc:d6:fa:18:ff|77
1621839862|1d:49:d5:3e:b4:52|83
1621838415|1d:62:fb:f4:41:11|73
1621927661|1d:9d:d0:1a:78:e6|70
1621927208|1d:b1:6a:f8:65:02|74
1621860945|1d:ba:55:f3:7e:33|72
1621854283|1d:bd:f0:92:18:25|71
1621853846|1d:d5:dc:4c:74:bb|72
1621923999|1f:d3:d8:11:e1:40|68
1621842031|20:12:d2:85:85:e3|81
1622019573|20:15:79:8b:35:01|77
1621924317|20:1b:50:61:6b:7f|78
1622023212|20:37:26:5b:fc:86|85
1621848869|20:6c:9b:fd:47:22|81
1622016830|20:79:18:30:2d:75|84
1621852586|20:79:18:30:2d:75|83
1621852602|20:79:18:30:2d:76|85
1621849904|20:79:18:7f:09:90|82
1621836898|20:79:18:93:a3:2d|80
1621926709|20:79:18:fb:4f:9b|70
1621853326|20:a1:c3:51:c3:02|73
1621866239|20:a6:0c:30:2f:19|70
1621840970|20:b9:e8:ca:88:d7|83
1621838766|21:51:21:4b:4b:a0|80
1621950107|21:79:aa:82:ba:ef|69
1621850637|21:a7:77:7c:f1:5c|68
1621864777|21:c5:cb:dc:5f:88|77
1621930687|23:34:1c:e4:66:8a|72
1621929144|23:48:cc:10:6f:43|71
1622012747|23:65:05:35:80:40|76
1622024207|24:18:1d:09:da:56|84
1622018820|24:18:1d:0a:05:13|76
1621931104|24:18:1d:1d:c0:95|83
1621924825|24:18:1d:88:84:3d|72
1621928128|24:18:1d:8c:86:db|82
1621850894|24:18:1d:8c:86:db|82
1622032976|24:18:1d:8d:bb:f2|79
1621942212|24:18:1d:92:2c:71|80
1622012260|24:18:1d:aa:40:de|89
1621930565|24:18:1d:aa:40:de|84
1622012087|24:18:1d:fc:01:80|78
1621854493|24:4a:e5:aa:1f:83|71
1621927359|24:77:03:25:42:f4|84
1621837405|24:85:6e:f3:5e:a4|71
1621943903|24:8e:f5:10:1e:83|85
1621851080|24:a3:e0:2c:ea:82|77
1621860915|24:b3:38:b2:ec:75|90
1621837128|24:c1:5a:f8:4a:46|73
1621952888|24:c2:42:b7:21:6b|83
1621864211|24:db:ed:f6:7d:f2|92
1621948774|24:dd:97:f2:28:9c|79
1622022596|24:e3:14:49:87:16|85
1621839662|24:e3:14:49:87:16|72
1621861568|24:ec:99:3e:b2:4a|94
1621938028|24:ec:99:3e:b2:4a|92
1621850559|24:ee:9a:06:ae:05|86
1622025599|24:ee:9a:06:ae:06|90
1622030632|24:ee:9a:3a:90:ad|86
1621837140|24:ee:9a:53:b0:1a|76
1622015582|24:ee:9a:7a:a1:66|82
1621852604|25:0e:41:46:65:60|69
1621837553|25:2c:b8:ae:95:9a|82
1621857002|25:6a:05:bb:74:bf|70
1621856794|25:ab:1a:65:28:db|85
1621929068|25:c3:98:56:48:c3|74
1621948857|25:dc:90:78:9c:f7|72
1621927956|27:2d:78:bf:aa:27|72
1621927105|27:43:ec:40:04:44|69
1621850623|27:d2:1d:98:d7:d0|74
1621935928|28:16:a8:71:f7:46|92
1621925495|28:26:12:78:ad:5d|76
1621848700|28:2a:fd:f7:48:07|57
1621844827|28:39:5e:d7:66:99|88
1622032641|28:46:12:18:8f:42|87
1621924078|28:55:2d:20:1e:4f|67
1621946049|28:5f:49:7a:25:6b|73
1621922706|28:6a:ba:d3:9b:29|91
1621838833|28:7f:cf:de:a4:d1|75
1622020311|28:7f:cf:de:a4:d2|81
1621944063|28:c6:3f:04:e3:0e|83
1621923471|28:f3:66:a8:b9:9a|91
1622009024|28:fb:d3:fa:8e:7f|90
1621836448|28:fb:d3:fa:8e:7f|92
1621836040|28:fb:d3:fa:8e:c1|89
1621928607|29:13:e2:35:3b:97|68
1621852770|29:17:ff:ae:a8:62|70
1621936363|29:18:09:a6:10:f8|77
1621853050|29:ae:68:89:e6:53|73
1622033940|2b:64:da:9e:96:1e|65
1621863952|2b:66:c9:ef:8a:e6|69
1621937085|2c:2a:c2:bf:00:8f|83
1621923072|2c:4c:c6:b7:b9:e7|80
1621864658|2c:61:5b:66:f6:96|76
1622010076|2c:a9:f0:4d:bb:4b|75
1622010976|2c:fd:ab:a8:3d:21|95
1621926845|2c:fd:ab:a8:3d:21|93
1621851122|2d:0a:14:2f:9e:71|75
1621837296|2d:16:2e:dc:66:26|77
1621948358|2d:35:bb:e2:d3:3f|82
1621839395|2d:3b:49:7d:b3:94|66
1621849753|2d:46:e0:c5:b0:84|69
1621841456|2d:b7:ed:67:3f:0d|87
1622029943|2d:fd:e8:d8:9b:34|74
1622011193|2f:4c:b2:4e:08:4f|72
1621927700|2f:75:d8:f6:7c:d1|76
1621851250|30:04:98:ad:41:eb|73
1622014540|30:07:4d:0d:9e:da|84
1622013890|30:07:4d:44:ce:2b|70
1621945232|30:07:4d:4d:3e:bd|89
1622012782|30:07:4d:54:65:25|93
1621837427|30:07:4d:54:65:25|82
1622011368|30:07:4d:58:14:be|78
1621930499|30:07:4d:6a:3f:82|86
1621942388|30:07:4d:80:01:1b|86
1621925690|30:07:4d:8f:de:25|73
1622014500|30:07:4d:9e:b8:95|81
1621928538|30:07:4d:ab:fc:07|84
1622030787|30:07:4d:ab:fc:07|87
1621837773|30:07:4d:ab:fc:07|72
1621842353|30:07:4d:bd:c3:37|78
1621864494|30:24:32:95:59:4d|92
1621853455|30:25:ce:30:5a:57|70
1621928878|30:2f:7b:ed:fe:06|79
1621854565|30:47:aa:e4:ff:91|81
1621925583|30:95:e3:3d:c3:80|65
1621845199|30:95:e3:3d:c3:80|68
1622032376|30:96:fb:e9:ef:2d|74
1621947659|30:97:46:16:dd:2e|88
1621844385|30:a9:de:95:d5:98|66
1622021741|30:a9:de:da:03:94|87
1621934863|30:a9:de:da:03:a2|82
1622014323|30:a9:de:da:6b:84|87
1621846614|30:a9:de:da:6b:84|88
1622022143|30:a9:de:da:6f:70|84
1621861620|30:a9:de:da:6f:70|84
1621849889|30:ae:62:50:70:8a|70
1621851361|30:cc:d3:6f:73:99|68
1622015033|30:d1:6b:99:9e:d9|83
1621923074|30:d1:6b:99:9e:d9|91
1622029144|30:dc:c4:2f:d0:c3|63
1621945909|31:10:06:3f:86:d3|74
1621842010|31:1a:34:1f:8f:73|72
1621850831|31:6b:55:7f:7d:ce|61
1621853897|31:6f:36:b9:2e:f9|71
1621949362|31:89:a9:9d:52:d1|80
1621928797|33:48:4a:ea:b9:e5|69
1621854501|33:48:58:de:84:5d|69
1621856497|33:86:11:e6:4b:4f|81
1621837090|34:07:96:2b:a7:4a|75
1621933921|34:12:f9:4e:a2:8a|70
1622018357|34:12:f9:4e:a2:8a|67
1621848856|34:12:f9:4e:a2:8a|76
1621930836|34:12:f9:70:a4:23|91
1622015967|34:12:f9:70:a4:23|68
1622016129|34:12:f9:fd:68:af|86
1621844919|34:12:f9:fd:68:af|76
1622020074|34:36:3b:85:1e:32|88
1621925354|34:36:3b:86:fc:56|65
1622010494|34:41:5d:a6:33:67|70
1621838528|34:41:5d:a6:33:67|74
1621929454|34:41:5d:bf:bd:e6|87
1622012610|34:41:5d:bf:bd:e6|90
1621844299|34:41:5d:bf:bd:e6|83
1621844219|34:5f:db:2b:92:ed|70
1621859231|34:8b:75:0e:6a:79|89
1622013161|34:8b:75:30:61:44|83
1621841215|34:8b:75:30:61:44|69
1621943161|34:8b:75:59:f7:90|83
1622030514|34:8b:75:6d:4d:92|79
1621856984|34:8b:75:6d:4d:92|88
1622023220|34:8b:75:ec:bd:d7|78
1621945025|34:8b:75:ec:bd:d7|91
1621839255|34:9b:fe:31:fb:c7|77
1621850538|34:a3:95:b2:3b:55|69
1621923816|34:bb:1f:ce:36:a8|68
1621933302|34:c1:2c:2f:64:b0|73
1621836069|34:c9:3d:9f:50:34|85
1621922441|34:e1:2d:6a:a5:09|67
1622008805|34:e1:2d:6a:a5:09|65
1621863037|34:e1:2d:6a:a5:09|72
1622010303|34:e6:ad:75:38:6b|91
1622011980|34:f3:9a:02:63:bd|69
1621858997|34:f3:9a:02:63:bd|74
1622029917|34:f3:9a:2a:8d:de|64
1621927344|34:f3:9a:6e:9e:f2|81
1622010994|34:f3:9a:6e:9e:f2|81
1621840768|34:f3:9a:6e:9e:f2|77
1622021811|35:4c:a7:04:72:d0|88
1621848193|35:4d:c2:ca:65:32|76
1621924113|35:ff:7c:f5:80:65|74
1621854229|37:0d:c1:98:4d:e6|57
1621929119|37:12:be:64:94:86|73
1621949298|37:19:aa:b0:d8:73|78
1621837726|38:2d:e8:20:69:7d|71
1621934693|38:53:9c:8e:25:c3|85
1621854245|38:8b:7b:c2:77:ba|72
1622027825|38:f9:d3:2b:3c:dd|76
1621836918|38:f9:d3:50:82:2e|72
1621848953|39:a8:66:f9:21:a0|56
1621854353|3b:53:8c:64:11:33|71
1621841937|3b:7e:4f:74:ea:dd|79
1621851201|3b:c7:b2:52:32:d9|74
1621937386|3b:de:06:33:d8:49|85
1621836457|3b:fc:09:31:c4:42|86
1621939908|3c:05:18:a9:cf:83|79
1621941493|3c:20:f6:db:c2:50|62
1621866765|3c:57:6c:0e:80:a6|89
1622031745|3c:57:6c:3a:82:58|94
1621944741|3c:57:6c:b9:fe:44|88
1621838257|3c:57:6c:c7:6e:20|68
1622012320|3c:57:6c:c7:9d:04|81
1621854455|3c:57:6c:d8:b6:d5|81
1621932734|3c:58:c2:bf:97:d5|86
1622009415|3c:58:c2:bf:97:d5|61
1621858397|3c:58:c2:bf:97:d5|87
1622026162|3c:58:c2:d4:c6:91|78
1621836656|3c:58:c2:d4:c6:91|77
1622026321|3c:58:c2:d4:c6:92|84
1621853491|3c:58:c2:d4:c6:92|88
1621937050|3c:7f:d0:50:df:a3|75
1622008823|3c:91:80:02:54:2d|76
1621945944|3c:c0:b8:2d:44:ee|74
1621947571|3c:f5:91:f0:6b:7b|96
1621843649|3c:f7:a4:25:44:2f|82
1622025852|3c:f7:a4:25:44:2f|83
1622016946|3c:f8:62:34:95:fe|86
1621948224|3c:fa:43:b8:27:dd|90
1621841132|3f:a2:c1:8a:f3:62|84
1621836597|3f:f4:74:7d:a8:8b|89
1621925111|40:01:19:fe:01:cd|76
1621845039|40:2b:bf:f9:2e:1e|74
1621947850|40:3f:8c:43:77:ac|84
1621925660|40:8b:a9:7a:4d:e9|81
1621935552|40:a1:08:a0:c9:a3|61
1621953105|40:a1:08:e0:54:81|86
1621867292|40:a1:08:e0:54:81|88
1621951445|40:d3:ae:e7:c5:66|82
1621865248|40:d3:ae:fc:3d:e0|92
1621940079|40:f3:08:72:89:2d|78
1621837020|40:f5:20:44:c4:48|87
1621946189|40:f5:20:44:c4:48|89
1622013223|40:f5:20:44:c5:24|86
1621924615|40:f5:20:44:c5:24|86
1621840005|40:f5:20:44:c6:2c|74
1621923475|40:f5:20:44:c6:44|86
1621836245|40:f5:20:44:c6:44|87
1621836288|40:f5:20:44:c7:98|89
1621840010|40:f5:20:44:c8:08|62
1622011523|40:f5:20:44:c8:9c|77
1621836335|40:f5:20:44:c8:9c|76
1622016416|40:f5:20:44:c8:e4|81
1621836371|40:f5:20:44:c8:e4|79
1621836324|40:f5:20:44:c9:0c|70
1621924690|40:f5:20:44:c9:90|87
1621836381|40:f5:20:44:c9:90|91
1621836212|40:f5:20:44:c9:94|86
1622014693|40:f5:20:44:c9:e4|73
1621836480|40:f5:20:44:c9:e4|73
1621924616|40:f5:20:44:ca:1c|81
1621923263|40:f5:20:44:ca:70|83
1621928939|40:f5:20:44:cb:80|70
1621839729|40:f5:20:44:cb:80|66
1622009174|40:f5:20:44:cb:a4|82
1621922426|40:f5:20:44:cb:a4|82
1621840036|40:f5:20:44:cb:ac|80
1621836084|40:f5:20:46:c2:dc|81
1622015293|40:f5:20:46:c2:f8|84
1621836217|40:f5:20:46:c2:f8|87
1622016280|40:f5:20:46:c4:08|90
1621836125|40:f5:20:46:c4:08|91
1621842895|40:f5:20:46:c4:5c|67
1621836242|40:f5:20:46:c4:c0|80
1621924628|40:f5:20:46:c4:d0|83
1621842114|40:f5:20:46:c4:d0|87
1622012874|40:f5:20:46:c5:c0|75
1621839736|40:f5:20:46:c5:c0|79
1622014702|40:f5:20:46:c8:38|73
1621836348|40:f5:20:46:c8:38|71
1621836289|40:f5:20:48:8c:e0|88
1621925066|40:f5:20:48:8c:e8|68
1621836439|40:f5:20:48:8c:e8|71
1621924517|40:f5:20:48:8d:34|94
1621836284|40:f5:20:48:8d:34|93
1621840022|40:f5:20:48:8e:54|63
1622012657|40:f5:20:48:8f:00|69
1621836284|40:f5:20:48:8f:00|73
1621852277|41:56:2d:34:91:aa|67
1621949796|41:74:15:13:cb:28|73
1622029086|41:e0:e8:dd:60:fd|74
1622030116|43:30:7f:7c:f4:c1|72
1621930204|43:40:69:57:43:a6|86
1621927250|43:52:27:fb:95:c4|64
1621931578|43:5f:35:d4:7e:ba|88
1621852603|43:c5:88:e8:28:ae|65
1621849993|43:dd:34:35:d1:8c|73
1621928084|43:f9:40:23:18:03|77
1621839051|44:00:10:ce:8e:d9|87
1621843090|44:4a:db:60:cc:2b|69
1621952883|44:59:6a:91:11:21|82
1621923071|44:59:e3:7e:36:5c|86
1621929136|44:5c:e9:b1:ba:ac|86
1621929216|44:75:42:45:33:4c|74
1621930565|44:85:00:18:d4:ae|77
1622014182|44:85:00:18:d4:ae|79
1621836080|44:85:00:18:d4:ae|84
1621863392|44:85:00:71:9c:56|86
1621841988|44:99:43:4b:e0:97|67
1621860338|44:d7:91:d0:f5:9b|78
1621923003|45:17:fc:5e:9f:8c|82
1621927740|45:57:58:f6:30:bb|69
1621925264|45:7a:07:e2:21:04|64
1621924309|45:f9:10:ff:9e:f2|74
1621925278|47:16:87:01:d2:c0|70
1621863487|47:34:67:c6:cc:53|92
1621931074|47:b5:ba:73:c6:b7|79
1621849347|48:33:30:f8:5d:f3|84
1621858420|48:4b:aa:37:4a:ba|86
1621933566|48:4b:aa:37:4a:ba|90
1621930734|48:5a:3f:8c:45:8b|78
1621929949|48:79:4d:ad:2a:8d|70
1622024900|48:89:e7:62:ab:79|84
1621946909|48:9a:da:90:6b:ad|73
1621945608|48:9d:24:7b:8d:28|89
1621923151|48:9d:24:84:5e:fd|87
1622010259|48:9d:24:84:5e:fd|84
1621845282|48:9d:24:84:5e:fd|64
1621929351|48:9d:d1:28:e9:c9|76
1622016302|48:9d:d1:28:e9:c9|75
1621842831|48:9d:d1:28:e9:c9|74
1621852921|48:a4:72:08:65:ec|83
1621836165|48:a4:72:4d:bd:e0|72
1621836264|48:a4:72:9d:22:81|88
1622011782|48:a4:72:b2:c6:04|73
1621925703|48:bb:23:76:88:19|67
1621857824|48:fc:b6:ef:1b:8b|79
1621854009|48:fd:a3:f0:59:19|63
1621853935|49:1b:e1:d1:c8:31|74
1621924165|49:3e:d5:f4:ba:2e|69
1621837746|49:8a:a6:57:d9:72|77
1621862672|49:91:d4:be:4a:1a|87
1621854134|49:d7:53:88:60:50|73
1621852196|49:f7:a0:27:1a:ed|70
1621855239|4b:1b:15:63:d8:74|68
1621853974|4b:89:57:fe:b6:b3|74
1622016354|4b:a8:2e:86:67:cf|81
1621927711|4c:02:f2:27:db:65|68
1621837915|4c:18:9a:42:e8:07|86
1622015999|4c:1d:96:13:48:86|66
1621924676|4c:1d:96:13:48:86|76
1621850412|4c:1d:96:a8:fc:2d|81
1621923133|4c:1d:96:e6:e2:4f|75
1621841597|4c:1d:96:e6:e2:4f|79
1622018956|4c:34:88:68:ce:64|77
1621926059|4c:34:88:69:ba:b3|68
1622020803|4c:66:41:52:30:3f|66
1621844658|4c:6a:f6:c4:21:d3|86
1621939101|4c:74:bf:77:fc:32|78
1621842868|4c:74:bf:77:fc:32|81
1622029601|4c:7c:5f:16:e3:97|91
1621845782|4c:ac:51:c3:7d:6c|85
1621864743|4c:dd:31:5f:ff:00|91
1621933134|4c:dd:31:f3:32:57|81
1622018305|4c:dd:31:f3:32:57|75
1621854303|4c:dd:31:f3:32:57|80
1621849537|4c:ff:10:5d:74:7a|77
1621848406|4d:30:c4:4f:b3:11|76
1621855349|4d:93:35:76:89:d5|69
1621852608|4d:a1:2d:5e:69:4a|71
1621863967|4d:b4:6b:7d:57:43|85
1621840449|4f:00:e7:56:d3:95|80
1621929365|4f:5a:5d:c2:68:4f|71
1621840361|4f:7a:85:6c:90:98|71
1621852542|4f:8f:be:37:38:c4|72
1621842002|4f:f0:89:51:81:5f|74
1621929368|50:17:4e:d6:61:96|77
1622016140|50:2f:9b:79:b6:5c|87
1621952955|50:3c:ea:67:7d:d5|91
1621867483|50:3c:ea:67:7d:d5|93
1621950112|50:3d:c6:c1:6f:9a|80
1621863863|50:3d:c6:c1:6f:9a|86
1621928742|50:53:10:7b:b6:96|70
1621951951|50:7a:55:6a:4c:08|87
1621836442|50:82:d5:78:f0:22|65
1621845718|50:ad:a0:26:34:f1|86
1621840453|50:b2:f3:fd:e4:30|71
1621950557|50:c7:d0:7b:55:c0|69
1622020249|50:e6:f9:af:5f:da|80
1622022629|50:eb:71:1f:71:01|65
1621922595|50:eb:71:1f:71:01|59
1622030337|50:eb:71:9b:04:dd|73
1621941139|50:eb:71:9b:04:dd|86
1622009440|50:eb:71:f5:d6:92|83
1621947631|50:ed:3c:2c:57:cc|84
1622021762|50:ed:3c:48:74:1d|85
1621924262|50:ed:3c:48:74:1d|79
1621953226|50:f0:d3:17:27:1a|65
1621837997|51:27:4b:c2:73:06|71
1622028165|51:47:4e:be:3e:e3|73
1621840529|51:73:d3:28:71:7a|79
1621839720|53:ca:ed:b4:b4:06|74
1621851594|53:d3:98:72:1b:eb|75
1621928677|54:09:10:b6:a8:39|84
1622032709|54:27:58:d1:f5:95|80
1621853474|54:3a:96:22:3c:96|72
1621925336|54:40:ad:4f:b0:aa|94
1622012653|54:8d:5a:0d:02:fa|71
1621937121|54:8d:5a:c5:96:d5|78
1621937154|54:8d:5a:c5:96:d6|83
1621856467|54:8d:5a:cb:de:2d|70
1622014876|54:8d:5a:cb:de:2e|64
1621856422|54:8d:5a:cb:de:2e|61
1621841281|54:92:e1:03:9e:bb|55
1621945921|54:9f:21:46:70:5d|78
1621849335|54:a3:99:ec:42:d0|72
1621941187|54:b2:9a:99:b8:e7|79
1622012612|54:b8:02:02:df:ea|76
1621929414|54:e6:1d:ac:36:0d|67
1621931592|55:08:d6:c9:dc:90|85
1622029944|55:0c:26:13:ba:98|73
1621840397|55:1a:ca:6e:6f:7e|71
1621850626|55:46:72:f3:2d:02|69
1621854612|55:67:2a:3f:04:b1|74
1621838153|55:8e:94:ad:fb:f7|72
1621836851|57:83:f4:16:7d:73|65
1621925572|57:8e:98:72:b3:88|69
1621928992|57:c9:3d:aa:65:81|79
1621851137|57:f1:46:02:a4:9a|65
1621838465|58:00:e3:ef:c0:a1|76
1621928587|58:1d:be:0e:7f:00|69
1621938315|58:82:63:ae:21:3e|69
1621856333|58:85:e9:ae:82:a3|92
1621864403|58:91:cf:aa:d5:2f|92
1621950235|58:91:cf:aa:d5:2f|90
1622024636|58:91:cf:aa:d5:2f|88
1621862231|58:a0:23:ed:af:94|72
1621932375|58:a0:23:ed:af:fd|70
1621860046|58:a0:23:ed:af:fd|77
1621946411|58:b6:00:6e:75:62|79
1621838436|58:ba:97:95:85:8e|76
1621940492|58:c2:e8:bb:d1:b6|86
1621939910|58:e1:da:26:7f:ed|69
1621945418|58:fb:84:02:5b:84|80
1621924269|59:02:0f:69:b6:70|63
1621934821|59:cb:1b:62:5e:df|83
1621850138|59:fd:f9:05:cd:f3|77
1621850453|5b:34:21:26:e1:12|74
1622029000|5b:46:c7:28:dc:e3|72
1621925109|5b:e1:5e:ba:d0:06|71
1621923375|5c:23:3d:74:1a:cd|84
1621844167|5c:2e:59:cd:eb:27|68
1621848353|5c:5f:67:89:19:67|84
1621943509|5c:5f:67:d0:66:fa|72
1621854905|5c:86:d3:ac:c1:49|71
1622009050|5c:87:9c:cb:5c:a5|84
1621938519|5c:9a:0c:ff:5f:21|83
1621853863|5c:a1:0e:2f:a7:1a|67
1621926847|5c:a3:32:f9:44:ec|73
1621838297|5c:ba:ef:f6:8b:49|79
1621922674|5c:c5:d4:e0:7a:95|76
1622013415|5c:ea:1d:90:12:d5|85
1621847053|5c:ea:1d:90:12:d5|83
1621924117|5d:10:0f:18:df:40|73
1621849999|5d:5f:ed:18:6a:18|80
1621851266|5d:de:5d:8e:a9:a8|70
1621854730|5f:6c:6e:2c:a0:4f|87
1621850734|5f:b5:58:f8:a6:fa|84
1621946703|5f:bb:13:fd:45:32|81
1622009880|60:03:08:8a:14:8c|83
1621836624|60:03:08:8a:14:8c|88
1621934778|60:21:01:8e:5e:c1|71
1621836982|60:23:a4:df:d8:d0|72
1621934700|60:23:a4:df:d8:f4|77
1622024342|60:23:a4:df:d8:f4|68
1622013378|60:49:b9:f8:8c:fb|82
1621843944|60:67:20:31:6a:94|57
1621837627|60:7a:d8:94:06:3f|72
1622017115|60:af:6d:bd:f9:85|84
1622020166|60:d6:f8:c2:44:55|82
1622013818|60:f1:89:47:1a:46|79
1621954744|60:f1:89:61:75:81|89
1621836525|60:f2:62:1c:af:a2|86
1622028228|60:f2:62:1c:af:a3|80
1622026033|60:f2:62:dc:93:e9|83
1622028674|60:f2:62:dc:9d:30|80
1621924639|60:f6:77:ce:29:a8|84
1622011822|60:f6:77:ce:29:a8|88
1621855219|61:2e:78:0c:46:6c|91
1621848708|61:48:00:ae:58:c6|80
1621841209|61:70:de:70:cc:c7|79
1621948541|61:ac:ed:de:e5:27|83
1621841337|61:f7:8d:6d:19:f3|68
1621929111|63:31:1d:80:ac:13|71
1621927180|63:44:9e:07:73:a3|72
1622027311|64:03:7f:d2:b9:4b|87
1621851492|64:09:cb:5f:52:9b|68
1621947533|64:3c:f8:b4:bb:8d|90
1622016761|64:5d:86:ac:f5:da|86
1621935751|64:5d:86:ac:f5:da|84
1621850897|64:82:50:89:0f:de|88
1621928939|64:83:54:68:50:cb|83
1621937742|64:9a:be:d2:8a:5b|86
1621945906|64:b0:d6:87:99:18|69
1622020116|64:eb:e0:32:e0:59|80
1622011428|64:ef:90:eb:df:b1|75
1621926938|65:0e:c0:52:95:5b|68
1621925828|65:6f:80:18:f5:af|70
1622030716|65:95:4c:68:63:80|78
1621847437|65:a5:a5:5a:99:5e|66
1621840512|65:bb:eb:9c:17:89|85
1621837698|65:ce:6f:7f:9f:a3|77
1621925699|65:d1:bd:9c:d3:4f|71
1621858865|67:06:aa:8c:d9:b0|86
1621929207|67:46:26:cc:cb:5e|75
1621927353|67:85:2f:3d:5f:9a|84
1621927345|67:d3:bf:c3:e1:34|92
1622020231|68:10:2f:84:c5:f9|90
1621854628|68:17:29:0d:95:e4|88
1621933371|68:27:37:8d:c9:21|84
1621852843|68:47:c4:e4:d6:b6|64
1622011401|68:54:5a:6e:b0:db|74
1621930916|68:54:5a:6e:b0:dc|73
1621838008|68:54:5a:6e:b0:dc|79
1621839504|68:5a:c5:57:8f:06|79
1622010774|68:5a:cf:3c:73:54|89
1621853921|68:66:a5:f1:42:0e|68
1621927590|68:75:41:f8:50:b8|73
1621838159|68:a8:6d:04:c4:f4|89
1622023633|68:db:f5:d4:61:f3|78
1621836533|68:e7:c2:cd:f9:1d|69
1621934965|68:ec:c5:55:ea:47|75
1622029175|69:10:36:4f:2e:ad|78
1621851208|69:31:ea:16:36:fe|71
1621853552|69:60:a8:25:3d:1b|77
1621854039|69:98:1e:53:1d:a4|72
1621843942|69:a6:fe:c2:0d:19|82
1621927979|69:df:98:74:75:f8|69
1621935414|69:f4:47:65:1a:a6|86
1621837669|6b:0d:be:b2:76:ad|72
1622013835|6b:34:0a:af:fd:fc|88
1621948442|6b:3c:2a:f0:b6:70|69
1621923000|6b:64:e2:66:db:3a|83
1621841185|6b:86:af:a8:64:7c|81
1621838187|6b:eb:ed:80:c3:1e|68
1622009294|6c:4d:73:a6:bc:3e|84
1621953032|6c:5e:67:84:36:45|86
1621926957|6c:7f:a6:48:50:c4|76
1621853074|6c:b4:ed:91:92:9c|64
1621840017|6c:b7:49:cf:bb:bf|78
1621836681|6c:c7:ec:13:a2:7c|77
1621942107|6c:c7:ec:2f:66:92|90
1622013776|6c:c7:ec:47:f7:6f|86
1621859295|6c:c7:ec:47:f7:6f|85
1621930704|6c:c7:ec:6a:7c:e3|73
1621838568|6c:c7:ec:6a:7c:e3|82
1622010491|6c:c7:ec:7b:fb:b1|86
1621923321|6c:c7:ec:95:56:a5|81
1622010297|6c:c7:ec:9c:24:73|79
1621862510|6c:c7:ec:b7:6b:82|88
1622031172|6c:c7:ec:d6:79:a0|87
1622017502|6c:c7:ec:d9:eb:c7|79
1621926625|6c:d0:94:b7:64:46|65
1622016672|6c:ed:49:7d:49:21|71
1621948500|6d:43:9b:1f:44:79|83
1621944595|6d:4d:b5:f7:ef:b2|86
1621844603|6f:15:c4:04:2b:b8|72
1621850372|6f:5a:6f:32:a6:e0|72
1621842291|6f:5d:bf:86:0d:81|74
1621841408|6f:6b:a1:7a:3f:82|80
1621841516|6f:c8:ae:8c:7d:bb|74
1622008905|70:03:9f:01:40:fe|90
1621925941|70:3a:51:31:43:10|74
1621927741|70:5a:ac:20:df:c7|72
1622025589|70:5a:ac:b9:15:88|93
1621945091|70:5a:ac:b9:15:88|95
1621837437|70:5a:ac:b9:15:88|85
1621949005|70:5a:ac:ef:24:ad|80
1621863226|70:5a:ac:ef:24:ad|85
1621925622|70:5a:ac:f0:f6:28|74
1621841336|70:5a:ac:f0:f6:28|71
1622029110|70:64:94:98:40:fa|87
1621845540|70:85:f1:ea:67:70|84
1621925693|70:9c:d1:12:b5:e2|72
1621943807|70:9f:a9:eb:a6:d8|84
1622013373|70:bb:e9:cd:22:99|91
1622030325|70:bc:10:73:00:91|83
1621864137|70:c9:4e:6e:e5:71|86
1621850263|71:27:98:77:f9:26|66
1622011559|71:92:20:87:f6:4b|75
1621926214|73:56:8f:5b:73:17|67
1621853739|73:c9:83:87:9f:ca|75
1621861124|74:34:b2:7a:2e:2b|87
1621948377|74:4a:12:c5:99:f0|73
1621935391|74:6b:f0:1d:ed:43|90
1621860669|74:70:fd:a6:ca:ed|79
1622013262|74:70:fd:a6:d8:3a|86
1621836109|74:70:fd:a6:d8:3a|75
1621944398|74:91:8e:01:06:f4|84
1622021895|74:9e:af:6c:e8:7e|60
1621840048|74:c6:3b:7f:cc:8b|85
1621922593|74:d8:3e:9e:5b:d8|74
1622009316|74:d8:3e:9e:5b:d8|74
1621836554|74:d8:3e:9e:5b:d8|89
1621938949|74:d8:3e:d3:d6:64|84
1622020827|74:d8:3e:fe:c1:21|86
1622013011|74:d8:3e:ff:41:a5|85
1621929982|74:d8:3e:ff:41:a5|82
1621943535|74:df:bf:48:3b:01|88
1622009114|74:df:bf:48:3b:01|88
1621840046|74:e7:50:a5:d8:b4|75
1621925344|74:eb:80:f8:50:48|79
1621851872|74:eb:80:f8:50:48|86
1621931727|74:eb:d1:15:98:91|88
1621850935|75:09:fb:65:54:93|78
1621926904|75:61:29:27:8b:e1|75
1622009426|77:11:b4:61:e5:e5|83
1621853053|77:33:fa:2b:65:25|72
1621930049|77:67:5c:64:81:a8|76
1621925605|77:c9:67:cb:b9:fb|78
1621927245|77:e4:00:e6:8c:e3|70
1621857339|78:15:ff:c6:b3:06|75
1621948684|78:21:57:10:f9:61|89
1622023554|78:36:cc:3c:ce:3f|83
1621952865|78:42:06:1a:2a:62|90
1621923664|78:4b:87:da:53:bb|85
1622021584|78:4b:87:da:53:bb|66
1621841492|78:4b:87:da:53:bb|76
1621849959|78:4f:43:38:11:e5|76
1622018043|78:4f:43:85:e8:b3|84
1621838555|78:51:0c:00:97:9f|74
1622024229|78:64:c0:d7:8f:dd|78
1622026379|78:7e:61:93:2f:29|93
1621864052|78:7e:61:93:2f:29|84
1621851063|78:84:4b:ea:23:00|75
1621928061|78:94:04:0f:d5:31|68
1622013960|78:c3:e9:59:e2:18|68
1622016549|78:c3:e9:7d:72:d4|86
1621948168|78:c3:e9:7d:72:d4|88
1621853890|78:f5:78:e9:41:bb|70
1621926730|78:fb:a5:87:d5:cb|63
1621850146|79:08:8d:fa:9e:05|67
1621839443|79:1c:b0:2e:50:97|68
1621850922|79:2c:5e:ca:d3:a6|74
1621925286|79:46:6b:3b:a2:53|66
1621926694|79:63:5d:f7:1c:f7|69
1621850195|79:ca:5d:59:b4:fa|70
1621862102|7b:58:d7:b9:18:41|78
1621840217|7b:8f:e6:e2:37:10|75
1621924654|7b:98:42:ff:94:c2|86
1621859108|7b:fc:f7:8d:ff:f0|78
1621842764|7c:23:02:38:90:f2|65
1621929454|7c:23:02:e9:66:ce|78
1622020412|7c:67:a2:8c:fe:92|92
1621857616|7c:67:a2:8c:fe:92|97
1621952169|7c:67:a2:8e:06:ca|90
1622023096|7c:67:a2:8e:06:ca|91
1621865521|7c:67:a2:8e:06:ca|93
1621924960|7c:76:35:7c:a9:07|70
1622014822|7c:76:35:7c:b3:2a|70
1622015091|7c:76:35:7c:b3:2b|70
1621848326|7c:76:68:79:8c:a5|81
1621837908|7c:76:68:f0:4d:f7|87
1622009633|7c:89:56:bd:61:08|78
1621845408|7c:89:56:cd:4f:1c|77
1622014799|7c:a1:77:29:f7:9c|77
1621840470|7c:d3:92:b1:e3:54|74
1621928635|7d:0c:a7:08:eb:3e|67
1621946614|7d:14:aa:b4:d0:34|77
1621926894|7d:3d:f9:4e:97:5a|72
1621852829|7d:6b:40:b2:f6:bd|72
1621839387|7d:9a:ee:1b:ee:ff|64
1621927647|7d:f6:2c:1e:3d:2d|72
1621927941|7f:13:9c:4c:c3:f2|67
1621927167|7f:6d:d5:e3:d3:9a|71
1622023134|7f:9f:4d:16:e4:6f|82
1622010044|7f:a8:1e:32:fc:81|88
1621928279|7f:c9:26:f5:21:de|75
1621838801|80:01:84:69:f1:46|85
1621855094|80:32:53:75:0e:95|71
1621945384|80:38:96:79:e5:55|79
1621840502|80:4b:59:30:1f:cb|79
1621952475|80:4e:70:6c:6f:ea|66
1622010932|80:4e:70:fd:17:d8|91
1621927516|80:4e:70:fd:17:d8|90
1621943547|80:62:5f:3d:be:5d|90
1621929510|80:65:6d:75:b5:3a|76
1622016881|80:67:53:0c:a1:0d|80
1621851073|80:6d:b8:41:5b:8e|85
1621948497|80:7f:cd:a8:88:62|82
1621926543|80:89:68:43:99:29|74
1622028745|80:a1:b5:36:e6:dc|72
1621927023|80:b0:3d:a5:57:b5|59
1622021873|80:b0:3d:a5:57:b5|71
1621851172|80:b0:3d:a5:57:b5|57
1621927283|80:be:05:5e:ca:8c|78
1621853973|80:be:05:5e:ca:8c|86
1622015877|80:ce:b9:bc:5f:93|90
1621927314|80:ce:b9:c3:b8:65|77
1622016215|80:ce:b9:c3:b8:65|68
1621838077|80:ce:b9:c3:b8:65|68
1621948087|80:ce:b9:d5:f7:95|90
1621864072|80:ce:b9:d5:f7:95|92
1621946473|80:e0:d3:d5:ce:d3|81
1621837124|80:f0:5a:d1:25:19|69
1622023738|81:37:96:a1:9a:f1|80
1621839675|81:3d:60:3f:52:ca|72
1621849825|81:bc:0f:13:19:9b|68
1621837949|83:32:aa:9d:e2:6c|83
1621927131|83:71:18:77:5d:af|70
1621925697|83:82:02:fe:65:41|69
1621926790|83:ce:33:f1:6a:30|84
1621945989|83:e0:29:81:49:13|86
1621929124|83:f1:00:5b:62:ed|72
1621838118|83:f8:40:ce:28:42|76
1621927918|84:06:0f:a8:e2:66|70
1621839054|84:09:ac:3e:ef:89|83
1621949495|84:0e:50:00:e2:ba|75
1621923570|84:1b:77:fd:b2:95|76
1622019879|84:2e:27:37:89:04|81
1621945704|84:2e:27:37:89:04|77
1621841716|84:66:5d:c1:1c:f5|77
1621949608|84:ab:1a:b3:bb:92|85
1621836907|84:ab:1a:c4:59:74|77
1622019733|84:c5:a6:fb:2b:f6|90
1621851130|84:e8:ce:32:81:d3|76
1621926166|84:f8:f6:53:31:b7|70
1622025145|85:2c:9b:ef:ad:93|87
1621925588|85:44:62:dc:05:34|67
1621837831|85:a0:02:20:54:4e|89
1621842748|85:b4:96:2f:18:46|81
1621844559|85:f3:de:c8:36:00|83
1621840952|87:02:5c:b1:3e:6b|74
1621837962|87:bc:23:2f:36:73|70
1621923262|87:d3:e7:cf:03:31|87
1622033059|88:07:4b:e7:cf:33|88
1621839893|88:07:a9:66:ac:7c|78
1622016502|88:10:8f:97:53:63|66
1621862914|88:10:8f:97:53:63|84
1622011679|88:53:95:0f:37:0f|82
1621941853|88:5f:e8:71:02:5b|86
1621861865|88:66:a5:d8:5e:8f|84
1621924331|88:83:22:2d:7d:2f|84
1622014818|88:83:22:2d:7d:2f|86
1621844859|88:83:22:2d:7d:2f|62
1621933714|88:83:22:83:fe:a6|74
1621938371|88:9f:6f:85:f1:10|71
1622017411|88:9f:6f:8a:4f:1e|66
1622021777|88:a4:79:14:6c:e5|71
1621856639|88:a4:79:14:6c:e5|74
1621845339|88:ad:d2:ce:47:04|88
1621844424|88:b1:11:2a:a0:53|74
1621922633|88:b1:11:2a:a0:54|71
1621933188|88:b4:a6:07:12:c6|76
1621836650|88:b4:a6:07:82:36|80
1621933083|88:b4:a6:0c:19:cd|80
1621931552|88:b4:a6:0d:88:05|82
1621836040|88:b4:a6:0d:e1:95|77
1621836447|88:b4:a6:0e:e2:96|80
1622013184|88:b4:a6:17:59:0d|85
1621843856|88:b4:a6:17:da:8e|74
1621933237|88:b4:a6:1f:be:3b|78
1621839464|88:b4:a6:21:89:3d|78
1621836568|88:b4:a6:22:2d:e1|85
1622013085|88:b4:a6:24:8c:40|86
1621924795|88:b4:a6:2c:81:35|79
1622012878|88:b4:a6:2d:95:49|86
1621933237|88:b4:a6:2e:39:ed|76
1622013297|88:b4:a6:34:9c:50|85
1622013611|88:b4:a6:35:77:2b|85
1622013508|88:b4:a6:39:c7:7b|87
1621839827|88:b4:a6:3b:46:fa|83
1621842952|88:b4:a6:3d:48:fc|87
1621932529|88:b4:a6:3d:a5:59|76
1622012136|88:b4:a6:42:4d:01|84
1621843903|88:b4:a6:43:85:02|80
1621932559|88:b4:a6:5a:65:19|76
1621933327|88:b4:a6:5e:ea:9e|79
1621843903|88:b4:a6:5f:c7:7b|80
1621841063|88:b4:a6:65:5f:dc|84
1621933026|88:b4:a6:67:2c:a9|80
1621842542|88:b4:a6:73:7e:32|85
1621836859|88:b4:a6:75:5e:12|79
1622013306|88:b4:a6:78:72:ef|84
1621924874|88:b4:a6:7b:86:3a|76
1621840580|88:b4:a6:7c:9c:50|81
1622013402|88:b4:a6:7d:ae:62|86
1621839019|88:b4:a6:7e:c0:3d|83
1621933075|88:b4:a6:81:8c:40|75
1621837988|88:b4:a6:81:a1:55|83
1621842378|88:b4:a6:81:b2:66|81
1621932843|88:b4:a6:84:c6:7a|78
1621924826|88:b4:a6:8c:ce:4b|78
1621836811|88:b4:a6:8e:2d:e1|78
1621843856|88:b4:a6:8e:62:16|79
1621839259|88:b4:a6:8e:c1:75|84
1621843761|88:b4:a6:8f:c0:74|84
1622013133|88:b4:a6:91:9c:50|86
1621840894|88:b4:a6:91:e8:65|85
1621842219|88:b4:a6:92:9d:51|85
1621932691|88:b4:a6:97:5a:d7|74
1621932899|88:b4:a6:97:d9:8d|78
1621836764|88:b4:a6:9d:bd:3a|74
1621843273|88:b4:a6:a0:ab:28|81
1621836568|88:b4:a6:a0:ab:5f|84
1621932530|88:b4:a6:a2:2e:e2|79
1621840894|88:b4:a6:a3:0b:bf|81
1621843026|88:b4:a6:a3:8c:40|85
1621932957|88:b4:a6:a6:b1:65|78
1621932784|88:b4:a6:a9:11:8e|75
1622013326|88:b4:a6:aa:ff:b3|85
1621840273|88:b4:a6:ad:72:26|73
1621841353|88:b4:a6:ad:94:48|78
1621924657|88:b4:a6:ad:b8:6c|79
1621933075|88:b4:a6:af:ba:6e|78
1621932833|88:b4:a6:b0:bb:6f|78
1621840580|88:b4:a6:b0:e1:f2|81
1622012239|88:b4:a6:b7:f9:ad|86
1621838530|88:b4:a6:ba:22:d6|86
1621836859|88:b4:a6:bc:59:d6|87
1621836521|88:b4:a6:bc:ed:a1|82
1621931649|88:b4:a6:bd:c8:7c|81
1621837077|88:b4:a6:bd:c8:7c|84
1622012945|88:b4:a6:be:ba:6e|87
1621932899|88:b4:a6:bf:01:b5|77
1621933016|88:b4:a6:bf:ca:7e|86
1621841910|88:b4:a6:c1:b9:36|87
1621836764|88:b4:a6:c1:bd:71|82
1621924749|88:b4:a6:c1:cc:80|76
1621932863|88:b4:a6:cb:0d:c1|75
1621839780|88:b4:a6:cb:fc:b0|80
1621839741|88:b4:a6:cc:a0:54|79
1621933092|88:b4:a6:ce:d9:8d|79
1621836494|88:b4:a6:d5:17:cb|83
1621837678|88:b4:a6:d5:a9:5d|82
1621842418|88:b4:a6:d8:09:bd|79
1621844001|88:b4:a6:d9:41:f5|77
1622012154|88:b4:a6:d9:41:f5|81
1621924729|88:b4:a6:de:90:44|77
1621838482|88:b4:a6:e1:ec:a0|82
1621843374|88:b4:a6:e5:27:a4|78
1622012259|88:b4:a6:e7:f2:a6|91
1621844039|88:b4:a6:ef:b2:66|85
1622013133|88:b4:a6:f0:fb:af|87
1621838672|88:b4:a6:f1:fc:b0|80
1621841567|88:b4:a6:f3:35:b2|86
1622012119|88:b4:a6:f4:ff:b3|83
1622012972|88:b4:a6:f6:01:7e|89
1621839511|88:b4:a6:f8:03:b7|81
1621839464|88:b4:a6:f9:2a:de|73
1622013258|88:b4:a6:fc:2d:e1|87
1622013060|88:b4:a6:fd:f9:ad|82
1621837866|88:b4:a6:fe:d2:86|79
1621940107|88:e6:02:6b:29:64|72
1621937436|88:fb:f6:a1:3d:e3|69
1621839736|89:1c:40:8d:7d:55|76
1621838168|89:76:f8:3b:34:b5|61
1621923190|89:93:c0:ad:41:ab|68
1621849517|89:e3:3a:6f:73:1f|68
1621927705|89:ef:59:f1:53:3d|62
1621852239|8b:5b:d5:f7:be:a3|64
1621840021|8b:5e:76:01:11:c9|72
1621849518|8b:c1:d7:ed:da:06|65
1621930454|8b:e2:e3:1e:43:f6|84
1621841813|8c:0c:a5:20:0f:ce|86
1621953025|8c:2b:b2:e6:81:2d|86
1621839638|8c:45:00:15:f4:b0|83
1621864363|8c:45:00:81:6e:07|94
1621851506|8c:58:39:bb:ce:92|72
1621931076|8c:70:5a:15:3e:58|69
1621852130|8c:76:d7:fa:25:d0|70
1621838763|8c:79:f5:0e:e2:82|62
1621858439|8c:85:90:0f:e9:0e|83
1621924150|8c:85:90:75:1d:84|84
1621925619|8c:85:90:86:b9:e0|75
1621922612|8c:85:90:92:f4:e8|90
1622017957|8c:85:90:92:f4:e8|84
1622021621|8c:b8:4a:06:98:1a|78
1621857936|8c:b8:4a:06:98:1a|74
1621847771|8c:b8:4a:1e:2f:28|68
1622026711|8c:b8:4a:2a:69:06|83
1622014392|8c:b8:4a:4c:f7:ea|74
1621845998|8c:b8:4a:57:49:fa|59
1622014768|8c:b8:4a:8a:21:cd|89
1621943469|8c:b8:4a:95:5e:e6|70
1621846478|8c:c6:81:1a:f3:5b|87
1622030977|8c:e2:cf:37:68:76|88
1621944812|8c:eb:c6:b3:94:55|78
1621864330|8c:eb:c6:b3:94:55|81
1622015192|8c:f5:a3:05:e2:47|70
1621850501|8c:f5:a3:05:e2:47|80
1621849500|8c:f5:a3:66:8f:b4|84
1621933881|8c:f5:a3:d7:cc:2d|90
1621943936|8c:f5:a3:dd:36:35|72
1621926640|8d:0d:c9:62:57:54|76
1621848295|8d:16:22:ed:12:94|70
1621854926|8d:72:e2:af:bd:59|72
1621853007|8d:7d:60:ba:f9:bb|70
1621927241|8d:a8:6c:7b:f0:67|64
1621928843|8d:ab:ec:bd:40:57|67
1621846130|8f:62:39:e6:9e:0e|86
1621853943|8f:6f:2a:c4:fb:6a|71
1621936785|8f:73:fa:7e:d4:e7|88
1621848561|8f:b5:b3:a6:2d:40|56
1621850289|8f:c0:6a:1a:be:69|76
1621862303|8f:fb:0c:1c:7c:00|77
1621942776|90:2b:d2:5d:e3:c7|75
1621943649|90:32:4b:78:24:79|84
1621925438|90:3f:ce:74:48:28|75
1621854552|90:4b:22:6d:1c:a7|70
1622014508|90:61:ae:fc:b8:d1|72
1621925986|90:61:ae:fc:b8:d1|72
1622014689|90:61:ae:fc:b8:d2|70
1621926167|90:61:ae:fc:b8:d2|77
1621927718|90:84:30:55:cb:21|72
1621854555|90:97:f3:92:c0:b6|83
1621842290|90:97:f3:b5:c5:ea|70
1622021563|90:9c:4a:b6:d5:f0|75
1622033051|90:b2:1f:c1:c7:6c|84
1622022949|90:b6:86:fe:db:11|83
1621862101|90:cc:df:c0:c1:9b|71
1621841185|90:eb:4d:f8:34:65|80
1622023760|90:f4:8c:47:e2:f0|84
1621937158|91:17:e3:37:c9:0d|94
1621927134|91:6e:21:34:04:30|85
1621840431|91:dc:5c:a8:a7:55|85
1621853904|93:15:a7:ce:ac:ab|72
1622010410|93:68:af:44:62:fa|82
1621837519|94:0e:6b:f0:ee:7c|78
1622020353|94:24:f1:ae:63:af|80
1621928881|94:25:6d:20:04:95|73
1621934103|94:2d:dc:7d:a3:40|85
1621846494|94:5b:ac:42:9b:34|78
1622032100|94:5e:63:6a:84:6c|90
1621836518|94:65:2d:d0:cc:ac|72
1621858183|94:65:2d:dc:ac:48|77
1622012881|94:65:9c:66:64:df|82
1622026289|94:76:b7:01:d4:81|85
1622017416|94:7b:e7:71:55:ad|92
1621839645|94:7f:af:c8:ae:00|73
1621843346|94:8b:c1:02:d0:07|88
1622010377|94:94:26:5d:ac:89|92
1622029080|94:b1:0a:d0:e1:56|73
1621839531|94:b1:0a:d0:e1:56|78
1622022482|94:b8:6d:92:f1:99|81
1621954001|94:be:46:6f:74:fb|90
1622014557|94:bf:2d:d8:c3:d6|66
1622016280|94:bf:2d:d9:86:60|77
1621927025|94:bf:2d:d9:86:60|71
1621927594|94:e1:86:bb:6a:96|74
1621924478|94:e6:f7:60:ba:ee|82
1621923849|94:e7:0b:af:a6:68|86
1622009691|94:e9:6a:8a:4e:32|85
1621939867|94:e9:6a:9b:a7:98|74
1621854821|95:27:d2:15:0b:d8|76
1621841325|95:88:27:f4:d3:82|76
1621925251|95:c3:91:a4:c1:6b|72
1621853937|97:fe:39:b9:d7:ae|67
1622015700|98:09:cf:64:f4:d2|94
1622010255|98:0d:51:52:c1:f2|84
1621836984|98:22:ef:b9:ba:91|66
1622023305|98:2c:bc:01:ea:8c|88
1621838193|98:2c:bc:01:ea:8c|88
1621933891|98:2c:bc:2f:53:a0|81
1622016714|98:2c:bc:2f:53:a0|81
1621842706|98:2c:bc:2f:53:a0|83
1622012862|98:3b:8f:0d:da:4a|88
1621931534|98:3b:8f:b5:ad:15|69
1621852888|98:3e:a0:be:ce:ee|67
1621949655|98:45:ef:ce:58:2d|73
1621836670|98:54:1b:a2:7e:ed|83
1621836131|98:54:1b:a2:7e:ee|85
1622030066|98:54:1b:be:fb:b3|67
1621864404|98:5f:d3:ef:60:c3|89
1621852369|98:6f:60:a6:1b:89|68
1621935211|98:74:da:bf:d8:a6|76
1622033900|98:74:da:c1:4d:d7|79
1621851092|98:74:da:ef:d2:9a|77
1621864308|98:7d:26:d7:42:c7|70
1621952842|98:90:a5:61:b3:98|86
1622030139|98:9e:63:68:61:cc|95
1622028638|98:af:65:33:9c:0d|60
1621950426|98:ca:33:db:07:c7|83
1621948557|98:cb:dc:aa:7d:a6|79
1621947050|98:dc:68:5c:e6:c7|88
1622009458|98:dd:ea:d5:7d:a7|91
1621838052|98:dd:ea:d5:7d:a7|86
1621928882|98:dd:ea:d5:7d:a7|73
1622014818|98:f1:70:1b:a8:59|73
1621930930|98:f1:70:1b:a8:59|71
1621862338|98:f6:21:2d:f6:26|89
1621838334|9b:0a:14:a0:f5:9a|79
1621948402|9b:b4:24:35:ef:3c|67
1621849383|9b:c1:8f:64:94:a6|66
1621840680|9b:c9:4e:f7:17:2b|79
1621946518|9c:0c:b6:6b:63:a7|78
1621924630|9c:29:76:e3:f8:50|80
1622013906|9c:29:76:e3:f8:51|79
1621927665|9c:29:76:e3:f8:51|78
1621841702|9c:2b:d2:83:d2:89|77
1622032262|9c:30:5b:6b:fa:a5|75
1621841967|9c:37:a5:da:2a:a1|68
1621836100|9c:5f:5a:14:21:03|89
1621940633|9c:a5:13:54:fc:35|89
1621837340|9c:b2:51:f1:66:72|74
1621924111|9c:b6:d0:97:1b:9d|84
1621939316|9c:f3:87:bd:74:b8|80
1621855171|9c:f3:87:c7:31:92|80
1621840931|9c:fe:ca:0d:08:24|80
1621853910|9d:03:f0:48:30:63|72
1622017026|9d:8d:10:59:72:20|78
1622029745|9d:ad:66:2e:32:a3|74
1621942915|9d:f9:24:1d:72:1b|86
1621864326|9f:10:89:52:3b:f2|74
1621853750|9f:3c:e1:ec:46:7c|64
1621949831|9f:51:08:87:26:43|83
1621850745|9f:b6:23:f1:a3:0d|68
1621939959|9f:bf:9c:4c:32:00|86
1621851889|9f:e3:d4:a3:fb:fb|71
1621854081|a0:1b:0b:7e:11:a3|77
1622013760|a0:28:ed:05:f7:db|70
1622008884|a0:32:99:25:c4:7b|94
1622021629|a0:4e:a7:21:11:91|71
1621940923|a0:88:b4:15:4b:ec|80
1622018826|a0:99:9b:05:cc:5b|90
1621858320|a0:a4:c5:b1:fc:ba|89
1621927745|a0:c9:a0:b6:a2:46|85
1621849499|a0:c9:a0:b6:a2:46|67
1621844229|a0:c9:a0:c6:aa:1b|73
1621926411|a0:cc:2b:c8:75:21|93
1621949569|a1:aa:ee:95:61:8a|69
1621854052|a1:e5:7e:d0:45:a7|73
1621950982|a3:39:cb:e2:61:47|89
1621927952|a3:50:ba:1c:be:ed|67
1621935115|a3:80:11:29:cb:3f|74
1621929336|a3:8c:46:8e:fe:b8|71
1621845338|a3:9c:b5:1c:d0:b2|82
1621842820|a3:cc:2e:85:62:c2|73
1621949925|a3:d3:05:e7:e6:0b|73
1621846895|a4:07:b6:13:d5:7d|88
1622031617|a4:45:19:54:b8:10|92
1621863942|a4:45:19:54:b8:10|87
1622020076|a4:50:22:95:76:8e|81
1622021304|a4:50:46:10:7a:b7|84
1621846226|a4:50:46:10:7a:b7|80
1621949937|a4:55:90:c2:66:ac|84
1621864467|a4:55:90:c2:66:ac|89
1621839813|a4:57:f3:d7:8e:19|80
1622029129|a4:59:f5:00:cc:db|68
1621926311|a4:83:e7:3c:42:b3|78
1622017322|a4:83:e7:a4:7e:33|83
1621925331|a4:83:e7:a4:7e:33|85
1621927596|a4:8d:e2:f9:c6:9e|83
1621939734|a4:9b:4f:e3:b2:98|63
1621939103|a4:b1:c1:d6:51:cd|79
1622024285|a4:b1:c1:d6:51:cd|77
1621861063|a4:b1:c1:d6:51:cd|76
1621858809|a4:c3:f0:c9:2c:cd|78
1622021225|a4:c4:94:45:e4:58|68
1621942487|a4:c4:94:45:e4:58|63
1621836328|a4:d1:8c:e7:72:e8|88
1621855022|a4:d9:31:d8:79:11|87
1621937208|a4:e4:b8:80:55:71|82
1622022090|a4:e4:b8:80:55:71|76
1621855833|a4:e4:b8:80:55:71|80
1621931245|a4:e4:b8:94:90:67|87
1622018930|a4:e4:b8:94:90:67|88
1621954426|a4:f0:5e:d2:cc:77|84
1621862364|a4:f0:5e:d2:cc:77|86
1621837710|a5:00:3a:3e:cb:42|75
1621841640|a5:25:8d:5a:ba:a5|80
1621949689|a5:3e:82:57:72:c3|77
1621849885|a5:b2:bd:31:41:ff|77
1621852145|a5:bc:94:02:78:71|72
1621949689|a5:e5:7e:b6:06:0d|77
1622010111|a7:1a:9f:45:b4:22|75
1621923325|a7:26:2d:4e:e3:43|81
1621923386|a7:2e:b7:95:50:43|85
1621927818|a7:5d:1c:a0:f0:77|78
1621861002|a7:d9:83:9e:38:b7|89
1621926195|a8:18:84:a2:09:00|67
1621839709|a8:66:7f:64:04:08|79
1622009953|a8:6d:aa:0c:8a:69|69
1621841008|a8:6d:aa:0c:8a:69|61
1621844933|a8:6d:aa:c8:e6:41|87
1621927324|a8:6d:aa:c8:e6:41|87
1621840006|a8:81:7e:89:8b:2f|74
1621929755|a8:81:7e:8f:3c:21|94
1621933286|a8:81:95:88:5c:aa|82
1621838810|a8:87:b3:05:d0:b5|72
1621953541|a8:96:75:35:9a:40|91
1621851201|a8:96:75:63:da:d8|84
1621938274|a8:9c:ed:6d:c8:bd|89
1621852962|a8:9c:ed:6d:c8:bd|85
1622010898|a8:db:03:54:b1:1d|70
1621927081|a8:ea:a9:dc:96:fc|72
1621948602|a8:ed:d2:73:da:ff|87
1621864157|a9:28:07:2d:6c:45|82
1621845277|a9:3c:2a:02:15:eb|83
1621928662|a9:5f:12:c2:46:c6|66
1621837081|a9:93:29:be:5a:05|85
1622013881|a9:a8:67:c2:de:3e|83
1621927458|ab:07:5a:a6:78:d0|77
1621851555|ab:0b:56:e1:8b:e2|72
1621839470|ab:2b:d0:d7:fe:62|77
1621840576|ab:50:ee:a8:77:38|79
1622016038|ac:07:5f:2a:c1:44|82
1621923047|ac:07:5f:2a:c1:44|81
1621843795|ac:2a:4e:c3:5c:40|77
1621853086|ac:4b:6c:ac:1d:33|67
1622015015|ac:64:cf:f4:01:6b|65
1621934215|ac:64:cf:f4:01:6b|73
1621856340|ac:78:91:dc:11:41|76
1621942731|ac:d5:64:02:f7:bf|90
1621836621|ac:d5:64:02:f7:bf|84
1622023328|ac:fd:ce:37:75:12|74
1621856937|ac:fd:ce:37:75:12|81
1621949324|ad:03:2e:47:0d:b1|85
1621930902|ad:05:39:38:ba:dd|72
1621927404|ad:2d:10:9f:b2:3e|66
1621927980|ad:6f:a3:37:f4:e5|75
1621949930|ad:af:ba:5e:85:80|74
1621852733|ad:c3:8c:39:ec:13|79
1621850697|af:1e:dc:ec:91:0e|81
1621850757|af:35:62:77:c2:95|70
1621846876|af:c7:f2:81:5a:19|78
1621946703|af:e9:60:75:93:94|84
1622015824|b0:19:9d:52:ec:0f|90
1621944146|b0:35:9f:9d:d0:e1|77
1621923206|b0:35:b5:e5:7c:80|76
1621850594|b0:35:b5:e5:7c:80|67
1622012727|b0:48:1a:97:d1:c9|63
1621837600|b0:6f:e0:1e:1e:e8|91
1621840595|b0:6f:e0:b0:41:f2|78
1622011616|b0:70:2d:bc:e2:2a|81
1621951020|b0:72:bf:42:e9:d6|89
1621849945|b0:80:2b:3e:70:5d|72
1621937393|b0:a2:e7:cf:24:4c|84
1621850716|b0:a2:e7:cf:24:4c|89
1621923121|b0:a4:60:93:b5:52|82
1621838837|b0:a4:60:93:b5:52|74
1621925827|b0:a4:60:9d:d8:bb|79
1621926965|b0:b6:f6:0e:01:80|72
1621854401|b0:c7:6f:c1:32:d1|71
1622013643|b0:ce:d7:2e:80:7a|89
1621925520|b0:e1:7e:a6:4b:f5|76
1621853162|b0:e1:7e:a6:4b:f5|74
1621836000|b0:e2:35:c0:db:b6|62
1621862846|b0:e2:35:c1:1c:05|65
1622011799|b0:e2:35:c1:26:0e|62
1621928293|b0:e2:35:c1:27:b1|72
1621932219|b0:e5:ed:99:de:a8|81
1622025670|b0:fc:36:aa:55:5f|84
1621953499|b0:fc:36:aa:55:5f|89
1621948295|b0:fc:36:aa:71:6b|93
1622019299|b0:fc:36:aa:71:6b|89
1621836709|b0:fc:36:aa:71:6b|87
1621836004|b0:fc:36:b1:07:25|88
1621926607|b1:17:60:3d:0a:e8|67
1621932960|b1:27:37:fd:87:c6|72
1621836840|b1:7a:12:41:a5:13|75
1621838460|b1:bd:0b:2f:e4:5d|66
1621852619|b3:41:a8:21:64:f1|73
1621840670|b3:79:7f:18:5a:2f|77
1621841639|b3:b1:d1:98:01:50|77
1621846800|b3:c5:2f:ba:63:a0|78
1622029386|b3:d2:ab:ec:8f:b6|79
1621840956|b4:29:6e:5f:a0:40|74
1621838803|b4:4d:bb:89:ce:9f|74
1621855441|b4:62:91:03:b6:64|66
1621837218|b4:6b:fc:d3:24:03|59
1622015392|b4:74:43:65:6d:79|74
1621853713|b4:8b:19:75:a2:1c|85
1621929758|b4:8b:19:da:a2:ef|76
1622009792|b4:ae:2b:e1:d7:d5|75
1621929774|b4:be:57:49:fd:50|89
1621952094|b4:cd:27:15:6d:dd|95
1621866204|b4:cd:27:15:6d:dd|87
1621946446|b4:ce:40:29:20:c7|95
1621859228|b4:f1:da:b9:1b:67|85
1621939184|b4:f7:a1:85:44:84|88
1622023746|b5:32:61:fc:4b:e8|79
1621836932|b5:77:e7:d3:eb:a9|83
1621926359|b5:a7:db:bc:97:85|74
1621856165|b5:c1:42:33:44:89|64
1621842775|b5:cd:b5:52:27:b1|84
1621861530|b5:f0:db:a7:5b:3c|85
1621842708|b5:f1:d7:c9:5a:70|79
1621851069|b7:12:1c:77:64:06|74
1621840341|b7:3d:6d:ae:8e:ed|80
1621851536|b7:9b:a0:ac:81:b0|75
1621850081|b7:b5:dc:e3:54:00|73
1622030888|b8:36:68:be:f4:34|86
1621946699|b8:3c:c9:97:fa:24|80
1621939140|b8:53:ac:c7:31:1b|90
1621847983|b8:53:ac:c7:31:1b|88
1621932806|b8:57:d8:a1:22:3a|75
1621848781|b8:72:a1:60:a1:73|81
1621850893|b8:78:51:98:02:65|78
1621844987|b8:8a:60:b7:32:ed|89
1622032017|b8:8a:60:ed:5d:50|77
1622023146|b8:97:fe:2b:fc:40|74
1622009431|b8:9a:2a:af:32:ff|72
1621926671|b8:bb:57:8e:dd:d6|64
1622020358|b8:c4:16:cf:22:9d|83
1621950443|b8:d7:af:02:86:de|91
1621864474|b8:d7:af:02:86:de|88
1622027403|b8:d7:af:0b:b1:a7|82
1622031206|b8:d7:af:b6:77:f7|77
1621944042|b8:d7:af:b6:77:f7|92
1622009034|b8:ee:65:67:04:86|86
1621926780|b9:5d:f1:da:67:9a|67
1621838564|b9:8c:b5:32:02:12|77
1621851478|b9:99:5b:80:a6:b8|76
1621860919|b9:ac:ab:9c:52:fd|88
1621851123|b9:be:c2:79:52:fd|79
1621929116|b9:bf:d6:e1:b5:5e|74
1621840349|bb:06:71:56:6f:a7|72
1621927076|bb:8d:60:e7:b7:b2|83
1621841301|bb:e6:b5:b1:81:1c|67
1621846886|bc:09:63:1d:0b:b5|76
1622016374|bc:17:b8:3f:bb:e6|61
1621941827|bc:2e:f6:68:9a:c7|80
1621923065|bc:2f:3d:e3:70:cf|85
1622021104|bc:2f:3d:e3:70:cf|75
1621844370|bc:2f:3d:e3:70:cf|72
1621836231|bc:3a:ea:bc:1f:8c|84
1621836231|bc:3b:af:4f:79:3c|84
1621929211|bc:44:34:12:cb:e5|69
1621927751|bc:47:f7:6c:6a:20|66
1621923813|bc:83:85:0f:41:06|69
1622021275|bc:83:85:12:f8:91|64
1621934249|bc:83:85:ef:10:d6|73
1621836860|bc:83:85:ef:10:d6|66
1621952893|bc:89:4a:48:0a:ab|83
1621922961|bc:b2:d9:a5:37:c7|83
1622015901|bc:e2:65:77:12:cd|86
1621850773|bc:e2:65:e0:6d:34|87
1621845750|bc:eb:06:cc:e7:aa|90
1621935819|bc:ed:33:74:d4:2c|85
1621932284|bc:ff:eb:b9:b9:35|87
1621843125|bc:ff:eb:b9:b9:35|71
1621850068|bd:03:4a:30:14:08|92
1621850496|bd:db:f8:30:2b:7f|73
1621927912|bf:4a:72:23:ad:78|61
1621926917|bf:4d:b3:67:5d:1f|66
1622015891|bf:96:04:46:08:2c|77
1621854610|bf:c1:e7:35:1f:2a|72
1621837964|bf:f6:cf:d8:f4:ff|74
1621851444|bf:f8:67:a6:40:49|84
1621839415|c0:05:fe:5e:12:30|64
1621836803|c0:07:f4:d7:b8:05|77
1621866118|c0:10:b1:18:44:1e|90
1621945066|c0:10:b1:44:ce:44|89
1622014085|c0:17:4d:13:3f:73|89
1622030608|c0:17:4d:14:52:71|74
1621836111|c0:17:4d:14:52:71|64
1621854814|c0:17:4d:2f:18:3f|76
1621837147|c0:17:4d:38:2f:34|75
1622031669|c0:17:4d:c7:46:e7|92
1622032760|c0:48:94:98:55:ae|76
1621928092|c0:82:88:cc:e9:33|68
1621850372|c0:b5:d7:d9:00:6d|78
1621929091|c0:b6:58:52:15:74|71
1621943992|c0:b6:f9:3d:5a:8b|81
1622014848|c0:b6:f9:3d:5a:8b|81
1621859277|c0:b6:f9:3d:5a:8b|77
1621922990|c0:b8:83:7c:e7:4b|80
1622013177|c0:b8:83:7c:e7:4b|78
1621855032|c0:b8:83:7c:e7:4b|78
1621838157|c0:b8:83:c9:f2:c5|80
1622017874|c0:bd:c8:fb:69:ef|73
1621837648|c0:d1:55:27:86:71|75
1621924654|c0:d2:dd:66:05:c5|87
1621841052|c0:d2:dd:66:05:c5|84
1622029963|c0:ee:fb:9a:eb:d3|89
1621860219|c0:ee:fb:9c:f6:1c|70
1621950792|c0:ee:fb:e0:6f:e0|88
1621839733|c1:3c:0b:95:56:b6|79
1622012110|c1:5a:0d:66:80:d9|65
1622028750|c1:5f:5e:72:95:ce|74
1621849508|c1:70:ca:06:06:a9|73
1621856663|c1:9c:86:86:e0:b4|77
1622014989|c1:a3:63:a3:8f:56|77
1621925496|c1:c4:94:b1:10:16|74
1621842648|c3:1f:6f:77:3e:ca|82
1621925202|c3:3b:7a:56:78:49|65
1621927045|c3:bc:6a:7e:48:4f|72
1621838635|c4:06:83:25:f3:02|70
1621952918|c4:4c:91:b4:56:a6|83
1621933126|c4:57:6e:4e:d2:b7|86
1622014677|c4:57:6e:4e:d2:b7|82
1621843935|c4:57:6e:4e:d2:b7|85
1621953045|c4:58:af:7e:07:e1|84
1621923338|c4:66:78:52:ad:2f|88
1622013800|c4:8e:8f:f3:80:bd|86
1621852035|c4:91:0c:b6:e6:85|85
1621933428|c4:9d:ed:1e:a5:b5|81
1621836082|c4:9d:ed:1e:a5:b5|92
1621923506|c4:9f:4c:84:b2:8b|70
1621922410|c4:bf:60:df:06:89|85
1621949745|c4:d2:50:75:e1:9e|66
1621949161|c4:d9:87:c8:3a:57|94
1622009349|c5:0b:c9:11:04:ab|89
1621840552|c5:13:14:da:8c:d8|78
1621841684|c5:b7:0c:00:cb:a0|80
1621840273|c5:ea:f0:fc:7c:7a|76
1621949273|c5:ef:d5:92:38:c7|79
1621924020|c7:09:e3:b5:46:2c|72
1621929194|c7:17:df:99:3c:bf|71
1621928700|c7:7a:2b:07:2b:87|65
1621849894|c7:c3:32:50:87:42|77
1621841108|c7:e9:21:a2:a0:20|74
1621922532|c8:02:10:bf:67:e0|78
1621839558|c8:02:10:bf:67:e0|77
1621855867|c8:7d:a8:45:b7:78|85
1621928758|c8:8b:a7:aa:29:29|67
1621944724|c8:d0:83:0f:25:c6|81
1622019542|c8:d0:83:0f:25:c6|66
1622010644|c8:e1:a7:09:48:a2|76
1621923421|c8:e1:a7:09:48:a2|64
1621941113|c8:f7:33:db:5a:83|85
1621850514|c8:f9:09:e0:b3:9b|73
1622023324|c9:72:fb:a1:5c:79|83
1621949558|c9:95:c4:f3:b7:2c|69
1622030186|c9:9e:7f:c8:6e:2d|71
1621839433|c9:ef:50:7e:bf:9c|65
1622029013|c9:f2:17:4c:20:4e|70
1621949618|cb:30:71:01:dd:d1|79
1621838465|cb:3b:a4:1f:c0:5b|71
1621944943|cb:5a:7e:05:ef:88|64
1621925243|cb:7e:eb:7a:5d:a9|68
1621944308|cb:8d:db:20:3b:09|71
1621853037|cb:98:2e:a8:03:14|79
1621851399|cb:df:b5:4f:d5:5b|76
1621859300|cc:20:e8:9f:f7:61|84
1622022218|cc:21:19:89:75:37|70
1621853157|cc:31:61:62:73:eb|68
1621848701|cc:3a:61:90:fb:13|75
1621855525|cc:3d:82:4f:04:39|66
1621840969|cc:3d:82:4f:21:7b|73
1621836030|cc:46:4e:cf:02:6e|80
1621936785|cc:46:4e:eb:40:3a|80
1621841999|cc:92:7d:73:f2:90|70
1621861584|cc:a9:b8:bb:dc:fb|83
1621841160|cc:c5:7d:30:b7:5c|75
1621841329|cc:c7:60:86:61:5f|79
1622028657|cc:db:14:ab:d3:3b|76
1622019514|cc:e9:e7:88:5c:73|89
1621840378|cd:c5:80:9c:2f:ff|75
1621842077|cf:cb:ae:47:fa:3d|87
1621927464|cf:dc:d1:22:bb:a8|76
1621864555|d0:16:b4:19:0b:8b|94
1621848935|d0:25:98:a4:d0:04|80
1621938949|d0:31:69:52:b0:7c|79
1621947801|d0:4b:25:2a:51:44|88
1621952860|d0:4d:03:c5:90:b9|82
1622025842|d0:53:49:df:f2:fd|68
1622033562|d0:7f:a0:a7:0e:8f|89
1621836823|d0:c6:37:12:3b:3f|78
1621852378|d0:c6:37:c7:0b:14|85
1621931106|d0:c6:37:c7:0d:f8|76
1621846048|d0:c6:37:d6:fa:fb|66
1621864808|d0:d0:03:0a:93:28|61
1621931075|d1:19:b4:b0:d5:dd|82
1621949800|d1:27:2d:1a:c1:b7|77
1621935315|d1:48:6d:07:5d:c1|67
1621928826|d1:77:9e:60:f1:a2|66
1621851883|d1:d0:69:ec:1b:b6|67
1621849096|d3:04:db:6b:86:d2|67
1621925711|d3:71:3a:d0:2f:a1|72
1621838608|d3:72:b8:d9:9e:27|86
1622033592|d3:88:4e:92:f7:85|71
1621946485|d3:9e:53:b9:6f:34|68
1621848328|d3:b1:f5:8c:6d:14|59
1621836700|d3:f5:ff:d4:c2:05|85
1621837708|d4:3b:04:79:25:8e|80
1621927705|d4:3b:04:a0:aa:55|67
1622018570|d4:3b:04:a0:aa:55|77
1621841582|d4:3b:04:a0:aa:55|72
1621942213|d4:4d:a4:fb:89:da|83
1621944766|d4:62:ea:38:0c:a1|75
1621844748|d4:62:ea:a6:76:2d|68
1621836052|d4:6d:6d:e0:e8:c2|59
1622010678|d4:90:9c:71:ca:12|75
1621923403|d4:90:9c:71:ca:12|87
1621837670|d4:90:9c:95:53:5d|78
1621847311|d4:9d:c0:46:0a:fc|63
1622019587|d4:a3:3d:b6:d7:24|72
1621842911|d4:ae:05:39:ce:27|85
1621922552|d4:d2:52:b8:18:70|87
1621841947|d5:48:56:54:72:82|70
1621926240|d5:81:e5:23:bf:a9|63
1621925635|d5:d2:bb:c5:b0:df|72
1621929580|d5:df:a7:9f:98:ae|70
1621854249|d7:4e:a9:50:93:2c|74
1621946049|d7:d2:e5:2b:ab:59|83
1621948387|d8:03:e7:36:84:43|72
1621936100|d8:1c:79:ad:a4:d0|66
1622025885|d8:1e:dd:b0:55:af|73
1621952868|d8:32:e3:50:2a:2a|84
1621853960|d8:43:3f:ad:ae:f2|80
1621859631|d8:4c:90:b3:ff:30|83
1621853452|d8:63:a3:7a:b0:29|76
1621838461|d8:88:d2:26:0d:33|77
1621841489|d8:8e:43:41:2b:4b|92
1622020262|d8:9b:e6:8d:7b:5f|74
1621837159|d8:9c:67:92:75:77|91
1621930368|d8:9e:61:e8:92:59|68
1622016771|d8:9e:61:e8:92:59|80
1621842555|d8:9e:61:e8:92:59|79
1621836498|d8:bb:2c:46:1a:fe|77
1621938940|d8:c4:50:f6:7b:a1|71
1622026255|d8:d6:a6:ca:5d:45|87
1621853543|d8:ee:fe:8a:ab:72|72
1622031340|d8:f2:ca:11:cb:b4|75
1621861611|d8:f2:ca:11:cb:b4|77
1622014568|d8:f2:ca:b4:e4:9d|83
1621853552|d8:f2:ca:b4:e4:9d|86
1621931815|d8:f2:ca:b4:e4:9d|87
1621926491|d9:0f:93:14:b9:09|73
1621936979|d9:1f:7e:6a:e4:91|82
1621838499|d9:2e:81:65:37:29|72
1621837954|d9:77:c9:89:83:2d|73
1621925286|d9:84:02:8c:b8:4c|72
1621841146|db:07:42:20:f5:76|75
1621943918|db:0a:fb:16:c8:38|82
1621838004|db:10:01:6b:e0:86|68
1621925145|db:a9:0b:2e:dd:7c|73
1621929741|dc:0c:8b:37:4a:fc|68
1621854549|dc:16:b2:53:78:d6|91
1621927412|dc:16:b2:89:23:f3|71
1621853089|dc:16:b2:89:23:f3|80
1621841009|dc:1e:42:eb:2b:cf|77
1621930151|dc:66:72:c8:54:03|78
1621943165|dc:72:14:fa:a2:86|84
1621837369|dc:85:de:c0:4c:df|82
1622032450|dc:8b:28:41:99:fc|79
1621944767|dc:8b:28:65:9c:35|85
1622030234|dc:8b:28:77:df:e4|85
1622022052|dc:a9:04:8b:73:d0|89
1621926198|dc:b1:3a:b7:71:59|66
1621844671|dc:b7:2e:b6:ae:7a|84
1621940105|dc:b7:2e:bb:2b:e4|85
1621845058|dc:b7:2e:bb:2b:e4|79
1621935762|dc:d0:ec:62:12:d3|78
1621927052|dc:d8:46:ff:0b:82|78
1622029121|dc:ef:ca:39:fb:f1|92
1621940263|dc:ef:ca:59:1c:04|94
1621923194|dc:f0:90:bf:1e:84|76
1622009119|dc:f0:90:bf:1e:84|81
1621836279|dc:f0:90:bf:1e:84|83
1621938058|dc:f7:56:07:94:c8|88
1621861724|dc:f7:56:07:94:c8|85
1621849773|dc:fb:48:8a:de:c8|80
1621848893|dd:05:47:32:e7:a0|66
1622032666|dd:20:c7:da:af:f4|73
1621837977|dd:35:43:64:d4:e4|78
1621851217|dd:36:c1:9c:8b:8e|79
1622024495|dd:9d:79:14:ef:31|83
1621927093|dd:ce:71:9a:1e:b2|64
1621854672|df:46:2c:75:81:2a|75
1621850702|df:b8:ef:74:b9:63|80
1621928526|df:dc:42:cf:41:bb|67
1621854012|df:e1:5d:50:7c:25|72
1621948594|df:ec:d6:21:00:aa|80
1621932669|df:f4:6c:6b:6c:c2|82
1621854083|df:f7:83:b0:1b:d7|88
1621840339|e0:0a:8d:b7:fa:5e|73
1621850701|e0:0e:cd:51:03:0f|72
1621853541|e0:2f:f4:5f:57:ef|74
1621852540|e0:37:bf:d8:dc:b2|87
1621944483|e0:5f:45:bc:fa:7e|75
1621854758|e0:85:50:30:53:ba|85
1621838133|e0:89:7e:16:7b:fc|78
1621845661|e0:b5:2d:0b:9b:1b|86
1621929024|e0:c4:e1:da:ed:af|69
1621930801|e0:ca:94:84:33:6f|92
1621928413|e1:14:a0:21:35:ff|87
1621948327|e1:69:3b:dd:85:60|84
1621851528|e1:cb:0b:a4:83:b7|77
1621927064|e1:d6:8c:d8:2e:da|71
1621926921|e3:e1:af:7e:b9:70|73
1621857732|e3:e8:6f:2c:e7:72|85
1622023712|e4:0e:ee:7e:92:40|71
1621843451|e4:0e:ee:9d:d5:53|88
1622025259|e4:0e:ee:b9:0d:5b|78
1621934420|e4:0e:ee:e4:dd:b8|68
1622024625|e4:29:da:c2:e1:f8|70
1622009365|e4:2b:34:e5:1f:49|86
1621849444|e4:2b:34:e5:1f:49|79
1622020128|e4:39:e3:6c:f9:98|81
1621837028|e4:9c:29:7f:66:9b|87
1621922442|e4:a4:71:ae:bb:90|85
1622014635|e4:aa:ea:cd:96:f3|88
1622008968|e4:b3:18:9c:52:34|71
1621922821|e4:b3:18:9c:52:34|73
1621936343|e4:b3:18:c7:54:bb|89
1621842223|e4:b3:18:e9:1f:15|83
1621924431|e4:f8:9c:34:dd:d4|85
1621844731|e4:f8:9c:34:dd:d4|93
1621925995|e5:6a:3a:25:b1:4a|73
1621928595|e5:92:7d:82:3a:24|65
1621925638|e5:b7:b7:91:63:72|68
1621926517|e5:d0:6b:ab:e9:c3|77
1621927905|e5:d8:53:ae:06:88|62
1621836956|e5:f0:f8:3a:89:18|83
1621851492|e7:13:4a:25:d8:7f|78
1621852047|e7:33:90:7b:2a:8d|72
1621929198|e7:c7:cf:ee:99:c0|66
1621838249|e7:d0:22:a1:dd:92|78
1621849004|e8:2a:ea:19:b9:2d|71
1622012565|e8:5a:8b:62:63:17|72
1621838663|e8:5a:8b:62:63:17|83
1621843871|e8:93:09:2e:01:ee|71
1621836905|e8:b1:6b:4b:28:10|78
1622023841|e8:d0:fc:f6:9c:2f|87
1621935248|e8:d0:fc:f6:9c:2f|86
1621855944|e8:e5:18:00:8c:63|82
1621924068|e9:47:79:a8:8c:fd|67
1621933009|e9:67:0e:70:8c:26|89
1621933418|eb:03:77:d1:ed:ce|81
1621864167|eb:18:0d:78:ad:81|84
1621930191|eb:3d:2a:1f:c5:b2|86
1621842205|eb:46:87:d8:b5:21|82
1621856360|eb:48:1e:2e:fd:f9|72
1621836816|eb:4f:55:0b:04:25|72
1621864036|eb:9d:40:c1:e6:b7|74
1621950107|eb:ee:70:3a:93:bd|78
1621948850|eb:fe:a7:c3:30:8b|65
1621839378|ec:01:ee:d0:10:6f|81
1622024313|ec:10:7b:f3:d2:5f|86
1621944833|ec:1f:72:11:3b:8d|82
1621844000|ec:1f:72:11:3b:8d|71
1621935690|ec:1f:72:2b:f8:b6|71
1622032424|ec:1f:72:2b:f8:b6|77
1622030092|ec:1f:72:66:0c:0a|89
1622020432|ec:1f:72:7b:e0:80|81
1621923157|ec:1f:72:7b:e0:80|73
1622012345|ec:1f:72:80:10:d2|92
1621954287|ec:1f:72:83:3b:dd|90
1621866897|ec:1f:72:83:3b:dd|92
1621836024|ec:1f:72:83:9f:04|80
1621838353|ec:6f:8f:b9:0f:3a|79
1621946067|ec:77:57:14:6f:ee|69
1621838004|ec:8f:36:40:7f:7f|73
1621953025|ec:90:ee:12:2e:c9|85
1621838970|ec:9b:f3:ab:a6:5a|75
1621850928|ec:d9:c4:02:d8:61|67
1622029613|ec:e3:d3:6b:85:19|78
1621923995|ed:0f:b6:6b:07:6f|69
1621930769|ed:1a:10:30:49:ff|67
1622033457|ed:b4:59:a7:44:29|80
1622027316|ef:04:73:5e:dc:7e|66
1621949988|ef:4c:d8:cb:8c:0b|70
1622020926|f0:15:4e:9f:72:10|75
1621851163|f0:18:98:6a:15:28|77
1621854140|f0:25:74:20:e1:2f|74
1621841401|f0:3e:82:b0:72:82|74
1622033741|f0:6d:78:5a:ad:4d|67
1621838750|f0:6e:0b:e3:c3:f7|84
1621853516|f0:79:60:24:57:02|91
1621845848|f0:98:9d:9e:ea:42|63
1621839499|f0:98:9d:ae:7a:e1|74
1621929435|f0:98:9d:e7:9a:9a|71
1621934725|f0:99:b6:d1:3c:7b|82
1621855242|f0:c3:67:52:2d:d1|68
1622017629|f0:d5:bf:29:6a:bd|90
1622013332|f0:d5:bf:bb:9e:41|91
1621922862|f0:d5:bf:bb:9e:41|87
1622013342|f0:d5:bf:bb:9e:42|81
1621923687|f0:d5:bf:bb:9e:42|85
1622019720|f0:f6:1c:6a:8b:f2|85
1621861311|f0:f6:1c:6a:8b:f2|84
1621853465|f1:7a:83:dc:81:2b|66
1621925211|f1:82:4c:dc:c3:c9|91
1621838239|f1:8f:76:8b:44:0a|83
1621837972|f1:95:c9:b4:c3:9d|72
1621838485|f1:cc:92:3b:5a:ea|67
1621948455|f1:e2:7c:60:f9:5c|72
1621932642|f3:15:79:d3:02:6c|73
1621853101|f3:6a:54:fb:ff:72|68
1622013527|f3:90:0c:79:29:5a|87
1621850158|f3:b3:e3:5d:08:3d|90
1622016397|f4:06:69:66:c2:22|81
1621839197|f4:06:69:66:c2:22|84
1621930889|f4:0f:24:1f:fc:8b|76
1621948816|f4:24:d1:51:93:c4|78
1621851519|f4:49:81:cc:26:cc|72
1621945210|f4:5c:89:a9:4f:db|87
1621854224|f4:74:3e:bb:4f:f0|69
1621854280|f4:7f:e2:8e:dd:a7|71
1621851532|f4:80:77:2d:9e:a4|74
1621853932|f4:83:01:9b:4e:07|75
1621858412|f4:8c:50:4b:14:5a|93
1622030868|f4:8c:50:4b:14:5a|91
1621850530|f4:8c:50:d5:79:e7|67
1622024653|f4:8c:50:d5:79:e7|89
1621854574|f4:8c:50:fd:c6:c7|95
1621854101|f4:93:bc:0f:a9:d8|75
1622018474|f4:96:34:99:a8:36|89
1621946415|f4:96:34:99:a8:36|84
1621853194|f4:96:34:99:a8:37|90
1621925278|f4:96:34:99:a8:37|90
1621927408|f4:c2:48:1c:39:41|79
1621836771|f4:c2:48:73:ec:87|73
1622027555|f4:c2:48:8a:0b:85|74
1622031935|f4:cb:ed:05:fc:6d|81
1621926755|f4:f9:b9:a0:0c:9f|72
1621852853|f5:05:2a:ff:30:ae|71
1621851129|f5:11:a8:99:fa:ee|75
1621853971|f5:46:d0:ba:6c:dc|77
1621837431|f5:7d:3d:74:80:f1|77
1621925343|f5:a5:63:73:83:38|64
1621860061|f5:d4:d9:99:46:e1|68
1621938819|f7:8c:35:6d:6c:1b|72
1621854388|f7:c6:fd:58:a3:0d|81
1621927304|f7:d5:9b:a0:0e:e3|77
1621854319|f7:dd:8f:03:64:17|74
1621840901|f8:08:11:1c:e8:ca|87
1621923349|f8:59:71:32:6d:e3|89
1622023338|f8:5e:a0:2c:5f:24|66
1621846841|f8:87:f1:43:7e:38|88
1621841803|f8:94:c2:02:03:5f|69
1622014443|f8:94:c2:09:20:f9|84
1622012059|f8:94:c2:09:21:30|81
1621938918|f8:94:c2:09:21:30|85
1621936431|f8:9a:78:8a:5b:ae|68
1621932007|f8:a0:48:6e:47:90|80
1621922485|f8:a2:d6:e3:d6:4d|84
1621940594|f8:ac:65:80:24:5b|77
1621949250|f8:b6:20:72:58:48|80
1621836009|f8:c3:9e:bd:24:a8|74
1621949946|f8:d6:9f:33:25:a6|76
1622011778|f8:da:0c:4e:06:cb|87
1621846454|f8:e4:e3:67:29:6f|89
1621931779|f8:e4:e3:91:ee:c0|68
1621855379|f8:e4:e3:91:ee:c0|85
1621836035|f8:e4:e3:e4:6a:06|65
1621942577|f8:e7:a0:21:57:77|85
1622020630|f8:e9:4e:80:3a:8a|89
1621836572|f8:e9:4e:b0:58:77|87
1621931237|f8:ff:c2:03:88:ee|89
1622015265|f8:ff:c2:53:af:bc|81
1621925289|f8:ff:c2:53:af:bc|83
1622027109|f8:ff:c2:55:88:41|83
1621838455|f9:01:58:b8:64:ae|76
1621927501|f9:1f:16:8e:34:48|70
1621948424|f9:25:d8:5c:b1:be|64
1621836168|f9:39:7e:f3:ba:1e|94
1621929114|f9:59:e0:88:c6:6d|73
1621849076|f9:63:a3:f1:41:e7|54
1621854314|f9:e5:20:92:b6:61|71
1621841997|fb:d0:2b:c0:24:69|75
1621848977|fb:df:6e:66:68:38|94
1621926518|fb:ed:5a:bd:a3:5d|68
1621836885|fc:30:be:91:88:eb|74
1621941277|fc:42:03:10:1d:6d|87
1622030480|fc:42:03:1f:3c:72|88
1621844814|fc:42:03:bf:e2:94|73
1622014762|fc:49:7d:a0:ab:42|76
1621854385|fc:53:41:12:d8:89|68
1621932181|fc:60:d6:2e:81:b8|84
1622009209|fc:66:cf:e1:47:39|81
1621855818|fc:77:74:f2:8e:65|93
1621854767|fc:77:74:f2:8e:66|83
1622016467|fc:77:74:f2:c7:db|82
1621925473|fc:77:74:f2:c7:db|90
1621945286|fc:aa:b6:64:33:e0|72
1622011733|fc:db:b3:1b:cb:72|67
1621925659|fd:0c:87:8a:58:16|72
1621924528|fd:5c:cb:ec:db:ac|79
1621841135|ff:03:b1:de:26:87|77
1621926722|ff:26:09:b4:83:70|68
1621928546|ff:f2:bd:05:e0:9b|69