1616401144|24:46:c8:d4:25:fc|91
1616401144|5c:ac:4c:23:a3:76|95
1616401159|fc:42:03:72:6d:27|92
1616401159|5c:ac:4c:23:a3:76|95
1616401159|24:46:c8:d4:25:fc|91
1616401174|28:b2:bd:55:4d:f8|93
1616401174|5c:ac:4c:23:a3:76|93
1616401174|60:1d:91:1b:44:68|92
1616401174|fc:42:03:72:6d:27|92
1616401189|dc:74:a8:6b:80:02|91
1616401189|28:b2:bd:55:4d:f8|93
1616401204|84:c7:ea:f1:c1:f6|93
1616401219|5c:ac:4c:23:a3:76|94
1616401249|5c:ac:4c:23:a3:76|95
1616401249|20:39:56:4b:26:9b|90
1616401264|5c:ac:4c:23:a3:76|94
1616401279|5c:ac:4c:23:a3:76|94
1616401294|c0:8c:71:8e:e1:96|94
1616401309|fc:42:03:72:6d:27|94
1616401309|5c:ac:4c:23:a3:76|94
1616401309|c0:8c:71:8e:e1:96|94
1616401324|fc:42:03:72:6d:27|94
1616401339|ac:5f:3e:f4:e0:3f|82
1616401339|fc:42:03:72:6d:27|93
1616401339|5c:ac:4c:23:a3:76|93
1616401354|24:46:c8:d3:e7:47|94
1616401354|ac:5f:3e:f4:e0:3f|77
1616401369|ac:5f:3e:f4:e0:3f|81
1616401369|24:46:c8:d3:e7:47|94
1616401384|00:02:36:f0:05:65|92
1616401384|ac:5f:3e:f4:e0:3f|81
1616401399|00:02:36:f0:05:65|92
1616401429|5c:ac:4c:23:a3:76|95
1616401429|c4:18:e9:e4:6a:af|83
1616401444|74:c1:4f:7a:63:d0|92
1616401444|dc:74:a8:6b:80:02|85
1616401444|5c:ac:4c:23:a3:76|95
1616401459|3c:f0:11:b6:0c:92|94
1616401459|5c:ac:4c:23:a3:76|95
1616401459|74:c1:4f:7a:63:d0|92
1616401474|ac:5f:3e:f4:e0:3f|78
1616401474|3c:f0:11:b6:0c:92|94
1616401489|5c:ac:4c:23:a3:76|95
1616401504|dc:74:a8:6b:80:02|88
1616401504|5c:ac:4c:23:a3:76|94
1616401519|f8:e0:b4:cb:fc:1a|90
1616401519|5c:ac:4c:23:a3:76|96
1616401519|dc:74:a8:6b:80:02|88
1616401534|a4:e4:b8:af:f1:1b|92
1616401549|d8:5b:2a:54:a6:db|92
1616401549|74:eb:80:7f:82:a0|92
1616401564|c0:17:4d:14:1a:89|94
1616401579|ac:5f:3e:f4:e0:3f|75
1616401579|3c:f0:11:b6:0c:92|88
1616401579|5c:ac:4c:23:a3:76|94
1616401594|ac:5f:3e:f4:e0:3f|75
1616401609|00:be:3b:df:5c:42|94
1616401609|a0:27:b6:4a:2b:1f|90
1616401609|4d:e8:32:c9:e4:ff|92
1616401609|5c:ac:4c:23:a3:76|93
1616401609|00:d0:c9:f3:00:70|93
1616401624|00:be:3b:df:5c:42|94
1616401639|5c:ac:4c:23:a3:76|94
1616401654|5c:ac:4c:23:a3:76|95
1616401669|88:ad:d2:93:2e:47|91
1616401684|c0:8c:71:8d:67:4f|92
1616401684|5c:ac:4c:23:a3:76|93
1616401684|88:ad:d2:93:2e:47|91
1616401699|ac:5f:3e:f4:e0:3f|74
1616401699|3c:f0:11:b6:0c:92|93
1616401699|c0:8c:71:8d:67:4f|92
1616401714|28:b2:bd:55:4d:f8|91
1616401714|5c:ac:4c:23:a3:76|96
1616401714|ac:5f:3e:f4:e0:3f|75
1616401729|5c:ac:4c:23:a3:76|94
1616401729|28:b2:bd:55:4d:f8|91
1616401759|3c:f0:11:b6:0c:92|91
1616401759|5c:ac:4c:23:a3:76|94
1616401774|28:b2:bd:55:4d:f8|90
1616401774|00:d0:c9:f3:00:70|93
1616401774|f4:7d:ef:e7:df:eb|91
1616401774|3c:f0:11:b6:0c:92|91
1616401789|40:83:de:e7:24:d9|91
1616401789|28:b2:bd:55:4d:f8|90
1616401804|5c:ac:4c:23:a3:76|93
1616401819|5c:ac:4c:23:a3:76|93
1616401834|5c:ac:4c:23:a3:76|94
1616401834|04:b4:29:e2:5d:23|85
1616401849|7c:23:02:f2:ea:58|93
1616401849|54:fc:f0:1f:e9:9d|90
1616401864|5c:ac:4c:23:a3:76|93
1616401864|7c:23:02:f2:ea:58|93
1616401879|5c:ac:4c:23:a3:76|93
1616401894|5c:ac:4c:23:a3:76|94
1616401909|28:b2:bd:55:4d:f8|91
1616401924|5c:ac:4c:23:a3:76|94
1616401939|3c:f0:11:b6:0c:92|89
1616401939|5c:ac:4c:23:a3:76|92
1616401954|d4:ca:6e:40:48:39|91
1616401969|94:ee:9f:66:8a:9f|93
1616401969|d4:ca:6e:40:48:39|91
1616401984|94:ee:9f:66:8a:9f|93
1616401999|5c:ac:4c:23:a3:76|94
1616402044|5c:ac:4c:23:a3:76|93
1616402059|94:14:7a:5f:7c:72|85
1616402059|c0:8c:71:8d:dc:91|91
1616402059|5c:ac:4c:23:a3:76|96
1616402074|94:14:7a:5f:7c:72|85
1616402089|3c:20:f6:c7:b2:a6|92
1616402089|28:b2:bd:55:4d:f8|93
1616402089|5c:ac:4c:23:a3:76|94
1616402104|3c:20:f6:c7:b2:a6|92
1616402119|00:0c:e7:2b:f7:7b|94
1616402119|24:46:c8:d3:5f:e2|92
1616402149|00:02:36:f0:03:f8|91
1616402179|3c:f0:11:b6:0c:92|94
1616402179|dc:fb:48:9f:d1:66|93
1616402179|00:d0:c9:f3:00:70|93
1616402194|3c:f0:11:b6:0c:92|94
1616402209|5c:ac:4c:23:a3:76|94
1616402209|3c:f0:11:b6:0c:92|94
1616402224|60:1d:91:91:bd:93|93
1616402239|60:1d:91:91:bd:93|93
1616402254|b8:08:cf:f6:a9:64|90
1616402254|5c:ac:4c:23:a3:76|95
1616402269|5c:ac:4c:23:a3:76|94
1616402269|b8:08:cf:f6:a9:64|90
1616402284|5c:ac:4c:23:a3:76|94
1616402299|00:d0:c9:f3:00:70|92
1616402299|5c:ac:4c:23:a3:76|94
1616402314|c0:8c:71:8e:9e:6b|94
1616402314|5c:ac:4c:23:a3:76|94
1616402314|60:1d:91:91:c3:30|91
1616402314|00:d0:c9:f3:00:70|92
1616402329|5c:ac:4c:23:a3:76|93
1616402329|28:b2:bd:55:4d:f8|90
1616402329|c0:8c:71:8e:9e:6b|94
1616402344|60:1d:91:91:da:e5|93
1616402359|3c:f0:11:b6:0c:92|91
1616402359|04:b4:29:e2:5d:23|66
1616402359|5c:ac:4c:23:a3:76|93
1616402374|5c:ac:4c:23:a3:76|94
1616402389|5c:ac:4c:23:a3:76|94
1616402404|5c:ac:4c:23:a3:76|93
1616402419|9c:a5:13:3e:93:eb|92
1616402419|5c:ac:4c:23:a3:76|93
1616402449|c4:18:e9:e4:6a:af|93
1616402449|00:d0:c9:f3:00:70|92
1616402464|d8:9b:3b:4f:9a:15|92
1616402479|5c:ac:4c:23:a3:76|94
1616402479|d8:9b:3b:4f:9a:15|92
1616402494|5c:ac:4c:23:a3:76|94
1616402584|d4:c9:4b:6f:af:e8|93
1616402599|3c:f0:11:b6:0c:92|91
1616402599|d4:c9:4b:6f:af:e8|93
1616402614|ec:f3:42:23:05:65|86
1616402614|3c:f0:11:b6:0c:92|91
1616402629|ec:f3:42:23:05:65|86
1616402689|80:ce:b9:20:4b:e4|93
1616402719|3c:f0:11:b6:0c:92|88
1616402734|5c:ac:4c:23:a3:76|93
1616402749|5c:ac:4c:23:a3:76|93
1616402764|b0:52:16:72:e6:47|92
1616402779|b0:52:16:72:e6:47|92
1616402809|c8:d7:b0:ce:31:2c|93
1616402809|c0:8c:71:8d:62:c6|91
1616402824|5c:ac:4c:23:a3:76|96
1616402824|c0:8c:71:8d:62:c6|94
1616402824|c8:d7:b0:ce:31:2c|93
1616402839|5c:ac:4c:23:a3:76|95
1616402899|00:d0:c9:f3:00:70|91
1616402914|44:2a:60:de:b8:e6|90
1616402914|00:d0:c9:f3:00:70|91
1616402929|44:2a:60:de:b8:e6|90
1616402944|c0:8c:71:8d:62:c6|93
1616402959|3c:f0:11:b6:0c:92|95
1616402959|c0:8c:71:8d:62:c6|93
1616402974|5c:ac:4c:23:a3:76|94
1616402974|3c:f0:11:b6:0c:92|95
1616402989|5c:ac:4c:23:a3:76|94
1616402989|00:d0:c9:f3:00:70|92
1616403004|5c:ac:4c:23:a3:76|96
1616403019|3c:f0:11:b6:0c:92|95
1616403019|5c:ac:4c:23:a3:76|93
1616403034|dc:89:83:4e:7c:b3|94
1616403034|3c:f0:11:b6:0c:92|95
1616403049|04:b4:29:e2:5d:23|71
1616403064|b0:52:16:72:e6:47|91
1616403064|04:b4:29:e2:5d:23|71
1616403079|3c:f0:11:b6:0c:92|90
1616403079|5c:ac:4c:23:a3:76|95
1616403079|b0:52:16:72:e6:47|91
1616403094|3c:f0:11:b6:0c:92|90
1616403109|5c:ac:4c:23:a3:76|95
1616403124|00:02:36:f0:05:07|93
1616403124|5c:ac:4c:23:a3:76|94
1616403139|b0:e2:35:c1:0b:3d|67
1616403139|dc:fb:48:9f:d1:66|91
1616403139|00:02:36:f0:05:07|93
1616403154|04:b4:29:e2:5d:23|74
1616403154|5c:ac:4c:23:a3:76|93
1616403154|b0:e2:35:c1:0b:3d|66
1616403169|5c:ac:4c:23:a3:76|94
1616403169|04:b4:29:e2:5d:23|74
1616403184|28:b2:bd:55:4d:f8|90
1616403184|5c:ac:4c:23:a3:76|95
1616403199|c0:8c:71:8e:ba:be|91
1616403199|dc:89:83:4e:7c:b3|89
1616403199|28:b2:bd:55:4d:f8|90
1616403229|00:02:36:f0:05:79|93
1616403229|5c:ac:4c:23:a3:76|95
1616403244|74:eb:80:81:b5:a6|93
1616403244|00:02:36:f0:05:79|93
1616403259|3c:f0:11:b6:0c:92|94
1616403259|5c:ac:4c:23:a3:76|95
1616403259|74:eb:80:81:b5:a6|93
1616403274|9c:8d:7c:8a:9b:b8|91
1616403274|10:07:b6:e0:03:4b|91
1616403274|98:49:14:cc:3a:20|91
1616403274|5c:ac:4c:23:a3:76|94
1616403274|3c:f0:11:b6:0c:92|94
1616403289|10:07:b6:e0:03:4b|91
1616403289|9c:8d:7c:8a:9b:b8|91
1616403304|5c:ac:4c:23:a3:76|94
1616403334|5c:ac:4c:23:a3:76|95
1616403349|5c:ac:4c:23:a3:76|94
1616403379|5c:ac:4c:23:a3:76|94
1616403394|5c:ac:4c:23:a3:76|96
1616403409|5c:ac:4c:23:a3:76|95
1616403424|5c:ac:4c:23:a3:76|94
1616403439|5c:ac:4c:23:a3:76|95
1616403454|60:1d:91:92:28:f1|92
1616403454|5c:ac:4c:23:a3:76|95
1616403469|60:1d:91:92:28:f1|92
1616403484|5c:ac:4c:23:a3:76|94
1616403514|5c:ac:4c:23:a3:76|93
1616403529|5c:ac:4c:23:a3:76|94
1616403559|04:b4:29:e2:5d:23|71
1616403559|5c:ac:4c:23:a3:76|95
1616403574|00:0c:e7:df:e3:86|93
1616403574|9c:8d:7c:8a:9b:b8|94
1616403574|c0:8c:71:8d:96:26|91
1616403574|04:b4:29:e2:5d:23|70
1616403589|5c:ac:4c:23:a3:76|95
1616403589|00:0c:e7:df:e3:86|93
1616403604|28:b2:bd:55:4d:f8|92
1616403604|5c:ac:4c:23:a3:76|95
1616403619|00:0c:e7:29:ed:ed|93
1616403634|5c:ac:4c:23:a3:76|94
1616403664|98:b8:bc:f5:55:ca|91
1616403664|38:37:8b:ea:b0:81|88
1616403679|98:b8:bc:f5:55:ca|91
1616403709|00:12:4e:23:8e:e7|92
1616403754|3c:f0:11:b6:0c:92|92
1616403784|28:b2:bd:55:4d:f8|91
1616403784|c8:d7:b0:ce:31:2c|95
1616403799|28:b2:bd:55:4d:f8|91
1616403814|d4:c9:4b:6b:bf:56|92
1616403829|10:a4:be:41:f0:9a|92
1616403829|5c:ac:4c:23:a3:76|94
1616403844|3c:57:6c:59:7a:3d|91
1616403844|10:a4:be:41:f0:9a|92
1616403859|1c:42:7d:8e:59:3f|89
1616403859|00:02:36:f0:03:e6|90
1616403874|5c:ac:4c:23:a3:76|94
1616403874|10:a4:be:41:f0:9a|88
1616403874|1c:42:7d:8e:59:3f|89
1616403889|3c:57:6c:59:7a:3d|84
1616403904|5c:ac:4c:23:a3:76|97
1616403919|5c:ac:4c:23:a3:76|95
1616403919|28:b2:bd:55:4d:f8|93
1616403919|10:a4:be:41:f0:9a|90
1616403919|00:d0:c9:f3:00:70|93
1616403934|d4:c9:4b:6e:3a:87|91
1616403934|79:38:9a:b9:ce:a0|90
1616403934|3c:f0:11:b6:0c:92|87
1616403934|5c:ac:4c:23:a3:76|94
1616403949|5c:ac:4c:23:a3:76|95
1616403949|d4:c9:4b:6e:3a:87|91
1616403964|5c:ac:4c:23:a3:76|94
1616404024|90:06:28:6e:92:e5|84
1616404024|10:a4:be:41:f0:9a|91
1616404039|90:06:28:6e:92:e5|84
1616404054|30:b4:b8:74:b1:7a|91
1616404099|28:b2:bd:55:4d:f8|94
1616404099|04:b4:29:e2:5d:23|64
1616404114|48:79:4d:38:6d:73|88
1616404114|04:f0:21:4b:80:48|89
1616404114|3c:f0:11:b6:0c:92|93
1616404114|28:b2:bd:55:4d:f8|94
1616404129|00:d0:c9:f3:00:70|90
1616404129|48:79:4d:38:6d:73|88
