1616400455|00:d0:c9:f3:00:70|86
1616400470|8c:f5:a3:54:19:cb|90
1616400470|40:f5:20:46:c8:38|63
1616400470|00:d0:c9:f3:00:70|86
1616400485|1d:13:ca:fb:24:10|93
1616400485|00:d0:c9:f3:00:70|87
1616400500|00:d0:c9:f3:00:70|87
1616400500|1d:13:ca:fb:24:10|93
1616400515|40:f5:20:46:c4:5c|58
1616400515|00:d0:c9:f3:00:70|88
1616400530|00:d0:c9:f3:00:70|89
1616400530|40:f5:20:46:c4:5c|58
1616400545|00:d0:c9:f3:00:70|88
1616400560|00:d0:c9:f3:00:70|87
1616400575|28:f0:76:14:84:f2|95
1616400575|40:b4:cd:e1:9b:f9|93
1616400575|00:d0:c9:f3:00:70|88
1616400590|00:d0:c9:f3:00:70|87
1616400590|28:f0:76:14:84:f2|95
1616400605|00:d0:c9:f3:00:70|89
1616400620|4c:18:9a:9a:d3:c2|89
1616400620|00:d0:c9:f3:00:70|88
1616400620|ac:b5:7d:f3:13:ed|92
1616400635|40:f5:20:46:c2:f8|62
1616400635|00:d0:c9:f3:00:70|89
1616400635|20:da:22:e1:8e:45|92
1616400650|00:d0:c9:f3:00:70|88
1616400665|00:d0:c9:f3:00:70|88
1616400680|00:d0:c9:f3:00:70|87
1616400680|60:1d:91:92:b6:57|86
1616400695|28:f0:76:14:84:f2|92
1616400695|00:d0:c9:f3:00:70|90
1616400710|2c:ae:2b:32:26:0f|85
1616400710|00:d0:c9:f3:00:70|89
1616400710|28:f0:76:14:84:f2|92
1616400725|00:d0:c9:f3:00:70|86
1616400725|2c:ae:2b:32:26:0f|93
1616400740|00:d0:c9:f3:00:70|87
1616400755|24:46:c8:d3:5d:84|88
1616400755|40:f5:20:44:c8:9c|68
1616400755|00:d0:c9:f3:00:70|88
1616400755|40:b4:cd:e1:9b:f9|90
1616400770|d4:c9:4b:6b:f4:39|92
1616400770|00:d0:c9:f3:00:70|86
1616400785|00:d0:c9:f3:00:70|89
1616400785|d4:c9:4b:6b:f4:39|92
1616400800|00:0c:e7:b4:98:61|91
1616400800|24:46:c8:d2:bb:be|91
1616400800|bc:91:b5:31:1c:d2|89
1616400800|00:d0:c9:f3:00:70|87
1616400815|28:f0:76:14:84:f2|89
1616400815|3c:dc:bc:62:2a:44|92
1616400815|40:b4:cd:e1:9b:f9|92
1616400815|00:d0:c9:f3:00:70|87
1616400815|00:0c:e7:b4:98:61|91
1616400830|00:0c:e7:02:87:ec|92
1616400830|00:d0:c9:f3:00:70|86
1616400830|28:f0:76:14:84:f2|89
1616400845|00:d0:c9:f3:00:70|87
1616400845|00:0c:e7:02:87:ec|92
1616400860|24:46:c8:d3:42:a2|91
1616400860|00:d0:c9:f3:00:70|88
1616400860|40:f5:20:46:c1:e4|61
1616400860|a4:07:b6:0d:52:3b|91
1616400875|40:b4:cd:e1:9b:f9|93
1616400875|00:d0:c9:f3:00:70|89
1616400875|24:46:c8:d3:42:a2|91
1616400890|00:d0:c9:f3:00:70|87
1616400890|2c:ae:2b:32:26:0f|92
1616400890|40:b4:cd:e1:9b:f9|93
1616400905|ac:b5:7d:f3:13:ed|90
1616400905|00:d0:c9:f3:00:70|88
1616400920|d0:13:fd:57:4a:80|89
1616400920|00:d0:c9:f3:00:70|88
1616400920|40:f5:20:46:c5:40|77
1616400935|00:d0:c9:f3:00:70|87
1616400935|d0:13:fd:57:4a:80|89
1616400950|00:d0:c9:f3:00:70|89
1616400965|c0:8c:71:92:da:25|90
1616400965|00:02:36:f0:05:57|89
1616400965|00:d0:c9:f3:00:70|87
1616400965|40:f5:20:46:c5:40|79
1616400980|00:02:36:f0:05:8a|90
1616400980|00:d0:c9:f3:00:70|89
1616400980|c0:8c:71:92:da:25|90
1616400995|a0:28:ed:aa:b8:e2|92
1616400995|40:b4:cd:e1:9b:f9|91
1616400995|00:d0:c9:f3:00:70|87
1616401010|00:d0:c9:f3:00:70|87
1616401010|a0:28:ed:aa:b8:e2|92
1616401025|c0:8c:71:8e:ee:b3|91
1616401025|00:d0:c9:f3:00:70|86
1616401025|00:0c:e7:5a:f9:d8|92
1616401040|00:d0:c9:f3:00:70|89
1616401055|bc:ff:eb:a1:c2:17|93
1616401055|9c:28:bf:88:e3:16|89
1616401055|00:d0:c9:f3:00:70|87
1616401070|00:d0:c9:f3:00:70|88
1616401070|fc:42:03:72:6a:9f|90
1616401070|bc:ff:eb:a1:c2:17|93
1616401085|00:d0:c9:f3:00:70|87
1616401100|00:d0:c9:f3:00:70|86
1616401115|80:30:49:23:bc:11|92
1616401115|00:d0:c9:f3:00:70|87
1616401130|00:0c:e7:be:04:74|92
1616401130|00:d0:c9:f3:00:70|86
1616401130|80:30:49:23:bc:11|92
1616401145|c0:d3:c0:31:7a:23|92
1616401145|00:0c:e7:be:04:74|92
1616401160|00:d0:c9:f3:00:70|88
1616401160|c0:d3:c0:31:7a:23|92
1616401176|28:f0:76:14:84:f2|91
1616401191|a4:5d:36:f9:94:8a|94
1616401191|00:d0:c9:f3:00:70|86
1616401191|28:f0:76:14:84:f2|91
1616401206|ac:b5:7d:f3:13:ed|93
1616401206|00:d0:c9:f3:00:70|89
1616401206|a4:5d:36:f9:94:8a|93
1616401221|00:d0:c9:f3:00:70|84
1616401221|ac:b5:7d:f3:13:ed|93
1616401236|00:d0:c9:f3:00:70|89
1616401236|a4:5d:36:f9:94:8a|93
1616401251|00:d0:c9:f3:00:70|87
1616401266|00:12:4e:23:8c:c7|90
1616401266|00:d0:c9:f3:00:70|87
1616401281|d0:ff:98:da:45:87|91
1616401281|00:d0:c9:f3:00:70|87
1616401281|00:12:4e:23:8c:c7|90
1616401296|00:d0:c9:f3:00:70|88
1616401296|c0:8c:71:8e:9c:a6|89
1616401311|00:d0:c9:f3:00:70|88
1616401326|00:d0:c9:f3:00:70|88
1616401341|00:d0:c9:f3:00:70|87
1616401341|00:02:36:f0:05:39|94
1616401356|28:f0:76:14:84:f2|94
1616401356|ac:5f:3e:f4:e0:3f|59
1616401356|00:d0:c9:f3:00:70|87
1616401371|00:d0:c9:f3:00:70|87
1616401371|28:f0:76:14:84:f2|94
1616401386|94:fb:29:73:4e:c9|91
1616401386|00:d0:c9:f3:00:70|87
1616401401|00:d0:c9:f3:00:70|87
1616401401|00:02:36:f0:05:65|95
1616401401|94:fb:29:73:4e:c9|91
1616401416|a4:5d:36:f9:94:8a|93
1616401416|80:30:49:23:bc:11|92
1616401416|7c:23:02:08:b5:2e|94
1616401416|00:d0:c9:f3:00:70|86
1616401431|d0:13:fd:57:4a:80|92
1616401431|04:f0:21:40:a2:7e|87
1616401431|00:d0:c9:f3:00:70|87
1616401431|a4:5d:36:f9:94:8a|93
1616401446|74:c1:4f:7a:63:d0|87
1616401446|00:d0:c9:f3:00:70|86
1616401446|a4:5d:36:f9:94:8a|92
1616401461|60:1d:91:91:d6:d4|91
1616401461|00:d0:c9:f3:00:70|90
1616401461|d0:13:fd:57:4a:80|92
1616401461|a4:5d:36:f9:94:8a|92
1616401461|74:c1:4f:7a:63:d0|88
1616401476|60:1d:91:91:d3:47|91
1616401476|60:1d:91:91:c2:a0|90
1616401476|c0:8c:71:8e:4f:17|87
1616401476|ac:5f:3e:f4:e0:3f|58
1616401476|00:d0:c9:f3:00:70|90
1616401491|00:d0:c9:f3:00:70|88
1616401506|ec:10:7b:95:fa:88|91
1616401506|d0:13:fd:57:4a:80|91
1616401506|00:d0:c9:f3:00:70|88
1616401521|3c:20:f6:37:e8:38|90
1616401521|a4:5d:36:f9:94:8a|94
1616401521|00:d0:c9:f3:00:70|87
1616401536|28:f0:76:14:84:f2|90
1616401536|00:d0:c9:f3:00:70|87
1616401536|3c:20:f6:37:e8:38|90
1616401551|ec:51:bc:e4:15:49|93
1616401551|00:d0:c9:f3:00:70|88
1616401551|28:f0:76:14:84:f2|90
1616401566|00:d0:c9:f3:00:70|86
1616401566|ec:51:bc:e4:15:49|93
1616401581|ac:5f:3e:f4:e0:3f|65
1616401581|80:30:49:23:bc:11|93
1616401581|7c:23:02:08:b5:2e|92
1616401581|c0:8c:71:8e:5a:48|90
1616401581|00:d0:c9:f3:00:70|87
1616401596|28:f0:76:14:84:f2|94
1616401596|40:b4:cd:e1:9b:f9|93
1616401596|00:d0:c9:f3:00:70|87
1616401596|50:33:8b:e4:bb:16|93
1616401596|ac:5f:3e:f4:e0:3f|65
1616401611|00:d0:c9:f3:00:70|86
1616401611|28:f0:76:14:84:f2|94
1616401626|00:d0:c9:f3:00:70|87
1616401641|80:b0:3d:76:a1:e8|86
1616401641|a4:5d:36:f9:94:8a|95
1616401641|00:d0:c9:f3:00:70|88
1616401656|00:d0:c9:f3:00:70|89
1616401656|a4:5d:36:f9:94:8a|93
1616401656|80:b0:3d:76:a1:e8|86
1616401671|40:b4:cd:e1:9b:f9|92
1616401671|a4:5d:36:f9:94:8a|93
1616401671|00:d0:c9:f3:00:70|87
1616401686|60:1d:91:1a:1f:9d|91
1616401686|00:d0:c9:f3:00:70|86
1616401686|40:b4:cd:e1:9b:f9|92
1616401701|00:d0:c9:f3:00:70|90
1616401701|60:1d:91:1a:1f:9d|91
1616401716|00:d0:c9:f3:00:70|86
1616401731|b0:72:bf:e6:5b:d7|86
1616401731|24:46:c8:d3:1b:5a|90
1616401731|58:20:59:8f:a3:6e|91
1616401731|00:d0:c9:f3:00:70|87
1616401746|60:1d:91:92:a0:0f|88
1616401746|00:d0:c9:f3:00:70|89
1616401746|b0:72:bf:e6:5b:d7|86
1616401761|40:b4:cd:e1:9b:f9|88
1616401761|00:d0:c9:f3:00:70|86
1616401776|00:d0:c9:f3:00:70|87
1616401776|40:b4:cd:e1:9b:f9|88
1616401791|e0:24:81:54:00:f9|93
1616401791|44:91:60:74:9d:8f|84
1616401791|ac:b5:7d:f3:13:ed|92
1616401791|40:b4:cd:e1:9b:f9|89
1616401791|00:d0:c9:f3:00:70|89
1616401806|00:d0:c9:f3:00:70|87
1616401806|e0:24:81:54:00:f9|93
1616401821|04:b4:29:e2:5d:23|74
1616401821|7c:23:02:08:b5:2e|92
1616401821|00:d0:c9:f3:00:70|91
1616401836|ac:5f:3e:f4:e0:3f|91
1616401836|00:d0:c9:f3:00:70|86
1616401851|00:d0:c9:f3:00:70|88
1616401851|ac:5f:3e:f4:e0:3f|91
1616401866|00:d0:c9:f3:00:70|88
1616401881|00:d0:c9:f3:00:70|88
1616401896|a4:5d:36:f9:94:8a|93
1616401896|00:d0:c9:f3:00:70|90
1616401911|00:d0:c9:f3:00:70|89
1616401911|28:f0:76:14:84:f2|84
1616401911|a4:5d:36:f9:94:8a|94
1616401926|00:d0:c9:f3:00:70|88
1616401941|a4:5d:36:f9:94:8a|93
1616401941|00:d0:c9:f3:00:70|89
1616401956|74:95:ec:36:72:43|95
1616401956|00:d0:c9:f3:00:70|88
1616401956|a4:5d:36:f9:94:8a|93
1616401971|00:1a:13:83:c9:ed|90
1616401971|50:3c:ea:2d:84:2b|91
1616401971|00:d0:c9:f3:00:70|87
1616401971|74:95:ec:36:72:43|95
1616401986|00:d0:c9:f3:00:70|87
1616401986|00:1a:13:83:c9:ed|90
1616402001|dc:89:83:28:f2:69|92
1616402001|94:fb:29:61:af:19|91
1616402001|00:d0:c9:f3:00:70|88
1616402016|60:1d:91:92:21:71|92
1616402016|00:d0:c9:f3:00:70|88
1616402016|dc:89:83:28:f2:69|92
1616402031|3c:20:f6:d4:c7:6e|93
1616402031|00:d0:c9:f3:00:70|88
1616402031|60:1d:91:92:21:71|92
1616402046|e8:93:09:92:57:d9|92
1616402046|00:d0:c9:f3:00:70|88
1616402046|3c:20:f6:d4:c7:6e|93
1616402061|cc:c0:79:60:4b:22|93
1616402061|8c:f1:12:d2:9a:c6|88
1616402061|40:b4:cd:e1:9b:f9|92
1616402061|00:d0:c9:f3:00:70|87
1616402076|00:0c:e7:2b:aa:81|93
1616402076|ac:b5:7d:f3:13:ed|93
1616402076|00:d0:c9:f3:00:70|89
1616402091|00:d0:c9:f3:00:70|89
1616402091|00:0c:e7:2b:aa:81|93
1616402106|00:d0:c9:f3:00:70|89
1616402106|00:02:36:f0:03:f8|89
1616402121|00:d0:c9:f3:00:70|90
1616402136|60:a4:d0:34:6a:7c|92
1616402136|00:d0:c9:f3:00:70|88
1616402151|ac:b5:7d:f3:13:ed|93
1616402151|54:92:09:90:07:63|87
1616402151|00:d0:c9:f3:00:70|91
1616402151|a4:5d:36:f9:94:8a|93
1616402151|60:a4:d0:34:6a:7c|92
1616402166|d0:13:fd:57:4a:80|93
1616402166|a4:5d:36:f9:94:8a|92
1616402166|00:d0:c9:f3:00:70|88
1616402166|ac:b5:7d:f3:13:ed|93
1616402181|00:d0:c9:f3:00:70|90
1616402181|a4:5d:36:f9:94:8a|94
1616402181|d0:13:fd:57:4a:80|93
1616402196|00:d0:c9:f3:00:70|88
1616402211|28:f0:76:14:84:f2|93
1616402211|00:d0:c9:f3:00:70|88
1616402226|00:d0:c9:f3:00:70|88
1616402226|28:f0:76:14:84:f2|93
1616402241|00:d0:c9:f3:00:70|87
1616402256|40:b4:cd:e1:9b:f9|92
1616402256|58:20:59:8f:a3:6e|93
1616402256|00:0c:e7:b2:dc:f4|93
1616402256|00:d0:c9:f3:00:70|89
1616402271|28:f0:76:14:84:f2|94
1616402271|00:d0:c9:f3:00:70|87
1616402271|40:b4:cd:e1:9b:f9|92
1616402286|00:d0:c9:f3:00:70|87
1616402286|28:f0:76:14:84:f2|94
1616402301|00:d0:c9:f3:00:70|88
1616402316|00:d0:c9:f3:00:70|89
1616402331|28:f0:76:14:84:f2|91
1616402331|00:d0:c9:f3:00:70|88
1616402346|00:d0:c9:f3:00:70|88
1616402346|28:f0:76:14:84:f2|91
1616402361|04:b4:29:e2:5d:23|68
1616402361|00:d0:c9:f3:00:70|87
1616402376|10:a4:be:41:f0:9a|90
1616402376|24:18:1d:9b:41:77|88
1616402376|00:d0:c9:f3:00:70|88
1616402391|a4:5d:36:f9:94:8a|93
1616402391|00:d0:c9:f3:00:70|89
1616402391|10:a4:be:41:f0:9a|90
1616402406|7c:23:02:08:b5:2e|89
1616402406|00:d0:c9:f3:00:70|87
1616402406|a4:5d:36:f9:94:8a|93
1616402421|d8:9b:3b:4f:9a:15|91
1616402421|a4:5d:36:f9:94:8a|93
1616402421|00:d0:c9:f3:00:70|89
1616402421|7c:23:02:08:b5:2e|89
1616402436|00:d0:c9:f3:00:70|88
1616402436|7c:b2:7d:2e:a2:e8|94
1616402436|a4:5d:36:f9:94:8a|93
1616402436|d8:9b:3b:4f:9a:15|91
1616402451|00:d0:c9:f3:00:70|88
1616402466|00:d0:c9:f3:00:70|89
1616402481|00:d0:c9:f3:00:70|88
1616402496|a4:5d:36:f9:94:8a|94
1616402496|00:d0:c9:f3:00:70|89
1616402511|00:d0:c9:f3:00:70|88
1616402511|a4:5d:36:f9:94:8a|94
1616402526|00:d0:c9:f3:00:70|88
1616402541|d0:16:b4:e6:af:4f|89
1616402541|00:d0:c9:f3:00:70|89
1616402556|40:b4:cd:e1:9b:f9|93
1616402556|14:1f:78:19:13:01|89
1616402556|d4:c9:4b:6f:9f:0e|91
1616402556|00:d0:c9:f3:00:70|89
1616402556|c4:18:e9:e4:6a:af|91
1616402571|00:d0:c9:f3:00:70|90
1616402571|14:1f:78:19:13:01|92
1616402571|40:b4:cd:e1:9b:f9|91
1616402586|00:d0:c9:f3:00:70|87
1616402586|60:1d:91:92:b2:40|89
1616402601|60:1d:91:92:b2:40|87
1616402601|00:d0:c9:f3:00:70|88
1616402616|60:1d:91:92:b2:40|92
1616402616|00:d0:c9:f3:00:70|88
1616402631|a4:5d:36:f9:94:8a|94
1616402631|00:d0:c9:f3:00:70|88
1616402631|28:f0:76:14:84:f2|92
1616402646|00:d0:c9:f3:00:70|86
1616402646|60:1d:91:92:b2:40|89
1616402646|a4:5d:36:f9:94:8a|93
1616402661|00:d0:c9:f3:00:70|88
1616402661|a4:5d:36:f9:94:8a|92
1616402676|ec:f3:42:23:05:65|81
1616402676|60:a4:d0:62:79:15|93
1616402676|00:d0:c9:f3:00:70|87
1616402676|a4:5d:36:f9:94:8a|92
1616402676|40:b4:cd:e1:9b:f9|94
1616402691|c4:18:e9:e4:6a:af|92
1616402691|00:d0:c9:f3:00:70|89
1616402691|60:1d:91:92:b2:40|91
1616402706|d0:13:fd:57:4a:80|87
1616402706|40:b4:cd:e1:9b:f9|91
1616402706|98:49:14:cc:3a:20|92
1616402706|00:d0:c9:f3:00:70|87
1616402706|c4:18:e9:e4:6a:af|92
1616402721|80:30:49:23:bc:11|90
1616402721|00:d0:c9:f3:00:70|87
1616402721|c4:18:e9:e4:6a:af|87
1616402721|d0:13:fd:57:4a:80|87
1616402736|ac:b5:7d:f3:13:ed|92
1616402736|60:1d:91:92:b2:40|90
1616402736|00:d0:c9:f3:00:70|89
1616402736|80:30:49:23:bc:11|90
1616402751|00:02:36:f0:05:22|88
1616402751|00:02:36:f0:04:f6|87
1616402751|14:1f:78:02:a0:57|93
1616402751|00:d0:c9:f3:00:70|87
1616402751|a4:5d:36:f9:94:8a|93
1616402751|ac:b5:7d:f3:13:ed|92
1616402766|00:d0:c9:f3:00:70|84
1616402781|60:1d:91:92:b2:40|90
1616402781|00:d0:c9:f3:00:70|87
1616402796|00:d0:c9:f3:00:70|87
1616402796|60:1d:91:92:b2:40|90
1616402811|60:1d:91:92:b2:40|92
1616402811|00:d0:c9:f3:00:70|87
1616402826|00:d0:c9:f3:00:70|87
1616402826|60:1d:91:92:b2:40|93
1616402841|60:1d:91:92:b2:40|92
1616402841|00:d0:c9:f3:00:70|88
1616402856|00:d0:c9:f3:00:70|87
1616402856|60:1d:91:92:b2:40|87
1616402871|28:f0:76:14:84:f2|91
1616402871|00:d0:c9:f3:00:70|89
1616402886|c0:e4:34:27:39:89|95
1616402886|00:d0:c9:f3:00:70|88
1616402901|00:0c:e7:8a:1d:23|93
1616402901|40:b4:cd:e1:9b:f9|88
1616402901|00:d0:c9:f3:00:70|90
1616402901|a4:5d:36:f9:94:8a|93
1616402916|00:d0:c9:f3:00:70|88
1616402916|00:0c:e7:8a:1d:23|93
1616402931|28:f0:76:14:84:f2|92
1616402931|00:d0:c9:f3:00:70|87
1616402946|d0:13:fd:57:4a:80|88
1616402946|00:d0:c9:f3:00:70|87
1616402961|00:d0:c9:f3:00:70|88
1616402961|d0:13:fd:57:4a:80|88
1616402976|00:d0:c9:f3:00:70|88
1616402991|bc:2f:3d:e6:63:67|89
1616402991|a0:27:b6:34:c4:7b|91
1616402991|28:f0:76:14:84:f2|90
1616402991|00:02:36:f0:05:2e|90
1616402991|00:d0:c9:f3:00:70|87
1616403006|00:d0:c9:f3:00:70|87
1616403006|bc:2f:3d:e6:63:67|89
1616403021|00:d0:c9:f3:00:70|88
1616403036|04:b4:29:e2:5d:23|69
1616403036|d0:13:fd:57:4a:80|90
1616403036|a0:27:b6:34:c4:7b|92
1616403036|00:d0:c9:f3:00:70|89
1616403051|00:d0:c9:f3:00:70|89
1616403051|04:b4:29:e2:5d:23|71
1616403066|d0:13:fd:57:4a:80|87
1616403066|ec:10:7b:ac:c6:6a|91
1616403066|00:d0:c9:f3:00:70|87
1616403081|10:4e:89:f2:8b:93|90
1616403081|40:b4:cd:e1:9b:f9|89
1616403081|00:d0:c9:f3:00:70|88
1616403081|d0:13:fd:57:4a:80|87
1616403096|00:d0:c9:f3:00:70|87
1616403096|10:4e:89:f2:8b:93|90
1616403111|00:d0:c9:f3:00:70|88
1616403126|28:39:26:99:75:e5|92
1616403126|00:02:36:f0:05:07|94
1616403126|00:d0:c9:f3:00:70|87
1616403141|b0:e2:35:c1:0b:3d|62
1616403141|00:d0:c9:f3:00:70|89
1616403141|00:02:36:f0:05:07|89
1616403141|10:f1:f2:62:19:58|87
1616403141|a4:5d:36:f9:94:8a|92
1616403156|b0:e2:35:c1:0b:3d|67
1616403156|00:d0:c9:f3:00:70|88
1616403171|28:f0:76:14:84:f2|92
1616403171|00:d0:c9:f3:00:70|90
1616403171|a4:5d:36:f9:94:8a|91
1616403186|c0:8c:71:8e:b9:ce|92
1616403186|00:d0:c9:f3:00:70|88
1616403186|28:39:26:99:75:e5|92
1616403201|00:d0:c9:f3:00:70|88
1616403201|a4:5d:36:f9:94:8a|94
1616403201|98:49:14:cc:3a:20|93
1616403216|a4:5d:36:f9:94:8a|93
1616403216|00:d0:c9:f3:00:70|87
1616403231|28:f0:76:14:84:f2|85
1616403231|10:07:b6:e0:03:4b|91
1616403231|00:02:36:f0:05:79|91
1616403231|00:d0:c9:f3:00:70|89
1616403231|a4:5d:36:f9:94:8a|94
1616403246|00:d0:c9:f3:00:70|87
1616403246|28:f0:76:14:84:f2|85
1616403261|00:d0:c9:f3:00:70|87
1616403276|00:d0:c9:f3:00:70|89
1616403291|a0:cc:2b:09:e3:37|90
1616403291|00:d0:c9:f3:00:70|86
1616403306|00:d0:c9:f3:00:70|89
1616403306|a0:cc:2b:09:e3:37|90
1616403321|d4:c9:4b:6f:9f:0e|92
1616403321|3c:57:6c:59:7a:3d|92
1616403321|c0:8c:71:8e:e7:f6|86
1616403321|3c:57:6c:93:db:6d|93
1616403321|00:d0:c9:f3:00:70|88
1616403321|00:02:36:f0:05:25|92
1616403336|7c:23:02:08:b5:2e|91
1616403336|00:d0:c9:f3:00:70|88
1616403336|d4:c9:4b:6f:9f:0e|92
1616403351|74:eb:80:59:9a:7c|87
1616403351|3c:57:6c:59:7a:3d|86
1616403351|c8:a8:23:8f:b7:2e|91
1616403351|00:d0:c9:f3:00:70|89
1616403351|7c:23:02:08:b5:2e|91
1616403366|a4:5d:36:f9:94:8a|93
1616403366|00:d0:c9:f3:00:70|88
1616403366|74:eb:80:59:9a:7c|87
1616403381|00:d0:c9:f3:00:70|87
1616403381|a4:5d:36:f9:94:8a|93
1616403396|00:d0:c9:f3:00:70|88
1616403396|a4:5d:36:f9:94:8a|92
1616403411|28:f0:76:14:84:f2|93
1616403411|3c:57:6c:59:7a:3d|91
1616403411|00:d0:c9:f3:00:70|89
1616403411|8c:f5:a3:62:00:c3|91
1616403426|7c:23:02:08:b5:2e|91
1616403426|3c:57:6c:59:7a:3d|88
1616403426|00:d0:c9:f3:00:70|86
1616403426|28:f0:76:14:84:f2|93
1616403441|80:30:49:23:bc:11|89
1616403441|00:d0:c9:f3:00:70|88
1616403441|7c:23:02:08:b5:2e|91
1616403456|00:d0:c9:f3:00:70|89
1616403471|d4:c9:4b:6f:f2:d2|85
1616403471|00:d0:c9:f3:00:70|89
1616403486|3c:57:6c:59:7a:3d|86
1616403486|00:d0:c9:f3:00:70|87
1616403486|d4:c9:4b:6f:f2:d2|85
1616403501|00:d0:c9:f3:00:70|86
1616403501|3c:57:6c:59:7a:3d|86
1616403516|00:d0:c9:f3:00:70|89
1616403531|28:f0:76:14:84:f2|91
1616403531|d8:55:75:89:f3:fe|89
1616403531|00:d0:c9:f3:00:70|88
1616403546|60:1d:91:91:e3:61|91
1616403546|00:d0:c9:f3:00:70|87
1616403546|28:f0:76:14:84:f2|91
1616403561|04:b4:29:e2:5d:23|74
1616403561|00:d0:c9:f3:00:70|89
1616403576|00:d0:c9:f3:00:70|89
1616403576|04:b4:29:e2:5d:23|74
1616403591|00:d0:c9:f3:00:70|88
1616403606|00:d0:c9:f3:00:70|87
1616403606|a4:5d:36:f9:94:8a|93
1616403621|a4:5d:36:f9:94:8a|92
1616403621|00:d0:c9:f3:00:70|89
1616403636|ac:b5:7d:f3:13:ed|92
1616403636|68:e7:c2:f7:c1:17|91
1616403636|a4:5d:36:f9:94:8a|92
1616403636|00:d0:c9:f3:00:70|88
1616403651|00:d0:c9:f3:00:70|88
1616403651|ac:b5:7d:f3:13:ed|92
1616403666|40:b4:cd:e1:9b:f9|89
1616403666|38:37:8b:ea:b0:81|94
1616403666|00:d0:c9:f3:00:70|89
1616403681|00:d0:c9:f3:00:70|89
1616403681|40:b4:cd:e1:9b:f9|90
1616403696|00:d0:c9:f3:00:70|89
1616403711|00:d0:c9:f3:00:70|88
1616403726|00:d0:c9:f3:00:70|88
1616403741|e0:75:0a:f4:c7:c5|90
1616403741|80:30:49:23:bc:11|91
1616403741|60:1d:91:92:72:4e|91
1616403741|00:d0:c9:f3:00:70|88
1616403756|00:d0:c9:f3:00:70|89
1616403756|e0:75:0a:f4:c7:c5|90
1616403771|00:d0:c9:f3:00:70|87
1616403786|00:d0:c9:f3:00:70|88
1616403801|00:d0:c9:f3:00:70|89
1616403816|00:d0:c9:f3:00:70|87
1616403816|80:4e:70:5b:1e:e0|90
1616403816|00:02:36:f0:03:e6|92
1616403831|28:f0:76:14:84:f2|86
1616403831|00:0e:8e:8f:2f:5a|90
1616403831|00:02:36:f0:03:e6|91
1616403831|00:d0:c9:f3:00:70|89
1616403846|00:0e:8e:8f:2f:5a|91
1616403846|a4:5d:36:f9:94:8a|93
1616403846|00:d0:c9:f3:00:70|88
1616403846|28:f0:76:14:84:f2|86
1616403861|a4:5d:36:f9:94:8a|94
1616403861|00:d0:c9:f3:00:70|88
1616403861|00:0e:8e:8f:2f:5a|91
1616403876|00:d0:c9:f3:00:70|89
1616403876|a4:5d:36:f9:94:8a|94
1616403891|00:d0:c9:f3:00:70|89
1616403891|a4:5d:36:f9:94:8a|92
1616403906|00:d0:c9:f3:00:70|87
1616403921|00:d0:c9:f3:00:70|89
1616403936|ac:b5:7d:f3:13:ed|92
1616403936|00:d0:c9:f3:00:70|88
1616403951|5c:51:81:50:a1:fb|91
1616403951|00:d0:c9:f3:00:70|88
1616403951|ac:b5:7d:f3:13:ed|92
1616403966|08:78:08:cf:af:02|93
1616403966|00:d0:c9:f3:00:70|88
1616403966|5c:51:81:50:a1:fb|91
1616403981|00:d0:c9:f3:00:70|90
1616403981|08:78:08:cf:af:02|93
