1622033668|00:08:22:d8:44:3f|85
1621863904|00:08:22:f4:c4:fb|93
1621925473|00:0a:f5:49:a3:90|72
1621924788|00:0c:e7:00:06:dd|76
1621855068|00:0c:e7:01:cf:b7|85
1621933268|00:0c:e7:02:0b:50|88
1621923070|00:0c:e7:02:4c:9f|78
1621846101|00:0c:e7:02:64:8f|66
1621862980|00:0c:e7:02:d2:5e|76
1621931941|00:0c:e7:04:00:dd|80
1621847548|00:0c:e7:04:35:bb|76
1622011840|00:0c:e7:04:d5:2e|79
1621926331|00:0c:e7:04:e6:d8|87
1622016629|00:0c:e7:04:f5:1c|84
1622027605|00:0c:e7:05:21:23|85
1621861711|00:0c:e7:05:2a:89|80
1621845121|00:0c:e7:05:50:22|73
1622030321|00:0c:e7:05:5d:f0|81
1621853767|00:0c:e7:05:b8:03|67
1622027437|00:0c:e7:06:38:cd|85
1622021965|00:0c:e7:06:86:7f|80
1621925218|00:0c:e7:06:8f:4d|90
1622030888|00:0c:e7:06:91:13|81
1622012222|00:0c:e7:06:c3:89|75
1621937685|00:0c:e7:07:79:4a|64
1621934600|00:0c:e7:08:26:39|53
1621930684|00:0c:e7:08:3c:74|68
1621943837|00:0c:e7:08:fe:d8|78
1621851406|00:0c:e7:09:82:d1|84
1621864726|00:0c:e7:09:8b:ee|80
1622021484|00:0c:e7:09:9f:8e|75
1621936608|00:0c:e7:09:a6:0e|73
1621937324|00:0c:e7:0a:42:be|62
1621856386|00:0c:e7:0a:67:70|87
1621925066|00:0c:e7:0a:d5:ab|86
1621929974|00:0c:e7:0b:01:02|77
1621846096|00:0c:e7:0b:3c:14|75
1621837555|00:0c:e7:0b:59:27|83
1621852458|00:0c:e7:0b:c5:01|71
1622018594|00:0c:e7:0c:23:84|73
1622013190|00:0c:e7:0c:28:c1|87
1622020624|00:0c:e7:0c:30:d4|68
1621844517|00:0c:e7:0c:e0:0c|93
1622010610|00:0c:e7:0d:03:e7|87
1621943814|00:0c:e7:0d:08:15|90
1622025809|00:0c:e7:0d:0b:bc|78
1621949825|00:0c:e7:0e:4b:2c|81
1622022626|00:0c:e7:0e:59:e0|77
1621839622|00:0c:e7:0e:e5:c9|85
1622010369|00:0c:e7:0f:18:f3|79
1622027949|00:0c:e7:0f:b7:fd|66
1622031786|00:0c:e7:10:24:cd|92
1622017978|00:0c:e7:12:2b:82|80
1622028599|00:0c:e7:12:d2:e5|73
1621943227|00:0c:e7:13:15:38|81
1621843104|00:0c:e7:14:4b:05|86
1621945680|00:0c:e7:14:6f:c4|73
1621840830|00:0c:e7:14:bb:c4|77
1622025932|00:0c:e7:17:7a:43|81
1621943498|00:0c:e7:18:14:49|83
1621927346|00:0c:e7:18:6f:0d|86
1621849035|00:0c:e7:18:e5:7b|78
1621858958|00:0c:e7:1a:3a:fd|83
1621857097|00:0c:e7:1a:c9:44|82
1622028604|00:0c:e7:1a:f7:2c|74
1621859233|00:0c:e7:1b:0f:d4|76
1621855659|00:0c:e7:1b:21:57|81
1621946372|00:0c:e7:1b:ab:d6|73
1621836799|00:0c:e7:1b:b8:41|73
1621923489|00:0c:e7:1b:d1:8c|79
1622027404|00:0c:e7:1c:d5:55|71
1621948478|00:0c:e7:1c:e3:40|84
1621858094|00:0c:e7:1d:05:ba|83
1621932281|00:0c:e7:1d:d5:d2|59
1621864037|00:0c:e7:1e:65:b5|82
1622027769|00:0c:e7:1f:b5:10|64
1621859236|00:0c:e7:1f:cb:26|76
1622019597|00:0c:e7:20:29:a2|90
1621848457|00:0c:e7:20:7d:f5|74
1622025548|00:0c:e7:20:7f:46|74
1621927128|00:0c:e7:20:b6:8c|75
1621849291|00:0c:e7:20:ce:9d|68
1621929583|00:0c:e7:20:f0:d1|86
1621926619|00:0c:e7:21:ed:05|81
1621923369|00:0c:e7:23:19:ab|64
1621855181|00:0c:e7:23:55:57|81
1621924883|00:0c:e7:23:6a:a7|81
1622034700|00:0c:e7:23:83:ae|92
1622021348|00:0c:e7:24:ac:f4|69
1621849018|00:0c:e7:24:d5:bd|65
1622018604|00:0c:e7:25:24:a9|71
1621936470|00:0c:e7:25:e6:a9|72
1621945363|00:0c:e7:26:81:7f|81
1622022578|00:0c:e7:26:a7:99|80
1621923258|00:0c:e7:26:e2:a5|72
1622009574|00:0c:e7:27:4f:9c|75
1622018125|00:0c:e7:27:f0:1d|63
1621846744|00:0c:e7:28:79:59|70
1622012721|00:0c:e7:29:9e:d6|79
1622024876|00:0c:e7:29:f7:59|83
1621845825|00:0c:e7:2a:5a:4a|80
1621928776|00:0c:e7:2b:1e:82|82
1621938565|00:0c:e7:2b:de:ce|73
1622010987|00:0c:e7:2c:3d:3e|84
1621927155|00:0c:e7:2d:06:6f|65
1622028628|00:0c:e7:2d:d4:55|69
1622030019|00:0c:e7:2e:30:7c|92
1621848991|00:0c:e7:2e:4b:6d|66
1622022995|00:0c:e7:2e:9a:e8|82
1621855638|00:0c:e7:2e:f1:b9|85
1621937085|00:0c:e7:2f:9a:91|84
1621836221|00:0c:e7:2f:e7:c5|79
1621930510|00:0c:e7:31:b6:09|77
1621922429|00:0c:e7:31:c6:80|66
1621935906|00:0c:e7:32:b9:94|81
1621943216|00:0c:e7:33:31:9b|77
1622032157|00:0c:e7:33:47:c5|78
1621855190|00:0c:e7:33:69:b2|75
1621937324|00:0c:e7:34:11:13|56
1621861222|00:0c:e7:34:59:32|81
1621866247|00:0c:e7:34:60:0c|83
1621938133|00:0c:e7:34:ab:dd|80
1621842803|00:0c:e7:34:fa:30|69
1621929447|00:0c:e7:35:30:03|80
1621947198|00:0c:e7:35:53:fc|78
1621836971|00:0c:e7:35:81:90|66
1621923356|00:0c:e7:36:ae:54|67
1621846846|00:0c:e7:36:b4:fe|74
1621948490|00:0c:e7:37:72:3b|77
1621846953|00:0c:e7:37:e0:1c|83
1621845631|00:0c:e7:37:f7:0f|71
1621838609|00:0c:e7:38:44:e8|75
1622032165|00:0c:e7:38:fd:71|75
1622031106|00:0c:e7:39:79:59|87
1621930647|00:0c:e7:39:a3:ac|87
1621946835|00:0c:e7:39:ee:16|76
1621941544|00:0c:e7:3b:37:d4|76
1621925553|00:0c:e7:3c:4f:96|73
1622013216|00:0c:e7:3c:b3:67|69
1621845639|00:0c:e7:3c:e8:22|77
1621846326|00:0c:e7:3d:e7:98|75
1621927251|00:0c:e7:3e:13:a8|72
1621863097|00:0c:e7:3e:69:cc|85
1621923457|00:0c:e7:3e:a5:bf|80
1621950401|00:0c:e7:3e:f3:3c|74
1621926477|00:0c:e7:3f:13:f2|79
1621846357|00:0c:e7:3f:5d:d4|78
1621856729|00:0c:e7:3f:b8:77|81
1621923753|00:0c:e7:3f:ce:5e|79
1621934988|00:0c:e7:40:29:10|72
1621937918|00:0c:e7:40:3f:3a|75
1621842384|00:0c:e7:40:40:18|73
1621943726|00:0c:e7:40:4d:90|73
1622018412|00:0c:e7:40:c1:de|78
1622032182|00:0c:e7:41:5a:aa|79
1622011894|00:0c:e7:43:04:f2|92
1621850067|00:0c:e7:43:8d:fb|66
1621926642|00:0c:e7:43:9e:4f|64
1621938616|00:0c:e7:43:fa:38|80
1621944875|00:0c:e7:43:fe:bc|85
1622011009|00:0c:e7:44:f7:ef|82
1621836143|00:0c:e7:45:35:9f|70
1622025027|00:0c:e7:45:78:5e|57
1621840826|00:0c:e7:45:84:f3|77
1621948958|00:0c:e7:46:54:43|77
1622028561|00:0c:e7:46:bf:10|67
1622018751|00:0c:e7:46:c6:e0|77
1621923620|00:0c:e7:46:d8:87|87
1622032007|00:0c:e7:46:ee:86|87
1622018842|00:0c:e7:47:a4:7d|63
1621935985|00:0c:e7:47:f4:29|62
1622020138|00:0c:e7:48:d3:ea|73
1622022505|00:0c:e7:48:d6:f4|93
1621931810|00:0c:e7:49:07:40|87
1621846331|00:0c:e7:49:66:d7|66
1621923303|00:0c:e7:4a:2e:1f|68
1621838200|00:0c:e7:4a:9e:62|75
1622031316|00:0c:e7:4b:33:e4|65
1621939857|00:0c:e7:4b:dd:7a|84
1621853973|00:0c:e7:4c:6c:e2|74
1621938351|00:0c:e7:4f:56:06|78
1621924492|00:0c:e7:50:04:b2|79
1621844372|00:0c:e7:51:5b:46|75
1622018218|00:0c:e7:52:63:4a|68
1622011302|00:0c:e7:52:ab:4c|81
1621950236|00:0c:e7:52:cd:d9|71
1621923341|00:0c:e7:53:84:a3|82
1621927778|00:0c:e7:53:dc:75|83
1621852375|00:0c:e7:54:b0:0c|67
1621852401|00:0c:e7:55:0a:c8|65
1621930275|00:0c:e7:55:0e:06|73
1621942417|00:0c:e7:55:46:ef|71
1621934056|00:0c:e7:55:e9:73|77
1621854695|00:0c:e7:56:95:61|67
1621947325|00:0c:e7:56:da:47|65
1622023614|00:0c:e7:56:ef:f1|60
1621855902|00:0c:e7:58:29:5a|81
1622011230|00:0c:e7:58:80:49|81
1622024337|00:0c:e7:59:2e:a7|71
1621923173|00:0c:e7:59:b4:ee|77
1622015974|00:0c:e7:59:c2:75|85
1621841176|00:0c:e7:59:f3:e8|64
1621949690|00:0c:e7:5a:27:2d|83
1621850490|00:0c:e7:5a:28:60|61
1621923319|00:0c:e7:5a:e6:e3|68
1621931576|00:0c:e7:5a:fb:be|83
1621844037|00:0c:e7:5b:4d:79|84
1622015472|00:0c:e7:5c:79:3e|80
1622018198|00:0c:e7:5c:f0:c1|73
1622020814|00:0c:e7:5e:3a:a6|72
1621842214|00:0c:e7:5f:5d:aa|71
1622028596|00:0c:e7:5f:61:18|74
1621942524|00:0c:e7:60:a2:b6|76
1621945124|00:0c:e7:61:11:ec|73
1621934618|00:0c:e7:61:27:fd|80
1622011180|00:0c:e7:61:5e:7a|71
1621935478|00:0c:e7:61:94:3f|70
1622026423|00:0c:e7:61:a7:26|72
1621847449|00:0c:e7:61:e8:54|80
1621852850|00:0c:e7:62:48:d9|67
1622026669|00:0c:e7:62:b4:50|74
1621855750|00:0c:e7:62:e4:0e|81
1621945146|00:0c:e7:63:51:32|79
1621865689|00:0c:e7:63:58:a8|80
1622015888|00:0c:e7:63:94:69|91
1621934990|00:0c:e7:63:c6:8e|87
1621848087|00:0c:e7:63:c9:d2|82
1621850075|00:0c:e7:64:52:b0|58
1621845631|00:0c:e7:65:23:dc|78
1621844062|00:0c:e7:65:68:76|78
1621863116|00:0c:e7:65:94:43|82
1621922874|00:0c:e7:65:e8:98|82
1621930745|00:0c:e7:67:45:9c|67
1622032807|00:0c:e7:68:19:f1|82
1621942593|00:0c:e7:68:22:e3|71
1621857134|00:0c:e7:68:db:a3|88
1621930767|00:0c:e7:69:69:5b|81
1621855481|00:0c:e7:69:be:5e|82
1621928976|00:0c:e7:6b:2b:8a|87
1621937593|00:0c:e7:6b:dd:75|84
1621854515|00:0c:e7:6c:05:79|79
1621843807|00:0c:e7:6c:61:58|70
1621846846|00:0c:e7:6d:48:43|77
1622020970|00:0c:e7:6e:3d:ae|69
1621943682|00:0c:e7:6e:b4:8c|92
1621948194|00:0c:e7:6e:bc:25|84
1621848063|00:0c:e7:6f:97:3a|83
1622023605|00:0c:e7:70:16:0b|63
1622030407|00:0c:e7:70:db:74|73
1621929708|00:0c:e7:71:3c:a5|60
1621930725|00:0c:e7:71:5f:91|68
1621946389|00:0c:e7:71:87:5f|81
1621853677|00:0c:e7:73:6f:9f|79
1621860099|00:0c:e7:73:73:08|85
1621853376|00:0c:e7:75:bd:08|75
1621943117|00:0c:e7:75:e8:0e|77
1622025770|00:0c:e7:75:fe:84|66
1621854510|00:0c:e7:76:76:cc|79
1621927677|00:0c:e7:77:58:3e|90
1621854490|00:0c:e7:78:0d:53|82
1621939736|00:0c:e7:78:11:82|84
1621938453|00:0c:e7:78:2a:7c|75
1622033394|00:0c:e7:78:35:12|79
1621852383|00:0c:e7:78:7f:be|62
1621849043|00:0c:e7:79:64:6a|80
1622024366|00:0c:e7:7a:04:97|75
1621844552|00:0c:e7:7b:3a:54|70
1622028573|00:0c:e7:7c:4f:bd|64
1621841118|00:0c:e7:7d:43:99|86
1621846969|00:0c:e7:7d:d3:10|76
1621938556|00:0c:e7:7e:51:fa|76
1621937699|00:0c:e7:7f:1a:6e|85
1621942375|00:0c:e7:7f:44:ad|73
1622025281|00:0c:e7:7f:5f:7d|79
1621857135|00:0c:e7:7f:d0:27|88
1621857587|00:0c:e7:80:7b:84|73
1622014864|00:0c:e7:80:86:0c|68
1621844494|00:0c:e7:81:69:81|73
1621854751|00:0c:e7:81:db:c8|87
1622030427|00:0c:e7:82:33:03|71
1622018849|00:0c:e7:82:c6:6d|77
1622028552|00:0c:e7:83:8b:d8|77
1621950187|00:0c:e7:84:4f:0f|66
1621837246|00:0c:e7:84:52:cb|68
1621944148|00:0c:e7:85:07:e8|87
1621850952|00:0c:e7:85:17:5b|80
1621927371|00:0c:e7:85:25:3c|65
1621854240|00:0c:e7:85:60:b0|80
1622025398|00:0c:e7:85:6f:5d|82
1621943790|00:0c:e7:86:a6:5b|77
1622021630|00:0c:e7:86:bb:5a|83
1621859653|00:0c:e7:87:0b:2f|79
1621937651|00:0c:e7:87:30:c1|78
1621848058|00:0c:e7:87:58:af|73
1622023256|00:0c:e7:87:f5:70|91
1622029226|00:0c:e7:88:06:63|76
1621855346|00:0c:e7:88:f6:40|66
1621857028|00:0c:e7:89:34:67|79
1621841910|00:0c:e7:89:6a:92|70
1621864080|00:0c:e7:89:73:b0|88
1621950391|00:0c:e7:8a:7c:46|90
1621846703|00:0c:e7:8b:4f:a1|73
1621846606|00:0c:e7:8b:95:a6|77
1622026682|00:0c:e7:8c:27:00|78
1621947204|00:0c:e7:8c:dc:91|66
1622026824|00:0c:e7:8c:f6:9f|83
1621860737|00:0c:e7:8d:5d:c9|82
1621855999|00:0c:e7:8e:b7:bd|80
1622018360|00:0c:e7:8f:31:2c|71
1621850363|00:0c:e7:8f:86:37|63
1621856215|00:0c:e7:8f:ea:9b|70
1621932215|00:0c:e7:90:3e:c2|85
1621942106|00:0c:e7:90:71:eb|81
1621847152|00:0c:e7:90:ca:9a|73
1622017541|00:0c:e7:91:84:92|73
1622034402|00:0c:e7:92:4c:8f|74
1621849000|00:0c:e7:92:88:db|82
1621928504|00:0c:e7:92:a5:4d|81
1621848301|00:0c:e7:92:c8:1f|80
1622026053|00:0c:e7:92:e0:30|71
1621846393|00:0c:e7:92:ff:04|68
1622025688|00:0c:e7:93:c0:66|72
1622022787|00:0c:e7:94:97:78|86
1621859000|00:0c:e7:95:30:f8|79
1621933404|00:0c:e7:95:4f:8a|88
1622023924|00:0c:e7:95:9a:6c|87
1621930991|00:0c:e7:96:75:b9|75
1621846633|00:0c:e7:96:86:ac|75
1621934621|00:0c:e7:97:08:95|83
1621924023|00:0c:e7:97:21:6b|82
1621850792|00:0c:e7:97:ff:de|66
1621836955|00:0c:e7:98:4d:07|74
1622019904|00:0c:e7:98:5e:95|69
1621951123|00:0c:e7:98:74:45|88
1622011534|00:0c:e7:99:56:96|76
1622022623|00:0c:e7:99:ec:c6|87
1621861640|00:0c:e7:9a:19:65|86
1622025277|00:0c:e7:9b:28:d0|84
1621862008|00:0c:e7:9b:e7:e7|78
1621923578|00:0c:e7:9b:f5:e0|62
1622024335|00:0c:e7:9c:53:2d|61
1621845112|00:0c:e7:9c:8b:92|69
1621922835|00:0c:e7:9c:a4:66|75
1621862760|00:0c:e7:9c:e7:0d|76
1621842275|00:0c:e7:9c:f9:1d|82
1621944282|00:0c:e7:9d:1e:60|80
1621924243|00:0c:e7:9d:a1:ed|84
1621924894|00:0c:e7:9d:b9:95|80
1621854938|00:0c:e7:9d:ef:47|74
1621930590|00:0c:e7:9e:55:ac|68
1622016486|00:0c:e7:9e:5c:12|85
1621858402|00:0c:e7:9e:8c:65|81
1621945959|00:0c:e7:9e:98:35|71
1622010073|00:0c:e7:9f:cb:48|85
1621849115|00:0c:e7:9f:ce:46|77
1621864767|00:0c:e7:a0:04:11|74
1621947082|00:0c:e7:a0:16:10|78
1621846340|00:0c:e7:a0:23:5e|71
1621934378|00:0c:e7:a1:16:01|81
1622028578|00:0c:e7:a2:1f:20|67
1621855253|00:0c:e7:a2:97:22|84
1621847445|00:0c:e7:a2:c3:c9|71
1621848762|00:0c:e7:a3:23:f8|71
1621843399|00:0c:e7:a3:4a:a6|77
1621927999|00:0c:e7:a4:83:37|80
1622022540|00:0c:e7:a4:95:0b|78
1621932622|00:0c:e7:a5:8a:c0|82
1621931233|00:0c:e7:a6:df:e6|84
1621838575|00:0c:e7:a7:78:54|78
1622028776|00:0c:e7:a7:81:df|83
1621942136|00:0c:e7:a8:1f:91|66
1621853597|00:0c:e7:a8:82:73|94
1621854092|00:0c:e7:a9:48:33|78
1621936539|00:0c:e7:a9:5a:a3|84
1621945689|00:0c:e7:a9:67:b3|70
1621946385|00:0c:e7:aa:1b:15|74
1621940474|00:0c:e7:ab:5a:31|76
1621949760|00:0c:e7:ab:66:f8|72
1622028583|00:0c:e7:ac:08:0d|67
1621849238|00:0c:e7:ac:48:04|79
1622018696|00:0c:e7:ad:94:8a|79
1621863444|00:0c:e7:ad:b7:81|78
1621847406|00:0c:e7:ad:dc:25|85
1622030038|00:0c:e7:ae:4b:37|87
1621940048|00:0c:e7:ae:bd:96|67
1621847412|00:0c:e7:af:5d:d8|79
1622024465|00:0c:e7:b0:09:8a|80
1621836159|00:0c:e7:b0:53:56|83
1621836943|00:0c:e7:b1:e6:c8|84
1621843989|00:0c:e7:b2:67:b5|74
1621844625|00:0c:e7:b2:68:27|70
1621845991|00:0c:e7:b2:6a:de|75
1621926639|00:0c:e7:b2:89:a4|89
1622028531|00:0c:e7:b2:e2:fe|81
1621931245|00:0c:e7:b3:38:b4|87
1621846569|00:0c:e7:b3:8b:d1|74
1622014329|00:0c:e7:b4:1e:cb|90
1621925377|00:0c:e7:b4:a1:69|73
1622020917|00:0c:e7:b5:4f:9c|77
1621855005|00:0c:e7:b5:7e:cf|68
1622023356|00:0c:e7:b6:68:47|69
1621950436|00:0c:e7:b7:ed:d2|71
1621859805|00:0c:e7:b8:38:ff|84
1621946713|00:0c:e7:b8:f6:08|69
1621853535|00:0c:e7:b9:0b:df|88
1621867931|00:0c:e7:b9:59:a2|81
1621860324|00:0c:e7:b9:67:78|82
1622026546|00:0c:e7:ba:08:45|73
1621947172|00:0c:e7:bb:8b:9f|73
1621940878|00:0c:e7:bc:44:f1|78
1622015681|00:0c:e7:bc:5d:db|76
1621942585|00:0c:e7:bc:7a:62|69
1621948814|00:0c:e7:bc:9e:fc|81
1621925941|00:0c:e7:bc:b1:0e|88
1621941618|00:0c:e7:bd:7c:74|80
1622015776|00:0c:e7:bd:a1:34|83
1621851113|00:0c:e7:be:7f:09|80
1621861084|00:0c:e7:be:88:7d|85
1622024456|00:0c:e7:bf:0c:0f|58
1621850860|00:0c:e7:bf:14:3f|83
1622028634|00:0c:e7:bf:29:40|74
1621923247|00:0c:e7:c0:a7:57|79
1622025017|00:0c:e7:c1:37:9e|57
1621923587|00:0c:e7:c2:1d:0c|69
1622016688|00:0c:e7:c2:bd:25|88
1621840225|00:0c:e7:c2:e6:88|82
1621939636|00:0c:e7:c3:00:b6|72
1622012345|00:0c:e7:c3:5e:e8|81
1622016263|00:0c:e7:c4:b5:65|79
1621923483|00:0c:e7:c5:52:cd|72
1621923449|00:0c:e7:c5:a3:6f|66
1621948831|00:0c:e7:c5:c2:b4|77
1622027125|00:0c:e7:c5:db:0b|86
1621948469|00:0c:e7:c6:94:fe|83
1621838570|00:0c:e7:c6:c3:1b|73
1621949949|00:0c:e7:c6:e1:b9|74
1621854655|00:0c:e7:c7:5b:67|64
1622010147|00:0c:e7:c7:f3:23|79
1621862734|00:0c:e7:c9:59:89|84
1621857225|00:0c:e7:c9:89:d0|84
1621922928|00:0c:e7:c9:a2:91|83
1621938979|00:0c:e7:c9:de:ee|83
1622027261|00:0c:e7:ca:39:07|73
1622027525|00:0c:e7:ca:65:7d|73
1621858746|00:0c:e7:cb:71:d7|78
1621849093|00:0c:e7:cb:a2:6b|69
1622012722|00:0c:e7:cc:3e:18|74
1621850772|00:0c:e7:cc:53:32|63
1622028587|00:0c:e7:cc:94:fa|71
1621935841|00:0c:e7:cc:e3:47|59
1621948707|00:0c:e7:cd:24:c4|80
1621946635|00:0c:e7:cd:6e:53|81
1622023849|00:0c:e7:cd:b6:f0|62
1622010015|00:0c:e7:cd:ca:50|86
1621938975|00:0c:e7:ce:97:af|63
1622028404|00:0c:e7:ce:c0:93|83
1621848999|00:0c:e7:ce:f4:ea|62
1621846949|00:0c:e7:cf:0e:d0|75
1621937889|00:0c:e7:cf:31:30|82
1621847934|00:0c:e7:cf:6c:27|74
1621853560|00:0c:e7:cf:d2:a6|65
1622013805|00:0c:e7:d0:06:43|89
1621946469|00:0c:e7:d0:23:d3|73
1622012958|00:0c:e7:d0:6c:d5|73
1622031712|00:0c:e7:d0:c7:90|92
1621950296|00:0c:e7:d1:29:01|75
1621844812|00:0c:e7:d1:6b:79|77
1621845511|00:0c:e7:d1:74:61|81
1622018787|00:0c:e7:d1:f0:14|75
1621839708|00:0c:e7:d2:01:a8|76
1621933493|00:0c:e7:d2:54:b0|83
1621855275|00:0c:e7:d3:77:61|73
1622027879|00:0c:e7:d3:9b:dd|81
1621836975|00:0c:e7:d4:17:74|82
1621855690|00:0c:e7:d4:44:71|91
1622022747|00:0c:e7:d4:65:0d|81
1622016563|00:0c:e7:d4:83:e1|85
1622020985|00:0c:e7:d4:9e:4a|88
1621930145|00:0c:e7:d4:b8:56|79
1622018392|00:0c:e7:d4:e7:7b|81
1621836620|00:0c:e7:d5:4b:9f|88
1621859201|00:0c:e7:d5:73:bd|86
1621934650|00:0c:e7:d6:03:af|70
1621837571|00:0c:e7:d6:6e:26|82
1621935053|00:0c:e7:d6:d3:68|76
1621925621|00:0c:e7:d8:f5:f6|80
1621936692|00:0c:e7:d9:ea:53|79
1622018384|00:0c:e7:da:6b:5b|85
1621926906|00:0c:e7:da:a4:7b|93
1621930011|00:0c:e7:da:aa:ca|78
1621844910|00:0c:e7:da:af:c4|81
1622017845|00:0c:e7:dd:89:74|73
1621844118|00:0c:e7:dd:dd:30|78
1621923058|00:0c:e7:dd:e9:51|81
1621935721|00:0c:e7:de:8e:95|58
1621946393|00:0c:e7:de:cb:b5|76
1622017965|00:0c:e7:df:09:9d|80
1621848460|00:0c:e7:df:87:63|72
1621930609|00:0c:e7:e0:bd:04|76
1621950467|00:0c:e7:e1:28:7a|80
1622026371|00:0c:e7:e1:49:85|65
1622022022|00:0c:e7:e1:7a:d2|76
1622027268|00:0c:e7:e1:c9:54|74
1621950208|00:0c:e7:e2:35:3a|87
1621846353|00:0c:e7:e2:b1:b5|74
1621845135|00:0c:e7:e2:fa:c7|74
1621837788|00:0c:e7:e3:0f:63|87
1621941095|00:0c:e7:e3:12:ff|72
1622033512|00:0c:e7:e3:8a:8e|83
1621931426|00:0c:e7:e3:8d:14|79
1621853915|00:0c:e7:e3:b7:09|70
1621838528|00:0c:e7:e4:3b:5c|78
1622010524|00:0c:e7:e4:fe:fc|84
1622028609|00:0c:e7:e5:4b:19|65
1622015686|00:0c:e7:e5:64:8a|80
1621939987|00:0c:e7:e6:5e:9a|74
1621923436|00:0c:e7:e7:06:53|82
1622018148|00:0c:e7:e7:e3:41|61
1621923093|00:0c:e7:e7:ea:c6|91
1622013236|00:0c:e7:e8:3b:b8|72
1621852961|00:0c:e7:e8:8c:62|60
1621935367|00:0c:e7:e8:ab:c2|85
1621850837|00:0c:e7:e8:af:64|70
1621853782|00:0c:e7:e8:fe:45|83
1621837384|00:0c:e7:e9:88:71|85
1622028197|00:0c:e7:e9:dc:22|78
1621865088|00:0c:e7:e9:fb:73|82
1621849990|00:0c:e7:ea:6c:dc|64
1622020804|00:0c:e7:ea:a3:24|76
1622009795|00:0c:e7:eb:08:54|77
1621934601|00:0c:e7:eb:61:8f|82
1621848850|00:0c:e7:eb:7a:38|84
1621846322|00:0c:e7:ec:25:dd|74
1622014119|00:0c:e7:ec:26:f1|66
1621932810|00:0c:e7:ec:b2:9e|71
1621857579|00:0c:e7:ec:b8:61|81
1621945895|00:0c:e7:ed:17:5b|69
1622034746|00:0c:e7:ee:40:42|82
1621923380|00:0c:e7:ee:49:ab|68
1621863914|00:0c:e7:ee:89:62|80
1621863527|00:0c:e7:ef:aa:7f|72
1621842057|00:0c:e7:f0:17:e3|79
1621845144|00:0c:e7:f0:5c:51|72
1621846892|00:0c:e7:f0:db:c3|72
1621937454|00:0c:e7:f0:f8:a2|79
1622013464|00:0c:e7:f2:d3:bf|87
1621936220|00:0c:e7:f3:1e:af|62
1621848075|00:0c:e7:f3:5f:5d|78
1621942800|00:0c:e7:f3:76:3d|85
1622028581|00:0c:e7:f4:20:19|77
1622026643|00:0c:e7:f4:2b:1d|83
1621843543|00:0c:e7:f4:a3:4c|85
1621945658|00:0c:e7:f4:c1:7c|70
1621848062|00:0c:e7:f5:e2:2c|84
1621864154|00:0c:e7:f6:22:9f|80
1621936581|00:0c:e7:f7:11:a4|70
1622012928|00:0c:e7:f7:3f:e4|77
1622030880|00:0c:e7:f7:64:97|72
1621848037|00:0c:e7:f7:6f:fd|83
1621862563|00:0c:e7:f7:f3:5e|80
1621949915|00:0c:e7:f8:56:fa|71
1621855489|00:0c:e7:f8:5d:19|76
1621945264|00:0c:e7:f8:84:d2|80
1621852484|00:0c:e7:f9:6d:9f|59
1622012793|00:0c:e7:f9:6e:70|73
1621839209|00:0c:e7:fc:79:f5|85
1621855214|00:0c:e7:fc:8a:27|74
1622029229|00:0c:e7:fc:ad:b5|82
1621933999|00:0c:e7:fc:b9:50|82
1622029108|00:0c:e7:fc:c8:8e|76
1621945669|00:0c:e7:fd:03:14|67
1621855071|00:0c:e7:fd:ba:19|74
1621843243|00:0c:e7:fd:bf:f2|70
1621937157|00:0c:e7:ff:cd:69|83
1621950654|00:14:0d:39:08:ab|90
1622030188|00:21:07:fd:02:94|82
1622031601|00:23:0d:94:ba:45|70
1622022955|00:23:15:d1:c3:3d|85
1621845135|00:23:15:d1:c3:3d|88
1621936707|00:23:a7:48:a2:c8|81
1621925585|00:26:69:01:9e:90|86
1621924076|00:28:f8:2b:3a:45|90
1621923931|00:28:f8:2b:3a:46|89
1622013923|00:28:f8:2b:3a:46|89
1621933199|00:28:f8:71:23:48|88
1622013591|00:28:f8:a0:5f:cd|91
1621923065|00:28:f8:a0:5f:cd|92
1621928683|00:32:aa:b7:bc:20|71
1621841567|00:34:fe:fe:9e:f2|82
1621925336|00:3f:88:5e:fc:c5|80
1621924472|00:5a:c5:f0:eb:06|64
1621865048|00:79:64:26:8d:7c|90
1621950173|00:95:13:df:c5:86|92
1621926212|00:9a:cd:41:fa:ff|76
1621928483|00:9b:5d:fd:ac:92|89
1621923829|00:9d:6b:37:5f:0d|70
1621841715|00:9d:6b:fa:e3:89|84
1622021253|00:a7:59:51:23:91|75
1621922881|00:ae:fa:56:cc:3c|77
1622009495|00:ae:fa:56:cc:3c|80
1621848321|00:ae:fa:56:cc:3c|58
1621928298|00:ae:fa:e3:80:96|81
1621854108|00:b5:d0:43:ef:a1|87
1622021999|00:bb:60:b8:26:26|78
1621922577|00:e1:8c:ba:cb:c9|70
1622009102|00:e1:8c:ba:cb:c9|80
1622009147|00:e1:8c:ba:cb:ca|75
1622032956|00:e4:c5:58:8b:a4|81
1621838142|00:ec:0a:4a:48:36|93
1621928077|01:36:92:bb:f5:ad|86
1622029897|01:59:3b:16:21:82|87
1621856448|01:82:6d:57:a9:43|73
1621850523|01:96:16:0b:ff:de|70
1622028576|01:97:93:46:56:df|78
1621943805|01:f0:a5:90:19:18|71
1621948502|03:00:d3:ca:af:45|69
1621938440|03:b4:c3:51:3f:bf|72
1621843920|03:c6:37:02:3f:b1|70
1621837541|03:d1:cd:f9:99:4c|68
1622028883|04:4a:6c:83:9b:ee|70
1622025989|04:4a:6c:d3:02:e4|82
1622030616|04:6f:77:c6:9a:93|75
1621947715|04:79:91:fe:16:5f|70
1621932294|04:8c:9a:ba:b7:97|71
1621838603|04:8c:9a:ba:b7:97|72
1621927924|04:b4:29:e2:5d:23|76
1621839209|04:b4:29:e2:5d:23|73
1622034498|04:b4:29:e2:5d:23|84
1621937015|04:ba:8d:bd:77:f7|68
1621841507|04:bd:86:8c:00:ab|74
1621857245|04:c2:3e:97:7d:77|82
1621847842|04:d3:b0:8f:79:fb|88
1622035215|04:d3:b0:91:05:19|93
1621842067|04:d6:aa:0f:30:00|84
1622024573|04:d6:aa:1f:68:71|81
1622016820|04:d6:aa:22:9d:01|84
1621867366|04:d6:aa:26:00:11|93
1622008810|04:d6:aa:35:8e:52|87
1622010260|04:d6:aa:53:53:0f|86
1622016573|04:d6:aa:65:0d:c1|84
1622019598|04:d6:aa:68:2a:b1|82
1621838470|04:d6:aa:68:2a:b1|81
1621932328|04:d6:aa:6e:b9:2d|85
1621952101|04:d6:aa:71:fd:36|92
1622035960|04:d6:aa:71:fd:36|88
1621847149|04:d6:aa:9b:fd:43|67
1621848138|04:d6:aa:a9:7b:76|84
1622025099|04:d6:aa:ac:07:a9|73
1621856641|04:d6:aa:b2:ac:f8|83
1622020391|04:d6:aa:e2:02:b3|89
1621927856|04:d6:aa:fa:aa:64|81
1621837168|04:d6:aa:fa:aa:64|81
1621847023|04:e5:36:32:d3:38|78
1622035415|04:e5:98:a8:f6:2f|86
1621936356|04:eb:c2:06:5d:8f|76
1621942473|04:ed:33:b4:0c:99|89
1622013342|04:ed:33:b4:0c:99|90
1622017977|04:f1:28:60:01:fe|81
1621941842|04:f1:28:60:01:fe|78
1621929788|05:0b:38:77:5f:15|78
1621844390|05:0f:e0:0e:e6:6d|79
1622025721|05:23:a1:32:e8:0e|73
1621935794|05:2c:b1:ab:9d:52|74
1622030277|05:47:35:c2:7a:a3|77
1621851386|05:76:70:17:ae:0f|66
1622018561|05:b2:ac:7a:6a:d0|67
1621854055|05:b2:e2:93:3e:37|67
1621841020|07:11:fd:aa:d2:8f|86
1621837051|07:34:b5:6b:8e:24|72
1621854119|07:4a:dd:15:af:1f|79
1621848154|07:53:9e:ef:22:74|65
1621839685|07:76:bf:3a:5a:68|80
1621952448|07:95:f2:43:2f:28|84
1621922868|07:bc:a5:8d:54:3a|76
1621928177|07:c2:e4:f2:02:34|72
1621948366|07:f2:1a:0b:9a:4e|89
1621935308|08:23:9f:c4:7e:07|68
1622029185|08:25:25:7c:ff:b5|84
1621948170|08:25:25:7c:ff:b5|88
1621846276|08:25:25:a4:c1:7e|68
1622037801|08:25:25:d7:b4:68|64
1621863475|08:25:25:ff:23:da|78
1621836168|08:2a:88:91:0a:81|70
1621937502|08:3a:d9:30:ec:82|91
1621925192|08:4b:3b:2e:1d:2a|67
1621857686|08:58:44:62:70:c8|73
1622012263|08:75:ed:c7:4e:80|72
1621854502|08:9e:f1:14:42:bc|81
1621848921|08:bf:a0:86:b3:c8|81
1622013116|08:c5:e1:07:65:ff|88
1622031826|08:c5:e1:0b:3c:74|86
1621922452|08:c5:e1:0c:ff:06|84
1622033290|08:c5:e1:16:e3:48|89
1622019646|08:c5:e1:19:81:72|86
1622021468|08:c5:e1:25:31:82|87
1621842675|08:c5:e1:38:21:27|77
1621946571|08:c5:e1:45:b7:54|91
1622027133|08:c5:e1:90:81:e1|71
1621933242|08:c5:e1:b3:d4:86|83
1621925209|08:c5:e1:ee:9d:ac|75
1621922625|08:cc:82:2a:1f:c5|91
1622014527|08:f6:9c:1e:79:d1|89
1621852200|09:53:5a:b4:e9:17|91
1621852338|09:57:42:fb:4a:cf|86
1621942125|09:92:af:64:95:11|81
1621837462|09:c2:39:c4:e6:25|74
1621862638|09:da:1e:d4:4c:74|80
1621852280|09:e0:de:91:17:80|67
1622013031|0b:44:cb:f2:a9:98|71
1621854136|0b:59:66:a2:fb:bb|68
1622009385|0b:74:b7:6a:0e:85|72
1621838382|0c:0c:e7:28:d5:26|67
1621947662|0c:12:94:78:d9:aa|69
1621848523|0c:19:f8:27:7b:8d|83
1621840963|0c:21:51:a9:e4:d0|76
1621937847|0c:47:ca:d7:41:03|75
1622010728|0c:4b:8a:e0:da:08|74
1621940180|0c:54:15:a8:3c:07|94
1622013072|0c:54:15:a8:3c:07|93
1621860972|0c:54:15:a8:3c:07|95
1622017457|0c:63:d5:79:bc:c2|85
1621842415|0c:70:4a:db:bf:d9|66
1621851407|0c:72:f3:55:34:fb|66
1622014167|0c:7a:15:8e:46:44|77
1621924598|0c:8c:24:bf:0f:65|87
1622030039|0c:8c:24:bf:12:72|78
1621927812|0c:96:e6:76:6e:eb|92
1622012908|0c:96:e6:76:6e:eb|89
1621948544|0c:96:e6:76:6f:a7|90
1622032946|0c:96:e6:76:6f:a7|88
1621865756|0c:96:e6:76:6f:a7|87
1621934332|0c:9d:95:c4:c0:2d|78
1622037811|0c:b5:27:7a:da:15|81
1621945530|0c:f3:46:ce:ad:6b|84
1621855714|0c:f3:46:da:25:9d|77
1622032760|0c:f3:46:da:25:9d|84
1621940983|0c:f3:46:f6:ca:79|83
1621845350|0d:30:25:11:f0:0f|78
1621842426|0d:54:aa:43:0a:e0|81
1621850768|0d:55:b2:18:17:92|74
1621836616|0d:5b:d9:a5:44:84|67
1621848686|0d:5c:51:2f:00:24|80
1621924521|0d:73:31:c8:51:8d|54
1622013960|0d:99:56:34:50:b4|72
1621836775|0d:b1:c0:88:15:ec|89
1621946810|0d:f9:78:28:27:e1|77
1622022686|0f:1e:21:a0:17:c8|71
1621944638|0f:2d:e6:ed:03:ad|71
1621838791|0f:2e:f0:d9:ad:00|72
1621852350|0f:ac:b2:8d:30:50|68
1621925487|0f:af:45:0a:87:08|71
1622023208|0f:be:95:f0:44:67|83
1622017281|10:02:b5:46:93:5d|83
1622009880|10:02:b5:50:2c:65|71
1622011265|10:02:b5:50:2c:66|71
1622026723|10:13:36:9f:0a:2f|87
1621925871|10:32:7e:c0:40:29|79
1621864552|10:3f:44:22:f9:8f|84
1621845533|10:3f:44:25:21:0b|76
1622035579|10:3f:44:d3:a3:b1|85
1622009427|10:3f:44:d5:fc:df|84
1621952363|10:3f:44:ea:54:fb|77
1621867471|10:3f:44:ea:54:fb|87
1621944978|10:41:7f:39:23:31|76
1622025558|10:41:7f:db:c7:9a|75
1621862167|10:44:00:39:7b:c9|84
1621945315|10:44:00:db:24:32|68
1621923549|10:63:c8:31:5c:ab|75
1621849095|10:8e:e0:67:f5:f0|94
1621952909|10:a5:9a:e8:90:a9|90
1622009383|10:c0:7b:7f:39:c8|71
1622029860|10:c3:79:12:bb:f5|77
1621844819|10:ca:1d:a2:80:54|77
1621941885|10:e9:53:54:47:62|80
1621839165|10:f0:05:ba:b3:41|90
1621849891|10:f2:17:ed:5e:3e|67
1621930916|11:28:a6:f5:0f:78|74
1622032621|11:4a:5f:81:1f:91|78
1621841437|11:4d:02:68:25:a3|79
1621948903|11:4d:5f:06:70:b6|70
1621837412|11:66:a7:a3:61:9c|79
1621863971|11:77:89:27:17:04|87
1621839021|11:a8:7a:bb:e2:51|71
1621935729|11:a9:d8:fa:de:39|66
1622020201|11:b6:b1:0c:61:77|83
1621935655|11:e5:4f:8f:85:97|65
1621923280|13:35:b0:27:64:55|74
1622010828|13:55:30:a9:d8:a4|70
1622026662|13:83:1f:7d:61:2f|73
1621949521|13:d6:fc:ae:66:3d|74
1621935433|13:ed:b3:9c:76:0a|66
1622017776|14:07:f9:d7:c1:c4|83
1621950221|14:14:72:5d:1a:cc|77
1621931405|14:1f:78:e1:97:31|78
1622017117|14:20:5e:e9:17:7a|80
1622023848|14:30:1f:60:30:37|70
1621924618|14:32:d1:72:61:5f|83
1621853984|14:4f:8a:c2:9b:92|84
1622012054|14:4f:8a:c2:9b:92|80
1621940314|14:56:8e:76:31:29|77
1621951401|14:56:8e:77:c8:f1|92
1621851454|14:56:8e:77:c8:f1|71
1622037321|14:56:8e:a0:9f:b5|85
1621950712|14:56:8e:a0:9f:b5|77
1621866681|14:56:8e:b3:ad:8c|85
1621923052|14:66:2b:b5:9a:86|72
1622025521|14:7d:da:42:8b:32|83
1621850229|14:7d:da:42:8b:32|79
1621935795|14:7d:da:8d:59:80|65
1621928157|14:ab:c5:3c:8d:fe|77
1621857482|14:ab:c5:e0:f6:55|85
1622034563|14:d1:1f:a9:10:09|78
1621855932|14:f6:d8:04:b1:3b|88
1621856047|14:f6:d8:e8:64:c1|88
1621862044|14:f6:d8:e8:64:c2|92
1621848730|15:48:58:e2:33:98|76
1621931209|15:59:8e:d5:a2:6d|77
1621949235|15:66:68:6c:da:c3|82
1622030273|15:7d:a3:d8:12:fb|80
1621856939|15:d4:37:fb:95:6c|68
1621840779|15:db:b1:72:14:99|70
1621841684|15:ef:35:cd:65:23|87
1621930616|15:fa:ee:5b:5c:19|67
1621853145|17:26:6a:36:59:82|83
1621929599|17:ab:49:54:71:d1|68
1621923283|17:d9:8d:c8:77:9f|76
1621947462|17:fd:c3:fd:56:21|80
1622029360|18:22:7e:b2:db:1e|89
1621934079|18:25:bd:94:72:8b|81
1621950646|18:3a:2d:21:96:c5|86
1621926248|18:3e:ef:c5:75:f3|89
1621935407|18:47:3d:e4:91:f7|69
1622012101|18:47:3d:e4:91:f7|67
1621857427|18:47:3d:e4:91:f7|65
1621841518|18:48:0c:76:02:5a|72
1621840557|18:54:cf:45:cc:6a|70
1622025445|18:56:80:35:8b:ad|70
1621934324|18:56:80:35:8b:e9|83
1621851168|18:56:80:35:8b:e9|87
1622034262|18:56:80:35:8c:34|92
1621927053|18:56:80:35:8c:34|94
1621863185|18:56:80:35:8c:34|89
1621850466|18:56:80:6e:ca:03|91
1621949104|18:56:80:ff:35:66|90
1622012894|18:56:80:ff:35:66|88
1621923299|18:5e:0f:14:d3:b8|88
1621839740|18:5e:0f:d7:ea:29|87
1621924105|18:90:a3:e4:d3:75|65
1621929670|18:97:c2:51:f1:41|69
1622011966|18:a7:65:e7:a0:d2|65
1621935299|18:b4:72:fd:d2:da|65
1621926865|18:b4:ea:4d:78:80|70
1621851382|18:cc:18:9b:9e:2a|85
1621851966|18:cc:18:9b:9e:2b|83
1622023888|18:cc:18:b8:8d:8c|78
1621848298|18:d0:bd:5d:ae:4d|75
1622015522|18:d0:c5:51:b0:2b|90
1622027186|18:f6:43:1c:6b:4b|78
1621844953|18:f7:3c:d7:cd:1c|78
1621853839|19:17:54:20:ab:82|80
1621854429|19:1f:c6:a7:5e:97|82
1621928004|19:7c:66:06:47:cc|88
1621840994|19:83:ab:44:38:9c|79
1621837449|19:c4:ed:2b:64:ce|86
1621855564|19:fb:9e:d8:36:9c|83
1621837458|19:fc:39:2b:c5:2c|72
1621946111|1b:17:db:d6:a6:79|87
1621836945|1b:84:84:2b:55:a2|74
1621854560|1b:a1:88:37:23:1f|79
1621852187|1b:ad:df:38:34:ef|87
1622019577|1b:c8:d3:97:9e:ec|88
1621943021|1b:fd:56:5c:2e:ee|79
1622037471|1c:02:19:3f:fd:57|89
1622022975|1c:13:86:03:3c:be|75
1621840125|1c:13:86:03:3c:be|65
1622015120|1c:14:83:1e:1d:a1|69
1622014611|1c:15:1f:c3:1e:4a|62
1622013187|1c:15:2e:d4:8a:37|65
1621861047|1c:16:21:a0:80:9e|70
1622029745|1c:1a:c0:21:43:e9|86
1621855860|1c:1a:c0:21:43:e9|72
1621863162|1c:1b:b5:c7:ec:64|87
1621853734|1c:1e:e3:be:22:93|78
1621923162|1c:23:2c:11:d1:07|72
1621856504|1c:33:2f:8f:82:5b|70
1621840810|1c:3b:91:c1:59:54|76
1622029838|1c:42:7d:8e:85:f3|87
1622020479|1c:42:7d:90:43:fb|80
1622036561|1c:43:98:e4:a1:67|84
1621852981|1c:51:5c:b7:67:6f|80
1621858523|1c:67:58:4a:ec:ad|72
1621854588|1c:6e:e2:c1:a2:e3|88
1621844698|1c:77:95:b1:5e:5a|91
1621837443|1c:8a:bc:2c:92:b3|65
1622013509|1c:95:6c:49:a7:a2|78
1621940231|1c:a6:c0:b5:63:da|67
1622011111|1c:a9:78:7f:d4:cb|78
1622017001|1c:cc:d6:ea:11:47|77
1622024009|1c:cc:d6:fa:18:ff|82
1622009072|1c:e5:7f:61:f5:47|75
1622017730|1c:f0:e0:ed:6b:0a|87
1621839863|1d:49:d5:3e:b4:52|69
1622014401|1d:86:95:ee:c1:21|70
1621948510|1d:9a:4a:83:dd:b3|66
1621850275|1d:b0:85:6b:0d:98|85
1622013564|1d:c5:59:c6:53:25|64
1621927986|1d:c9:ae:3b:8a:ae|75
1621852925|1d:c9:d6:a2:0c:93|72
1621936687|1f:37:0b:a3:f0:c7|69
1621849789|1f:4b:a5:05:84:e3|74
1622032353|1f:b7:ff:40:02:2d|70
1621947477|1f:ea:c0:35:ac:19|76
1621926732|1f:ee:45:82:a7:16|71
1621836691|1f:f1:4f:bb:5b:03|73
1621926687|1f:f5:73:1e:12:d2|70
1621924317|20:1b:50:61:6b:7f|85
1622031412|20:31:1c:de:3c:e7|77
1621944996|20:31:1c:de:3c:e7|80
1621933764|20:39:d0:ed:b6:7b|84
1621851260|20:43:54:7e:85:1b|72
1621855514|20:47:da:58:4e:5b|84
1621854131|20:79:18:30:2d:75|88
1621852605|20:79:18:30:2d:76|83
1621843000|20:79:18:7f:09:90|71
1621927402|20:79:18:fb:4f:9b|82
1621849904|20:80:bc:86:3d:96|78
1622028078|20:92:b7:e1:b6:15|66
1621845813|20:96:88:89:c0:66|74
1621853044|20:a6:0c:30:2f:19|76
1621841142|20:ed:31:c4:7c:87|72
1622034549|20:f2:ab:0e:2f:0f|73
1621851385|20:f4:78:5f:a7:3e|86
1622035358|20:f4:78:da:02:b1|82
1621936769|20:fc:35:aa:ac:8d|68
1621839399|21:0b:c3:25:5e:7e|86
1621841907|21:3e:70:bf:0b:ef|72
1621928908|21:43:c1:b1:c3:a5|74
1621937799|21:cb:db:08:79:c9|80
1621841240|23:10:f9:f1:de:7f|69
1621948976|23:11:5d:26:f2:ec|83
1621838547|23:5a:05:9b:3e:27|75
1622026396|23:89:50:d8:bf:b2|71
1621852290|23:9a:3f:7c:8a:d7|68
1621838301|23:a7:6b:9e:49:14|62
1621843079|23:cd:ba:d2:48:3d|76
1621938008|23:e7:07:95:15:50|72
1621843863|23:eb:da:30:dc:23|79
1622024666|24:18:1d:09:da:56|83
1622018392|24:18:1d:0a:05:13|79
1622022703|24:18:1d:17:3e:65|76
1621932654|24:18:1d:1d:c0:95|87
1622022258|24:18:1d:6c:a7:f8|81
1622009980|24:18:1d:83:a5:e4|93
1621922743|24:18:1d:8c:86:db|83
1622021008|24:18:1d:8c:86:db|81
1621850023|24:18:1d:8c:86:db|80
1621942524|24:18:1d:92:2c:71|78
1622010935|24:18:1d:aa:40:de|88
1622012454|24:18:1d:fc:01:80|75
1622017615|24:2e:4c:32:54:31|81
1621854492|24:4a:e5:aa:1f:83|78
1621928959|24:51:56:a7:3a:69|67
1621925517|24:77:03:25:42:f4|80
1621943903|24:8e:f5:10:1e:83|72
1621838103|24:ae:cd:42:42:ef|70
1621837481|24:af:0d:1c:92:2c|76
1622011373|24:cd:14:d1:4c:66|66
1621844998|24:de:4b:52:5f:68|83
1621940142|24:e3:14:49:87:16|88
1622022385|24:e3:14:49:87:16|77
1621838758|24:e3:14:49:87:16|77
1621854253|24:ee:27:cd:97:53|91
1621842161|24:ee:9a:06:ae:05|71
1622026712|24:ee:9a:3a:90:ad|80
1621847934|24:ee:9a:53:b0:1a|84
1622015282|24:ee:9a:7a:a1:66|80
1622037276|24:fb:65:0e:93:d3|91
1621861651|24:fb:65:0e:93:d3|92
1621947873|24:fb:65:0e:93:d3|92
1621931468|25:10:43:b4:48:6c|65
1621837189|25:1b:4d:d3:e8:cf|64
1621837553|25:2c:b8:ae:95:9a|77
1621837526|25:35:4a:47:b5:50|75
1621940668|25:69:9a:f9:c6:95|76
1621941272|25:fd:10:c2:7c:46|85
1621923346|27:40:0c:20:a3:42|85
1621947533|27:75:f5:21:85:10|72
1622036012|27:7c:90:88:9d:52|82
1621839417|27:ad:4f:76:d6:83|74
1621852045|27:af:1f:fb:f0:5a|84
1621938580|28:13:53:45:84:79|70
1621933708|28:16:a8:71:f7:46|80
1621938944|28:18:a5:0d:05:64|72
1621948875|28:19:06:54:45:e0|63
1622030182|28:26:65:ca:c1:9a|75
1622024786|28:33:34:54:91:f6|83
1621948309|28:39:34:bd:ef:d5|78
1621841293|28:39:5e:d7:66:99|74
1622032137|28:39:5e:db:af:91|96
1621851165|28:39:5e:db:af:91|94
1621945508|28:3f:d7:aa:da:9b|74
1621922422|28:6a:ba:d3:9b:29|87
1622016325|28:6c:60:ba:57:8e|76
1622034604|28:7f:cf:80:90:1c|88
1621838738|28:7f:cf:de:a4:d1|70
1622020309|28:7f:cf:de:a4:d2|71
1621927206|28:90:0b:b3:81:43|75
1621927951|28:a5:7b:dd:27:96|79
1621850780|28:aa:f1:64:e5:ea|76
1622029628|28:c6:3f:c7:d3:46|80
1621836743|28:d4:75:6f:a4:4f|84
1621837275|28:fb:54:8d:f5:52|75
1621836024|28:fb:d3:fa:8e:c1|70
1621836847|28:fb:d3:fa:8e:c9|88
1621864481|28:fb:d3:fa:8e:eb|80
1621924439|28:fb:d3:fa:8e:eb|82
1621936363|29:18:09:a6:10:f8|79
1621944477|29:27:c1:4a:71:54|70
1621836715|29:28:24:13:23:d8|81
1621941067|29:29:d3:25:78:2f|81
1622036500|29:7d:8e:03:20:78|87
1621862110|2b:2b:a0:bf:0a:65|86
1621838696|2b:4b:ad:43:4f:d8|71
1621923909|2b:a3:08:a6:92:60|81
1621854799|2b:a8:d2:43:81:6e|80
1621854041|2b:e8:8d:fe:1f:e0|81
1621855642|2c:0a:b9:e0:de:96|64
1621937084|2c:2a:c2:bf:00:8f|67
1621923024|2c:4c:c6:b7:b9:e7|67
1621867841|2c:78:0e:de:ea:d4|83
1621846717|2c:8d:b0:c3:0b:3d|81
1621838398|2c:9b:8d:d8:f6:b7|87
1621842210|2c:c4:2c:d3:78:7b|72
1621860341|2c:d1:40:10:d7:21|72
1622021682|2c:db:07:d4:78:49|80
1621935121|2c:db:07:d4:78:49|83
1621932403|2c:ef:a6:e6:33:e6|71
1622028958|2d:0e:13:f3:d7:47|78
1621953117|2d:29:47:d3:cb:1b|83
1621841025|2d:50:6f:a9:d8:e5|68
1621949038|2d:64:47:bb:75:90|83
1621849786|2d:7f:cb:84:4f:fa|68
1621858334|2d:8b:e0:bc:20:87|66
1621934980|2d:9a:c4:ae:3b:d9|70
1621837215|2d:d2:d7:77:19:5e|76
1621838772|2d:f0:90:54:4e:76|89
1621840191|2f:35:f0:e5:38:b4|71
1621927700|2f:75:d8:f6:7c:d1|86
1622014691|30:07:4d:0d:9e:da|75
1622011942|30:07:4d:44:ce:2b|81
1622013745|30:07:4d:54:65:25|81
1621837574|30:07:4d:54:65:25|83
1621930484|30:07:4d:6a:3f:82|86
1621941514|30:07:4d:80:01:1b|78
1621925420|30:07:4d:8f:de:25|85
1622014493|30:07:4d:9e:b8:95|80
1622030777|30:07:4d:ab:fc:07|71
1621837236|30:07:4d:ab:fc:07|89
1621842743|30:07:4d:bd:c3:37|90
1621861414|30:24:32:d3:91:81|92
1621841980|30:45:96:13:af:68|91
1621854566|30:47:aa:e4:ff:91|79
1621857476|30:95:e3:3d:c3:80|77
1621947659|30:97:46:16:dd:2e|73
1621844943|30:a1:fa:08:3e:e2|86
1621857729|30:a9:de:95:d5:98|81
1621934460|30:a9:de:da:03:a2|54
1622022152|30:a9:de:da:03:a2|55
1621849132|30:a9:de:da:03:a2|58
1621923590|30:a9:de:da:6d:a6|69
1621950155|30:a9:de:da:bb:de|61
1621939483|30:b4:9e:0d:d6:ef|89
1621925784|30:d1:6b:99:9e:d9|86
1621836739|30:de:76:ed:4a:f1|80
1621837543|30:ee:10:af:04:20|87
1621845384|30:f4:71:89:63:cd|68
1621927489|31:43:e6:f8:98:8e|79
1621841000|31:4c:24:c4:f1:48|75
1621943993|31:74:fb:c8:a2:f1|72
1621940154|31:8b:e3:f4:2a:16|65
1621944094|31:d0:00:17:de:a0|73
1621937365|31:da:b1:1b:ec:ed|69
1622032398|31:df:0f:36:dc:17|72
1621933496|31:ea:9e:b2:7e:de|72
1621851269|33:10:24:b4:3a:96|63
1621935356|33:32:c0:f8:6e:ef|73
1621848982|33:45:b1:e6:20:ed|70
1621837478|33:62:38:00:11:9b|70
1621838926|33:6a:75:53:3a:81|74
1621935756|33:8e:af:2b:56:ed|70
1621930589|33:ed:9e:3a:40:d5|74
1621861617|34:0a:69:2e:37:91|63
1621934712|34:12:f9:4e:a2:8a|67
1622018284|34:12:f9:4e:a2:8a|77
1621847454|34:12:f9:4e:a2:8a|86
1621941662|34:12:f9:70:a4:23|72
1621851028|34:12:f9:70:a4:23|73
1622029346|34:12:f9:fd:68:af|70
1622012857|34:1c:f0:6f:ba:34|85
1622023676|34:2e:b7:d8:05:ef|70
1621937836|34:2e:b7:d8:05:ef|79
1622020074|34:36:3b:85:1e:32|82
1621839731|34:3d:80:c2:20:4f|79
1622011825|34:41:5d:bf:bd:e6|70
1621843932|34:41:5d:bf:bd:e6|77
1621942388|34:41:5d:cb:be:ac|90
1621854601|34:41:5d:cb:be:ac|89
1621940187|34:41:5d:cb:c5:14|94
1622024317|34:41:5d:cb:c5:14|91
1621923341|34:43:f7:0a:97:79|79
1622026926|34:69:1f:99:4b:ae|70
1622013364|34:79:16:22:40:61|66
1622031701|34:79:16:93:df:77|82
1621843019|34:7d:f6:92:b3:73|80
1621859292|34:8b:75:0e:6a:79|72
1622031373|34:8b:75:20:8e:84|83
1622008844|34:8b:75:27:cf:d8|84
1621836500|34:8b:75:27:cf:d8|83
1622013068|34:8b:75:30:61:44|86
1621838668|34:8b:75:30:61:44|77
1621952677|34:8b:75:58:b6:38|72
1621849064|34:8b:75:6d:5e:11|78
1622019913|34:8b:75:ec:bd:d7|81
1621944561|34:8b:75:ec:bd:d7|74
1621922424|34:a3:95:b2:3b:55|78
1622019407|34:a3:95:b2:3b:55|71
1621837465|34:a3:95:b2:3b:55|76
1621860580|34:a4:21:bf:2d:48|81
1621931439|34:b0:c1:fd:cd:66|74
1621862965|34:b2:0a:f1:08:04|90
1621923816|34:bb:1f:ce:36:a8|94
1621836067|34:c9:3d:9f:50:34|77
1621855436|34:ca:fa:1b:8d:87|77
1621922846|34:e1:2d:6a:a5:09|87
1621863037|34:e1:2d:6a:a5:09|90
1621935621|34:e2:fd:63:27:23|65
1621839657|34:e5:f9:3a:72:eb|80
1621927352|34:f3:9a:6e:9e:f2|82
1622011313|34:f3:9a:6e:9e:f2|84
1621848278|34:f3:9a:9a:26:85|86
1622015767|34:f4:6b:72:66:2e|78
1621942427|35:2b:e5:c7:22:88|82
1622021103|35:3e:f1:ff:98:d3|86
1621848069|35:53:4f:5f:da:6c|72
1621941067|35:b2:a6:17:b5:8c|80
1621852524|35:ce:61:23:2d:26|84
1622026915|35:d6:fd:94:60:0c|71
1621845382|35:e1:bb:8f:0a:36|65
1622027866|35:ea:87:2a:b3:fa|78
1621933641|35:ec:ae:8e:66:fe|83
1622013167|35:ec:cd:5c:f9:92|71
1622016402|37:31:c3:14:87:41|72
1621924915|37:38:45:63:aa:34|80
1621937755|37:e7:a7:24:d5:5d|69
1621936976|37:ec:3a:e8:64:82|65
1621947858|37:f5:24:f5:b2:75|88
1621837863|38:2d:e8:20:69:7d|78
1621935166|38:53:9c:8e:25:c3|67
1622020107|38:68:a4:ec:83:15|76
1621945892|38:73:ee:24:b4:5d|67
1621935553|38:90:9c:db:28:68|75
1621925694|38:d4:0b:3b:00:cc|88
1622012486|38:d4:0b:3b:00:cc|83
1622011528|38:d8:95:2d:af:c3|70
1621937587|38:df:f7:63:cb:a2|76
1621853180|38:f9:d3:2b:3c:dd|91
1622034671|38:fb:14:b5:65:67|86
1621846953|38:fb:14:b5:65:67|72
1621857506|39:12:27:88:a5:6e|71
1621840585|39:1e:b5:75:d7:b3|78
1621849614|39:37:b5:50:df:83|68
1621934987|39:3b:75:74:ba:02|65
1621837441|39:57:5f:ce:13:51|69
1621923442|39:a3:92:8f:b6:ed|78
1621846150|3b:11:b7:f1:a1:3c|78
1622025231|3b:56:f2:d3:0e:f8|71
1621937221|3b:7c:89:c2:9c:fd|72
1621929346|3b:80:a2:1a:ba:52|77
1621854744|3b:8c:6e:f8:d6:18|83
1621950378|3b:aa:28:cd:ea:e3|88
1621848131|3b:ad:fd:9a:0e:f2|71
1621850920|3b:f5:77:fb:a5:fe|76
1621938077|3b:fd:97:71:be:65|80
1621848978|3b:ff:ec:a9:6a:64|77
1621940270|3c:05:18:a9:cf:83|83
1622028512|3c:06:3a:aa:ed:92|67
1622034737|3c:20:f6:90:32:15|74
1622036543|3c:20:f6:d6:8f:cd|80
1621941553|3c:20:f6:db:c2:50|93
1621856239|3c:21:b0:8e:50:15|71
1622013363|3c:22:fb:30:93:b2|69
1621845946|3c:22:fb:bb:e4:15|87
1621837320|3c:22:fb:c1:52:89|71
1621928951|3c:38:e5:1f:1d:81|75
1621846344|3c:3b:9c:c0:fd:5e|71
1622031958|3c:57:6c:b9:fe:44|75
1621839043|3c:57:6c:c7:6e:20|79
1622033783|3c:57:6c:c7:6e:20|82
1622010023|3c:57:6c:c7:9d:04|86
1621930520|3c:58:c2:bf:97:d5|77
1622011815|3c:58:c2:bf:97:d5|92
1621858394|3c:58:c2:bf:97:d5|70
1622025507|3c:58:c2:d4:c6:91|75
1622026318|3c:58:c2:d4:c6:92|76
1621836614|3c:58:c2:d4:c6:92|80
1621926065|3c:77:e6:7c:87:b2|86
1621941953|3c:79:e2:be:0d:30|77
1622008814|3c:91:80:02:54:2d|72
1621929213|3c:99:01:10:c8:da|68
1621836116|3c:9c:0f:65:12:38|83
1621951912|3c:bb:fd:3b:10:2b|87
1621934806|3c:dc:bc:05:29:a6|88
1621840629|3c:dc:bc:0a:5d:c4|87
1621856606|3c:f7:a4:25:44:2f|79
1622035984|3c:f7:a4:a9:04:ab|82
1621938488|3c:fa:43:b8:27:dd|86
1621847783|3c:fa:43:b8:27:dd|75
1621931026|3d:18:27:0e:6f:5d|75
1622013032|3d:61:b0:8f:a0:d1|72
1621855506|3d:61:e6:6c:48:cf|79
1621937796|3d:77:95:1b:74:3d|79
1621850000|3d:c7:38:b6:54:17|69
1621839199|3d:cf:a8:fb:e6:2d|70
1621837901|3f:4e:6c:d8:fa:5b|71
1622015923|3f:76:b4:82:33:0e|71
1621841133|3f:a2:c1:8a:f3:62|70
1622036189|3f:ac:a3:7b:d5:96|79
1621936878|3f:bf:82:a3:bb:cd|74
1621922599|3f:ca:04:4f:a3:63|70
1621947467|3f:dd:df:a8:07:cb|69
1621925111|40:01:19:fe:01:cd|68
1622032719|40:3f:41:20:c3:87|75
1621947836|40:3f:8c:43:77:ac|70
1622034737|40:3f:8c:43:77:ac|86
1621836029|40:3f:8c:43:77:ac|88
1621836664|40:3f:8c:47:55:6d|90
1622021865|40:40:a7:53:24:c8|90
1622016901|40:42:58:8e:77:fd|68
1621925109|40:57:6a:ff:bb:97|82
1621837522|40:61:e9:7c:9b:89|68
1622023208|40:75:14:87:3b:88|76
1621854219|40:79:01:07:33:74|72
1621925660|40:8b:a9:7a:4d:e9|87
1621935673|40:a1:08:a0:c9:a3|83
1621929717|40:a1:08:c5:1b:4c|73
1621953626|40:a1:08:e0:0e:c0|68
1621926124|40:a1:08:e0:52:80|90
1621925292|40:a2:a0:83:b6:fd|78
1621943013|40:bf:5c:60:3e:ef|81
1621846260|40:d3:ae:e7:c5:66|83
1621864635|40:d3:ae:fc:3d:e0|87
1622030565|40:d3:ae:fc:3d:e0|85
1621836784|40:df:da:1a:20:8f|69
1621931113|40:f3:08:72:89:2d|74
1622026159|40:f3:08:72:89:2d|73
1621840659|40:f3:08:72:89:2d|68
1621836112|40:f5:20:44:c4:48|75
1621924615|40:f5:20:44:c5:24|71
1622013212|40:f5:20:44:c5:24|71
1621840132|40:f5:20:44:c6:14|88
1621841021|40:f5:20:44:c6:2c|85
1621923463|40:f5:20:44:c6:44|74
1622017978|40:f5:20:44:c6:44|77
1621836060|40:f5:20:44:c6:44|78
1621836223|40:f5:20:44:c7:98|68
1621925116|40:f5:20:44:c7:98|69
1621839994|40:f5:20:44:c8:08|88
1622011529|40:f5:20:44:c8:9c|82
1621836345|40:f5:20:44:c8:9c|85
1621836217|40:f5:20:44:c8:e4|81
1622016430|40:f5:20:44:c8:e4|83
1621841259|40:f5:20:44:c9:0c|88
1621925304|40:f5:20:44:c9:0c|90
1622010433|40:f5:20:44:c9:94|86
1621836207|40:f5:20:44:c9:94|90
1622017505|40:f5:20:44:c9:e4|84
1621840201|40:f5:20:44:c9:e4|87
1621924526|40:f5:20:44:ca:1c|73
1621923251|40:f5:20:44:ca:70|72
1622012022|40:f5:20:44:ca:70|77
1621839900|40:f5:20:44:cb:80|89
1622009164|40:f5:20:44:cb:a4|73
1621841049|40:f5:20:44:cb:ac|84
1622014572|40:f5:20:46:c2:f8|90
1621842732|40:f5:20:46:c3:94|85
1622014999|40:f5:20:46:c4:08|75
1621836079|40:f5:20:46:c4:c0|88
1621924994|40:f5:20:46:c4:d0|71
1621836160|40:f5:20:46:c4:d0|70
1622015439|40:f5:20:46:c5:c0|90
1621839739|40:f5:20:46:c5:c0|93
1621836696|40:f5:20:46:c7:04|90
1621925675|40:f5:20:46:c8:38|87
1622016251|40:f5:20:46:c8:38|85
1621841123|40:f5:20:46:c8:38|82
1621836144|40:f5:20:48:8c:e0|81
1622037294|40:f5:20:48:8c:e8|88
1621925066|40:f5:20:48:8c:e8|88
1621840003|40:f5:20:48:8c:e8|87
1621924502|40:f5:20:48:8d:34|78
1621836093|40:f5:20:48:8d:34|78
1621839748|40:f5:20:48:8f:00|86
1622010408|41:11:1d:b7:d1:0f|73
1621951340|41:26:10:09:72:b7|79
1621948639|41:5f:cf:15:a4:f4|75
1621837301|41:74:66:47:2f:84|74
1621936778|41:80:12:d0:1e:3c|72
1622013842|41:b4:75:f9:4c:c8|68
1621838266|41:b8:f9:cc:4a:8f|69
1621838113|41:fc:0d:30:39:7f|65
1621933715|43:3a:c4:47:21:5e|92
1621930204|43:40:69:57:43:a6|73
1621845699|43:47:8d:5a:b1:09|68
1621850367|43:62:5e:76:d0:e3|79
1621849295|43:6d:96:74:db:5a|80
1621929145|43:71:0f:20:d0:3a|75
1622013171|43:b3:e7:2a:09:4d|64
1621848258|43:fc:16:41:b7:45|77
1621950282|43:fe:1b:2b:fc:ee|76
1621839108|44:00:10:ce:8e:d9|80
1621924085|44:25:85:f4:8a:bb|78
1621839877|44:43:4c:b8:6f:63|67
1621929877|44:59:e3:7e:36:5c|78
1621929009|44:5c:e9:b1:ba:ac|76
1621923733|44:6d:6c:b9:1a:fe|75
1621922957|44:74:df:07:ae:79|68
1621837015|44:85:00:18:d4:ae|84
1622014181|44:85:00:18:d4:ae|84
1621928756|44:85:00:18:d4:ae|88
1621863647|44:85:00:71:9c:56|91
1621937329|44:ac:6c:01:d6:f0|67
1622027597|44:d6:8b:de:cd:2a|71
1621922436|44:d7:91:d0:f5:9b|81
1621843001|44:d7:91:d0:f5:9b|69
1621934608|44:f9:b7:54:ce:31|71
1621928799|45:10:15:fb:ea:59|69
1621923003|45:17:fc:5e:9f:8c|68
1621856947|45:5d:8e:19:13:4a|74
1622025474|45:61:2d:19:b0:94|72
1621850185|45:a6:23:a5:63:ba|74
1621930615|47:1b:8b:20:31:ae|71
1621935769|47:4d:1d:b5:d6:19|70
1621853758|47:70:e8:a9:97:13|81
1621849183|48:01:c5:33:05:b7|81
1621864492|48:01:c5:5d:75:05|79
1621928242|48:37:3b:73:a2:37|67
1621850629|48:4b:aa:37:4a:ba|85
1621849764|48:51:b7:b7:c6:cc|85
1621930734|48:5a:3f:8c:45:8b|72
1621923047|48:60:5f:2d:d1:3d|86
1622036105|48:79:4d:9d:c3:35|79
1621927988|48:79:4d:ad:2a:8d|75
1622027085|48:79:4d:ad:2a:8d|73
1621844427|48:79:4d:ad:2a:8d|72
1622024899|48:89:e7:62:ab:79|79
1621847027|48:89:e7:62:ab:79|84
1621836094|48:89:e7:fd:05:48|64
1621949008|48:89:e7:fd:05:84|70
1621862314|48:89:e7:fd:05:84|74
1621931062|48:9d:24:7b:8d:28|72
1622026153|48:9d:24:7b:8d:28|87
1621923512|48:9d:24:84:5e:fd|82
1622011161|48:9d:24:84:5e:fd|85
1621845424|48:9d:24:84:5e:fd|88
1621929351|48:9d:d1:28:e9:c9|84
1621842909|48:9d:d1:28:e9:c9|82
1621859764|48:9d:d1:96:f5:45|82
1621836908|48:a4:72:4d:bd:e0|76
1621923576|48:a4:72:9d:22:81|72
1622009482|48:a4:72:9d:22:81|71
1622011899|48:a4:72:b2:c6:04|83
1621852282|48:ab:f7:81:21:07|71
1621836888|48:cc:0b:23:1d:f6|72
1621852993|48:fc:b6:64:fc:c6|74
1621946595|48:fc:b6:ef:1b:8b|74
1622028585|48:fc:b6:ef:1b:8b|62
1621857791|48:fc:b6:ef:1b:8b|80
1621853347|48:fd:a3:f0:59:19|84
1621937231|49:55:52:d2:dc:85|80
1621838381|49:8e:cb:09:27:a3|83
1621933861|49:df:78:da:04:0a|80
1621849925|4b:07:a9:0c:a0:2f|85
1621841601|4b:32:8a:bf:ee:b6|72
1621928847|4b:39:a3:76:b1:58|78
1622013112|4b:8a:a6:c8:c6:f4|79
1622010035|4b:94:eb:26:d4:1b|71
1621841732|4b:c5:ca:e4:b5:6a|76
1621925278|4b:f7:c9:2c:d8:41|70
1621837983|4c:18:9a:42:e8:07|71
1622015997|4c:1d:96:13:48:86|90
1622020082|4c:1d:96:ab:7a:98|88
1621923133|4c:1d:96:e6:e2:4f|78
1621841560|4c:1d:96:e6:e2:4f|75
1622018989|4c:34:88:68:ce:64|84
1621926256|4c:34:88:69:ba:b3|83
1621929857|4c:66:41:0e:2d:a3|87
1622034307|4c:66:41:0e:2d:a3|87
1622018275|4c:6a:f6:c4:21:d3|89
1621848008|4c:6a:f6:c4:21:d3|89
1622022658|4c:74:bf:77:fc:32|75
1621935946|4c:74:bf:77:fc:32|74
1621845419|4c:74:bf:77:fc:32|78
1621854979|4c:78:93:cd:09:47|81
1622023560|4c:7a:5c:9e:55:e8|74
1621948032|4c:a1:51:51:16:ec|86
1621946990|4c:dd:31:5f:ff:00|86
1621933368|4c:dd:31:f3:32:57|57
1622018019|4c:dd:31:f3:32:57|80
1621854749|4c:dd:31:f3:32:57|70
1621868221|4c:f2:02:0a:87:35|66
1622034143|4c:fd:c3:53:00:9b|78
1621947928|4d:31:b0:3d:df:12|81
1621930297|4d:36:a9:9f:e6:ab|76
1621928307|4d:57:b1:c7:62:f4|77
1621838596|4d:78:2d:d9:d2:44|74
1621837386|4d:85:1b:77:33:96|65
1621852089|4d:85:f8:c4:8f:b6|76
1621858552|4d:cc:85:36:7d:b3|73
1621841572|4d:db:01:d7:c9:35|81
1621945465|4d:dd:a1:8f:41:1c|78
1621836911|4f:11:bb:2c:d0:a3|64
1621854765|4f:14:79:fa:26:1c|70
1621850894|4f:1d:6b:2d:99:8a|81
1621855798|4f:2d:36:05:48:c4|69
1622024832|4f:3b:68:cc:1b:bc|92
1621925217|4f:45:af:a3:68:e2|76
1621847420|4f:72:43:79:26:b1|78
1622030630|4f:7c:a0:d5:e0:e9|70
1622016350|4f:fb:97:6d:7e:7b|63
1621942091|50:02:7f:34:c6:58|81
1621941683|50:05:22:69:da:94|72
1622012444|50:2f:9b:79:b6:5c|88
1621860731|50:3d:c6:c1:6f:9a|80
1622023529|50:7a:55:6a:4c:08|67
1621836473|50:82:d5:78:f0:22|83
1621936975|50:8f:79:52:ca:af|70
1621948820|50:9a:51:14:1d:e8|73
1621845718|50:ad:a0:26:34:f1|76
1622013556|50:bf:52:8d:ef:eb|70
1621922595|50:eb:71:1f:71:01|85
1622033607|50:eb:71:9b:04:dd|80
1621942582|50:eb:71:9b:04:dd|80
1621860204|50:eb:71:9b:04:dd|85
1622030698|50:ed:3c:2c:57:cc|80
1622020368|50:ed:3c:48:74:1d|80
1621924262|50:ed:3c:48:74:1d|81
1621930378|51:1e:a1:5a:9d:15|82
1621923338|51:25:07:69:81:68|72
1621837997|51:27:4b:c2:73:06|83
1622036623|51:30:56:8a:a1:96|81
1621929372|51:6c:1f:8c:0a:40|79
1621838602|51:dd:99:35:85:86|74
1621841518|53:15:de:b8:41:f1|73
1621945686|53:21:09:2c:14:ad|71
1621837192|53:80:d3:38:97:89|77
1621837050|53:9d:86:d0:b3:d9|71
1622029316|53:a5:ce:59:e1:ed|80
1622018905|53:ca:c6:7f:9a:44|69
1621851072|53:ce:ab:1f:55:bf|63
1621840599|53:d2:e5:fa:01:37|74
1621839037|53:fe:17:8b:3b:eb|78
1621928413|54:09:10:b6:a8:39|83
1621927786|54:15:50:16:1c:50|85
1622033277|54:40:ad:4f:b0:aa|89
1621925283|54:40:ad:4f:b0:aa|82
1621836876|54:50:19:fa:14:d4|69
1622030633|54:51:96:6a:cf:46|76
1622017323|54:7c:b5:29:bc:8e|76
1621937261|54:8d:5a:c5:96:d5|77
1621937122|54:8d:5a:c5:96:d6|75
1621856569|54:8d:5a:cb:de:2d|87
1622014972|54:8d:5a:cb:de:2d|87
1622014913|54:8d:5a:cb:de:2e|83
1621945921|54:9f:21:46:70:5d|70
1622035995|54:ae:27:2a:72:0c|83
1622019207|54:b8:02:02:df:ea|84
1621848007|54:b8:02:06:2d:0f|74
1621857898|54:ec:fb:1f:80:71|74
1621840951|54:f4:d8:1d:98:f3|87
1621928427|54:fc:f0:9b:2d:2f|86
1621840397|55:1a:ca:6e:6f:7e|86
1621928339|55:33:1d:a4:07:28|82
1621945869|55:58:a9:99:5b:f4|76
1622013571|55:61:37:ef:b0:9e|73
1622020563|55:bb:8b:ca:29:30|87
1621851060|57:3a:ad:33:56:ea|88
1621935297|57:4e:1d:57:bf:7a|72
1621842571|57:5b:dd:a7:2b:4e|81
1621840120|57:a3:86:34:ff:9f|69
1621847879|57:bf:ea:ef:1d:90|76
1621848048|57:c2:bb:f7:9a:9d|79
1621928992|57:c9:3d:aa:65:81|84
1621845453|58:00:e3:ef:c0:a1|91
1622036961|58:04:54:43:17:68|92
1621954384|58:04:54:43:17:68|89
1621864799|58:04:54:43:17:68|91
1621951889|58:20:59:6e:f4:71|91
1621852638|58:20:59:6e:f4:71|77
1622021151|58:40:4e:49:df:87|76
1621927055|58:56:ae:a1:31:5a|86
1621927850|58:63:a2:49:f5:fb|73
1621856869|58:85:e9:ae:82:a3|84
1622025274|58:90:62:b4:d5:ab|71
1621862587|58:a0:23:ed:af:94|91
1621860635|58:a0:23:ed:af:fd|94
1621852233|58:a2:5b:e3:47:7b|79
1621945418|58:fb:84:02:5b:84|74
1622029156|59:1e:41:a2:d9:f7|80
1621935380|59:1f:77:56:64:5c|68
1621945476|59:93:3d:e6:91:ff|68
1621938947|59:a7:4b:ba:2a:d4|76
1621949733|59:bb:8e:88:eb:55|79
1622016238|59:c2:89:b1:97:d9|70
1621941855|59:f4:ec:5a:e9:a4|79
1622013125|5b:0c:e0:55:b4:3e|70
1621839699|5b:0d:9f:a4:16:43|79
1622014490|5b:5d:66:70:8c:ea|81
1621928656|5b:d3:e2:17:21:7b|81
1622017989|5c:0a:d8:23:83:d8|86
1621850869|5c:16:a7:ab:d9:ac|72
1622020356|5c:18:41:d3:48:bb|64
1622036895|5c:1c:b9:e1:96:ad|85
1621837508|5c:1f:2c:b5:5c:2d|77
1621843793|5c:2e:59:cd:eb:27|76
1621931637|5c:2e:a8:d6:d7:85|80
1621850691|5c:47:8d:17:60:a6|79
1622018980|5c:51:81:aa:c2:bd|84
1621849359|5c:5f:67:89:19:67|71
1621859282|5c:66:6c:15:eb:bf|65
1621838880|5c:7b:d4:2a:02:68|70
1621854905|5c:86:d3:ac:c1:49|79
1622013088|5c:87:9c:c6:6c:a9|84
1621854959|5c:87:9c:c6:6c:a9|78
1622009949|5c:87:9c:cb:5c:a5|82
1621860819|5c:9c:6d:da:9f:2c|74
1621845605|5c:9c:a5:ad:ac:67|70
1621838297|5c:ba:ef:f6:8b:49|77
1621922651|5c:c5:d4:b2:7b:72|84
1621922598|5c:c5:d4:e0:7a:95|79
1621940243|5c:ea:1d:90:12:d5|63
1622013445|5c:ea:1d:90:12:d5|66
1621847054|5c:ea:1d:90:12:d5|58
1621855712|5d:40:55:cf:ca:df|76
1621927483|5d:48:0a:87:fa:37|76
1621860493|5d:4b:7d:75:4c:24|80
1621840263|5d:53:94:da:92:6c|84
1621924772|5d:5c:91:8b:1a:6c|75
1621850707|5d:90:21:72:9b:79|70
1621856928|5d:be:76:1b:8d:53|70
1621930596|5d:c9:af:eb:91:0b|74
1621838569|5d:e6:d7:5d:a9:cf|72
1621924238|5f:30:31:37:47:8d|78
1621857894|5f:49:41:9b:2a:a8|75
1621837657|5f:64:9c:4f:ce:09|86
1621843939|5f:71:64:3b:90:f3|67
1621850735|5f:b5:58:f8:a6:fa|70
1621939562|5f:dc:0c:d9:ba:7a|72
1621927013|5f:fb:94:38:ca:28|86
1622023174|60:1d:91:fc:07:38|89
1621947871|60:1d:91:fc:07:38|84
1621861268|60:1d:91:fc:07:38|82
1621934657|60:21:01:8e:5e:c1|77
1621934700|60:23:a4:df:d8:d0|81
1621934700|60:23:a4:df:d8:f4|69
1621836986|60:23:a4:df:d8:f4|75
1621842468|60:38:66:d0:4a:a5|91
1621844680|60:67:20:31:6a:94|87
1621845537|60:91:0b:40:58:cb|70
1622013150|60:9d:b0:9a:8c:5b|69
1622018572|60:a1:f8:72:cf:c9|81
1621953379|60:ab:14:fe:e6:14|90
1622024185|60:ab:14:fe:e6:14|84
1621852270|60:ab:14:fe:e6:14|84
1622017066|60:af:6d:bd:f9:85|72
1622015598|60:f1:89:47:1a:46|64
1621951045|60:f1:89:47:1a:46|80
1621849372|60:f1:89:7b:53:56|85
1621852412|60:f1:89:99:d3:e6|67
1621923831|60:f2:62:1c:af:a2|82
1621840197|60:f2:62:1c:af:a2|84
1622028225|60:f2:62:1c:af:a3|83
1621849292|60:f2:62:1c:af:a3|81
1622025256|60:f2:62:dc:93:e9|78
1622028914|60:f2:62:dc:9d:30|77
1622010931|60:f6:77:ce:29:a8|67
1621838531|60:f6:77:ce:29:a8|67
1621929658|61:3b:2d:a6:f3:bc|68
1622016753|61:3b:6e:f3:5a:ce|74
1621941773|61:58:63:da:dd:a3|76
1621855764|61:5b:34:57:33:df|79
1621925598|61:7b:d1:8f:fe:2a|80
1621854093|61:86:c7:d8:0a:e0|77
1621947655|61:a1:a9:5e:ef:42|70
1621946050|61:ae:90:e9:1e:10|61
1621848778|61:cd:ee:1f:bd:16|73
1622032218|61:ce:d7:be:ca:14|67
1622036071|61:ea:07:05:25:49|80
1621930358|63:14:4f:59:f4:98|69
1621837641|63:3c:9c:8c:59:01|83
1621850883|63:40:60:cf:8d:8e|61
1621857321|63:46:a0:9e:46:98|75
1621861230|63:50:7e:58:da:d1|78
1621938449|63:7a:ca:e4:00:f6|62
1621947693|63:8c:3e:a7:ad:ac|72
1621859034|63:b1:4a:38:c3:a2|80
1621852076|63:cf:15:bc:b6:d0|75
1621851492|64:09:cb:5f:52:9b|76
1621851973|64:1d:00:e0:57:33|66
1621927537|64:1d:2c:5b:2d:e3|72
1622013238|64:5d:86:ac:f5:da|72
1621935751|64:5d:86:ac:f5:da|77
1621944779|64:6c:80:2b:09:1f|80
1621936235|64:70:33:9d:15:13|91
1621927980|64:76:ba:d5:3a:32|80
1621840979|64:c7:53:de:88:90|66
1621932640|65:6e:22:c4:6e:52|80
1621840512|65:bb:eb:9c:17:89|80
1621924421|65:be:a8:f8:b8:ed|72
1621860815|65:dc:75:30:fe:b6|66
1621932369|67:03:55:7b:db:4f|83
1621934230|67:2a:38:4c:f5:62|75
1621853430|67:35:de:fe:d8:db|85
1621935546|67:45:05:bb:8d:29|72
1621840551|67:53:b8:3c:ae:b1|74
1621936985|67:b6:30:fb:7c:8d|67
1621923350|67:bf:5e:af:ef:8b|74
1621932646|68:0c:5a:31:7f:73|82
1621853589|68:17:29:0d:95:e4|77
1622036139|68:1d:fa:e3:a2:d4|88
1621946704|68:22:49:1e:d9:60|83
1622020515|68:27:37:8d:c9:21|70
1622011460|68:54:5a:6e:b0:db|76
1622017590|68:54:5a:6e:b0:dc|81
1621838009|68:54:5a:6e:b0:dc|81
1621935749|68:70:45:0e:71:64|73
1622015667|68:71:44:71:d8:4c|73
1621948613|68:a0:a1:3b:40:f5|78
1621836916|68:bf:2e:07:27:9e|73
1622020338|68:db:f5:d4:61:f3|67
1622027949|68:e7:c2:24:de:ef|87
1622008967|68:e7:c2:ef:d6:d1|85
1621929535|68:e7:c2:ef:d6:d1|85
1621838122|68:e7:c2:ef:d6:d1|91
1621939838|68:ec:c5:55:ea:47|90
1622024462|69:14:a5:94:49:bd|73
1621942424|69:2a:8f:9b:c3:94|76
1622010650|69:36:c2:22:c4:b3|75
1622027540|69:3d:49:9c:14:f2|80
1621949246|69:6d:74:93:78:cc|74
1621843942|69:a6:fe:c2:0d:19|65
1622018347|69:b7:2f:1e:e3:07|72
1621840100|69:d2:11:96:83:ac|63
1621949270|69:d2:ee:9f:94:08|84
1622013143|69:e9:57:fe:c6:7b|65
1621950841|69:f1:f7:e8:7b:bd|86
1621935414|69:f4:47:65:1a:a6|65
1622013835|6b:34:0a:af:fd:fc|69
1621841016|6b:42:f3:55:f2:aa|89
1621856441|6b:73:48:fa:c1:aa|73
1622018025|6b:ae:bd:c6:7e:04|73
1621931101|6b:b0:5d:a3:f3:a7|74
1622018558|6b:e7:fd:4b:30:48|73
1621862181|6c:2a:bc:42:07:6f|86
1621927660|6c:41:b0:e2:88:18|72
1622013551|6c:4b:c3:ac:01:f7|65
1621938651|6c:4c:12:dd:b2:de|69
1622020805|6c:4d:73:a6:bc:3e|77
1621950415|6c:5c:14:20:fd:92|82
1621838336|6c:68:38:ac:ec:2b|77
1621849069|6c:c4:d5:57:ee:0a|85
1621837270|6c:c7:ec:13:a2:7c|87
1621948031|6c:c7:ec:1b:25:39|70
1622020367|6c:c7:ec:1b:25:39|71
1621934687|6c:c7:ec:2f:66:92|72
1621841873|6c:c7:ec:47:04:f0|73
1621929524|6c:c7:ec:6a:7c:e3|83
1621842371|6c:c7:ec:6a:7c:e3|73
1622008975|6c:c7:ec:7b:fb:b1|84
1621838793|6c:c7:ec:7b:fb:b1|89
1621922792|6c:c7:ec:95:56:a5|84
1622009937|6c:c7:ec:9c:24:73|86
1621950228|6c:c7:ec:9e:9c:b1|80
1621862440|6c:c7:ec:b7:6b:82|82
1622028809|6c:c7:ec:c3:58:0a|90
1622020219|6c:c7:ec:d0:dd:39|83
1621924458|6c:c7:ec:d9:eb:c7|93
1622035925|6c:c7:ec:d9:eb:c7|82
1621935807|6c:de:0d:1f:ca:07|75
1622011960|6d:3c:e3:36:c8:c9|65
1621948500|6d:43:9b:1f:44:79|73
1621858501|6d:a3:c8:59:fb:ac|82
1621927663|6d:f2:3e:7d:68:cf|66
1621934828|6f:2b:eb:c6:00:71|71
1621842170|6f:5d:8c:95:76:53|83
1621946490|6f:88:23:df:3a:22|72
1622036087|6f:93:d1:2b:82:ba|75
1621925352|6f:b9:5a:78:66:5f|77
1621841612|6f:f9:66:ec:67:83|71
1622008804|70:03:9f:01:40:fe|82
1621926370|70:3a:51:31:43:10|87
1621837271|70:3e:95:ee:f7:de|58
1621944609|70:4f:a2:0f:78:07|70
1621927741|70:5a:ac:20:df:c7|85
1621928749|70:5a:ac:f0:f6:28|82
1621842331|70:5a:ac:f0:f6:28|80
1621848322|70:6e:c6:49:db:00|71
1621925722|70:9c:d1:12:b5:e2|88
1621925183|70:b7:aa:9f:30:db|83
1622013637|70:bb:e9:cd:22:99|85
1622030316|70:bc:10:73:00:91|82
1621935428|70:bc:10:73:00:91|67
1621836520|70:c2:a1:59:74:69|71
1621863893|70:c9:4e:6e:e5:71|63
1622012903|70:ed:0a:eb:47:c6|91
1621850791|71:03:03:30:28:43|67
1622013869|71:2d:a8:99:ec:71|70
1621927984|71:7f:2d:e3:e7:3d|68
1621941412|71:a2:43:3e:71:b1|89
1621927044|73:06:06:61:95:82|78
1621836724|73:31:d5:3c:d9:fb|81
1622013531|73:34:c2:fd:fa:ed|75
1621849210|73:3f:83:09:b6:43|83
1621851779|73:7a:67:ef:c4:c8|71
1621861429|73:88:09:b8:16:34|75
1621924548|73:8b:34:03:ee:5e|84
1621839652|73:ea:2a:a7:64:f7|81
1621852038|74:34:35:2e:f3:7c|70
1621935391|74:6b:f0:1d:ed:43|75
1621860726|74:70:fd:a6:ca:ed|86
1622008804|74:70:fd:a6:ca:ed|91
1622013275|74:70:fd:a6:d8:3a|78
1621842717|74:8a:28:12:ca:cc|82
1621857292|74:c1:4f:25:13:8b|80
1621844509|74:c1:4f:c8:e7:d7|84
1622034553|74:c1:7d:8a:27:bb|75
1621923046|74:d8:3e:9e:5b:d8|75
1622009316|74:d8:3e:9e:5b:d8|86
1621850378|74:d8:3e:9e:5b:d8|74
1622019207|74:d8:3e:fe:c1:21|76
1622014218|74:d8:3e:ff:41:a5|75
1621936479|74:df:bf:48:3b:01|68
1621933731|74:eb:80:c8:60:bc|76
1621866877|74:eb:80:c8:60:bc|87
1621922541|74:eb:80:f8:50:48|76
1621843264|74:eb:80:f8:50:48|74
1621937714|74:ed:92:90:04:7f|71
1622027949|75:07:6a:84:0b:90|70
1621837101|75:1b:88:75:7d:07|77
1621935369|75:d8:64:74:fd:c4|68
1621935670|75:f0:ce:8d:bb:33|72
1621850961|75:f2:42:9e:4d:73|90
1621939239|77:40:c0:21:f5:5c|74
1621850908|77:74:50:70:5f:56|73
1621925605|77:c9:67:cb:b9:fb|84
1621934844|77:d6:47:2c:8d:ab|68
1622024106|77:da:a9:96:a4:96|73
1622012368|77:e8:c4:67:02:f9|86
1621856565|78:05:6b:46:b2:48|78
1622018996|78:2c:6d:11:ec:5f|68
1622018509|78:2d:47:cf:16:22|83
1622036030|78:34:7f:fb:fc:c3|80
1622034988|78:3a:6c:31:32:a5|82
1622017536|78:3a:6c:a0:1b:a1|83
1621922480|78:4b:87:da:53:bb|88
1621850523|78:4b:87:da:53:bb|91
1621845744|78:4f:43:38:11:e5|75
1621837944|78:4f:43:7b:f4:81|81
1622017752|78:4f:43:85:e8:b3|87
1621838555|78:51:0c:00:97:9f|81
1622024498|78:62:32:b7:71:79|71
1622022850|78:64:c0:d7:8f:dd|75
1621937002|78:7b:68:f8:d7:13|71
1621851064|78:84:4b:ea:23:00|77
1621851581|78:88:6d:5c:3f:98|86
1621941940|78:8e:1f:85:34:96|87
1621851004|78:9b:15:ea:44:44|84
1621922520|78:a3:88:7c:33:9e|86
1621845402|78:a4:a2:09:97:bc|67
1621850952|78:ad:0f:b5:69:53|73
1622014214|78:c3:e9:59:e2:18|68
1621848060|78:dd:d9:83:98:7d|89
1621836568|78:e8:b6:6c:ad:45|64
1621838867|78:ea:71:b4:93:1f|68
1621948848|79:3b:f1:69:90:e9|71
1621945501|79:46:ad:62:4d:5e|69
1621923697|79:5c:54:34:80:f6|85
1621939222|79:d3:a4:ed:92:ac|77
1621836625|79:d3:d5:d5:2b:ed|66
1621855598|79:f0:a7:18:43:85|76
1621860960|7b:5d:c0:86:69:e3|73
1621851289|7b:b2:cf:c8:37:3d|58
1621840027|7c:03:ab:4b:b5:1a|72
1621838572|7c:06:9e:bb:79:05|69
1621946628|7c:0b:ed:55:c1:90|81
1621838242|7c:16:55:c5:57:d9|59
1621867804|7c:1c:68:4f:3b:48|87
1621845984|7c:23:02:28:3b:8c|86
1621842118|7c:23:02:38:90:f2|73
1621928532|7c:23:02:e9:66:ce|77
1621926848|7c:23:02:f0:84:9c|72
1621836976|7c:2e:dd:9f:87:57|79
1621924293|7c:46:85:5d:a8:7a|86
1622036027|7c:46:85:5f:52:5c|89
1621848072|7c:52:0e:b1:2d:d7|80
1621836705|7c:58:5d:0d:24:94|75
1622035261|7c:67:a2:8e:07:97|92
1621923651|7c:67:a2:8e:07:97|89
1621925292|7c:76:35:7c:a9:07|87
1622019107|7c:76:35:7c:b3:2a|87
1621841999|7c:76:68:79:8c:a5|73
1621840153|7c:76:68:f0:4d:f7|73
1622036766|7c:78:7e:de:2a:12|88
1621846028|7c:89:56:cd:4f:1c|81
1622014540|7c:a1:77:29:f7:9c|67
1621847177|7c:a1:77:29:f7:9c|72
1622013235|7c:b5:31:24:f1:e7|81
1622013201|7c:cc:a7:1f:76:cc|72
1621954055|7c:d6:61:ca:d8:95|83
1621867721|7c:d6:61:ca:d8:95|83
1621945877|7c:f9:3f:5e:70:1f|65
1622008962|7c:fd:6b:55:58:df|83
1621854197|7d:09:08:de:81:15|76
1621935648|7d:62:b0:2f:a8:30|73
1622013393|7d:66:6d:d3:d0:08|71
1621851791|7d:ac:e7:1c:d5:83|68
1621928083|7d:ae:5c:f3:e5:e6|72
1621924409|7d:d4:08:47:89:f5|69
1621927012|7d:e0:c9:f4:80:3b|73
1621937851|7d:e2:c1:45:08:d1|74
1621840773|7f:02:d5:9d:dd:c9|65
1621836584|7f:0f:cd:de:0a:40|68
1622025487|7f:43:fd:0a:e8:c2|68
1621843755|7f:64:f6:11:f4:6b|74
1622018983|7f:8a:d3:e1:a7:cb|75
1621850487|7f:a7:fe:f1:f8:22|72
1621841637|7f:c2:c1:02:c8:9f|67
1621928279|7f:c9:26:f5:21:de|83
1621928081|80:01:84:3f:fd:39|86
1621850911|80:1a:7c:88:ae:dd|73
1621844761|80:21:e2:87:ea:58|89
1621933978|80:22:57:69:e8:63|76
1622009312|80:35:c1:cf:2b:90|89
1621945506|80:38:96:79:e5:55|65
1621951663|80:4e:70:6c:6f:ea|78
1622021305|80:4e:70:e9:52:f2|82
1622009726|80:4e:70:fd:17:d8|79
1621922418|80:4e:70:fd:17:d8|66
1621929571|80:65:6d:75:b5:3a|85
1622030129|80:66:25:d7:34:3e|76
1621951700|80:7a:bf:a1:9c:08|84
1621865396|80:7a:bf:a1:9c:08|86
1622037552|80:8a:8b:4a:8a:01|90
1621855730|80:ac:4c:54:21:11|72
1622037550|80:ad:16:ae:38:12|88
1622031229|80:ad:16:b9:17:2e|88
1621953468|80:ad:16:b9:17:2e|92
1621927612|80:b0:3d:a5:57:b5|79
1621848156|80:b0:3d:a5:57:b5|81
1621936765|80:bc:4f:db:07:41|70
1621925395|80:be:05:5e:ca:8c|84
1621854156|80:be:05:5e:ca:8c|78
1622030715|80:ce:b9:07:75:68|82
1622017871|80:ce:b9:1a:b9:1a|67
1621843474|80:ce:b9:1a:b9:1a|68
1622015019|80:ce:b9:27:c5:d2|85
1621855960|80:ce:b9:34:74:56|69
1621926461|80:ce:b9:c3:b8:65|71
1622010106|80:ce:b9:c3:b8:65|56
1621836508|80:ce:b9:c3:b8:65|67
1621933917|80:ce:b9:d5:f7:95|77
1622019162|80:ce:b9:d5:f7:95|72
1621864915|80:ce:b9:d5:f7:95|84
1622009731|80:ec:38:09:a4:eb|71
1621930804|80:ed:2c:e2:f2:60|88
1621929280|80:fc:6e:6c:8a:1c|78
1621934819|81:36:9a:e1:d4:11|66
1621839675|81:3d:60:3f:52:ca|84
1621841731|81:3d:70:3d:46:88|79
1621836228|81:7c:c3:ce:42:5d|78
1622017343|81:cd:be:ca:2d:53|86
1621942420|81:db:b9:58:f1:cd|69
1621947931|83:53:08:ee:28:7b|75
1621927131|83:71:18:77:5d:af|83
1621859581|83:7a:c8:d8:d6:d4|80
1621839903|83:8b:3b:f5:74:9b|71
1621923055|83:a0:c5:9a:1c:db|87
1621926790|83:ce:33:f1:6a:30|85
1621929124|83:f1:00:5b:62:ed|83
1622008909|84:1b:77:f3:6c:6d|84
1621922424|84:1b:77:f3:6c:6d|81
1622021709|84:1b:77:f4:e8:31|83
1621923570|84:1b:77:fd:b2:95|71
1621852477|84:26:db:e1:30:60|75
1622021741|84:2e:27:37:89:04|76
1621944335|84:2e:27:37:89:04|73
1622010325|84:2e:27:a4:77:39|82
1621841722|84:66:5d:c1:1c:f5|77
1621929216|84:76:f9:9e:4b:05|66
1621948582|84:8c:3c:e4:27:80|78
1621931824|84:98:66:75:42:3d|86
1621861060|84:9f:b5:74:0d:5e|89
1621949944|84:ab:1a:b3:bb:92|86
1621935724|84:ab:1a:c4:59:74|80
1621861253|84:ab:1a:c4:59:74|88
1622016017|84:ab:1a:c8:d5:38|71
1621838584|84:af:03:a5:e1:e0|65
1621932016|84:b1:eb:d2:88:79|71
1622037828|84:b8:b8:9e:23:8c|59
1621861217|84:bb:b1:43:62:fb|75
1622019312|84:c5:a6:fb:2b:f6|84
1621928666|84:c7:ea:e9:fe:c0|81
1622037552|84:d1:5a:9a:d8:84|84
1621839882|85:03:fe:d9:78:bf|72
1622025145|85:2c:9b:ef:ad:93|72
1621925707|85:84:a8:31:12:98|74
1621837832|85:a0:02:20:54:4e|73
1621844439|85:ab:d9:98:8c:9d|81
1622011708|85:ae:5c:0b:8c:69|68
1621840953|87:02:5c:b1:3e:6b|72
1621950095|87:6a:d1:bb:85:76|78
1622016763|87:8b:85:29:d7:f9|68
1622029511|87:a6:6a:ca:89:ec|84
1621934668|87:bb:9d:d5:6b:b5|68
1621923262|87:d3:e7:cf:03:31|70
1621932319|87:d5:7b:aa:55:14|74
1621840818|88:06:46:1f:e1:36|75
1622033042|88:07:4b:e7:cf:33|73
1621950601|88:10:8f:97:53:63|89
1621858360|88:10:8f:97:53:63|77
1621836166|88:10:8f:d4:f2:8e|83
1621937873|88:27:fe:ef:2a:ae|67
1621839166|88:38:b2:ed:ac:30|75
1621854572|88:3f:67:46:b3:25|78
1622034939|88:40:3b:2b:c1:4b|69
1621856964|88:40:3b:2b:c1:4b|71
1622011576|88:53:95:0f:37:0f|80
1621942547|88:5f:e8:71:02:5b|81
1621934988|88:6b:6e:0e:60:7d|73
1622028210|88:81:60:7b:77:14|88
1621923513|88:83:22:2d:7d:2f|69
1622014319|88:83:22:2d:7d:2f|76
1622009007|88:83:5d:96:cd:b0|90
1621938983|88:9f:6f:85:f1:10|86
1622017701|88:9f:6f:8a:4f:1e|81
1621949179|88:a2:47:af:f6:6a|86
1622028213|88:ad:c9:0e:21:03|72
1621922502|88:b1:11:2a:a0:53|85
1621845587|88:b1:11:2a:a0:53|84
1621922631|88:b1:11:2a:a0:54|89
1621856941|88:b1:11:2a:a0:54|88
1621925162|88:b1:11:d8:e8:bb|85
1622012916|88:b4:a6:03:0e:c2|85
1622012860|88:b4:a6:07:12:c6|86
1621839208|88:b4:a6:11:1c:d0|87
1621837218|88:b4:a6:18:b7:34|88
1621844048|88:b4:a6:19:24:d8|88
1622012961|88:b4:a6:1f:f3:70|87
1621941748|88:b4:a6:27:51:54|88
1622012269|88:b4:a6:3c:47:c4|86
1621838767|88:b4:a6:3f:4a:fe|90
1622013002|88:b4:a6:40:82:36|86
1621837820|88:b4:a6:50:b8:6c|88
1622012164|88:b4:a6:51:93:47|89
1621923267|88:b4:a6:53:df:93|85
1622013209|88:b4:a6:58:63:17|88
1622012952|88:b4:a6:59:64:18|85
1621932559|88:b4:a6:5a:65:19|88
1622012118|88:b4:a6:77:a8:5c|90
1622013266|88:b4:a6:79:bb:38|88
1622013115|88:b4:a6:9c:04:b8|87
1621836981|88:b4:a6:9f:aa:5e|92
1621842331|88:b4:a6:a0:e2:96|86
1621842590|88:b4:a6:a4:c2:76|87
1621933382|88:b4:a6:a8:10:c4|86
1621931649|88:b4:a6:bd:c8:7c|89
1621841353|88:b4:a6:bd:c8:7c|86
1622013143|88:b4:a6:be:c9:7d|87
1621843468|88:b4:a6:d9:e4:98|88
1621838909|88:b4:a6:e6:bc:70|91
1622013021|88:b4:a6:e8:50:04|87
1622032173|88:d2:e3:ad:c1:4d|72
1621866640|88:e9:fe:84:75:85|92
1621836919|88:ec:82:6e:c5:c0|76
1621836654|89:0f:8b:08:bd:b9|82
1621935310|89:1b:cc:d5:fb:a8|68
1621839736|89:1c:40:8d:7d:55|84
1621930330|89:22:12:45:6f:f7|64
1621854449|89:82:3b:8f:56:a9|70
1621923190|89:93:c0:ad:41:ab|79
1621851132|89:b7:72:4e:41:25|69
1621945637|8b:0a:cb:73:25:59|81
1621937763|8b:0d:11:33:72:12|79
1621840022|8b:5e:76:01:11:c9|73
1621854140|8b:62:01:b5:91:de|67
1622029191|8b:ae:c1:7d:df:28|71
1621850716|8b:c2:2f:25:3d:b4|75
1621935651|8b:ca:1e:20:10:df|67
1622032980|8c:1a:bf:a3:89:76|78
1622036565|8c:25:05:4a:7c:0b|88
1621851501|8c:42:cf:1d:4e:14|64
1621840943|8c:45:00:15:f4:b0|72
1621951847|8c:45:00:a5:d0:51|85
1621865812|8c:45:00:a5:d0:51|89
1621939955|8c:45:00:a6:14:bc|87
1621865377|8c:45:00:a6:14:bc|89
1621836676|8c:52:d6:33:33:e7|88
1621839759|8c:69:e3:a4:01:57|76
1621923163|8c:79:f5:0e:e4:f6|81
1621850550|8c:7b:cf:a3:92:cb|85
1621860747|8c:85:90:0f:e9:0e|84
1621929229|8c:85:90:75:1d:84|90
1621845539|8c:85:90:82:46:a4|94
1621929114|8c:85:90:86:b9:e0|71
1622021519|8c:b8:4a:06:98:1a|79
1621857767|8c:b8:4a:06:98:1a|78
1621843709|8c:b8:4a:57:49:fa|73
1622013080|8c:b8:4a:8a:21:cd|70
1621854584|8c:c6:71:cf:3f:c1|76
1621846454|8c:c6:81:1a:f3:5b|76
1621943954|8c:c6:81:6f:e4:42|75
1622019552|8c:c6:81:6f:e4:42|75
1621843928|8c:cb:fb:bc:c4:71|68
1622036060|8c:eb:c6:b3:94:55|86
1621864327|8c:eb:c6:b3:94:55|74
1621946410|8c:ee:93:74:13:1d|77
1621940391|8c:f5:a3:05:e2:47|80
1621850373|8c:f5:a3:05:e2:47|91
1621850164|8c:f5:a3:66:8f:b4|84
1621930247|8c:f5:a3:b8:22:04|63
1621932524|8c:f5:a3:d7:cc:2d|85
1621951007|8d:0f:77:c2:41:b6|80
1621950221|8d:36:07:86:cd:99|80
1621935852|8d:3c:66:5e:96:64|71
1621948619|8d:4b:df:9b:44:bc|75
1621930525|8d:9c:08:af:8c:d6|78
1621949810|8d:9e:b2:ed:7e:01|76
1621945497|8d:a0:f3:48:9d:45|81
1621939289|8d:a2:cd:4b:ae:a1|78
1621932470|8d:b6:60:b0:62:42|78
1621929402|8d:c0:f7:9a:f0:0e|65
1621837219|8d:d8:76:34:c6:09|72
1621942955|8f:1c:98:bf:f4:40|73
1621841497|8f:4f:9b:02:d5:e5|71
1621941819|8f:56:1f:3b:7b:40|66
1621852982|8f:6a:20:2a:65:2d|80
1621936785|8f:73:fa:7e:d4:e7|66
1621946449|8f:91:7b:b0:24:ee|68
1621839505|8f:97:23:f5:55:a9|75
1621860872|8f:a7:ed:a0:90:3d|84
1621841828|8f:d3:8a:44:7b:9b|81
1622019762|90:17:c8:0f:97:99|74
1621931595|90:17:c8:0f:97:99|72
1621844519|90:17:c8:0f:97:99|74
1622029514|90:18:2e:1a:99:24|80
1622022457|90:18:6d:76:ec:af|78
1622023509|90:23:9c:8c:89:b4|83
1621847572|90:27:31:bf:96:98|87
1621846302|90:29:72:5e:84:c3|77
1622027270|90:32:4b:78:24:79|72
1621858226|90:32:4b:78:24:79|66
1622036005|90:61:ae:49:fa:8e|90
1621850776|90:77:2d:5d:46:b3|77
1621932848|90:78:41:9c:91:90|61
1621854569|90:97:f3:92:c0:b6|83
1622033024|90:b2:1f:c1:c7:6c|79
1622023245|90:b6:86:fe:db:11|69
1621862057|90:cc:df:c0:c1:9b|86
1621854549|90:e1:88:a4:4d:36|81
1621842177|90:e7:c4:8a:05:c2|81
1622034809|90:f1:aa:f5:2e:f5|94
1621934816|91:00:e9:91:53:66|70
1621937158|91:17:e3:37:c9:0d|76
1621850738|91:1b:d4:cb:af:de|69
1621926985|91:5b:04:7f:01:20|75
1621927134|91:6e:21:34:04:30|82
1621841808|91:83:d0:d1:78:e5|74
1622019504|91:a3:da:f6:29:33|83
1621848928|91:b5:c4:23:fc:71|80
1621934876|91:e5:64:f1:1d:ee|81
1621852993|93:11:cd:5a:12:43|71
1621861655|93:13:1f:5e:36:58|71
1621949082|93:43:9b:9c:14:d2|74
1622028285|93:6a:f9:98:ef:bb|79
1621946854|93:b1:d0:5a:23:0e|73
1621840438|93:bb:fd:57:fe:13|78
1621927622|93:e4:97:a3:ef:e6|78
1622033748|94:0e:6b:f0:ee:7c|83
1621932666|94:2d:dc:7d:a3:40|64
1621837205|94:31:4d:6f:61:bf|76
1621950320|94:3a:76:56:99:b0|82
1621849911|94:44:4a:34:59:e9|77
1621924922|94:65:2d:3f:ef:09|80
1621849084|94:65:2d:3f:ef:09|84
1621836967|94:65:2d:d0:cc:ac|86
1621931898|94:65:2d:dc:ac:48|67
1622029822|94:65:2d:dc:ac:48|84
1621858493|94:65:2d:dc:ac:48|84
1622012831|94:65:9c:66:64:df|69
1622026160|94:76:b7:01:d4:81|74
1622017987|94:7b:e7:71:55:ad|83
1621953111|94:7e:84:05:0e:e0|86
1621946065|94:86:c9:02:e4:04|89
1622013653|94:8b:69:7b:a1:95|71
1621927174|94:9b:67:dc:6e:78|73
1622029020|94:b1:0a:d0:e1:56|86
1621840354|94:b1:0a:d0:e1:56|64
1621928090|94:b5:dd:b4:c4:2d|75
1621949954|94:b8:6d:91:24:27|91
1622014970|94:bf:2d:d8:c3:d6|81
1622014839|94:bf:2d:d9:86:60|70
1621928721|94:c5:11:ab:2c:ab|73
1621930936|94:d0:ed:02:4c:fb|70
1621923326|94:df:e3:d7:8e:fe|88
1621924477|94:e6:f7:60:ba:ee|86
1621923549|94:e7:0b:af:a6:68|81
1621845849|95:02:85:97:10:a2|74
1621837832|95:23:2a:89:da:ce|78
1621861036|95:42:be:51:6b:41|73
1621946866|97:15:99:7e:73:94|66
1622016087|98:09:cf:64:f4:d2|77
1621936679|98:0d:51:52:c1:f2|84
1622020624|98:0d:51:52:c1:f2|78
1621863224|98:0d:51:52:c1:f2|82
1621837045|98:22:ef:b9:ba:91|83
1621837985|98:2c:bc:01:ea:8c|79
1621932637|98:2c:bc:2f:53:a0|64
1622008906|98:2c:bc:2f:53:a0|70
1621842097|98:2c:bc:2f:53:a0|68
1621925925|98:2c:bc:60:15:5d|85
1622018808|98:3b:8f:0d:da:4b|67
1621931834|98:3b:8f:b5:ad:15|88
1621923698|98:42:f7:98:1b:10|80
1621836615|98:54:1b:a2:7e:ed|69
1622010300|98:54:1b:a2:7e:ed|87
1621928901|98:54:1b:a2:7e:ed|91
1621836119|98:54:1b:a2:7e:ee|75
1622030066|98:54:1b:be:fb:b3|85
1621928207|98:55:45:fc:56:8c|88
1621861028|98:5f:d3:ef:60:c3|64
1621944601|98:65:10:ef:29:c7|71
1621851287|98:6f:60:a6:1b:89|82
1621935033|98:74:da:bf:d8:a6|87
1622033858|98:74:da:c1:4d:d7|82
1621849748|98:74:da:ef:d2:9a|78
1621951885|98:9c:57:10:05:fd|91
1621858091|98:9c:57:8c:2f:d2|68
1622009777|98:a4:e7:25:5a:48|67
1622029298|98:af:65:33:9c:0d|64
1622027618|98:ca:33:db:07:c7|80
1621855709|98:ca:33:db:07:c7|79
1622017806|98:ce:5a:06:6e:42|83
1621845605|98:d2:ce:17:cc:83|69
1621922447|98:dd:ea:d5:7d:a7|78
1622010171|98:dd:ea:d5:7d:a7|78
1622015097|98:e0:d9:32:cb:b8|79
1622014937|98:f1:70:1b:a8:59|79
1621925292|98:f1:70:1b:a8:59|82
1621937264|99:15:80:f8:e5:1a|73
1621943910|99:90:c9:36:5f:ed|71
1621940632|99:cb:98:90:4e:e3|72
1621947061|9b:74:80:64:7f:d4|72
1621861555|9b:85:7b:55:ec:c5|66
1621929738|9b:ac:d8:6f:47:df|79
1622010668|9b:d2:37:dd:4e:bb|76
1621933622|9b:db:72:1c:45:01|79
1621925044|9c:29:76:e3:f8:50|84
1622013904|9c:29:76:e3:f8:51|84
1621928703|9c:29:76:e3:f8:51|82
1621841705|9c:2b:d2:83:d2:89|74
1621935351|9c:2b:d2:83:d2:89|81
1622032221|9c:30:5b:6b:fa:a5|75
1621937956|9c:30:5b:6b:fa:a5|83
1621863948|9c:56:81:fa:b5:07|82
1621845439|9c:6f:bc:92:5e:2f|78
1621938833|9c:a5:13:54:fc:35|68
1621929662|9c:b6:d0:97:1b:9d|87
1621931499|9c:bf:d2:f2:2e:48|64
1621947534|9c:d6:28:09:85:75|79
1621923128|9c:df:fe:66:1f:a1|72
1621932205|9c:f3:87:bd:74:b8|78
1621857432|9c:f3:87:c7:31:92|86
1621940875|9c:f3:87:c7:31:92|83
1622017572|9c:f3:87:c7:31:92|88
1621858871|9c:fc:01:7a:f5:86|80
1621853910|9d:03:f0:48:30:63|80
1621850798|9d:0b:f0:32:25:cf|71
1621841435|9d:18:57:e4:66:a5|75
1621934770|9d:1b:06:10:8f:87|68
1621932110|9d:25:fb:25:13:d5|80
1621924932|9d:46:79:d6:57:69|67
1621849742|9d:4a:35:b0:32:6e|84
1621836925|9d:5c:f0:dc:ec:5e|72
1622024654|9d:89:65:9f:1f:81|78
1622017025|9d:8d:10:59:72:20|77
1622023461|9d:91:39:1c:ce:34|77
1621928396|9d:a6:b1:2e:be:0a|73
1621935742|9d:e5:b7:c4:14:e1|74
1622024750|9f:4d:3c:db:45:5d|78
1621949832|9f:51:08:87:26:43|78
1621947790|9f:57:84:68:8d:d4|76
1621837159|9f:79:f1:f9:c8:28|57
1621838261|9f:ab:e1:47:9b:d7|72
1621850745|9f:b6:23:f1:a3:0d|84
1621933116|9f:bf:32:06:1f:8b|77
1621947940|9f:f8:64:d9:03:5a|76
1622014038|a0:28:ed:05:f7:db|64
1622027839|a0:32:99:25:c4:7b|81
1621926500|a0:33:53:e8:3c:f0|69
1621867867|a0:4c:5b:cb:60:9d|82
1621935419|a0:66:e5:97:34:72|76
1622022312|a0:6f:aa:87:82:8e|83
1621945831|a0:78:17:93:ae:cf|79
1621940865|a0:88:b4:15:4b:ec|70
1621841923|a0:8e:31:86:74:91|74
1621849321|a0:a4:c5:b1:fc:ba|75
1622036217|a0:af:bd:85:d2:1b|88
1621935922|a0:c9:a0:82:b2:1c|75
1621927849|a0:c9:a0:b6:a2:46|75
1621849270|a0:c9:a0:b6:a2:46|65
1621865996|a0:c9:a0:c0:d4:4a|72
1621843008|a0:c9:a0:c6:aa:1b|74
1621837272|a0:cc:2b:c8:75:21|77
1621862573|a0:d3:7a:c0:eb:12|92
1622027247|a0:d8:07:47:10:e7|80
1621863000|a0:d8:07:47:14:1e|76
1621948889|a0:f1:e8:70:ba:4e|73
1621936073|a1:fc:4f:fd:ac:49|66
1621937096|a3:0b:54:e0:c3:ef|74
1621842439|a3:25:21:3c:c3:73|79
1621845375|a3:d2:ae:05:35:2e|67
1622032325|a4:08:ea:5c:06:93|68
1621867429|a4:08:ea:5c:06:93|90
1621939198|a4:28:e3:12:2a:7a|72
1621939828|a4:3f:a2:c0:7f:5d|73
1622012182|a4:45:19:4d:3c:4e|61
1621841070|a4:45:19:4d:3c:4e|70
1621922404|a4:4b:d5:56:46:b3|66
1621836964|a4:4b:d5:bb:e7:87|81
1621837440|a4:55:90:c4:5e:e6|55
1621836492|a4:69:e8:57:ce:7e|71
1621928915|a4:83:e7:3c:42:b3|73
1622011336|a4:83:e7:a4:7e:33|76
1621855799|a4:8d:84:0c:b2:01|73
1621927712|a4:97:76:3b:ab:ee|82
1621841723|a4:9b:4f:25:f1:c9|87
1621938935|a4:9b:4f:e3:b2:98|77
1622017577|a4:9c:9e:18:52:81|83
1621939091|a4:b1:c1:d6:51:cd|79
1622024520|a4:b1:c1:d6:51:cd|79
1621861389|a4:b1:c1:d6:51:cd|78
1621938460|a4:bd:a5:fd:af:40|73
1621859207|a4:c3:f0:c9:2c:cd|67
1622026054|a4:c4:94:45:e4:58|89
1621942600|a4:c4:94:45:e4:58|85
1621953887|a4:c9:39:77:cb:2b|79
1622009313|a4:c9:39:f4:82:bd|93
1621924592|a4:d1:8c:e7:72:e8|67
1621842891|a4:d1:8c:e7:72:e8|84
1622036020|a4:d7:9d:e2:d1:56|79
1621854931|a4:d9:31:d8:79:11|80
1621937208|a4:e4:b8:80:55:71|80
1622029372|a4:e4:b8:80:55:71|67
1621851886|a4:e4:b8:80:55:71|72
1621844787|a4:e4:b8:94:90:67|85
1621924910|a4:e4:b8:ae:6e:b8|79
1621840260|a4:e8:f7:f8:8a:00|77
1621954754|a4:f0:5e:d2:cc:77|70
1622020805|a4:f0:5e:d2:cc:77|91
1621838231|a4:f0:64:98:26:6a|69
1621940513|a5:07:55:99:e9:f7|86
1621852914|a5:29:13:0a:f0:b7|75
1621949689|a5:3e:82:57:72:c3|78
1621850161|a5:7a:cf:86:89:3b|84
1621935398|a5:7d:b4:ee:16:9b|73
1621929629|a5:a5:96:1e:9e:72|65
1621939337|a5:d2:f7:f0:d4:b2|81
1621836964|a7:0c:c9:ef:cf:61|71
1621937332|a7:14:90:93:bb:f6|72
1621837541|a7:18:2f:7b:e8:29|72
1621948486|a7:61:66:8d:5c:cd|69
1621929648|a8:02:06:f1:1a:7e|73
1621934816|a8:1a:3f:79:ee:8e|75
1621852176|a8:31:b1:6e:b5:75|69
1621945880|a8:42:93:8f:1f:1a|68
1621839155|a8:66:7f:64:04:08|77
1621846773|a8:6d:aa:0c:8a:69|89
1621842793|a8:6d:aa:c8:e6:41|78
1621840146|a8:81:7e:89:8b:2f|81
1621927970|a8:81:7e:8f:3c:21|83
1621839613|a8:81:7e:8f:3c:21|70
1621942432|a8:84:fe:fb:59:36|78
1621842935|a8:9c:ed:6d:c8:bd|80
1621847573|a8:9f:ba:bd:95:dc|83
1621950543|a8:db:03:54:b1:1d|83
1621863462|a8:db:03:54:b1:1d|88
1621935301|a9:0f:e8:93:25:0a|84
1621928117|a9:10:49:cd:f9:e1|73
1621947572|a9:42:20:cb:f6:7d|68
1621840497|a9:5c:f5:b8:9f:f5|77
1621837294|a9:76:c6:cf:63:92|65
1621841459|a9:85:9b:81:eb:18|77
1621930245|a9:dc:06:6f:ba:94|80
1621927458|ab:07:5a:a6:78:d0|80
1621923197|ab:33:56:b5:f3:44|85
1621946765|ab:83:a2:44:a6:d4|67
1621850079|ab:aa:9d:09:48:ff|82
1621837312|ab:fc:a9:40:8c:7a|70
1622013761|ac:07:5f:2a:c1:44|67
1621859316|ac:15:f4:d2:c5:f3|86
1622034480|ac:1f:74:4a:83:56|85
1622017739|ac:22:8b:a6:8c:b1|78
1621838580|ac:37:43:ea:25:4b|71
1622031856|ac:57:75:3e:62:5e|93
1621951269|ac:57:75:3e:62:5e|79
1621851707|ac:5f:3e:56:ac:6f|86
1621836995|ac:5f:3e:f4:e0:3f|85
1621948050|ac:92:32:f5:48:dd|86
1621849606|ac:c8:40:93:dc:9f|69
1621942731|ac:d5:64:02:f7:bf|57
1621947645|ac:d7:7b:56:f5:48|79
1621861609|ac:dd:6e:c1:80:a5|71
1622023259|ac:fd:ce:37:75:12|82
1622027887|ad:08:fc:b4:b6:f1|75
1621925202|ad:37:4b:c0:64:5a|78
1621927705|ad:99:4d:ec:d3:3e|76
1621855609|ad:b7:6b:fd:2b:46|66
1621933281|ad:b7:96:f5:38:e8|79
1621924820|ad:c9:9e:7b:70:36|77
1621934924|ad:d6:30:b4:70:e3|65
1621928746|ad:f4:53:bd:7c:05|70
1621937835|ad:f7:99:b6:c9:e6|75
1621851276|af:1e:b0:4b:e8:eb|69
1621850697|af:1e:dc:ec:91:0e|59
1621839878|af:3b:33:9b:2c:f5|69
1621856444|af:c8:3b:23:60:1a|73
1621946703|af:e9:60:75:93:94|72
1622029853|b0:10:08:da:13:1b|81
1621846134|b0:28:3d:ee:97:e5|77
1621944377|b0:35:9f:9d:d0:e1|89
1621940102|b0:35:9f:b9:2b:84|80
1621862277|b0:35:9f:b9:2b:84|86
1621923772|b0:35:b5:e5:7c:80|92
1621854254|b0:35:b5:e5:7c:80|91
1622018366|b0:48:4c:46:4a:04|75
1621947925|b0:4b:af:01:90:39|74
1621928215|b0:53:17:d2:79:43|66
1622019042|b0:66:b5:fc:ef:2c|83
1621842376|b0:6f:e0:1e:1e:e8|87
1621841413|b0:6f:e0:b0:41:f2|79
1622038001|b0:70:2d:7f:7f:20|86
1622011334|b0:70:2d:bc:e2:2a|77
1621952605|b0:72:bf:42:e9:d6|63
1621836965|b0:82:ca:fe:2f:b9|67
1621935710|b0:89:ef:e1:7d:1c|71
1621940450|b0:97:2b:31:6a:3f|82
1621848508|b0:a2:e7:cf:24:4c|66
1621925227|b0:a4:60:9d:d8:bb|77
1622013646|b0:a9:2f:75:28:34|72
1621942469|b0:c7:75:af:cf:4f|76
1621925383|b0:e1:7e:a6:4b:f5|80
1621853011|b0:e1:7e:a6:4b:f5|78
1621950936|b0:e2:35:27:28:ef|88
1621858367|b0:e2:35:27:28:ef|89
1622027787|b0:e2:35:c0:c3:11|86
1621862614|b0:e2:35:c0:c3:11|88
1621931093|b0:e2:35:c0:db:b6|86
1622012937|b0:e2:35:c0:db:b6|86
1621929622|b0:e2:35:c0:db:d9|87
1621922574|b0:e2:35:c0:ef:89|82
1622011582|b0:e2:35:c1:04:b4|87
1621951114|b0:e2:35:c1:19:46|91
1622034114|b0:e2:35:c1:19:46|87
1621863870|b0:e2:35:c1:19:46|84
1621927387|b0:e2:35:c1:1c:05|92
1622035282|b0:e2:35:c1:1c:05|89
1621948938|b0:e2:35:c1:26:0e|89
1622016864|b0:e2:35:c1:26:0e|84
1621927890|b0:e2:35:c1:27:b1|86
1622023544|b0:e2:35:c1:2f:22|90
1621932219|b0:e5:ed:99:de:a8|76
1621931578|b0:eb:d9:80:50:91|86
1621867030|b0:fc:36:a9:6a:2f|95
1621942669|b0:fc:36:aa:55:5f|91
1621949269|b0:fc:36:aa:71:6b|91
1622021926|b1:04:c9:0c:a3:83|78
1621926607|b1:17:60:3d:0a:e8|85
1621929685|b1:19:39:38:56:6c|79
1621852198|b1:4c:61:c7:95:9d|71
1621837570|b1:7b:35:46:0a:c5|80
1621845321|b1:a0:3e:cb:1b:05|81
1621927533|b1:c6:31:d6:7e:4d|79
1621937013|b1:fa:9d:1c:2f:3b|72
1621850164|b3:2c:b5:70:30:ba|81
1621943678|b3:75:93:94:d2:1c|75
1622027952|b3:88:0c:d5:cf:a6|78
1621927806|b3:89:18:10:95:8d|71
1621928113|b3:c8:8d:e9:01:3b|70
1621937847|b4:0a:34:bc:d5:03|72
1622037852|b4:52:7d:dc:f1:37|61
1622034551|b4:6b:fc:cc:6e:6f|91
1621845984|b4:6b:fc:d0:73:e3|92
1621934959|b4:6b:fc:d0:78:07|86
1621840489|b4:6b:fc:d3:24:03|71
1622015677|b4:74:43:65:6d:79|91
1621937559|b4:77:a2:72:d1:d8|79
1621928336|b4:88:7d:04:d0:41|81
1621850613|b4:8b:19:75:a2:1c|75
1621932870|b4:8b:19:da:a2:ef|85
1621943997|b4:8d:6a:47:b8:18|61
1622009723|b4:ae:2b:e1:d7:d5|87
1621836023|b4:ae:2b:e1:d7:d5|81
1621943909|b4:b6:8d:e0:1d:cd|70
1621929774|b4:be:57:49:fd:50|89
1621940052|b4:cb:57:d3:96:4d|89
1621866157|b4:cd:27:15:6d:dd|92
1621952081|b4:cd:27:15:6d:dd|89
1622020548|b4:cd:27:15:6d:dd|86
1621848062|b4:e2:2b:8d:fe:83|74
1621925787|b4:e3:9a:48:f1:e5|71
1622025364|b4:e4:c4:5b:45:fb|74
1621934104|b4:e6:2a:02:53:9e|86
1621861357|b4:ef:fa:94:a4:45|84
1621947954|b4:fe:38:6c:0c:de|75
1622023745|b5:32:61:fc:4b:e8|87
1621837554|b5:6b:56:dd:22:a6|73
1621836932|b5:77:e7:d3:eb:a9|65
1621858987|b5:a2:9e:69:19:b6|85
1621946521|b5:e0:79:c3:fd:81|80
1621861531|b5:f0:db:a7:5b:3c|67
1621934786|b7:2a:79:42:69:ac|73
1622009421|b7:5b:cf:cd:de:52|84
1621836718|b7:65:ba:fe:36:6b|69
1621841423|b7:a8:69:44:f5:59|76
1621846434|b7:ec:b6:8b:4e:da|78
1621863531|b8:21:68:2e:14:31|81
1622038112|b8:44:d9:b6:64:87|85
1621864689|b8:44:d9:b6:64:87|80
1621951493|b8:44:d9:b6:64:87|89
1621856475|b8:48:31:bd:1b:7e|72
1621932349|b8:57:d8:a1:22:3a|73
1622032068|b8:8a:60:ed:5d:50|85
1621848689|b8:93:44:1c:8c:ef|71
1622009432|b8:9a:2a:af:32:ff|78
1621925235|b8:b3:27:7e:b2:9b|80
1622009087|b8:c9:b5:39:58:b9|78
1621950564|b8:c9:b5:39:58:b9|87
1621944955|b8:d7:af:02:86:de|84
1622027368|b8:d7:af:0b:b1:a7|76
1621922892|b8:d7:af:0b:b1:a7|82
1621926567|b8:d7:af:0d:ae:f3|78
1621864525|b8:d7:af:a4:e4:47|88
1622030808|b8:d7:af:b6:77:f7|83
1621943684|b8:d7:af:b6:77:f7|87
1621850735|b8:da:6f:72:77:9c|68
1622008973|b8:ee:65:67:04:86|66
1621856460|b9:07:9d:67:ff:b6|66
1622025372|b9:4b:35:09:12:6c|71
1622028023|b9:5f:ce:7b:6a:68|79
1621838333|b9:63:9a:3c:ea:f8|74
1621843771|b9:6c:a3:c5:ff:54|77
1621927149|b9:88:c6:94:09:94|84
1621927043|b9:9d:b8:be:2d:84|72
1621850758|b9:f3:7a:cb:cf:63|70
1621929275|bb:64:90:9d:b6:5d|74
1621838320|bb:85:62:77:86:c2|67
1621837809|bb:8c:33:9a:d0:42|69
1621938919|bb:9d:11:14:89:82|74
1621945821|bb:b0:40:eb:94:c2|72
1621842019|bb:b3:54:56:5e:90|86
1621930779|bb:e0:31:58:58:00|73
1621861223|bb:f0:53:7f:71:f8|75
1621847044|bc:09:63:1d:0b:b5|75
1621939019|bc:2e:f6:68:9a:c7|85
1621923278|bc:2f:3d:e3:70:cf|81
1622021242|bc:2f:3d:e3:70:cf|78
1621853895|bc:2f:3d:e3:70:cf|84
1621836110|bc:3a:ea:bc:1f:8c|82
1621839828|bc:3b:af:4f:79:3c|88
1622036610|bc:3d:85:c0:5c:7b|75
1622033801|bc:4c:c4:b5:df:a6|66
1622030580|bc:54:51:9e:bb:86|81
1621935395|bc:5a:54:29:a0:a7|73
1621839890|bc:63:3e:ca:06:28|67
1621923908|bc:83:85:0f:41:06|90
1622021275|bc:83:85:12:f8:91|87
1621934324|bc:83:85:ef:10:d6|80
1621922961|bc:b2:d9:a5:37:c7|72
1621932086|bc:e2:65:77:12:cd|79
1621935819|bc:ed:33:74:d4:2c|71
1621842216|bc:ee:10:33:d0:80|71
1621836620|bc:ff:90:4d:8c:90|59
1621930212|bc:ff:eb:b9:b9:35|90
1621943747|bd:16:1a:fa:dd:ae|73
1621841246|bd:9d:0b:d8:e1:56|84
1622022706|bd:c0:34:40:05:d7|66
1621854731|bd:fe:ad:e2:0c:40|79
1621935953|bf:30:d4:9a:df:46|75
1621860964|bf:38:35:76:59:91|69
1621927912|bf:4a:72:23:ad:78|86
1621836575|bf:5a:f1:ee:ba:cb|68
1621923694|bf:6e:5b:79:9d:64|79
1621855203|bf:6f:5f:93:4d:a7|84
1621838217|bf:cd:3c:4f:b8:dd|64
1621841486|bf:d4:55:f2:07:c4|74
1621854120|bf:de:ef:f2:91:7c|72
1621928495|c0:08:7d:42:2b:4a|73
1621946820|c0:0c:f6:43:c7:af|67
1621923641|c0:17:4d:13:3f:73|66
1622033362|c0:17:4d:14:52:71|76
1621836468|c0:17:4d:14:52:71|81
1621855361|c0:17:4d:2f:18:3f|86
1621838505|c0:17:4d:38:2f:34|82
1621841370|c0:17:4d:96:eb:7f|89
1622030022|c0:17:4d:c7:46:e7|82
1621925173|c0:66:dc:b3:a3:9f|72
1621850353|c0:b5:d7:d9:00:6d|58
1621929382|c0:b6:58:52:15:74|88
1621943990|c0:b6:f9:3d:5a:8b|88
1622015880|c0:b6:f9:3d:5a:8b|86
1621859383|c0:b6:f9:3d:5a:8b|83
1622030029|c0:b6:f9:aa:5f:0f|86
1622015360|c0:b8:83:7c:e7:4b|83
1621850798|c0:b8:83:7c:e7:4b|82
1621837912|c0:b8:83:c9:f2:c5|65
1622017818|c0:bd:c8:fb:69:ef|69
1622010523|c0:bd:d1:47:91:df|87
1621931468|c0:bd:d1:7f:41:e0|79
1622011829|c0:c8:5f:81:3d:f5|87
1621845980|c0:cb:95:a7:dd:3d|74
1621842082|c0:cd:58:15:e6:9a|71
1621923153|c0:d2:dd:66:05:c5|76
1622024627|c0:d2:dd:66:05:c5|67
1622031986|c0:d2:f3:84:bf:02|84
1621842732|c0:d2:f3:84:bf:02|86
1621951754|c0:ee:fb:e0:6f:e0|84
1622010581|c0:ee:fb:e0:6f:e0|65
1621848859|c0:ee:fb:e0:6f:e0|79
1621934010|c0:f0:70:83:8e:e4|75
1621856695|c1:44:96:8a:ef:51|73
1621837045|c1:48:5e:e1:b8:8b|69
1621838325|c1:55:07:d2:c1:f0|64
1622013133|c1:79:8d:2b:d3:10|69
1621929797|c1:89:c8:16:05:5e|74
1622018179|c1:9b:7e:0a:db:f6|76
1621855332|c1:b8:13:54:1b:7e|91
1621923390|c1:c0:57:80:05:51|66
1621925496|c1:c4:94:b1:10:16|83
1621936088|c1:c7:f3:71:e1:b6|66
1621855231|c1:d3:41:e4:5b:94|75
1622035529|c1:df:c9:92:05:59|80
1621850377|c1:f9:bb:7c:e9:b8|81
1621945483|c3:27:ad:ef:9d:b1|71
1621845992|c3:40:13:da:13:6c|82
1621844651|c3:50:e6:21:b2:ac|71
1621943985|c3:6a:f4:a1:f5:5d|70
1621841057|c3:a6:ba:ea:bd:d5|78
1621860141|c3:a8:a0:ee:06:44|68
1621860430|c3:bc:96:9c:bd:2b|72
1621839715|c4:06:83:25:f3:02|83
1621838217|c4:3a:70:9b:8e:13|67
1621846807|c4:56:fe:ef:55:01|85
1621926715|c4:57:6e:4e:d2:b7|73
1622009372|c4:57:6e:4e:d2:b7|80
1621844919|c4:57:6e:4e:d2:b7|80
1621923338|c4:66:78:52:ad:2f|66
1621855223|c4:67:f5:e3:0d:52|75
1621842284|c4:6a:39:53:13:f9|90
1621929576|c4:8c:33:f3:c8:35|73
1622013409|c4:8e:8f:f3:80:bd|71
1622034287|c4:93:d9:3d:71:1a|93
1621934628|c4:9d:ed:1e:a5:b5|94
1621836503|c4:9d:ed:1e:a5:b5|88
1621923398|c4:9f:4c:84:b2:8b|84
1621925742|c4:a5:d9:b3:ba:0a|71
1622034250|c4:b3:01:bd:e1:d7|91
1621934824|c4:c9:e0:93:5a:00|67
1621861823|c4:d9:87:f2:a9:40|87
1622023407|c4:e1:a1:61:40:8d|85
1622037303|c4:fe:5b:af:e2:43|90
1622018357|c5:a5:c2:8b:bb:63|79
1621924517|c7:3c:63:3b:fb:97|55
1621845515|c7:7f:2d:bd:1d:54|69
1621838120|c7:90:cb:86:1b:55|91
1621947518|c7:a8:02:18:90:6c|71
1621925457|c8:02:10:bf:67:e0|84
1622019461|c8:02:10:bf:67:e0|95
1621843710|c8:02:10:bf:67:e0|85
1621938751|c8:03:d9:ea:2c:79|81
1621840537|c8:06:13:29:6e:2d|86
1621923797|c8:1e:e7:8e:1a:bc|85
1622020520|c8:34:8e:63:06:4e|66
1621923743|c8:45:e2:1c:07:41|63
1621925029|c8:47:4c:fd:ca:6a|83
1621939626|c8:53:58:51:4f:15|73
1621839276|c8:8b:47:74:19:c0|68
1621929684|c8:d0:83:0f:25:c6|77
1621843944|c8:d0:83:0f:25:c6|86
1622032025|c8:d7:b0:46:cc:af|89
1621923463|c8:e1:a7:09:48:a2|80
1622011220|c8:e1:a7:09:48:a2|82
1622013555|c8:e9:ca:6f:8b:ee|76
1621941239|c8:f7:33:db:5a:83|80
1621849159|c9:0c:bf:3c:bb:69|73
1621925062|c9:36:db:ce:d2:23|85
1621948784|c9:3d:bf:f0:96:57|73
1621937143|c9:49:92:5a:40:90|73
1621840695|c9:72:99:28:02:bc|71
1621850708|c9:87:b1:0d:67:6e|68
1621924249|c9:8d:c0:97:04:2a|83
1622030185|c9:9e:7f:c8:6e:2d|73
1621841476|cb:12:13:43:ca:16|73
1621930585|cb:24:0b:d3:76:99|73
1621836897|cb:4a:89:a6:9b:51|72
1621846372|cb:52:aa:ab:f8:46|75
1621854758|cb:78:9b:b9:7c:07|72
1621924509|cb:b6:07:d7:53:d6|82
1622016365|cb:dd:a9:97:83:c0|78
1621931428|cc:02:e2:9a:dc:e0|78
1621929794|cc:21:19:3d:04:29|91
1621859283|cc:21:19:89:75:37|80
1621925169|cc:2d:1b:b5:61:57|68
1621949649|cc:30:35:90:5e:ac|79
1621947609|cc:41:c6:f9:df:1d|74
1621836001|cc:46:4e:cf:02:6e|74
1621936785|cc:46:4e:eb:40:3a|80
1621935204|cc:58:40:96:d2:74|77
1621861584|cc:a9:b8:bb:dc:fb|67
1621841329|cc:c7:60:86:61:5f|80
1621849898|cd:0e:16:38:39:4f|65
1622026681|cd:1f:3c:ad:b5:17|88
1621841756|cd:c3:16:60:51:20|70
1622015770|cf:30:39:8f:f0:5f|72
1621846271|cf:a0:8b:b3:cc:44|78
1621842078|cf:cb:ae:47:fa:3d|71
1621837331|cf:e8:7c:8b:5f:58|67
1621845839|cf:fe:58:ab:98:e4|86
1621938541|d0:0c:1e:fc:67:dd|78
1622028331|d0:16:b4:19:0b:8b|85
1621936735|d0:25:98:6f:08:4c|76
1621947801|d0:4b:25:2a:51:44|79
1621922467|d0:65:ca:d8:d6:3c|90
1621952839|d0:69:30:09:aa:29|86
1622036204|d0:b1:28:fc:62:77|82
1621836827|d0:c6:37:12:3b:3f|83
1621843108|d0:c6:37:c7:0d:f8|72
1621846070|d0:c6:37:d6:fa:fb|89
1621935377|d1:34:83:91:2c:49|74
1622037369|d1:57:4c:e6:73:20|80
1621929224|d1:95:15:41:fa:0c|71
1622013534|d1:af:16:18:e6:c3|70
1621839058|d1:f4:92:c8:07:66|70
1621950234|d1:fd:8f:18:88:f5|81
1622034969|d3:04:6e:c9:82:76|85
1621949794|d3:25:46:a4:ec:af|77
1621837470|d3:32:1c:9a:5c:be|76
1622016051|d3:36:41:89:90:4c|73
1622032716|d3:38:e2:3b:29:8b|73
1621946452|d3:45:b6:28:b7:da|67
1621948783|d3:73:40:f6:6d:b0|74
1622020039|d3:ba:75:dc:b8:2a|72
1622009043|d3:c1:bc:7e:a8:3f|82
1621929178|d3:e9:42:59:65:3c|62
1621928234|d3:f5:01:47:94:6b|65
1621927959|d4:1a:3f:f7:5f:55|75
1621927268|d4:38:7a:5a:bd:f3|79
1621838118|d4:3b:04:79:25:8e|83
1621931416|d4:3b:04:a0:aa:55|89
1621942233|d4:4d:a4:fb:89:da|83
1621948716|d4:50:e6:50:22:ba|88
1621838157|d4:5e:d9:5f:78:f6|74
1621848545|d4:62:ea:38:0c:a1|75
1622034779|d4:62:ea:a6:76:2d|83
1621836177|d4:6d:6d:e0:e8:c2|91
1621850835|d4:7b:e4:6f:0e:de|83
1622010759|d4:7f:63:d9:77:63|68
1622010712|d4:90:9c:71:ca:12|85
1621837085|d4:90:9c:95:53:5d|67
1621848604|d4:9d:c0:44:86:26|85
1622019019|d4:a3:3d:b6:d7:24|89
1621842560|d4:ae:05:39:ce:27|85
1621838915|d4:b7:61:87:81:5b|91
1621866220|d4:b7:61:a0:6f:0d|92
1622019196|d4:d2:52:b8:18:02|85
1621924599|d4:d2:52:b8:18:70|92
1621947279|d5:3a:03:9c:fd:4d|72
1621851510|d5:43:57:15:09:db|71
1621841770|d5:4a:33:72:2f:9e|81
1621935320|d5:6a:43:a0:a1:b6|68
1621926240|d5:81:e5:23:bf:a9|84
1621938452|d5:ba:2f:d5:f2:cb|78
1621840309|d7:38:a1:68:66:0a|74
1621861534|d7:b5:94:ea:64:96|64
1621935316|d7:b7:f4:a7:96:8b|70
1621851779|d7:d1:cf:6e:f2:39|66
1621946049|d7:d2:e5:2b:ab:59|74
1621855595|d7:d8:7d:d3:b2:dd|83
1621841426|d8:1c:33:74:6c:ca|80
1621940041|d8:1c:79:ad:a4:d0|81
1622025757|d8:1e:dd:b0:55:af|65
1621841446|d8:27:b8:19:9f:23|80
1621952017|d8:32:e3:50:2a:2a|68
1621853961|d8:43:3f:ad:ae:f2|88
1621941365|d8:4c:90:b3:ff:30|85
1622014303|d8:4c:90:b3:ff:30|70
1621857970|d8:4c:90:b3:ff:30|80
1621851175|d8:56:05:1f:2f:0d|69
1622020938|d8:9e:61:e8:92:59|77
1621840678|d8:9e:61:e8:92:59|71
1621838168|d8:bb:2c:46:1a:fe|69
1621843103|d8:bb:2c:f3:51:ac|85
1621854526|d8:c4:6a:bb:55:68|82
1622026255|d8:d6:a6:ca:5d:45|71
1622032346|d8:f2:ca:11:cb:b4|84
1621861956|d8:f2:ca:11:cb:b4|86
1621854974|d8:f2:ca:28:54:c9|81
1622009991|d8:f2:ca:b4:e4:9d|87
1621848864|d8:fa:30:93:3e:27|74
1622014807|d9:0f:8f:a3:31:e9|85
1621926491|d9:0f:93:14:b9:09|84
1622018026|d9:1b:2a:48:d3:ad|77
1621936979|d9:1f:7e:6a:e4:91|67
1621838539|d9:39:20:d6:c5:87|75
1621934981|d9:43:40:57:ed:07|66
1621840459|d9:5a:2a:9f:df:fb|76
1621947499|d9:6a:70:d7:d8:09|75
1621852962|d9:6d:55:11:a4:d0|73
1621837114|d9:ab:ff:e0:f4:d9|65
1621854589|d9:b3:cb:0e:5e:60|70
1622015131|d9:dc:ad:8c:4c:a1|71
1622018134|d9:e2:b2:01:42:e2|70
1621936878|d9:f7:b1:e2:79:29|76
1622019007|db:81:59:f5:17:e0|71
1622036025|db:89:36:bc:5f:da|77
1621855722|db:96:62:bc:9a:69|71
1621925145|db:a9:0b:2e:dd:7c|82
1622012266|db:a9:6a:e0:b6:4b|72
1621856155|dc:16:b2:53:78:d6|68
1621945049|dc:16:b2:89:23:f3|69
1621849709|dc:16:b2:89:23:f3|86
1621939145|dc:1b:a1:73:6e:82|72
1621845175|dc:3f:ca:06:3a:d6|75
1621841535|dc:64:3f:1f:52:11|83
1621927241|dc:66:72:c8:54:03|74
1621841818|dc:7d:6c:5e:02:5b|74
1621923346|dc:85:de:c0:4c:df|93
1622010948|dc:85:de:c0:4c:df|90
1621949373|dc:89:83:2f:e0:db|89
1621837102|dc:89:83:2f:e0:db|92
1621855274|dc:89:83:a7:d9:2d|88
1622032629|dc:8b:28:41:99:fc|84
1621944541|dc:8b:28:65:9c:35|73
1622023200|dc:8b:28:77:df:e4|74
1622022636|dc:8b:28:79:1f:71|90
1621940621|dc:8b:28:79:1f:71|89
1621857139|dc:8b:28:79:1f:71|89
1621861238|dc:8b:28:94:fa:ac|90
1621855605|dc:98:24:3a:a4:26|67
1622021135|dc:a9:04:8b:73:d0|74
1621931499|dc:b7:2e:b6:ae:7a|92
1622032376|dc:b7:2e:bb:2b:e4|71
1621932184|dc:b7:2e:bb:2b:e4|63
1621854972|dc:b7:2e:bb:2b:e4|65
1621943958|dc:cd:dd:26:0d:c1|78
1621942095|dc:cf:96:36:ef:85|69
1622021177|dc:d9:16:4c:5d:5b|84
1621841616|dc:ea:fa:2e:04:02|67
1622029164|dc:ef:ca:39:fb:f1|85
1621928166|dc:f0:90:bf:1e:84|72
1622009363|dc:f0:90:bf:1e:84|62
1621836037|dc:f0:90:bf:1e:84|62
1621945884|dc:f6:e4:a9:87:7f|65
1622036144|dc:f7:56:2d:77:ec|75
1621850505|dc:fb:48:8a:de:c8|87
1622010831|dd:85:fc:4a:ac:21|70
1621850759|dd:95:0d:0f:92:dc|73
1622024494|dd:9d:79:14:ef:31|74
1622028600|dd:d9:8a:85:2e:ab|74
1621846295|dd:f3:2d:25:34:85|75
1621845482|df:13:93:55:91:d6|77
1622016579|df:1d:10:ab:c2:a0|74
1621851499|df:25:10:43:2c:9e|74
1621943697|df:31:9e:5f:2f:40|66
1621854672|df:46:2c:75:81:2a|86
1621856617|df:59:f4:fa:a0:3b|72
1622022683|df:6b:3b:f1:00:08|74
1622024462|df:74:4d:73:c3:1d|73
1621848043|df:de:77:a0:67:cc|73
1621941402|df:f2:2d:51:6f:80|84
1621948554|e0:3e:15:cc:fc:9a|72
1621944483|e0:5f:45:bc:fa:7e|87
1621948928|e0:76:d0:be:91:c2|87
1621838250|e0:89:7e:16:7b:fc|60
1622018389|e0:aa:96:0b:f7:ce|81
1621836604|e0:aa:96:0b:f7:ce|75
1621947785|e0:aa:96:17:f9:36|91
1621855006|e0:dc:ff:2b:0a:86|79
1621933597|e1:3c:fb:e9:83:ce|82
1622036153|e1:5d:98:a1:dc:1a|83
1621923198|e1:6b:6f:00:6c:b0|72
1621929345|e1:74:64:7b:dc:35|70
1621948817|e1:74:96:51:97:25|72
1621947124|e1:80:7a:01:90:0a|72
1621928773|e1:9f:8e:cd:21:6a|65
1621845423|e1:b1:eb:7c:99:85|70
1621927064|e1:d6:8c:d8:2e:da|85
1621840152|e1:db:ea:71:94:19|72
1621923201|e1:f3:2c:6d:1e:71|70
1621837091|e1:fa:15:c6:aa:4e|75
1621837589|e3:23:38:04:7b:e7|76
1621837000|e3:4f:75:31:fe:26|70
1621941312|e3:9f:6f:9e:5c:6e|84
1621852210|e3:c2:72:77:ac:9b|78
1621845457|e3:d9:d5:9c:b6:ac|68
1621857733|e3:e8:6f:2c:e7:72|76
1621855612|e4:03:6b:f4:0b:22|66
1622023936|e4:0e:ee:7e:92:40|73
1622032255|e4:0e:ee:9d:d5:53|71
1621843449|e4:0e:ee:9d:d5:53|74
1622022048|e4:0e:ee:b9:0d:5b|81
1621933790|e4:0e:ee:e4:dd:b8|75
1621847453|e4:2b:34:e5:1f:49|76
1622010498|e4:2b:34:e5:1f:49|77
1621931687|e4:65:80:54:12:43|74
1621922444|e4:a4:71:ae:bb:90|74
1621931453|e4:aa:ea:cd:96:f3|76
1622015845|e4:b2:db:39:37:cc|77
1621954322|e4:b2:fb:41:fd:a7|78
1622028439|e4:b3:18:4b:d3:f4|94
1621922771|e4:b3:18:9c:52:34|89
1621839996|e4:c4:83:e8:a7:f7|76
1621923501|e4:f8:9c:34:dd:d4|74
1621930756|e5:13:05:60:bd:95|73
1621851415|e5:32:46:b4:94:65|66
1621927081|e5:6c:6f:a4:0f:33|72
1622034188|e5:92:4b:eb:60:9e|75
1622018916|e5:d4:e6:1c:79:a4|74
1621838146|e5:ea:30:dd:cc:2e|65
1621937088|e5:ed:14:41:09:9e|68
1621836956|e5:f0:f8:3a:89:18|70
1621930525|e5:f1:d0:08:e0:2c|79
1621843609|e5:fb:a1:48:44:1b|68
1622022914|e7:03:f0:1e:b5:93|73
1621860831|e7:4f:8b:b2:6d:fb|70
1621836613|e7:55:5f:ca:c7:53|68
1621935762|e7:73:dd:f8:6d:b9|71
1621937225|e7:7d:44:06:5c:bc|83
1621938156|e7:bb:c4:f8:dd:ad|69
1622026666|e7:d3:7d:93:c1:69|80
1622009367|e7:ec:90:bc:3d:df|75
1621929647|e8:17:1c:21:09:48|72
1621852077|e8:1d:98:e2:3f:4b|70
1621934862|e8:1e:14:06:94:77|71
1621925473|e8:37:7d:a2:c8:9d|77
1622034108|e8:50:8b:7a:0c:7c|69
1621867779|e8:50:8b:7a:0c:7c|87
1622026233|e8:5a:8b:49:a2:a9|90
1621844361|e8:5a:8b:61:18:6d|93
1621930044|e8:5a:8b:62:63:17|83
1622013042|e8:5a:8b:62:63:17|74
1621838761|e8:5a:8b:62:63:17|63
1622010210|e8:5a:8b:80:d1:1f|92
1621842213|e8:93:09:2e:01:ee|63
1621931542|e8:93:09:2e:01:ee|69
1622019246|e8:93:09:2e:01:ee|77
1621836906|e8:b1:6b:4b:28:10|86
1622020543|e8:d0:fc:f6:9c:2f|74
1621843964|e8:f9:f6:25:2b:36|62
1621935445|e9:49:8b:17:c6:10|69
1621854216|e9:4b:ee:c6:6f:cd|76
1621852039|e9:51:95:99:e6:14|77
1621852799|e9:ff:c6:36:76:62|76
1621850464|eb:02:56:7c:63:69|72
1622025371|eb:05:a2:c9:bc:51|74
1621945523|eb:17:a6:29:89:01|80
1621945515|eb:1b:87:75:67:e9|76
1621930191|eb:3d:2a:1f:c5:b2|72
1621840281|eb:66:c1:91:e1:c2|74
1621852517|eb:6f:91:f5:1d:41|82
1621939185|eb:72:34:f7:c1:7e|70
1622027590|eb:7e:02:d6:50:f8|74
1621945499|eb:98:bb:28:dc:76|86
1622011621|eb:ee:4c:f9:b4:b9|80
1621950107|eb:ee:70:3a:93:bd|78
1621836089|ec:01:ee:d0:10:6f|64
1622014348|ec:10:7b:f3:d2:5f|85
1622024731|ec:10:cd:58:3e:cc|73
1621944766|ec:1f:72:11:3b:8d|77
1622029077|ec:1f:72:11:3b:8d|73
1621843919|ec:1f:72:11:3b:8d|73
1621842900|ec:1f:72:19:9e:4e|85
1621847875|ec:1f:72:1b:2d:6f|69
1621841408|ec:1f:72:2b:f8:b6|72
1622030120|ec:1f:72:66:0c:0a|80
1622020433|ec:1f:72:7b:e0:80|64
1621929575|ec:1f:72:7b:e0:80|84
1622012344|ec:1f:72:80:10:d2|77
1621954323|ec:1f:72:83:3b:dd|86
1621866948|ec:1f:72:83:3b:dd|86
1621836118|ec:1f:72:83:9f:04|64
1621930309|ec:1f:72:e4:02:9b|77
1621946177|ec:35:20:36:2c:da|72
1621850740|ec:4b:c7:d8:1a:ca|86
1621846372|ec:73:21:d5:99:a0|74
1621845478|ec:7b:2a:8d:ff:ef|66
1622030780|ec:8c:9a:d6:70:98|67
1621931883|ec:8c:9a:d6:70:98|69
1621844758|ec:8c:9a:d6:70:98|65
1622024463|ec:94:2f:9f:3c:65|75
1621924724|ec:9b:f3:ab:a6:5a|74
1622034773|ec:9b:f3:d1:54:bc|84
1622035605|ec:9b:f3:d1:58:e4|74
1621840095|ec:9b:f3:d1:58:e4|77
1621849726|ec:ae:b0:30:7d:9f|67
1622015646|ec:b6:ee:18:fc:77|83
1621929576|ec:ce:1c:ef:75:35|69
1621943785|ec:d0:9f:fb:bc:fa|83
1621847654|ec:de:49:a1:c1:50|80
1622029009|ec:e1:8e:be:1d:1e|82
1621927840|ed:bf:b2:da:40:49|86
1621845914|ed:c0:40:70:6b:98|79
1621935637|ed:de:21:84:d5:46|73
1621943708|ef:44:31:4e:d8:d7|76
1622029926|ef:6b:7c:d7:fd:3c|82
1621853926|ef:95:d2:a1:f8:3d|85
1622023542|ef:99:be:d5:68:cb|73
1621851758|ef:9b:81:c9:1a:f9|73
1621923397|ef:a8:54:4d:09:ed|64
1621947673|ef:bd:3b:63:89:7d|72
1621838301|ef:e4:bc:58:2d:6c|68
1621836907|f0:0f:bb:59:b4:05|64
1621847328|f0:0f:ec:59:af:fb|76
1622028033|f0:6c:63:44:ab:f0|65
1622011786|f0:6d:78:5a:ad:4d|89
1621837337|f0:6d:78:5a:ad:4d|73
1621838784|f0:6e:0b:e3:c3:f7|62
1621947657|f0:73:e9:65:d9:33|75
1621935298|f0:79:60:24:57:02|81
1621840384|f0:8a:76:4f:76:2c|67
1621926293|f0:98:9d:9e:ea:42|92
1622026238|f0:98:9d:9e:ea:42|82
1621931115|f0:98:9d:e7:9a:9a|74
1621935185|f0:99:b6:d1:3c:7b|89
1621844028|f0:99:b6:d1:3c:7b|75
1621928875|f0:a6:0c:8e:6a:17|76
1621930376|f0:b8:c7:05:86:2e|74
1621842843|f0:c3:71:01:7b:6b|73
1622027608|f0:c5:60:0c:3b:f3|70
1622037937|f0:c8:50:0a:dd:c0|88
1621923173|f0:c8:50:0a:dd:c0|84
1621855593|f0:d4:f6:2f:03:e5|67
1622016611|f0:d5:bf:29:6a:bc|76
1622016757|f0:d5:bf:29:6a:bd|75
1622013342|f0:d5:bf:bb:9e:42|91
1621858328|f1:53:77:96:0e:d2|67
1622011643|f1:5f:bb:c3:40:bd|72
1621852917|f1:72:ae:e7:1b:bd|71
1621836138|f1:80:2c:b9:a6:bb|90
1621925211|f1:82:4c:dc:c3:c9|71
1621837630|f1:88:9d:3b:1a:6d|77
1621838239|f1:8f:76:8b:44:0a|75
1621851281|f1:b2:fb:62:71:dc|60
1621854576|f1:b9:ad:4c:66:3b|73
1621837412|f3:0b:4d:16:c7:14|73
1621860960|f3:83:19:df:15:61|74
1622013526|f3:90:0c:79:29:5a|68
1621861387|f4:02:28:15:c6:98|82
1622016398|f4:06:69:66:c2:22|74
1621839746|f4:06:69:66:c2:22|76
1622026151|f4:07:30:8d:e7:17|69
1621856467|f4:0b:9f:41:62:98|72
1621932350|f4:0f:24:1f:fc:8b|85
1621864401|f4:0f:24:32:95:e6|90
1622030470|f4:1a:7b:cd:6b:fc|85
1621948816|f4:24:d1:51:93:c4|79
1622015523|f4:26:21:70:e1:a5|67
1621933893|f4:3f:0e:6f:72:e1|77
1621944893|f4:5c:89:a9:4f:db|88
1622021521|f4:61:41:2f:ae:4f|80
1622026692|f4:71:90:0d:4d:ab|87
1621924111|f4:71:90:58:0d:f5|85
1622029106|f4:8c:50:c8:a5:14|79
1621945602|f4:8c:50:c8:a5:14|74
1622019346|f4:8c:50:d5:79:e7|66
1621838775|f4:8d:8f:02:9b:f9|93
1621952425|f4:96:34:81:11:db|83
1621843399|f4:96:34:81:11:db|88
1622011006|f4:96:34:99:a8:36|82
1621923749|f4:96:34:99:a8:37|80
1622010845|f4:96:34:99:a8:37|79
1621853188|f4:96:34:99:a8:37|79
1622028521|f4:96:f6:a9:cd:01|70
1621840644|f4:9e:97:16:b4:87|80
1621851894|f4:a5:9d:22:e2:e1|60
1621847216|f4:a9:97:72:f6:25|76
1621861037|f4:af:9e:8e:32:4c|76
1621850244|f4:b2:b3:fe:17:af|83
1621836772|f4:c2:48:73:ec:87|77
1622027265|f4:c2:48:8a:0b:85|71
1621855100|f4:c4:8c:ab:dc:62|82
1621837353|f5:49:be:e3:30:50|69
1622036102|f5:ca:91:04:31:32|84
1621860061|f5:d4:d9:99:46:e1|87
1621839922|f5:f5:81:0e:23:60|68
1621850895|f7:3a:d8:7d:cd:53|75
1621854485|f7:70:16:3b:0c:83|79
1621936804|f7:c7:14:15:93:65|74
1622030623|f7:d2:f3:8a:48:e8|70
1621931491|f7:fb:8f:67:03:5b|70
1621860794|f8:0f:b3:84:3c:f6|71
1621927226|f8:2c:2f:9f:4b:15|72
1621922633|f8:59:71:32:6d:e3|85
1622035784|f8:59:71:32:6d:e3|80
1621856313|f8:59:71:32:6d:e3|83
1621930659|f8:63:3f:94:59:80|68
1621837813|f8:81:60:89:89:bf|69
1621846422|f8:87:f1:43:7e:38|78
1622014421|f8:94:c2:09:20:f9|74
1621938421|f8:94:c2:09:21:30|73
1622011939|f8:94:c2:09:21:30|77
1621922485|f8:a2:d6:e3:d6:4d|84
1621836020|f8:c3:9e:bd:24:a8|82
1621949946|f8:d6:9f:33:25:a6|81
1622011850|f8:da:0c:4e:06:cb|78
1621939158|f8:e0:57:e9:78:ea|75
1621843524|f8:e0:79:65:10:78|87
1621845967|f8:e4:e3:67:29:6f|74
1621934909|f8:e4:e3:91:ee:c0|64
1621854899|f8:e4:e3:91:ee:c0|79
1621939177|f8:e4:e3:e4:6a:06|91
1621837651|f8:e4:e3:e4:6a:06|88
1621942940|f8:e4:e3:e4:6b:eb|91
1621922582|f8:e4:e3:e4:6b:ec|86
1622011723|f8:e4:e3:e4:6b:ec|92
1621941751|f8:e7:a0:21:57:77|68
1621837119|f8:e9:4e:b0:58:77|54
1621931197|f8:ff:c2:03:88:ee|78
1622015362|f8:ff:c2:53:af:bc|74
1621922783|f8:ff:c2:55:88:41|87
1621930919|f8:ff:c2:66:ad:4e|65
1621855752|f9:0e:28:c5:0a:ac|77
1621923878|f9:17:62:eb:4d:d0|80
1621840745|f9:1e:93:c6:99:4a|71
1621927501|f9:1f:16:8e:34:48|94
1621925873|f9:1f:a2:b9:7b:82|71
1621836168|f9:39:7e:f3:ba:1e|79
1621841839|f9:46:ed:04:89:88|85
1622010334|f9:99:19:a0:af:39|82
1621837536|f9:d6:fb:ba:2e:d0|80
1621839842|fb:09:8c:2a:c1:10|74
1621939750|fb:28:13:5b:39:f0|74
1622036098|fb:35:09:2c:33:f9|84
1622015606|fb:42:31:90:76:18|77
1621841060|fb:48:b2:a3:02:7e|75
1621849962|fb:b8:c3:87:78:85|86
1622012101|fb:ba:72:c0:c6:5d|75
1621840543|fb:e7:8b:23:90:8c|69
1622019098|fb:fb:c7:cf:c4:9d|92
1621950724|fc:03:9f:00:ba:75|92
1622019985|fc:03:9f:00:ba:75|90
1621867824|fc:03:9f:00:ba:75|87
1621931299|fc:1a:e9:77:c3:c3|85
1621851403|fc:1a:fd:0a:19:8e|69
1621851154|fc:2c:53:34:e9:53|69
1621861079|fc:42:03:1f:3c:72|90
1621844066|fc:42:03:bf:e2:94|80
1621854385|fc:53:41:12:d8:89|80
1622009898|fc:66:cf:e1:47:39|84
1622011282|fc:77:74:f2:c7:db|74
1621923442|fc:77:74:f2:c7:db|75
1621948446|fc:87:43:be:65:83|79
1621945328|fc:aa:b6:64:33:e0|79
1622033305|fc:aa:b6:9f:7b:8a|82
1622024818|fc:ab:90:4f:07:dd|92
1621862525|fc:ab:90:4f:07:dd|80
1621851429|fc:ab:af:6d:7f:19|73
1621943808|fc:c1:8c:cb:50:b4|75
1621856452|fc:ca:b5:4e:0c:2b|65
1622014051|fc:db:b3:1b:cb:72|84
1621928672|fc:dc:2a:6d:a9:71|68
1621860144|fc:f2:36:0f:7b:3e|73
1621837890|fd:0d:bb:83:d4:21|83
1621850519|fd:19:9c:1a:22:b5|75
1621850505|fd:1c:dc:77:68:b2|70
1621923459|fd:3a:de:4e:04:55|75
1622019287|fd:c1:e5:67:b3:30|72
1621927642|fd:cb:9d:b9:a6:48|77
1622036027|ff:0a:1b:5e:39:b2|79
1621841762|ff:1c:0d:20:47:ce|62
1621850720|ff:73:1a:e2:5a:76|70
1621929262|ff:b1:f8:32:99:17|72
1621841800|ff:d3:fb:a7:72:d2|75
1622013252|ff:e2:17:88:1a:67|68
1621851085|ff:f3:a0:8d:c1:4b|62