1616401206|94:9f:3e:e2:b8:17|83
1616401206|84:c7:ea:f1:c1:f6|89
1616401221|9c:8d:7c:8a:98:43|93
1616401221|94:9f:3e:e2:b8:17|83
1616401236|c0:d9:62:76:ad:b4|91
1616401236|00:d0:c9:f3:00:70|90
1616401251|94:9f:3e:e2:b8:17|84
1616401266|00:d0:c9:f3:00:70|93
1616401281|c0:8c:71:8d:60:cb|93
1616401281|94:9f:3e:e2:b8:17|84
1616401281|00:d0:c9:f3:00:70|92
1616401296|f4:ce:46:50:ad:42|90
1616401296|94:9f:3e:e2:b8:17|83
1616401296|c0:8c:71:8d:60:cb|93
1616401311|c0:d9:62:76:ad:b4|92
1616401311|1c:42:7d:90:4d:f3|91
1616401311|94:9f:3e:e2:b8:17|83
1616401311|fc:42:03:72:6d:27|93
1616401326|94:9f:3e:e2:b8:17|83
1616401326|f4:ce:46:50:ad:42|90
1616401326|c0:d9:62:76:ad:b4|92
1616401341|94:9f:3e:e2:b8:17|82
1616401341|c0:8c:71:8d:b4:50|89
1616401341|00:d0:c9:f3:00:70|89
1616401356|28:b2:bd:55:4d:f8|89
1616401356|94:9f:3e:e2:b8:17|82
1616401371|94:9f:3e:e2:b8:17|83
1616401371|ac:5f:3e:f4:e0:3f|75
1616401371|00:d0:c9:f3:00:70|92
1616401386|f4:ce:46:50:ad:42|91
1616401386|00:d0:c9:f3:00:70|91
1616401386|00:02:36:f0:05:65|89
1616401386|94:9f:3e:e2:b8:17|83
1616401401|94:9f:3e:e2:b8:17|83
1616401401|dc:fb:48:9f:d1:66|89
1616401401|f4:ce:46:50:ad:42|91
1616401416|94:9f:3e:e2:b8:17|83
1616401416|d4:c9:4b:6f:ee:2b|89
1616401416|00:d0:c9:f3:00:70|91
1616401431|c4:18:e9:e4:6a:af|82
1616401431|94:9f:3e:e2:b8:17|83
1616401446|00:d0:c9:f3:00:70|91
1616401446|94:9f:3e:e2:b8:17|82
1616401446|c4:18:e9:e4:6a:af|82
1616401461|94:9f:3e:e2:b8:17|83
1616401461|00:d0:c9:f3:00:70|91
1616401476|ac:5f:3e:f4:e0:3f|78
1616401476|94:9f:3e:e2:b8:17|83
1616401476|f4:ce:46:50:ad:42|90
1616401491|dc:74:a8:6b:80:02|90
1616401491|94:9f:3e:e2:b8:17|83
1616401506|ed:44:42:2c:f4:cb|92
1616401506|dc:74:a8:6b:80:02|90
1616401521|00:d0:c9:f3:00:70|90
1616401521|94:9f:3e:e2:b8:17|82
1616401536|94:9f:3e:e2:b8:17|82
1616401536|00:d0:c9:f3:00:70|90
1616401551|f4:ce:46:50:ad:42|93
1616401551|c0:8c:71:8e:ee:7d|93
1616401551|94:9f:3e:e2:b8:17|82
1616401566|00:d0:c9:f3:00:70|92
1616401566|f4:ce:46:50:ad:42|93
1616401581|94:9f:3e:e2:b8:17|82
1616401581|f4:ce:46:50:ad:42|91
1616401596|dc:f7:56:61:f9:c2|93
1616401596|28:b2:bd:55:4d:f8|89
1616401596|60:1d:91:92:01:34|92
1616401596|94:9f:3e:e2:b8:17|83
1616401611|00:be:3b:df:5c:42|91
1616401611|c0:8c:71:8e:af:d8|91
1616401611|94:9f:3e:e2:b8:17|83
1616401611|c0:d9:62:76:ad:b4|90
1616401611|00:d0:c9:f3:00:70|91
1616401611|28:f0:76:14:84:f2|91
1616401626|00:d0:c9:f3:00:70|89
1616401626|94:9f:3e:e2:b8:17|83
1616401626|00:be:3b:df:5c:42|91
1616401641|f4:ce:46:50:ad:42|91
1616401641|dc:f7:56:61:f9:c2|92
1616401641|94:9f:3e:e2:b8:17|82
1616401641|00:d0:c9:f3:00:70|91
1616401656|00:0c:e7:a4:d8:df|93
1616401656|c0:8c:71:8d:67:4f|94
1616401656|94:9f:3e:e2:b8:17|82
1616401656|f4:ce:46:50:ad:42|92
1616401671|bc:e6:3f:21:71:14|91
1616401671|00:d0:c9:f3:00:70|89
1616401671|c0:8c:71:8d:67:4f|88
1616401671|94:9f:3e:e2:b8:17|83
1616401671|00:0c:e7:a4:d8:df|93
1616401686|6c:71:bd:01:b9:89|90
1616401686|00:d0:c9:f3:00:70|91
1616401686|94:9f:3e:e2:b8:17|83
1616401686|bc:e6:3f:21:71:14|91
1616401701|94:b1:0a:a9:e8:67|90
1616401701|ec:1f:72:2e:d8:46|91
1616401701|ac:5f:3e:f4:e0:3f|70
1616401701|60:1d:91:1a:1f:9d|94
1616401701|dc:fb:48:9f:d1:66|90
1616401701|6c:71:bd:01:b9:89|90
1616401716|00:d0:c9:f3:00:70|92
1616401716|60:1d:91:1a:1f:9d|89
1616401716|94:9f:3e:e2:b8:17|82
1616401716|ac:5f:3e:f4:e0:3f|72
1616401716|94:b1:0a:a9:e8:67|90
1616401731|24:46:c8:d3:1b:5a|89
1616401731|94:9f:3e:e2:b8:17|82
1616401731|f4:ce:46:50:ad:42|91
1616401731|00:d0:c9:f3:00:70|90
1616401746|d4:c9:4b:6f:a9:af|90
1616401746|f4:ce:46:50:ad:42|92
1616401746|94:9f:3e:e2:b8:17|82
1616401746|24:46:c8:d3:1b:5a|89
1616401761|94:9f:3e:e2:b8:17|82
1616401761|00:d0:c9:f3:00:70|88
1616401761|c0:d9:62:76:ad:b4|91
1616401761|d4:c9:4b:6f:a9:af|90
1616401776|28:b2:bd:55:4d:f8|88
1616401776|94:9f:3e:e2:b8:17|83
1616401791|94:9f:3e:e2:b8:17|83
1616401791|28:b2:bd:55:4d:f8|88
1616401806|00:0c:e7:a3:3d:29|87
1616401806|94:9f:3e:e2:b8:17|83
1616401806|00:d0:c9:f3:00:70|90
1616401806|f4:ce:46:50:ad:42|94
1616401821|94:9f:3e:e2:b8:17|83
1616401821|00:d0:c9:f3:00:70|91
1616401821|00:0c:e7:a3:3d:29|87
1616401836|ac:5f:3e:f4:e0:3f|81
1616401836|94:9f:3e:e2:b8:17|84
1616401836|c0:d9:62:76:ad:b4|90
1616401836|f4:ce:46:50:ad:42|93
1616401851|c8:58:c0:88:a4:e6|89
1616401851|94:9f:3e:e2:b8:17|83
1616401851|00:d0:c9:f3:00:70|91
1616401866|94:9f:3e:e2:b8:17|84
1616401866|c8:58:c0:88:a4:e6|91
1616401866|00:d0:c9:f3:00:70|92
1616401881|3c:f0:11:b6:0c:92|91
1616401881|94:9f:3e:e2:b8:17|82
1616401896|c0:d9:62:76:ad:b4|90
1616401896|94:9f:3e:e2:b8:17|83
1616401896|f4:ce:46:50:ad:42|93
1616401896|3c:f0:11:b6:0c:92|91
1616401911|94:9f:3e:e2:b8:17|83
1616401911|28:b2:bd:55:4d:f8|90
1616401911|c0:d9:62:76:ad:b4|90
1616401926|94:9f:3e:e2:b8:17|83
1616401941|00:d0:c9:f3:00:70|91
1616401941|94:9f:3e:e2:b8:17|82
1616401941|dc:fb:48:9f:d1:66|90
1616401956|94:9f:3e:e2:b8:17|83
1616401956|d4:ca:6e:40:48:39|91
1616401956|00:d0:c9:f3:00:70|91
1616401971|f4:ce:46:50:ad:42|94
1616401971|c0:d9:62:76:ad:b4|90
1616401971|94:9f:3e:e2:b8:17|83
1616401986|94:9f:3e:e2:b8:17|82
1616401986|f4:ce:46:50:ad:42|94
1616402001|54:fc:f0:1f:e9:9d|89
1616402001|94:9f:3e:e2:b8:17|82
1616402001|f4:ce:46:50:ad:42|92
1616402001|00:d0:c9:f3:00:70|91
1616402016|00:d0:c9:f3:00:70|90
1616402016|94:9f:3e:e2:b8:17|84
1616402016|54:fc:f0:1f:e9:9d|89
1616402031|24:46:c8:d3:0f:a2|92
1616402031|94:9f:3e:e2:b8:17|82
1616402046|94:9f:3e:e2:b8:17|82
1616402046|00:d0:c9:f3:00:70|90
1616402046|24:46:c8:d3:0f:a2|92
1616402061|cc:c0:79:60:4b:22|91
1616402061|00:d0:c9:f3:00:70|91
1616402061|94:9f:3e:e2:b8:17|82
1616402076|c0:d9:62:76:ad:b4|91
1616402076|94:9f:3e:e2:b8:17|83
1616402076|cc:c0:79:60:4b:22|91
1616402091|94:9f:3e:e2:b8:17|82
1616402091|28:b2:bd:55:4d:f8|90
1616402091|28:f0:76:14:84:f2|92
1616402106|c0:8c:71:8d:9c:b6|92
1616402106|00:d0:c9:f3:00:70|89
1616402121|cc:b1:22:b5:e6:99|93
1616402121|00:d0:c9:f3:00:70|90
1616402121|d4:c9:4b:6f:b0:9f|91
1616402121|94:9f:3e:e2:b8:17|83
1616402121|24:46:c8:d3:5f:e2|89
1616402136|94:9f:3e:e2:b8:17|82
1616402136|00:d0:c9:f3:00:70|90
1616402136|cc:b1:22:b5:e6:99|93
1616402151|00:d0:c9:f3:00:70|91
1616402151|94:9f:3e:e2:b8:17|83
1616402151|f4:ce:46:50:ad:42|91
1616402151|28:f0:76:14:84:f2|91
1616402166|00:d0:c9:f3:00:70|89
1616402166|94:9f:3e:e2:b8:17|83
1616402181|00:d0:c9:f3:00:70|90
1616402181|94:9f:3e:e2:b8:17|83
1616402196|94:9f:3e:e2:b8:17|83
1616402196|00:d0:c9:f3:00:70|91
1616402211|00:d0:c9:f3:00:70|93
1616402211|94:9f:3e:e2:b8:17|82
1616402211|f4:ce:46:50:ad:42|94
1616402226|f4:ce:46:50:ad:42|93
1616402226|c0:d9:62:76:ad:b4|89
1616402226|c8:ff:28:31:1d:35|91
1616402226|94:9f:3e:e2:b8:17|83
1616402226|00:d0:c9:f3:00:70|91
1616402241|00:d0:c9:f3:00:70|90
1616402241|c8:ff:28:31:1d:35|93
1616402241|dc:fb:48:9f:d1:66|94
1616402241|f4:ce:46:50:ad:42|93
1616402256|00:d0:c9:f3:00:70|88
1616402256|94:9f:3e:e2:b8:17|83
1616402271|00:02:36:f0:06:19|89
1616402271|28:b2:bd:55:4d:f8|91
1616402271|28:f0:76:14:84:f2|89
1616402271|94:9f:3e:e2:b8:17|82
1616402271|00:d0:c9:f3:00:70|89
1616402286|1c:42:7d:90:55:73|91
1616402286|94:9f:3e:e2:b8:17|82
1616402286|dc:89:83:98:b2:49|89
1616402286|00:02:36:f0:06:19|89
1616402301|9c:e0:63:ef:a3:3b|88
1616402301|94:9f:3e:e2:b8:17|83
1616402301|00:d0:c9:f3:00:70|91
1616402301|1c:42:7d:90:55:73|91
1616402316|00:d0:c9:f3:00:70|91
1616402316|94:9f:3e:e2:b8:17|83
1616402316|00:02:36:f0:07:e2|88
1616402331|4c:4e:03:cd:bd:19|91
1616402331|28:f0:76:14:84:f2|92
1616402331|94:9f:3e:e2:b8:17|82
1616402331|f4:ce:46:50:ad:42|91
1616402346|94:9f:3e:e2:b8:17|81
1616402346|4c:4e:03:cd:bd:19|91
1616402361|00:0c:e7:ef:01:27|91
1616402361|04:b4:29:e2:5d:23|78
1616402361|94:9f:3e:e2:b8:17|82
1616402376|c0:d9:62:76:ad:b4|91
1616402376|f4:ce:46:50:ad:42|92
1616402376|bc:75:36:74:e6:c2|90
1616402376|94:9f:3e:e2:b8:17|83
1616402376|00:0c:e7:ef:01:27|91
1616402391|94:9f:3e:e2:b8:17|82
1616402391|28:f0:76:14:84:f2|90
1616402391|a0:27:b6:97:6d:7d|92
1616402391|c0:d9:62:76:ad:b4|91
1616402406|94:9f:3e:e2:b8:17|82
1616402406|00:d0:c9:f3:00:70|89
1616402421|94:9f:3e:e2:b8:17|82
1616402421|00:d0:c9:f3:00:70|90
1616402436|c4:18:e9:e4:6a:af|88
1616402436|d8:9b:3b:4f:9a:15|92
1616402436|94:9f:3e:e2:b8:17|83
1616402451|24:18:1d:c5:7e:a0|89
1616402451|94:9f:3e:e2:b8:17|82
1616402451|00:d0:c9:f3:00:70|91
1616402451|c4:18:e9:e4:6a:af|88
1616402466|94:9f:3e:e2:b8:17|83
1616402466|24:18:1d:c5:7e:a0|89
1616402481|00:d0:c9:f3:00:70|91
1616402496|a8:81:95:2d:19:fc|89
1616402496|24:18:1d:c5:7e:a0|87
1616402496|94:9f:3e:e2:b8:17|83
1616402511|24:18:1d:c5:7e:a0|89
1616402511|28:b2:bd:55:4d:f8|90
1616402511|00:d0:c9:f3:00:70|92
1616402511|94:9f:3e:e2:b8:17|83
1616402511|f4:ce:46:50:ad:42|91
1616402511|a8:81:95:2d:19:fc|89
1616402526|94:9f:3e:e2:b8:17|83
1616402526|24:18:1d:c5:7e:a0|89
1616402541|c0:8c:71:8d:67:a0|91
1616402541|00:d0:c9:f3:00:70|89
1616402556|94:9f:3e:e2:b8:17|82
1616402571|54:b1:21:aa:eb:38|91
1616402571|94:9f:3e:e2:b8:17|82
1616402586|94:9f:3e:e2:b8:17|83
1616402586|c0:d9:62:76:ad:b4|91
1616402586|00:d0:c9:f3:00:70|91
1616402586|54:b1:21:aa:eb:38|91
1616402601|94:9f:3e:e2:b8:17|83
1616402616|ec:f3:42:23:05:65|90
1616402616|94:9f:3e:e2:b8:17|83
1616402616|00:d0:c9:f3:00:70|91
1616402631|28:b2:bd:55:4d:f8|89
1616402631|94:9f:3e:e2:b8:17|83
1616402631|00:d0:c9:f3:00:70|89
1616402631|ec:f3:42:23:05:65|90
1616402646|00:d0:c9:f3:00:70|90
1616402646|28:b2:bd:55:4d:f8|89
1616402661|c0:d9:62:76:ad:b4|91
1616402661|00:d0:c9:f3:00:70|91
1616402661|94:9f:3e:e2:b8:17|83
1616402676|94:9f:3e:e2:b8:17|82
1616402676|f4:ce:46:50:ad:42|90
1616402676|c0:d9:62:76:ad:b4|91
1616402691|28:f0:76:14:84:f2|92
1616402691|94:9f:3e:e2:b8:17|83
1616402691|80:ce:b9:20:4b:e4|90
1616402706|94:9f:3e:e2:b8:17|83
1616402706|28:f0:76:14:84:f2|92
1616402721|dc:fb:48:9f:d1:66|91
1616402721|94:9f:3e:e2:b8:17|82
1616402736|94:9f:3e:e2:b8:17|83
1616402736|c0:d9:62:76:ad:b4|91
1616402736|00:d0:c9:f3:00:70|91
1616402751|24:46:c8:d3:91:c2|90
1616402751|28:f0:76:14:84:f2|91
1616402751|00:d0:c9:f3:00:70|90
1616402751|94:9f:3e:e2:b8:17|83
1616402766|00:d0:c9:f3:00:70|91
1616402766|94:9f:3e:e2:b8:17|82
1616402781|3c:f0:11:b6:0c:92|93
1616402781|94:9f:3e:e2:b8:17|83
1616402781|00:d0:c9:f3:00:70|91
1616402781|58:40:4e:e0:a1:aa|92
1616402796|c0:8c:71:8d:62:c6|93
1616402796|94:9f:3e:e2:b8:17|83
1616402796|f4:ce:46:50:ad:42|92
1616402811|28:b2:bd:55:4d:f8|88
1616402811|5c:51:4f:09:59:bb|88
1616402811|28:f0:76:14:84:f2|90
1616402811|94:9f:3e:e2:b8:17|82
1616402811|c0:8c:71:8d:62:c6|93
1616402826|94:9f:3e:e2:b8:17|82
1616402826|28:b2:bd:55:4d:f8|88
1616402841|94:9f:3e:e2:b8:17|83
1616402841|00:d0:c9:f3:00:70|91
1616402856|94:9f:3e:e2:b8:17|83
1616402871|28:b2:bd:55:4d:f8|92
1616402871|00:0c:e7:71:8d:55|94
1616402871|94:9f:3e:e2:b8:17|83
1616402886|00:d0:c9:f3:00:70|90
1616402886|94:9f:3e:e2:b8:17|83
1616402886|28:b2:bd:55:4d:f8|92
1616402901|94:9f:3e:e2:b8:17|83
1616402901|00:d0:c9:f3:00:70|92
1616402916|94:9f:3e:e2:b8:17|82
1616402931|f4:ce:46:50:ad:42|92
1616402931|94:9f:3e:e2:b8:17|83
1616402946|94:9f:3e:e2:b8:17|83
1616402961|dc:fb:48:9f:d1:66|90
1616402961|f4:ce:46:50:ad:42|93
1616402961|94:9f:3e:e2:b8:17|82
1616402961|00:d0:c9:f3:00:70|91
1616402976|44:2a:60:de:b8:e6|85
1616402976|94:9f:3e:e2:b8:17|82
1616402991|28:b2:bd:55:4d:f8|90
1616402991|28:f0:76:14:84:f2|92
1616402991|44:2a:60:de:b8:e6|88
1616402991|94:9f:3e:e2:b8:17|82
1616402991|00:d0:c9:f3:00:70|93
1616403006|94:9f:3e:e2:b8:17|82
1616403006|00:d0:c9:f3:00:70|92
1616403006|28:b2:bd:55:4d:f8|90
1616403021|94:9f:3e:e2:b8:17|83
1616403036|94:9f:3e:e2:b8:17|83
1616403051|94:9f:3e:e2:b8:17|82
1616403051|04:b4:29:e2:5d:23|61
1616403051|f4:ce:46:50:ad:42|91
1616403066|00:d0:c9:f3:00:70|93
1616403066|94:9f:3e:e2:b8:17|82
1616403081|94:9f:3e:e2:b8:17|83
1616403081|dc:fb:48:9f:d1:66|90
1616403096|94:9f:3e:e2:b8:17|83
1616403111|14:9d:09:17:d7:99|92
1616403111|c0:d9:62:76:ad:b4|91
1616403111|94:9f:3e:e2:b8:17|83
1616403111|f4:ce:46:50:ad:42|92
1616403126|00:d0:c9:f3:00:70|89
1616403126|00:02:36:f0:05:07|88
1616403126|94:9f:3e:e2:b8:17|82
1616403126|14:9d:09:17:d7:99|91
1616403141|b0:e2:35:c1:0b:3d|65
1616403141|dc:fb:48:9f:d1:66|92
1616403141|94:9f:3e:e2:b8:17|84
1616403141|00:d0:c9:f3:00:70|90
1616403156|94:9f:3e:e2:b8:17|83
1616403156|b0:e2:35:c1:0b:3d|62
1616403171|94:9f:3e:e2:b8:17|82
1616403186|94:9f:3e:e2:b8:17|83
1616403201|94:9f:3e:e2:b8:17|82
1616403216|88:bd:45:97:31:5c|93
1616403216|94:9f:3e:e2:b8:17|82
1616403216|44:2a:60:de:b8:e6|84
1616403231|80:58:f8:2f:72:c8|91
1616403231|ac:5f:3e:e5:37:f6|92
1616403231|88:bd:45:97:31:5c|93
1616403246|00:d0:c9:f3:00:70|89
1616403246|28:b2:bd:55:4d:f8|87
1616403246|ac:5f:3e:e5:37:f6|94
1616403246|94:9f:3e:e2:b8:17|83
1616403261|00:0c:e7:49:57:6d|93
1616403261|00:be:3b:df:5a:7e|93
1616403261|dc:fb:48:9f:d1:66|91
1616403261|f4:ce:46:50:ad:42|90
1616403276|9c:8d:7c:8a:9b:b8|91
1616403276|00:d0:c9:f3:00:70|91
1616403276|94:9f:3e:e2:b8:17|82
1616403276|10:07:b6:e0:03:4b|91
1616403276|98:49:14:cc:3a:20|92
1616403291|a0:cc:2b:09:e3:37|95
1616403291|00:d0:c9:f3:00:70|89
1616403291|3c:57:6c:59:7a:3d|90
1616403291|94:9f:3e:e2:b8:17|83
1616403306|00:d0:c9:f3:00:70|91
1616403306|94:9f:3e:e2:b8:17|83
1616403306|a0:cc:2b:09:e3:37|95
1616403321|94:9f:3e:e2:b8:17|84
1616403351|74:eb:80:59:9a:7c|91
1616403351|28:f0:76:14:84:f2|88
1616403351|94:9f:3e:e2:b8:17|82
1616403351|10:a4:be:41:f0:9a|91
1616403366|94:9f:3e:e2:b8:17|83
1616403366|28:b2:bd:55:4d:f8|90
1616403366|00:06:c6:58:a2:c1|94
1616403366|00:d0:c9:f3:00:70|90
1616403366|74:eb:80:59:9a:7c|91
1616403381|00:06:c6:58:a2:c1|92
1616403381|94:9f:3e:e2:b8:17|82
1616403396|dc:f7:56:61:f9:c2|92
1616403396|94:9f:3e:e2:b8:17|83
1616403396|10:a4:be:41:f0:9a|90
1616403396|00:06:c6:58:a2:c1|93
1616403411|f4:19:c1:60:9f:25|93
1616403411|b8:c1:11:2d:09:8c|91
1616403411|28:f0:76:14:84:f2|93
1616403411|94:9f:3e:e2:b8:17|82
1616403411|00:06:c6:58:a2:c1|93
1616403411|10:a4:be:41:f0:9a|90
1616403426|94:9f:3e:e2:b8:17|83
1616403426|00:d0:c9:f3:00:70|90
1616403426|f4:19:c1:60:9f:25|93
1616403441|60:1d:91:92:4e:4d|89
1616403441|94:9f:3e:e2:b8:17|83
1616403456|94:9f:3e:e2:b8:17|83
1616403456|60:1d:91:92:4e:4d|89
1616403471|94:9f:3e:e2:b8:17|82
1616403486|94:9f:3e:e2:b8:17|84
1616403501|dc:fb:48:9f:d1:66|92
1616403501|94:9f:3e:e2:b8:17|82
1616403516|94:9f:3e:e2:b8:17|83
1616403531|d4:53:83:e2:07:91|92
1616403531|24:46:c8:d3:00:e2|91
1616403531|c0:d9:62:76:ad:b4|89
1616403531|94:9f:3e:e2:b8:17|82
1616403531|f4:ce:46:50:ad:42|89
1616403546|d4:c9:4b:b7:4a:9f|91
1616403546|24:46:c8:d3:6f:48|93
1616403546|94:9f:3e:e2:b8:17|82
1616403546|d4:53:83:e2:07:91|92
1616403561|04:b4:29:e2:5d:23|78
1616403561|94:9f:3e:e2:b8:17|83
1616403561|c0:8c:71:8d:96:26|91
1616403561|d4:c9:4b:b7:4a:9f|91
1616403576|c0:8c:71:8d:96:26|90
1616403576|58:40:4e:e0:a1:aa|90
1616403576|94:9f:3e:e2:b8:17|83
1616403576|04:b4:29:e2:5d:23|78
1616403591|94:9f:3e:e2:b8:17|82
1616403591|c0:8c:71:8d:96:26|90
1616403606|f4:ce:46:50:ad:42|90
1616403606|28:b2:bd:55:4d:f8|87
1616403606|94:9f:3e:e2:b8:17|82
1616403621|3c:f0:11:b6:0c:92|93
1616403621|00:d0:c9:f3:00:70|90
1616403621|94:9f:3e:e2:b8:17|82
1616403621|f4:ce:46:50:ad:42|90
1616403636|94:9f:3e:e2:b8:17|82
1616403636|3c:f0:11:b6:0c:92|93
1616403651|28:f0:76:14:84:f2|90
1616403651|94:9f:3e:e2:b8:17|83
1616403666|98:b8:bc:f5:55:ca|92
1616403666|94:9f:3e:e2:b8:17|82
1616403666|38:37:8b:ea:b0:81|84
1616403666|00:d0:c9:f3:00:70|89
1616403666|28:f0:76:14:84:f2|90
1616403681|18:87:40:6b:00:34|91
1616403681|94:9f:3e:e2:b8:17|83
1616403681|98:b8:bc:f5:55:ca|92
1616403696|94:9f:3e:e2:b8:17|83
1616403696|f4:ce:46:50:ad:42|91
1616403711|94:9f:3e:e2:b8:17|83
1616403711|00:d0:c9:f3:00:70|91
1616403726|94:9f:3e:e2:b8:17|82
1616403741|94:9f:3e:e2:b8:17|82
1616403756|94:9f:3e:e2:b8:17|83
1616403771|00:d0:c9:f3:00:70|91
1616403771|94:9f:3e:e2:b8:17|82
1616403786|70:5a:ac:6c:65:16|91
1616403786|94:9f:3e:e2:b8:17|83
1616403786|00:d0:c9:f3:00:70|91
1616403786|f4:ce:46:50:ad:42|91
1616403801|94:9f:3e:e2:b8:17|83
1616403816|00:d0:c9:f3:00:70|90
1616403816|94:9f:3e:e2:b8:17|83
1616403816|d4:c9:4b:6b:bf:56|92
1616403831|00:d0:c9:f3:00:70|91
1616403831|94:9f:3e:e2:b8:17|82
1616403846|94:9f:3e:e2:b8:17|83
1616403846|00:d0:c9:f3:00:70|91
1616403861|3c:57:6c:59:7a:3d|86
1616403861|94:9f:3e:e2:b8:17|83
1616403861|f4:ce:46:50:ad:42|90
1616403876|94:9f:3e:e2:b8:17|84
1616403876|00:d0:c9:f3:00:70|90
1616403891|94:9f:3e:e2:b8:17|82
1616403891|00:12:4e:23:8e:b5|92
1616403891|f4:ce:46:50:ad:42|92
1616403906|00:d0:c9:f3:00:70|89
1616403906|c0:d9:62:76:ad:b4|89
1616403906|3c:57:6c:59:7a:3d|84
1616403906|94:9f:3e:e2:b8:17|82
1616403921|00:d0:c9:f3:00:70|92
1616403936|d4:c9:4b:6e:3a:87|86
1616403936|00:d0:c9:f3:00:70|92
1616403936|94:9f:3e:e2:b8:17|83
1616403951|28:f0:76:14:84:f2|87
1616403951|00:d0:c9:f3:00:70|89
1616403951|f4:ce:46:50:ad:42|90
1616403951|94:9f:3e:e2:b8:17|83
1616403951|00:0c:e7:97:c3:6c|90
1616403966|00:d0:c9:f3:00:70|92
1616403966|d4:c9:4b:70:0b:86|92
1616403966|94:9f:3e:e2:b8:17|83
1616403981|94:9f:3e:e2:b8:17|82
1616403981|c0:d9:62:76:ad:b4|91
1616403981|00:d0:c9:f3:00:70|91
1616403996|9c:8d:7c:8a:9b:b8|92
1616403996|94:9f:3e:e2:b8:17|82
1616403996|3c:f0:11:b6:0c:92|92
1616404011|90:06:28:6e:92:e5|90
1616404011|9c:8d:7c:8a:9b:b8|92
1616404026|94:9f:3e:e2:b8:17|82
1616404026|60:1d:91:92:64:32|92
1616404026|c0:8c:71:8e:ae:79|91
1616404026|90:06:28:6e:92:e5|91
1616404041|f4:ce:46:50:ad:42|90
1616404041|94:9f:3e:e2:b8:17|82
1616404056|30:b4:b8:74:b1:7a|92
1616404056|3c:f0:11:b6:0c:92|92
1616404056|94:9f:3e:e2:b8:17|83
1616404056|00:d0:c9:f3:00:70|90
1616404071|28:f0:76:14:84:f2|90
1616404071|00:d0:c9:f3:00:70|92
1616404071|94:9f:3e:e2:b8:17|83
1616404071|10:a4:be:41:f0:9a|91
1616404071|30:b4:b8:74:b1:7a|92
1616404086|04:b4:29:e2:5d:23|71
1616404086|00:d0:c9:f3:00:70|89
1616404086|94:9f:3e:e2:b8:17|83
1616404086|28:f0:76:14:84:f2|90
