1616400753|28:ed:e0:96:71:cd|94
1616400753|40:f5:20:44:c8:9c|62
1616400753|00:d0:c9:f3:00:70|92
1616400768|ac:b5:7d:f3:13:ed|94
1616400783|28:ed:e0:96:71:cd|92
1616400783|ac:b5:7d:f3:13:ed|94
1616400798|00:d0:c9:f3:00:70|91
1616400813|28:f0:76:14:84:f2|91
1616400813|28:ed:e0:96:71:cd|95
1616400828|28:f0:76:14:84:f2|91
1616400843|28:ed:e0:96:71:cd|92
1616400843|28:f0:76:14:84:f2|91
1616400858|40:f5:20:46:c1:e4|68
1616400858|00:d0:c9:f3:00:70|88
1616400858|28:ed:e0:96:71:cd|92
1616400873|28:f0:76:14:84:f2|93
1616400873|40:f5:20:46:c1:e4|68
1616400888|28:f0:76:14:84:f2|93
1616400903|28:ed:e0:96:71:cd|94
1616400918|40:f5:20:46:c5:40|71
1616400918|28:ed:e0:96:71:cd|94
1616400963|28:ed:e0:96:71:cd|94
1616400963|00:d0:c9:f3:00:70|90
1616400978|28:ed:e0:96:71:cd|94
1616400993|34:8b:75:2a:90:bb|92
1616400993|54:b8:02:47:9a:68|91
1616401008|28:f0:76:14:84:f2|95
1616401008|34:8b:75:2a:90:bb|92
1616401023|28:ed:e0:96:71:cd|94
1616401038|28:ed:e0:96:71:cd|94
1616401053|28:ed:e0:96:71:cd|93
1616401068|28:f0:76:14:84:f2|92
1616401068|28:ed:e0:96:71:cd|93
1616401083|28:ed:e0:96:71:cd|92
1616401083|00:d0:c9:f3:00:70|91
1616401098|28:ed:e0:96:71:cd|93
1616401128|28:ed:e0:96:71:cd|94
1616401143|28:ed:e0:96:71:cd|94
1616401173|28:ed:e0:96:71:cd|92
1616401173|00:d0:c9:f3:00:70|89
1616401188|28:ed:e0:96:71:cd|92
1616401203|28:ed:e0:96:71:cd|94
1616401203|00:d0:c9:f3:00:70|93
1616401218|28:ed:e0:96:71:cd|94
1616401233|28:ed:e0:96:71:cd|93
1616401233|00:d0:c9:f3:00:70|91
1616401248|28:ed:e0:96:71:cd|93
1616401263|28:ed:e0:96:71:cd|94
1616401278|28:ed:e0:96:71:cd|94
1616401293|28:ed:e0:96:71:cd|93
1616401308|28:f0:76:14:84:f2|92
1616401308|28:ed:e0:96:71:cd|93
1616401323|28:ed:e0:96:71:cd|92
1616401323|c0:8c:71:8d:b4:50|94
1616401338|28:ed:e0:96:71:cd|92
1616401353|ac:5f:3e:f4:e0:3f|69
1616401353|ac:b5:7d:f3:13:ed|94
1616401353|28:ed:e0:96:71:cd|94
1616401368|00:d0:c9:f3:00:70|89
1616401368|ac:5f:3e:f4:e0:3f|69
1616401383|28:ed:e0:96:71:cd|94
1616401383|00:d0:c9:f3:00:70|91
1616401398|28:ed:e0:96:71:cd|94
1616401413|28:ed:e0:96:71:cd|95
1616401428|00:d0:c9:f3:00:70|90
1616401443|28:ed:e0:96:71:cd|93
1616401443|00:d0:c9:f3:00:70|90
1616401458|c4:18:e9:e4:6a:af|92
1616401458|28:ed:e0:96:71:cd|93
1616401473|ac:5f:3e:f4:e0:3f|66
1616401488|00:d0:c9:f3:00:70|90
1616401503|28:ed:e0:96:71:cd|93
1616401518|00:d0:c9:f3:00:70|90
1616401518|28:ed:e0:96:71:cd|93
1616401533|28:ed:e0:96:71:cd|93
1616401548|9c:e0:63:ef:a3:3b|93
1616401563|28:ed:e0:96:71:cd|92
1616401578|ac:5f:3e:f4:e0:3f|62
1616401578|28:ed:e0:96:71:cd|92
1616401593|00:d0:c9:f3:00:70|92
1616401593|ac:5f:3e:f4:e0:3f|62
1616401608|00:d0:c9:f3:00:70|92
1616401623|28:ed:e0:96:71:cd|94
1616401623|00:d0:c9:f3:00:70|92
1616401638|28:ed:e0:96:71:cd|95
1616401653|28:ed:e0:96:71:cd|94
1616401668|28:f0:76:14:84:f2|93
1616401668|28:ed:e0:96:71:cd|94
1616401683|28:ed:e0:96:71:cd|94
1616401683|28:f0:76:14:84:f2|93
1616401698|00:d0:c9:f3:00:70|91
1616401713|00:d0:c9:f3:00:70|90
1616401713|28:ed:e0:96:71:cd|93
1616401728|00:d0:c9:f3:00:70|90
1616401773|00:d0:c9:f3:00:70|91
1616401788|ac:b5:7d:f3:13:ed|93
1616401788|00:d0:c9:f3:00:70|91
1616401788|28:ed:e0:96:71:cd|93
1616401803|ac:b5:7d:f3:13:ed|93
1616401818|00:d0:c9:f3:00:70|92
1616401833|ac:5f:3e:f4:e0:3f|64
1616401833|04:b4:29:e2:5d:23|76
1616401833|28:ed:e0:96:71:cd|94
1616401833|00:d0:c9:f3:00:70|92
1616401848|ac:5f:3e:f4:e0:3f|90
1616401863|28:ed:e0:96:71:cd|92
1616401878|28:ed:e0:96:71:cd|92
1616401893|28:ed:e0:96:71:cd|95
1616401908|28:f0:76:14:84:f2|90
1616401908|00:d0:c9:f3:00:70|89
1616401923|28:ed:e0:96:71:cd|91
1616401923|00:d0:c9:f3:00:70|89
1616401923|28:f0:76:14:84:f2|90
1616401938|28:ed:e0:96:71:cd|91
1616401953|28:ed:e0:96:71:cd|91
1616401968|28:ed:e0:96:71:cd|91
1616401983|28:ed:e0:96:71:cd|93
1616401998|28:ed:e0:96:71:cd|93
1616402013|00:d0:c9:f3:00:70|91
1616402013|28:ed:e0:96:71:cd|94
1616402028|28:ed:e0:96:71:cd|95
1616402028|00:d0:c9:f3:00:70|90
1616402043|28:ed:e0:96:71:cd|93
1616402058|28:ed:e0:96:71:cd|93
1616402073|28:ed:e0:96:71:cd|94
1616402088|28:ed:e0:96:71:cd|94
1616402088|c0:8c:71:8d:9c:b6|94
1616402088|28:f0:76:14:84:f2|95
1616402088|ac:b5:7d:f3:13:ed|91
1616402103|00:d0:c9:f3:00:70|90
1616402103|28:ed:e0:96:71:cd|96
1616402118|00:d0:c9:f3:00:70|91
1616402133|28:ed:e0:96:71:cd|95
1616402148|24:46:c8:d9:c4:63|92
1616402148|28:ed:e0:96:71:cd|92
1616402163|28:ed:e0:96:71:cd|94
1616402163|24:46:c8:d9:c4:63|92
1616402178|28:ed:e0:96:71:cd|94
1616402193|28:ed:e0:96:71:cd|93
1616402223|00:d0:c9:f3:00:70|89
1616402223|28:ed:e0:96:71:cd|93
1616402238|00:d0:c9:f3:00:70|88
1616402253|00:d0:c9:f3:00:70|87
1616402253|28:ed:e0:96:71:cd|93
1616402268|00:d0:c9:f3:00:70|87
1616402283|28:ed:e0:96:71:cd|94
1616402298|00:d0:c9:f3:00:70|89
1616402313|28:ed:e0:96:71:cd|93
1616402328|28:ed:e0:96:71:cd|93
1616402343|28:ed:e0:96:71:cd|94
1616402358|04:b4:29:e2:5d:23|70
1616402358|28:ed:e0:96:71:cd|93
1616402373|ac:b5:7d:f3:13:ed|92
1616402373|28:ed:e0:96:71:cd|93
1616402388|28:f0:76:14:84:f2|91
1616402388|28:ed:e0:96:71:cd|94
1616402388|ac:b5:7d:f3:13:ed|92
1616402403|24:18:1d:c5:7e:a0|92
1616402403|28:ed:e0:96:71:cd|94
1616402403|00:d0:c9:f3:00:70|90
1616402403|28:f0:76:14:84:f2|91
1616402418|24:18:1d:c5:7e:a0|90
1616402433|28:ed:e0:96:71:cd|94
1616402448|24:18:1d:c5:7e:a0|93
1616402448|00:d0:c9:f3:00:70|91
1616402448|28:ed:e0:96:71:cd|93
1616402463|98:49:14:cc:3a:20|89
1616402463|24:18:1d:c5:7e:a0|91
1616402478|98:49:14:cc:3a:20|89
1616402493|28:ed:e0:96:71:cd|94
1616402508|c4:18:e9:e4:6a:af|87
1616402508|98:49:14:cc:3a:20|91
1616402508|00:d0:c9:f3:00:70|91
1616402523|28:ed:e0:96:71:cd|93
1616402553|00:d0:c9:f3:00:70|91
1616402553|98:49:14:cc:3a:20|88
1616402553|28:ed:e0:96:71:cd|92
1616402568|28:ed:e0:96:71:cd|93
1616402568|00:d0:c9:f3:00:70|91
1616402583|28:ed:e0:96:71:cd|94
1616402598|28:ed:e0:96:71:cd|93
1616402613|28:ed:e0:96:71:cd|92
1616402613|00:d0:c9:f3:00:70|90
1616402628|28:ed:e0:96:71:cd|94
1616402643|28:ed:e0:96:71:cd|93
1616402658|28:ed:e0:96:71:cd|92
1616402673|ec:f3:42:23:05:65|94
1616402673|28:ed:e0:96:71:cd|93
1616402703|98:49:14:cc:3a:20|91
1616402703|00:d0:c9:f3:00:70|90
1616402703|28:ed:e0:96:71:cd|93
1616402718|98:49:14:cc:3a:20|91
1616402733|28:ed:e0:96:71:cd|94
1616402748|28:f0:76:14:84:f2|93
1616402748|98:49:14:cc:3a:20|88
1616402748|00:d0:c9:f3:00:70|89
1616402748|28:ed:e0:96:71:cd|94
1616402778|28:ed:e0:96:71:cd|93
1616402793|28:ed:e0:96:71:cd|91
1616402808|28:f0:76:14:84:f2|94
1616402808|28:ed:e0:96:71:cd|94
1616402823|00:d0:c9:f3:00:70|89
1616402838|00:d0:c9:f3:00:70|91
1616402838|28:ed:e0:96:71:cd|93
1616402853|24:18:1d:c5:7e:a0|94
1616402853|00:d0:c9:f3:00:70|91
1616402868|24:18:1d:c5:7e:a0|94
1616402883|28:ed:e0:96:71:cd|94
1616402898|00:d0:c9:f3:00:70|90
1616402928|00:d0:c9:f3:00:70|91
1616402943|98:49:14:cc:3a:20|89
1616402943|28:ed:e0:96:71:cd|94
1616402958|ac:b5:7d:f3:13:ed|93
1616402958|98:49:14:cc:3a:20|89
1616402988|98:49:14:cc:3a:20|88
1616403003|28:ed:e0:96:71:cd|95
1616403018|28:ed:e0:96:71:cd|94
1616403033|28:ed:e0:96:71:cd|93
1616403048|28:f0:76:14:84:f2|91
1616403048|04:b4:29:e2:5d:23|72
1616403048|28:ed:e0:96:71:cd|93
1616403063|28:f0:76:14:84:f2|91
1616403078|28:f0:76:14:84:f2|91
1616403093|14:9d:09:17:d7:99|93
1616403093|28:ed:e0:96:71:cd|94
1616403108|28:ed:e0:96:71:cd|95
1616403108|14:9d:09:17:d7:99|93
1616403138|b0:e2:35:c1:0b:3d|59
1616403138|98:49:14:cc:3a:20|91
1616403138|00:02:36:f0:05:07|92
1616403153|b0:e2:35:c1:0b:3d|61
1616403168|28:ed:e0:96:71:cd|92
1616403183|98:49:14:cc:3a:20|91
1616403183|28:ed:e0:96:71:cd|94
1616403198|3c:bb:fd:3a:b7:31|94
1616403198|28:ed:e0:96:71:cd|95
1616403198|98:49:14:cc:3a:20|91
1616403213|00:d0:c9:f3:00:70|90
1616403228|28:f0:76:14:84:f2|90
1616403228|00:d0:c9:f3:00:70|90
1616403243|28:ed:e0:96:71:cd|94
1616403258|00:d0:c9:f3:00:70|92
1616403258|28:ed:e0:96:71:cd|93
1616403273|00:d0:c9:f3:00:70|91
1616403288|b0:72:bf:d0:b2:bf|93
1616403303|49:7c:77:1a:68:b3|91
1616403303|b0:72:bf:d0:b2:bf|93
1616403318|24:18:1d:c5:7e:a0|92
1616403318|28:ed:e0:96:71:cd|93
1616403333|24:18:1d:c5:7e:a0|92
1616403363|a0:2c:50:1a:fa:32|92
1616403363|00:d0:c9:f3:00:70|90
1616403378|28:ed:e0:96:71:cd|93
1616403378|a0:2c:50:1a:fa:32|92
1616403393|28:ed:e0:96:71:cd|92
1616403408|28:f0:76:14:84:f2|91
1616403408|28:ed:e0:96:71:cd|92
1616403423|28:f0:76:14:84:f2|91
1616403438|28:ed:e0:96:71:cd|93
1616403438|00:d0:c9:f3:00:70|90
1616403453|28:ed:e0:96:71:cd|93
1616403468|28:f0:76:14:84:f2|92
1616403468|28:ed:e0:96:71:cd|93
1616403468|00:d0:c9:f3:00:70|89
1616403483|28:f0:76:14:84:f2|92
1616403498|28:ed:e0:96:71:cd|93
1616403498|ac:b5:7d:f3:13:ed|93
1616403513|28:ed:e0:96:71:cd|93
1616403528|28:ed:e0:96:71:cd|93
1616403528|00:d0:c9:f3:00:70|91
1616403543|28:ed:e0:96:71:cd|93
1616403558|04:b4:29:e2:5d:23|75
1616403558|28:ed:e0:96:71:cd|92
1616403573|04:b4:29:e2:5d:23|76
1616403588|28:f0:76:14:84:f2|91
1616403588|3c:bb:fd:3a:b7:31|93
1616403588|28:ed:e0:96:71:cd|93
1616403603|28:f0:76:14:84:f2|91
1616403618|3c:bb:fd:3a:b7:31|94
1616403618|00:d0:c9:f3:00:70|91
1616403633|28:ed:e0:96:71:cd|93
1616403648|28:f0:76:14:84:f2|92
1616403648|28:ed:e0:96:71:cd|92
1616403663|28:f0:76:14:84:f2|92
1616403678|28:ed:e0:96:71:cd|92
1616403693|28:ed:e0:96:71:cd|92
1616403708|28:ed:e0:96:71:cd|92
1616403723|28:ed:e0:96:71:cd|92
1616403738|28:ed:e0:96:71:cd|92
1616403738|00:d0:c9:f3:00:70|89
1616403753|28:ed:e0:96:71:cd|92
1616403768|28:ed:e0:96:71:cd|92
1616403783|28:ed:e0:96:71:cd|92
1616403798|28:ed:e0:96:71:cd|93
1616403813|28:ed:e0:96:71:cd|93
1616403828|28:ed:e0:96:71:cd|93
1616403828|00:d0:c9:f3:00:70|90
1616403843|28:f0:76:14:84:f2|90
1616403843|28:ed:e0:96:71:cd|93
1616403873|b0:52:16:72:c2:d1|91
1616403888|28:ed:e0:96:71:cd|93
1616403888|c8:d7:b0:ce:31:2c|91
1616403903|00:d0:c9:f3:00:70|89
1616403903|c8:d7:b0:ce:31:2c|95
1616403903|28:ed:e0:96:71:cd|93
1616403918|28:ed:e0:96:71:cd|93
1616403933|28:ed:e0:96:71:cd|93
1616403948|28:ed:e0:96:71:cd|92
1616403963|28:ed:e0:96:71:cd|92
1616403978|28:ed:e0:96:71:cd|92
1616404008|28:ed:e0:96:71:cd|93
1616404023|00:d0:c9:f3:00:70|89
1616404038|28:ed:e0:96:71:cd|92
1616404038|00:d0:c9:f3:00:70|89
