1622029553|00:01:2f:f4:ad:00|71
1621855105|00:0a:f5:49:a3:90|76
1622032195|00:0c:e7:00:23:77|75
1621838488|00:0c:e7:00:3a:24|83
1621927939|00:0c:e7:00:a4:4b|78
1622029183|00:0c:e7:00:b4:c0|75
1621936743|00:0c:e7:00:bd:b5|72
1621928374|00:0c:e7:01:06:21|74
1621856553|00:0c:e7:01:76:dd|64
1621950452|00:0c:e7:01:a1:57|81
1621855066|00:0c:e7:01:cf:b7|64
1621946636|00:0c:e7:01:e2:41|77
1621864965|00:0c:e7:01:f7:e3|76
1621933265|00:0c:e7:02:0b:50|77
1621838210|00:0c:e7:02:97:c6|60
1622028481|00:0c:e7:02:b4:30|88
1621842187|00:0c:e7:03:1b:da|72
1621941555|00:0c:e7:03:70:c8|67
1622016447|00:0c:e7:03:9d:3f|72
1622028652|00:0c:e7:03:cb:eb|79
1622022233|00:0c:e7:03:e7:4e|79
1621931938|00:0c:e7:04:00:dd|63
1621853291|00:0c:e7:04:05:b2|68
1622037724|00:0c:e7:04:72:91|83
1622033385|00:0c:e7:04:bc:70|71
1622011836|00:0c:e7:04:d5:2e|74
1621861710|00:0c:e7:05:2a:89|62
1622018981|00:0c:e7:05:59:12|72
1621857253|00:0c:e7:05:dc:fe|75
1622011051|00:0c:e7:06:07:bd|69
1621858212|00:0c:e7:06:11:11|77
1621943586|00:0c:e7:06:1e:56|80
1621927284|00:0c:e7:06:82:5d|75
1621950972|00:0c:e7:06:a1:47|82
1621849086|00:0c:e7:07:18:2e|63
1621856649|00:0c:e7:07:be:c0|80
1621930680|00:0c:e7:08:3c:74|67
1621852361|00:0c:e7:08:5b:df|79
1621854235|00:0c:e7:08:d1:0d|62
1621943834|00:0c:e7:08:fe:d8|70
1621933365|00:0c:e7:09:16:f0|75
1621851406|00:0c:e7:09:82:d1|69
1622017287|00:0c:e7:0a:1e:de|82
1622021955|00:0c:e7:0a:44:77|83
1621929970|00:0c:e7:0b:01:02|75
1622018590|00:0c:e7:0c:23:84|74
1622020621|00:0c:e7:0c:30:d4|80
1621927811|00:0c:e7:0c:76:07|72
1622025806|00:0c:e7:0d:0b:bc|83
1622028391|00:0c:e7:0d:5a:72|74
1621944454|00:0c:e7:0d:81:95|63
1621861764|00:0c:e7:0d:96:c8|78
1622026915|00:0c:e7:0d:a1:79|68
1621858577|00:0c:e7:0d:ba:3c|68
1622022559|00:0c:e7:0d:ca:f9|80
1621949822|00:0c:e7:0e:4b:2c|72
1622031585|00:0c:e7:0f:3f:31|75
1621943464|00:0c:e7:0f:4c:3f|68
1621944538|00:0c:e7:0f:83:75|71
1621930611|00:0c:e7:0f:98:f6|77
1622027946|00:0c:e7:0f:b7:fd|81
1621945599|00:0c:e7:0f:b9:59|70
1621932009|00:0c:e7:0f:bb:f9|57
1622035437|00:0c:e7:11:08:40|79
1621863702|00:0c:e7:11:b0:43|82
1621858112|00:0c:e7:12:94:00|64
1621946290|00:0c:e7:12:ef:3d|70
1621930193|00:0c:e7:13:09:3b|72
1621858455|00:0c:e7:13:71:2d|76
1622016484|00:0c:e7:13:c2:54|70
1622018615|00:0c:e7:13:c8:bf|74
1621938378|00:0c:e7:14:1c:55|71
1622018427|00:0c:e7:14:2b:e6|65
1622021981|00:0c:e7:14:68:fb|78
1621945677|00:0c:e7:14:6f:c4|64
1622027348|00:0c:e7:14:c6:73|51
1621945218|00:0c:e7:15:07:fd|72
1622024667|00:0c:e7:15:19:94|80
1622025063|00:0c:e7:15:3c:5a|80
1622036353|00:0c:e7:15:47:38|88
1622012704|00:0c:e7:15:48:de|68
1621944444|00:0c:e7:15:a0:b3|88
1622022855|00:0c:e7:15:dc:a4|78
1621923133|00:0c:e7:16:89:6d|68
1622013426|00:0c:e7:16:ca:c4|81
1621943438|00:0c:e7:17:1e:84|55
1621932439|00:0c:e7:17:65:e9|74
1621923292|00:0c:e7:17:96:19|80
1621928492|00:0c:e7:18:07:8f|75
1621943496|00:0c:e7:18:14:49|81
1621845981|00:0c:e7:19:36:17|82
1621856395|00:0c:e7:19:74:99|82
1622022716|00:0c:e7:19:95:1b|81
1621927635|00:0c:e7:19:d3:2c|67
1621846334|00:0c:e7:19:e6:54|70
1621934250|00:0c:e7:1a:33:5f|67
1622035706|00:0c:e7:1a:5a:66|80
1622028599|00:0c:e7:1a:f7:2c|74
1621946370|00:0c:e7:1b:ab:d6|66
1622020180|00:0c:e7:1b:b4:01|81
1621930106|00:0c:e7:1c:46:60|56
1621860241|00:0c:e7:1d:30:e7|62
1622027312|00:0c:e7:1d:75:bf|68
1621846777|00:0c:e7:1d:90:56|69
1621857062|00:0c:e7:1e:37:06|79
1621931461|00:0c:e7:1e:bf:a1|75
1621922648|00:0c:e7:1e:c7:9e|65
1621927864|00:0c:e7:1f:0f:6d|63
1621923703|00:0c:e7:1f:8c:72|66
1622015431|00:0c:e7:20:bf:95|77
1621929579|00:0c:e7:20:f0:d1|70
1622017911|00:0c:e7:22:c8:9a|77
1621855180|00:0c:e7:23:55:57|70
1621935579|00:0c:e7:23:b1:95|75
1621937593|00:0c:e7:24:9e:54|68
1621864483|00:0c:e7:25:0d:3a|74
1622034034|00:0c:e7:25:8a:43|77
1621859109|00:0c:e7:26:0c:a7|79
1622028544|00:0c:e7:26:ae:4d|66
1622018579|00:0c:e7:26:e3:b1|60
1622010574|00:0c:e7:27:58:80|79
1621950801|00:0c:e7:27:9a:d1|87
1621929654|00:0c:e7:28:48:68|78
1621846742|00:0c:e7:28:79:59|77
1621856982|00:0c:e7:29:e6:37|67
1621941532|00:0c:e7:29:ea:2f|59
1622024870|00:0c:e7:29:f7:59|74
1622012746|00:0c:e7:2b:38:6d|63
1621854371|00:0c:e7:2b:96:45|66
1621949087|00:0c:e7:2b:96:cb|61
1621934738|00:0c:e7:2b:cb:c4|57
1621849073|00:0c:e7:2c:25:12|67
1621930974|00:0c:e7:2c:8f:49|74
1621859925|00:0c:e7:2c:95:9d|72
1621936358|00:0c:e7:2c:a5:81|73
1621946787|00:0c:e7:2c:c2:7b|78
1621838600|00:0c:e7:2c:c3:ec|67
1621841828|00:0c:e7:2c:e5:b3|75
1621937716|00:0c:e7:2d:6b:33|63
1621845300|00:0c:e7:2d:6e:a1|75
1622012777|00:0c:e7:2d:d1:f6|84
1622028622|00:0c:e7:2d:d4:55|76
1622020282|00:0c:e7:2f:4c:7b|72
1621859355|00:0c:e7:30:f6:45|75
1621863729|00:0c:e7:32:40:a8|63
1621943213|00:0c:e7:33:31:9b|72
1622032153|00:0c:e7:33:47:c5|68
1621855188|00:0c:e7:33:69:b2|62
1621849060|00:0c:e7:33:93:58|60
1621928325|00:0c:e7:34:39:36|60
1622032184|00:0c:e7:34:4b:21|69
1622027276|00:0c:e7:34:83:9f|71
1622028523|00:0c:e7:34:8e:03|72
1621938130|00:0c:e7:34:ab:dd|69
1621929444|00:0c:e7:35:30:03|67
1621854801|00:0c:e7:35:4d:c6|70
1621937420|00:0c:e7:36:98:97|76
1621944494|00:0c:e7:36:a8:df|71
1621853882|00:0c:e7:36:ca:83|74
1622029710|00:0c:e7:36:fc:9e|79
1621858850|00:0c:e7:38:63:69|62
1621930073|00:0c:e7:38:ca:ae|72
1622032161|00:0c:e7:38:fd:71|68
1621944580|00:0c:e7:39:4e:d9|75
1621863377|00:0c:e7:39:a6:ae|61
1621839633|00:0c:e7:39:bd:9d|69
1622030563|00:0c:e7:39:e3:a5|67
1622010498|00:0c:e7:3a:33:a0|84
1622019770|00:0c:e7:3a:fe:01|71
1621933021|00:0c:e7:3b:32:fd|68
1621856110|00:0c:e7:3b:aa:fa|82
1622020587|00:0c:e7:3b:e0:2c|80
1621845320|00:0c:e7:3c:c1:44|79
1621930518|00:0c:e7:3c:d1:dd|76
1621845638|00:0c:e7:3c:e8:22|69
1621931221|00:0c:e7:3c:fc:fe|61
1622034644|00:0c:e7:3d:21:04|59
1621843208|00:0c:e7:3d:4c:0d|82
1621927247|00:0c:e7:3e:13:a8|68
1621927370|00:0c:e7:3e:46:1e|73
1621863096|00:0c:e7:3e:69:cc|75
1621947015|00:0c:e7:3e:69:e4|78
1622024928|00:0c:e7:3e:91:68|78
1622015823|00:0c:e7:3e:d4:40|78
1622028108|00:0c:e7:3f:29:f0|71
1621928096|00:0c:e7:3f:6c:3a|83
1621923750|00:0c:e7:3f:ce:5e|57
1621842374|00:0c:e7:40:3f:6d|74
1621943724|00:0c:e7:40:4d:90|71
1621933632|00:0c:e7:41:50:c4|83
1622031046|00:0c:e7:41:7c:c6|70
1621855646|00:0c:e7:42:44:b3|67
1621927943|00:0c:e7:42:b2:92|70
1621923569|00:0c:e7:43:b2:5a|77
1621926934|00:0c:e7:43:e3:03|76
1621938612|00:0c:e7:43:fa:38|68
1621944872|00:0c:e7:43:fe:bc|81
1621837237|00:0c:e7:44:14:03|76
1622008805|00:0c:e7:44:44:90|59
1621926197|00:0c:e7:44:87:6b|66
1621840823|00:0c:e7:45:84:f3|61
1621859967|00:0c:e7:45:ed:a8|72
1621948955|00:0c:e7:46:54:43|68
1621929955|00:0c:e7:46:55:30|78
1622028556|00:0c:e7:46:bf:10|68
1621923616|00:0c:e7:46:d8:87|81
1621839363|00:0c:e7:47:68:1c|68
1621930773|00:0c:e7:48:40:77|80
1621942549|00:0c:e7:48:60:01|72
1622030180|00:0c:e7:48:64:58|74
1622021080|00:0c:e7:48:a3:ac|75
1622008951|00:0c:e7:48:a9:16|73
1622020134|00:0c:e7:48:d3:ea|78
1621931807|00:0c:e7:49:07:40|66
1622012464|00:0c:e7:49:94:a5|72
1621926462|00:0c:e7:49:f0:22|70
1621864846|00:0c:e7:4a:3a:fc|69
1621862411|00:0c:e7:4a:98:6d|64
1621926168|00:0c:e7:4a:d4:d2|81
1621939853|00:0c:e7:4b:dd:7a|78
1621950356|00:0c:e7:4c:78:bd|84
1621854013|00:0c:e7:4c:b6:ad|78
1622029556|00:0c:e7:4c:e3:69|62
1621861448|00:0c:e7:4d:3d:92|62
1621849011|00:0c:e7:4d:ad:ea|79
1621864513|00:0c:e7:4d:b8:11|76
1621944674|00:0c:e7:4e:2d:cf|71
1621923494|00:0c:e7:4e:8a:97|76
1621928972|00:0c:e7:4e:b1:b8|69
1622018373|00:0c:e7:4e:b5:f3|63
1622018778|00:0c:e7:4e:ee:cc|75
1621938348|00:0c:e7:4f:56:06|67
1621861322|00:0c:e7:4f:92:df|69
1621862858|00:0c:e7:4f:ec:51|70
1622010212|00:0c:e7:50:16:c2|68
1621853528|00:0c:e7:50:1f:8e|70
1621860670|00:0c:e7:50:29:f6|76
1621844803|00:0c:e7:50:60:d4|67
1622010276|00:0c:e7:51:3d:0a|44
1621946411|00:0c:e7:51:5d:44|75
1621935853|00:0c:e7:52:12:a5|74
1622030033|00:0c:e7:52:25:c0|74
1622029064|00:0c:e7:52:96:d0|68
1621841921|00:0c:e7:53:23:0c|74
1622026942|00:0c:e7:53:23:82|69
1622030464|00:0c:e7:53:46:a0|78
1621864274|00:0c:e7:53:b3:a9|69
1621849995|00:0c:e7:54:32:21|73
1621838202|00:0c:e7:54:33:3f|67
1622027297|00:0c:e7:54:fc:57|73
1622022868|00:0c:e7:55:b0:a7|75
1622012097|00:0c:e7:55:d7:83|73
1621923888|00:0c:e7:56:fb:3e|54
1621927894|00:0c:e7:57:17:a6|72
1621857035|00:0c:e7:57:8d:25|71
1621936376|00:0c:e7:57:ca:06|74
1622012813|00:0c:e7:57:fa:69|66
1621862368|00:0c:e7:58:13:30|66
1621855901|00:0c:e7:58:29:5a|78
1621948481|00:0c:e7:58:3d:f0|71
1621846882|00:0c:e7:58:a1:75|61
1621939764|00:0c:e7:58:df:b4|71
1621925865|00:0c:e7:59:09:a5|73
1621850117|00:0c:e7:59:2d:92|72
1621849709|00:0c:e7:59:33:4d|69
1622030855|00:0c:e7:59:3b:3b|68
1622015313|00:0c:e7:59:b2:f9|60
1621923171|00:0c:e7:59:b4:ee|61
1621929459|00:0c:e7:5a:f2:1c|83
1622026641|00:0c:e7:5c:98:39|62
1621935766|00:0c:e7:5d:08:7d|74
1621927506|00:0c:e7:5d:09:8b|78
1621856720|00:0c:e7:5d:58:c9|72
1621844416|00:0c:e7:5d:5c:28|72
1621945733|00:0c:e7:5d:5f:f5|79
1622024820|00:0c:e7:5d:8d:f1|86
1622017770|00:0c:e7:5e:03:e0|83
1622009633|00:0c:e7:5e:35:e6|70
1621856569|00:0c:e7:5e:5a:0c|68
1621946180|00:0c:e7:5e:86:c2|76
1621930687|00:0c:e7:5e:ec:02|71
1622010649|00:0c:e7:5e:f8:63|76
1622011863|00:0c:e7:5f:44:f3|76
1621842212|00:0c:e7:5f:5d:aa|57
1622027799|00:0c:e7:61:10:e4|74
1622012863|00:0c:e7:61:5a:36|77
1622009036|00:0c:e7:61:5b:b2|70
1622027285|00:0c:e7:61:9f:ee|67
1621852849|00:0c:e7:62:48:d9|71
1621932508|00:0c:e7:62:4e:eb|57
1621930308|00:0c:e7:62:8f:32|83
1621934989|00:0c:e7:63:c6:8e|70
1621848085|00:0c:e7:63:c9:d2|68
1621950094|00:0c:e7:63:e9:60|74
1622028007|00:0c:e7:63:ed:1c|72
1621928460|00:0c:e7:63:ed:25|66
1621938174|00:0c:e7:64:8e:6b|61
1621838544|00:0c:e7:64:b0:29|73
1622030538|00:0c:e7:64:cc:0a|72
1622027676|00:0c:e7:65:b7:5c|72
1621922871|00:0c:e7:65:e8:98|78
1621926918|00:0c:e7:67:8d:1d|67
1621922875|00:0c:e7:68:01:84|80
1621942590|00:0c:e7:68:22:e3|70
1621855012|00:0c:e7:68:33:52|67
1621854935|00:0c:e7:68:9c:0c|62
1621929582|00:0c:e7:68:c3:bd|67
1621922875|00:0c:e7:68:da:d1|76
1621922675|00:0c:e7:69:5e:11|78
1622026293|00:0c:e7:69:e5:a8|73
1622021676|00:0c:e7:6a:86:30|81
1621846109|00:0c:e7:6b:42:96|66
1621848315|00:0c:e7:6b:6f:2d|81
1621926217|00:0c:e7:6c:de:b5|74
1621848092|00:0c:e7:6d:98:66|75
1621944981|00:0c:e7:6e:84:d4|82
1621943680|00:0c:e7:6e:b4:8c|72
1621941495|00:0c:e7:6e:ea:1b|73
1621853088|00:0c:e7:6f:05:b1|75
1622027311|00:0c:e7:6f:18:dc|76
1622016421|00:0c:e7:6f:33:e0|71
1621843427|00:0c:e7:6f:35:9d|80
1622018762|00:0c:e7:6f:97:53|78
1621846760|00:0c:e7:6f:cb:68|62
1622019628|00:0c:e7:70:1e:91|75
1621943816|00:0c:e7:70:53:8e|74
1621946386|00:0c:e7:71:87:5f|73
1621844789|00:0c:e7:71:9d:f8|75
1621858882|00:0c:e7:71:be:99|65
1622031101|00:0c:e7:71:e7:72|82
1622018054|00:0c:e7:72:57:9d|79
1622034681|00:0c:e7:72:86:ed|68
1621930801|00:0c:e7:72:d9:23|58
1621943343|00:0c:e7:73:07:d3|65
1621847011|00:0c:e7:73:42:7d|76
1621924056|00:0c:e7:74:83:2f|66
1621929678|00:0c:e7:74:f2:d9|73
1622032758|00:0c:e7:75:2a:97|75
1621943114|00:0c:e7:75:e8:0e|70
1621858905|00:0c:e7:76:c0:bb|62
1621840445|00:0c:e7:76:d4:e4|79
1622017799|00:0c:e7:76:f7:38|84
1621854390|00:0c:e7:77:ee:9b|64
1621849043|00:0c:e7:79:64:6a|72
1622021462|00:0c:e7:79:86:1f|76
1621935364|00:0c:e7:7a:c9:2a|76
1621854360|00:0c:e7:7a:d5:e1|63
1621932145|00:0c:e7:7b:08:a7|54
1621931175|00:0c:e7:7b:37:ff|70
1622017794|00:0c:e7:7b:46:6c|70
1621858867|00:0c:e7:7b:8b:48|61
1621863373|00:0c:e7:7b:d7:c7|74
1621936836|00:0c:e7:7c:88:9a|80
1621838604|00:0c:e7:7c:97:17|74
1621859059|00:0c:e7:7c:9a:20|73
1621928506|00:0c:e7:7c:9e:1c|68
1621863621|00:0c:e7:7d:bd:77|62
1621930443|00:0c:e7:7d:d3:02|80
1621941544|00:0c:e7:7d:f8:c7|69
1622034762|00:0c:e7:7e:40:cf|67
1621937696|00:0c:e7:7f:1a:6e|74
1621850109|00:0c:e7:7f:38:6a|61
1621837131|00:0c:e7:7f:3e:4d|67
1621942372|00:0c:e7:7f:44:ad|75
1622014427|00:0c:e7:7f:55:e5|78
1622025578|00:0c:e7:7f:69:84|74
1621842262|00:0c:e7:7f:6a:dd|68
1622022826|00:0c:e7:7f:71:25|86
1621855873|00:0c:e7:7f:77:99|80
1621860709|00:0c:e7:80:28:80|77
1622018738|00:0c:e7:80:6a:84|76
1621858070|00:0c:e7:80:c4:39|77
1621839886|00:0c:e7:81:06:5f|88
1622029185|00:0c:e7:81:33:ba|74
1622023840|00:0c:e7:81:57:ca|74
1621931473|00:0c:e7:81:8f:ab|61
1621946772|00:0c:e7:82:27:f0|72
1621923281|00:0c:e7:82:94:e0|74
1621942678|00:0c:e7:82:c6:5d|74
1622014549|00:0c:e7:82:d9:31|76
1622018175|00:0c:e7:83:1d:b5|74
1622028588|00:0c:e7:83:3c:6a|73
1622014286|00:0c:e7:83:8e:f9|71
1622024426|00:0c:e7:84:b1:82|69
1621945484|00:0c:e7:84:bc:4f|79
1621925207|00:0c:e7:84:c1:7f|75
1621850441|00:0c:e7:84:c2:3b|82
1621928377|00:0c:e7:85:3a:bd|76
1621852901|00:0c:e7:85:a6:58|65
1622009626|00:0c:e7:85:fc:f7|84
1622021754|00:0c:e7:86:59:2a|63
1621929744|00:0c:e7:86:85:8f|61
1622021625|00:0c:e7:86:bb:5a|73
1621858551|00:0c:e7:86:f4:ba|77
1621860371|00:0c:e7:87:3e:44|75
1621848056|00:0c:e7:87:58:af|76
1622019891|00:0c:e7:87:6c:03|70
1621936589|00:0c:e7:88:2a:9a|70
1622024208|00:0c:e7:88:a9:e9|72
1621855345|00:0c:e7:88:f6:40|68
1621837183|00:0c:e7:89:5f:cd|76
1621938408|00:0c:e7:8a:f5:75|68
1621860546|00:0c:e7:8b:1a:7e|62
1621937897|00:0c:e7:8b:ab:c6|67
1622023542|00:0c:e7:8b:f5:fb|78
1622026678|00:0c:e7:8c:27:00|73
1622021618|00:0c:e7:8c:42:8e|86
1621922985|00:0c:e7:8c:b6:33|61
1621860347|00:0c:e7:8c:d0:07|66
1621947201|00:0c:e7:8c:dc:91|68
1621837991|00:0c:e7:8d:67:0f|71
1621854776|00:0c:e7:8e:3c:7f|68
1621857108|00:0c:e7:8e:ed:5b|66
1622034721|00:0c:e7:8f:2d:9b|72
1622028041|00:0c:e7:8f:66:e8|74
1621934372|00:0c:e7:8f:89:49|73
1621864205|00:0c:e7:8f:db:61|74
1621937786|00:0c:e7:90:5e:a6|66
1621860536|00:0c:e7:90:71:65|74
1622009869|00:0c:e7:90:a8:8e|87
1621850133|00:0c:e7:90:a9:15|74
1621934681|00:0c:e7:91:9b:e6|86
1621944756|00:0c:e7:92:34:f4|77
1621848997|00:0c:e7:92:88:db|76
1621928500|00:0c:e7:92:a5:4d|78
1621929617|00:0c:e7:92:ec:58|70
1621861712|00:0c:e7:93:4f:86|75
1621843166|00:0c:e7:94:68:75|76
1621858999|00:0c:e7:95:30:f8|67
1622024751|00:0c:e7:95:4f:c7|69
1622028596|00:0c:e7:95:87:0a|73
1621927054|00:0c:e7:95:98:2c|68
1621862991|00:0c:e7:96:dd:2b|58
1621934619|00:0c:e7:97:08:95|73
1621860093|00:0c:e7:97:14:a2|83
1621948845|00:0c:e7:97:41:1a|71
1621926354|00:0c:e7:97:46:ec|67
1622022847|00:0c:e7:98:0f:e9|87
1622027169|00:0c:e7:98:1a:a5|74
1621951120|00:0c:e7:98:74:45|90
1621923583|00:0c:e7:98:8f:90|70
1622011530|00:0c:e7:99:56:96|68
1621929038|00:0c:e7:99:b5:90|64
1621837601|00:0c:e7:9a:5a:f9|75
1622020200|00:0c:e7:9a:c4:ea|80
1621844111|00:0c:e7:9a:da:59|65
1621943826|00:0c:e7:9b:ba:ba|76
1621924079|00:0c:e7:9c:25:1d|66
1622029347|00:0c:e7:9c:88:5b|83
1622010304|00:0c:e7:9d:5c:df|47
1621944152|00:0c:e7:9d:f1:c6|75
1621936242|00:0c:e7:9e:47:86|65
1622028534|00:0c:e7:9e:79:7a|64
1621858400|00:0c:e7:9e:8c:65|70
1621945956|00:0c:e7:9e:98:35|73
1622021598|00:0c:e7:9f:3e:a3|77
1622028682|00:0c:e7:9f:93:2b|77
1621937563|00:0c:e7:9f:ba:62|69
1621864765|00:0c:e7:a0:04:11|73
1621927613|00:0c:e7:a0:45:9c|62
1622025620|00:0c:e7:a0:bd:fc|64
1621948743|00:0c:e7:a2:77:26|60
1621933002|00:0c:e7:a2:8a:13|71
1621855252|00:0c:e7:a2:97:22|60
1622021062|00:0c:e7:a2:ba:0b|83
1621928742|00:0c:e7:a2:c0:cc|74
1621848759|00:0c:e7:a3:23:f8|75
1621854635|00:0c:e7:a3:2d:23|60
1621940097|00:0c:e7:a3:d1:80|69
1621846723|00:0c:e7:a3:d4:e4|70
1622014757|00:0c:e7:a3:e6:4c|60
1621862076|00:0c:e7:a4:01:e5|71
1621923633|00:0c:e7:a4:46:fd|77
1621932562|00:0c:e7:a4:82:db|74
1622021269|00:0c:e7:a4:e2:bd|70
1621864394|00:0c:e7:a5:44:fe|76
1621927100|00:0c:e7:a5:60:6a|68
1621932619|00:0c:e7:a5:8a:c0|54
1621923654|00:0c:e7:a5:fe:cd|71
1621934199|00:0c:e7:a6:3e:36|63
1621860950|00:0c:e7:a7:43:75|75
1622028773|00:0c:e7:a7:81:df|74
1621854502|00:0c:e7:a7:87:da|56
1622034236|00:0c:e7:a7:cc:fb|79
1622022892|00:0c:e7:a8:43:e8|63
1621845252|00:0c:e7:a8:7c:42|69
1621862320|00:0c:e7:a8:d5:98|75
1621854872|00:0c:e7:aa:15:bb|71
1621946383|00:0c:e7:aa:1b:15|74
1621949757|00:0c:e7:ab:66:f8|64
1621947165|00:0c:e7:ac:20:3d|65
1621931294|00:0c:e7:ac:33:b1|67
1621850829|00:0c:e7:ac:7f:15|70
1621836939|00:0c:e7:ac:d6:0a|72
1621863442|00:0c:e7:ad:b7:81|54
1621928521|00:0c:e7:ad:d3:9a|76
1621842505|00:0c:e7:ad:fe:08|76
1621924215|00:0c:e7:ae:bb:31|65
1621931109|00:0c:e7:ae:bc:7d|73
1621940045|00:0c:e7:ae:bd:96|66
1621932523|00:0c:e7:b0:06:34|66
1622019059|00:0c:e7:b0:6f:8c|66
1621858820|00:0c:e7:b0:86:31|76
1621848980|00:0c:e7:b2:a2:9d|74
1622028950|00:0c:e7:b2:de:5e|72
1621930165|00:0c:e7:b4:a0:a3|75
1621838389|00:0c:e7:b4:d2:31|79
1621933622|00:0c:e7:b5:79:b5|78
1621855003|00:0c:e7:b5:7e:cf|76
1621943575|00:0c:e7:b5:a5:aa|71
1621858422|00:0c:e7:b7:36:24|83
1621931884|00:0c:e7:b7:3c:a5|70
1621943419|00:0c:e7:b7:c2:86|79
1622012779|00:0c:e7:b7:da:f7|61
1621946711|00:0c:e7:b8:f6:08|80
1621944524|00:0c:e7:b9:19:8d|76
1621922953|00:0c:e7:ba:85:6c|67
1621854307|00:0c:e7:ba:e4:a8|66
1622011134|00:0c:e7:bb:2a:df|65
1622028624|00:0c:e7:bb:8e:b5|69
1622015677|00:0c:e7:bc:5d:db|53
1621930123|00:0c:e7:bc:72:70|67
1621853743|00:0c:e7:bc:7f:04|70
1621948811|00:0c:e7:bc:9e:fc|66
1621930201|00:0c:e7:bd:5f:f2|61
1621941614|00:0c:e7:bd:7c:74|72
1621923349|00:0c:e7:bd:b4:37|69
1621848342|00:0c:e7:bd:bc:cd|71
1622021633|00:0c:e7:bd:d3:1e|65
1621862272|00:0c:e7:be:71:9d|65
1621851111|00:0c:e7:be:7f:09|78
1621861083|00:0c:e7:be:88:7d|76
1622014793|00:0c:e7:be:cd:9a|84
1622034276|00:0c:e7:bf:08:07|68
1621945097|00:0c:e7:bf:8f:2d|62
1621853400|00:0c:e7:bf:b5:0b|64
1621931538|00:0c:e7:bf:f2:21|70
1621928821|00:0c:e7:c0:3d:fa|75
1622008815|00:0c:e7:c0:6f:11|68
1621841651|00:0c:e7:c0:77:86|74
1621930991|00:0c:e7:c0:bc:03|65
1621838227|00:0c:e7:c1:1a:a2|75
1621931822|00:0c:e7:c1:cd:8b|68
1621862681|00:0c:e7:c2:ab:1e|70
1621939634|00:0c:e7:c3:00:b6|82
1621936225|00:0c:e7:c3:75:ab|71
1621842060|00:0c:e7:c3:c5:66|84
1621856149|00:0c:e7:c4:13:28|82
1621950202|00:0c:e7:c4:bb:a4|70
1621936669|00:0c:e7:c5:0c:08|66
1621923480|00:0c:e7:c5:52:cd|72
1621938677|00:0c:e7:c5:5a:6e|68
1621948828|00:0c:e7:c5:c2:b4|91
1621838569|00:0c:e7:c6:c3:1b|62
1621949946|00:0c:e7:c6:e1:b9|64
1621930832|00:0c:e7:c7:20:8a|69
1622022810|00:0c:e7:c8:48:49|70
1621923032|00:0c:e7:c8:68:e2|66
1621846836|00:0c:e7:c8:ad:8d|71
1621930210|00:0c:e7:c8:d8:f5|65
1622034695|00:0c:e7:c8:ee:de|71
1622028539|00:0c:e7:c9:50:54|68
1621862733|00:0c:e7:c9:59:89|72
1621855779|00:0c:e7:c9:62:da|63
1621841836|00:0c:e7:c9:6f:98|76
1621923826|00:0c:e7:c9:a5:f2|65
1621930404|00:0c:e7:ca:04:89|43
1622027257|00:0c:e7:ca:39:07|58
1622021350|00:0c:e7:ca:55:bb|73
1622016079|00:0c:e7:ca:5d:6c|80
1622014678|00:0c:e7:ca:ab:bd|79
1621864604|00:0c:e7:cc:9d:88|72
1621946632|00:0c:e7:cd:6e:53|74
1622010010|00:0c:e7:cd:ca:50|62
1621838531|00:0c:e7:ce:ee:3c|75
1621949323|00:0c:e7:cf:6b:23|76
1622030725|00:0c:e7:cf:e9:8d|79
1621856972|00:0c:e7:cf:fb:da|65
1621933060|00:0c:e7:d0:11:fa|62
1622012953|00:0c:e7:d0:6c:d5|62
1622031708|00:0c:e7:d0:c7:90|75
1621842220|00:0c:e7:d0:d9:25|60
1622014720|00:0c:e7:d0:e7:71|81
1622010640|00:0c:e7:d0:fd:5e|71
1622025943|00:0c:e7:d1:1e:4d|71
1621844811|00:0c:e7:d1:6b:79|67
1622015407|00:0c:e7:d1:79:23|69
1622018782|00:0c:e7:d1:f0:14|70
1621839706|00:0c:e7:d2:01:a8|71
1621930904|00:0c:e7:d2:93:ea|72
1621927966|00:0c:e7:d2:fa:9f|62
1621855689|00:0c:e7:d4:44:71|74
1622016559|00:0c:e7:d4:83:e1|77
1622016972|00:0c:e7:d4:db:e0|89
1621933501|00:0c:e7:d5:2d:08|71
1622008850|00:0c:e7:d5:65:b4|67
1621929204|00:0c:e7:d5:cd:60|86
1622025148|00:0c:e7:d5:d2:64|71
1621942688|00:0c:e7:d6:3c:91|80
1621929742|00:0c:e7:d7:5a:8a|72
1621928117|00:0c:e7:d7:ac:75|83
1621930533|00:0c:e7:d7:ae:a3|63
1621938466|00:0c:e7:d8:bb:09|77
1621942189|00:0c:e7:d8:bf:e5|76
1621837039|00:0c:e7:d8:cd:29|70
1622027262|00:0c:e7:d9:16:61|70
1622013398|00:0c:e7:d9:29:b5|80
1621852917|00:0c:e7:d9:e8:63|78
1621936689|00:0c:e7:d9:ea:53|67
1622025527|00:0c:e7:da:ea:09|65
1621942107|00:0c:e7:db:65:a5|70
1621846249|00:0c:e7:dc:4a:3d|73
1622028921|00:0c:e7:dc:78:de|76
1621862923|00:0c:e7:dc:b2:4a|74
1621923744|00:0c:e7:dd:4c:6c|61
1622020500|00:0c:e7:dd:50:57|76
1622017841|00:0c:e7:dd:89:74|62
1622037193|00:0c:e7:dd:a3:d4|67
1621936845|00:0c:e7:dd:c7:e1|81
1622009052|00:0c:e7:de:07:56|60
1621943211|00:0c:e7:de:19:dd|68
1621923759|00:0c:e7:de:df:9f|62
1622017962|00:0c:e7:df:09:9d|72
1621857012|00:0c:e7:df:0d:08|78
1621938983|00:0c:e7:e0:80:3f|67
1621853542|00:0c:e7:e0:95:20|81
1621950465|00:0c:e7:e1:28:7a|81
1621846934|00:0c:e7:e1:4a:99|66
1621848069|00:0c:e7:e1:9e:ca|72
1621926350|00:0c:e7:e1:da:99|66
1622026711|00:0c:e7:e1:e2:32|72
1621859659|00:0c:e7:e1:ef:83|71
1622014714|00:0c:e7:e2:26:ff|79
1621944878|00:0c:e7:e2:df:18|79
1621851344|00:0c:e7:e3:56:7f|75
1621948065|00:0c:e7:e3:5a:61|71
1622033180|00:0c:e7:e3:80:18|70
1622033508|00:0c:e7:e3:8a:8e|65
1622024003|00:0c:e7:e4:43:b9|71
1621937047|00:0c:e7:e4:80:9f|90
1621944815|00:0c:e7:e4:af:ce|82
1622028605|00:0c:e7:e5:4b:19|75
1621928581|00:0c:e7:e5:96:7f|68
1622010265|00:0c:e7:e5:be:c7|68
1622024492|00:0c:e7:e6:94:50|73
1621934383|00:0c:e7:e8:1e:e8|79
1621853781|00:0c:e7:e8:fe:45|61
1622014586|00:0c:e7:e9:9f:de|83
1622014495|00:0c:e7:e9:f8:91|84
1621931340|00:0c:e7:ea:87:66|64
1621862822|00:0c:e7:ea:91:86|79
1622009791|00:0c:e7:eb:08:54|60
1621934599|00:0c:e7:eb:61:8f|73
1622019979|00:0c:e7:eb:b7:12|60
1621923161|00:0c:e7:eb:e2:ea|68
1621923340|00:0c:e7:ec:0c:20|82
1621839662|00:0c:e7:ec:90:66|70
1621932808|00:0c:e7:ec:b2:9e|64
1621857577|00:0c:e7:ec:b8:61|77
1621853785|00:0c:e7:ec:c5:37|56
1622022802|00:0c:e7:ec:f5:31|72
1621945248|00:0c:e7:ed:9b:24|63
1622016802|00:0c:e7:ed:a1:77|66
1622033306|00:0c:e7:ed:bd:7c|80
1621847396|00:0c:e7:ed:d8:ed|74
1622034741|00:0c:e7:ee:40:42|65
1622022556|00:0c:e7:ef:6a:88|83
1622029435|00:0c:e7:ef:6f:a3|56
1622028701|00:0c:e7:ef:83:68|69
1621930502|00:0c:e7:ef:d4:cc|78
1622024079|00:0c:e7:f0:1e:54|84
1622010801|00:0c:e7:f0:6d:5a|87
1621859597|00:0c:e7:f1:02:64|71
1621851071|00:0c:e7:f1:0d:56|75
1621924386|00:0c:e7:f1:41:87|68
1621928198|00:0c:e7:f1:52:07|81
1621928361|00:0c:e7:f1:9a:86|70
1621863248|00:0c:e7:f1:be:88|60
1622028954|00:0c:e7:f2:10:88|73
1621850572|00:0c:e7:f2:47:00|68
1621937630|00:0c:e7:f2:ce:aa|66
1621844598|00:0c:e7:f3:e6:30|68
1622028578|00:0c:e7:f4:20:19|72
1621856274|00:0c:e7:f4:8e:51|73
1621843030|00:0c:e7:f4:ee:6c|77
1621837822|00:0c:e7:f5:00:9a|76
1622023726|00:0c:e7:f5:26:d2|78
1621863047|00:0c:e7:f5:62:d7|73
1621928827|00:0c:e7:f5:a9:f5|65
1621864153|00:0c:e7:f6:22:9f|72
1621854718|00:0c:e7:f6:37:39|85
1621843389|00:0c:e7:f6:e2:ee|59
1621929017|00:0c:e7:f7:9b:72|69
1621945298|00:0c:e7:f7:9b:fe|67
1622016417|00:0c:e7:f7:a2:0e|76
1621854757|00:0c:e7:f7:a8:a3|65
1621949913|00:0c:e7:f8:56:fa|62
1621855487|00:0c:e7:f8:5d:19|69
1621860596|00:0c:e7:f8:6a:50|61
1621843050|00:0c:e7:f9:84:85|72
1622016333|00:0c:e7:f9:89:ea|74
1622019753|00:0c:e7:f9:c3:05|82
1622025515|00:0c:e7:f9:e4:39|73
1621943634|00:0c:e7:fa:0d:14|75
1621935145|00:0c:e7:fa:31:b5|69
1621858578|00:0c:e7:fa:44:25|78
1622029384|00:0c:e7:fa:82:ec|68
1621927222|00:0c:e7:fa:8f:cf|76
1622030530|00:0c:e7:fc:6e:ae|67
1621855212|00:0c:e7:fc:8a:27|71
1622029104|00:0c:e7:fc:c8:8e|82
1621849152|00:0c:e7:fc:dd:47|81
1622027923|00:0c:e7:fd:32:cc|74
1621928117|00:0c:e7:fd:b4:31|61
1622012104|00:0c:e7:fd:b6:1b|74
1621855069|00:0c:e7:fd:ba:19|68
1621927396|00:0c:e7:fe:13:42|66
1621844025|00:0c:e7:fe:1c:ff|69
1621846207|00:0c:e7:fe:a3:76|76
1621941540|00:0c:e7:ff:68:09|68
1621855580|00:0c:e7:ff:75:4c|81
1621852966|00:0c:e7:ff:f1:9d|71
1621940755|00:11:f6:f5:65:85|91
1621860955|00:11:f6:f5:65:85|92
1621837741|00:21:84:37:49:18|70
1622020384|00:23:0d:94:ba:45|61
1622023071|00:23:15:d1:c3:3d|71
1621936705|00:23:a7:48:a2:c8|66
1621860470|00:23:a7:48:a2:c8|58
1621926184|00:26:69:01:9e:90|88
1622013018|00:28:f8:2b:3a:45|78
1621924139|00:28:f8:2b:3a:45|75
1622012991|00:28:f8:2b:3a:46|82
1621924103|00:28:f8:2b:3a:46|81
1621933192|00:28:f8:71:23:48|70
1622013252|00:28:f8:a0:5f:cd|84
1621842991|00:34:fe:fe:9e:f2|83
1621937589|00:7c:2d:ed:47:c4|72
1621930184|00:80:48:4a:74:b3|78
1621928416|00:9b:5d:fd:ac:92|81
1621923995|00:9d:6b:37:5f:0d|77
1622009527|00:ae:fa:56:cc:3c|73
1621838771|00:ae:fa:56:cc:3c|68
1621923835|00:ae:fa:56:cc:3c|65
1622015451|00:b5:d0:43:ef:a1|85
1621938687|00:b5:d0:43:ef:a1|78
1621932548|00:b5:d0:6b:a5:f9|69
1622020003|00:bb:60:b8:26:26|72
1622013509|00:d9:ca:81:63:07|68
1622008985|00:e1:8c:ba:cb:c9|84
1621922455|00:e1:8c:ba:cb:c9|83
1622009049|00:e1:8c:ba:cb:ca|79
1622028773|00:ec:0a:4a:48:36|74
1621841338|00:ec:0a:4a:48:36|85
1621867853|00:f4:8d:ee:a6:b9|91
1621928074|01:36:92:bb:f5:ad|74
1621853280|01:a7:43:8a:0b:d3|76
1621948485|01:c9:3a:91:34:a2|77
1621926912|03:c0:2b:3c:1d:1e|70
1621952838|04:32:59:9e:b1:c3|93
1622028883|04:4a:6c:83:9b:ee|59
1621942173|04:4a:6c:83:9b:ee|83
1621947712|04:79:91:fe:16:5f|78
1621838356|04:8c:9a:ba:b7:97|82
1621927646|04:b1:a1:59:8c:10|88
1622034494|04:b4:29:e2:5d:23|67
1621859122|04:b4:29:e2:5d:23|71
1621937018|04:ba:8d:bd:77:f7|77
1621856792|04:c2:3e:97:7d:77|70
1622019498|04:d3:b0:8f:79:fb|78
1622022513|04:d3:b0:91:05:19|92
1621862928|04:d3:b0:91:05:19|85
1622018580|04:d6:aa:0e:68:12|65
1621842081|04:d6:aa:0f:30:00|75
1622023288|04:d6:aa:1f:68:71|73
1622016686|04:d6:aa:22:9d:01|74
1622013096|04:d6:aa:35:8e:52|91
1622010406|04:d6:aa:53:53:0f|88
1622012982|04:d6:aa:57:50:a9|84
1622009059|04:d6:aa:65:0d:c1|88
1622019817|04:d6:aa:68:2a:b1|70
1621838843|04:d6:aa:68:2a:b1|81
1621932522|04:d6:aa:6e:b9:2d|82
1621952269|04:d6:aa:71:fd:36|87
1621845886|04:d6:aa:9b:fd:43|91
1621841281|04:d6:aa:9f:39:d1|81
1622025095|04:d6:aa:ac:07:a9|77
1621856493|04:d6:aa:b2:ac:f8|83
1621939755|04:d6:aa:e2:02:b3|88
1621853348|04:d6:aa:e2:02:b3|90
1621927160|04:d6:aa:fa:aa:64|90
1621837045|04:d6:aa:fa:aa:64|90
1621922829|04:e5:36:32:d3:38|73
1621846193|04:e5:36:32:d3:38|78
1622035107|04:e5:98:a8:f6:2f|71
1621836025|04:ed:33:b4:0c:99|82
1621937763|04:ed:33:b4:0c:99|81
1622009686|04:ed:33:b4:55:7d|80
1622017993|04:f1:28:60:01:fe|85
1621850799|05:0d:56:8b:a3:af|77
1622025716|05:23:a1:32:e8:0e|78
1621860600|05:34:c6:93:01:56|82
1621930522|05:9d:28:50:f2:e7|60
1621854054|05:b2:e2:93:3e:37|80
1621838390|05:b8:12:10:af:cb|81
1622015119|05:fd:c6:cc:48:c6|77
1621839684|07:76:bf:3a:5a:68|81
1621854705|07:7f:f0:f3:94:61|68
1621928121|07:99:cb:68:a1:56|79
1621929369|07:99:f4:72:45:bb|67
1621931781|07:c2:32:76:ee:db|78
1621837431|07:ce:8b:29:b5:34|73
1621935305|08:23:9f:c4:7e:07|78
1622022394|08:25:25:2c:de:13|86
1622028856|08:25:25:d7:b4:68|84
1622032085|08:39:ee:57:8f:03|77
1621854501|08:9e:f1:14:42:bc|76
1622028964|08:a1:66:46:42:9f|75
1622011921|08:b6:55:15:dc:1e|69
1621949487|08:be:b4:67:d9:0e|67
1621846538|08:bf:a0:86:b3:c8|69
1622033917|08:c5:e1:06:49:af|92
1622031834|08:c5:e1:0b:3c:74|82
1621923150|08:c5:e1:0c:ff:06|76
1622021974|08:c5:e1:25:31:82|81
1621843164|08:c5:e1:38:21:27|76
1621837076|08:c5:e1:42:40:4e|86
1621946633|08:c5:e1:45:b7:54|72
1622027155|08:c5:e1:90:81:e1|77
1621949072|08:c5:e1:b2:ea:71|76
1621849638|08:c5:e1:b2:ea:71|83
1621933210|08:c5:e1:b3:d4:86|73
1621925812|08:c5:e1:ee:9d:ac|79
1621923524|08:c5:e1:f5:a9:e4|79
1621949503|08:f3:c3:fb:67:cd|66
1622015862|08:f6:9c:1e:79:d1|74
1621852335|09:57:42:fb:4a:cf|84
1621850905|09:67:5f:c1:cb:de|63
1621942123|09:92:af:64:95:11|77
1621854548|09:a2:f4:0e:50:e9|72
1621848052|0b:52:8d:6e:77:8b|75
1621854134|0b:59:66:a2:fb:bb|79
1621950419|0b:7e:39:f8:ab:aa|70
1621851912|0b:ad:c1:09:38:4d|63
1621853770|0b:c7:fb:76:0b:21|79
1621936038|0b:e4:e9:4b:52:5f|75
1622023502|0c:1e:72:29:e0:d5|68
1621929725|0c:2c:54:62:9b:fd|82
1621850733|0c:2c:54:62:9b:fd|81
1622014876|0c:54:15:a8:3c:07|84
1621840760|0c:56:7e:f8:26:f7|74
1621842433|0c:70:4a:db:bf:d9|68
1621851406|0c:72:f3:55:34:fb|79
1621853948|0c:75:01:72:09:56|78
1622014043|0c:7a:15:8e:46:44|64
1621936666|0c:7a:15:8e:46:44|62
1621924730|0c:8c:24:bf:0f:65|69
1622030094|0c:8c:24:bf:12:72|68
1621853144|0c:94:0a:51:b1:f0|67
1621927806|0c:96:e6:76:6e:eb|86
1622009918|0c:96:e6:76:6f:a7|89
1621931294|0c:96:e6:76:6f:a7|86
1621860421|0c:a1:35:18:84:1e|78
1622037817|0c:b5:27:7a:da:15|79
1621939716|0c:d9:e1:4e:29:37|77
1621930484|0c:db:68:31:a9:ef|75
1621945528|0c:f3:46:ce:ad:6b|81
1621925384|0d:5a:d9:5b:03:ff|70
1622020448|0d:5e:5c:f3:e0:cd|77
1621844270|0d:9c:bc:b9:51:d4|77
1621837777|0f:27:69:a5:39:3c|73
1621944635|0f:2d:e6:ed:03:ad|74
1621855521|0f:52:3b:7c:ae:d4|65
1621949289|0f:94:d5:1e:3c:b4|73
1622017282|10:02:b5:46:93:5d|71
1622009274|10:02:b5:50:2c:65|64
1622011280|10:02:b5:50:2c:66|65
1621838036|10:2e:57:d0:6d:ce|74
1621953361|10:3f:44:25:21:0b|76
1621846854|10:3f:44:25:21:0b|76
1622009632|10:3f:44:d5:fc:df|83
1621947760|10:3f:44:ea:54:fb|91
1621945068|10:41:7f:39:23:31|82
1621859424|10:44:00:39:7b:c9|79
1621856143|10:bc:97:b6:c7:cd|90
1622009378|10:c0:7b:7f:39:c8|74
1622029717|10:d9:3d:7f:4c:b9|83
1621837171|10:da:a4:d6:71:b6|75
1621939279|10:e9:53:54:47:62|76
1621853735|10:f0:05:ba:b3:41|89
1621949475|10:fa:64:42:f1:7f|69
1622032617|11:4a:5f:81:1f:91|68
1621863970|11:77:89:27:17:04|76
1621854104|11:d5:62:1d:da:81|64
1621923278|13:35:b0:27:64:55|86
1621935189|13:38:4d:bd:71:ef|80
1621849916|13:54:23:ed:64:67|83
1621842201|13:54:96:8f:fa:5b|81
1621942861|13:88:c2:3e:72:2a|73
1621930008|13:9d:d4:8d:0e:30|80
1621927651|13:af:7e:5a:c9:e3|69
1621949518|13:d6:fc:ae:66:3d|68
1621935430|13:ed:b3:9c:76:0a|71
1621932433|14:1f:78:e1:97:31|69
1621845433|14:20:5e:e9:17:7a|89
1622017194|14:20:5e:e9:17:7a|70
1621864126|14:30:7c:cf:92:74|79
1622012770|14:4f:8a:c2:9b:92|79
1621854638|14:4f:8a:c2:9b:92|81
1621941242|14:56:8e:60:01:14|74
1621836142|14:56:8e:60:01:14|89
1621940190|14:56:8e:76:31:29|79
1621954660|14:56:8e:77:c8:f1|89
1621866319|14:56:8e:b3:ad:8c|93
1622021284|14:7d:da:42:8b:32|79
1621927925|14:7d:da:42:8b:32|70
1621848708|14:7d:da:42:8b:32|73
1621935792|14:7d:da:8d:59:80|75
1621852971|14:88:dc:29:32:cb|78
1622016531|14:9f:a8:e4:e1:b1|79
1621928327|14:ab:c5:3c:8d:fe|72
1621857112|14:ab:c5:e0:f6:55|75
1622035257|14:d1:1f:a9:10:09|76
1621864467|14:f6:d8:ea:4c:73|90
1621949232|15:66:68:6c:da:c3|65
1621859619|15:7d:bb:3b:00:da|81
1621862487|15:85:a9:ee:94:33|75
1621841683|15:ef:35:cd:65:23|73
1621854564|17:0f:c2:d8:94:7a|82
1621853248|17:24:f0:3b:dc:fb|75
1621928648|17:3f:9e:57:5c:96|72
1621949289|17:52:3a:f7:52:8d|74
1621927224|17:6f:c3:df:ca:68|68
1621945458|17:8c:d5:39:37:e5|81
1621926350|17:aa:bc:e4:ad:4c|78
1621929596|17:ab:49:54:71:d1|77
1621839458|17:f1:b3:e8:dd:15|67
1621947459|17:fd:c3:fd:56:21|75
1621863652|18:17:85:7c:f7:a7|65
1621936295|18:21:29:d3:f0:d6|68
1622030500|18:22:7e:b2:db:1e|90
1622012671|18:3e:ef:c0:6f:98|82
1621931315|18:3e:ef:c0:6f:98|75
1621853085|18:3e:ef:c0:6f:98|78
1622019548|18:3e:ef:c5:75:f3|82
1621943129|18:3e:ef:c5:75:f3|85
1621854371|18:3e:ef:c5:75:f3|82
1622012094|18:47:3d:e4:91:f7|72
1621857418|18:47:3d:e4:91:f7|68
1621935403|18:47:3d:e4:91:f7|76
1621840651|18:49:85:52:4c:c8|70
1622025376|18:56:80:35:8b:ad|74
1621855823|18:56:80:35:8b:e9|94
1621930387|18:56:80:35:8c:98|73
1622017436|18:56:80:35:8d:fb|77
1621938143|18:56:80:35:8d:fb|79
1621859938|18:56:80:ff:35:66|72
1622011614|18:63:d1:86:70:7f|80
1621954273|18:70:3b:c9:10:33|90
1621934700|18:8f:b9:da:04:c7|72
1622032339|18:a3:44:71:81:48|67
1621837796|18:bf:4e:61:26:94|77
1621851227|18:cc:18:9b:9e:2a|53
1621922496|18:cc:18:9b:9e:2b|51
1621851850|18:cc:18:9b:9e:2b|62
1622023394|18:cc:18:b8:8d:8c|86
1621923510|18:df:b1:1a:c6:29|78
1622026808|18:f6:43:1c:6b:4b|78
1621854427|19:1f:c6:a7:5e:97|81
1622023633|19:59:49:db:fe:23|92
1621852266|19:b0:60:a5:ba:8c|76
1621930969|19:d9:b0:c3:79:e3|72
1621949906|19:ef:76:07:dc:51|80
1622012877|1b:2d:38:8c:6b:29|71
1621842178|1b:7f:96:55:8f:cc|76
1621836944|1b:84:84:2b:55:a2|77
1621927795|1b:bb:37:ee:0c:f3|71
1622037606|1c:02:19:3f:fd:57|91
1622022997|1c:13:86:03:3c:be|78
1622014547|1c:15:1f:c3:1e:4a|73
1622030401|1c:1a:c0:21:43:e9|77
1621851924|1c:1a:c0:21:43:e9|74
1622020335|1c:42:7d:90:43:fb|71
1621854586|1c:6e:e2:c1:a2:e3|75
1621846936|1c:a2:2c:ec:dd:10|53
1621867167|1c:b7:96:f7:c1:2b|93
1621949117|1c:b7:96:f7:c1:2b|75
1621948554|1c:fa:95:44:9f:c7|96
1621943905|1d:21:85:52:ab:57|72
1621927658|1d:9d:d0:1a:78:e6|78
1621852821|1d:a7:2c:e3:6d:c9|68
1621928989|1d:ac:3e:d2:3b:df|78
1621947131|1d:b5:5d:19:20:7e|73
1621946659|1d:d7:a6:df:db:c5|69
1621856596|1f:11:0f:da:86:21|81
1622027683|1f:c5:b2:dc:02:93|62
1622023654|1f:df:f0:b1:ba:d4|64
1621947474|1f:ea:c0:35:ac:19|77
1621842030|20:12:d2:85:85:e3|65
1622023208|20:37:26:5b:fc:86|51
1621852804|20:79:18:30:2d:75|68
1621852594|20:79:18:30:2d:76|65
1621927399|20:79:18:fb:4f:9b|83
1622022980|20:89:22:73:92:02|60
1621866257|20:a6:0c:30:2f:19|69
1621838654|20:b2:5e:55:17:72|71
1621864210|20:f4:78:5f:a7:3e|88
1621854548|21:d3:02:39:7e:53|74
1621937187|21:fc:a7:f8:c8:85|84
1622009790|23:77:21:49:15:98|69
1621836892|23:b7:0e:40:8b:21|82
1622023799|23:df:1e:bb:90:57|65
1621863041|24:17:26:5b:73:30|78
1622026411|24:18:1d:03:68:e4|85
1622024319|24:18:1d:09:da:56|83
1622018396|24:18:1d:0a:05:13|73
1622022577|24:18:1d:17:3e:65|80
1621930938|24:18:1d:1d:c0:95|80
1622008872|24:18:1d:83:a5:e4|82
1621922741|24:18:1d:8c:86:db|84
1622018923|24:18:1d:8c:86:db|82
1621849982|24:18:1d:8c:86:db|87
1622013065|24:18:1d:8d:bb:f2|93
1621941883|24:18:1d:92:2c:71|72
1622009108|24:18:1d:aa:40:de|84
1621851639|24:18:1d:aa:40:de|88
1621931040|24:18:1d:aa:40:de|82
1622011841|24:18:1d:fc:01:80|82
1621842247|24:2a:24:4d:a5:b4|76
1622037575|24:6e:de:13:34:0f|89
1621867247|24:6f:8c:78:4d:fa|93
1621925392|24:77:03:25:42:f4|67
1622031319|24:79:f3:98:b4:fd|91
1621838373|24:ad:39:cb:03:0e|82
1621948793|24:b3:e7:88:0d:76|73
1621837127|24:c1:5a:f8:4a:46|83
1621953900|24:db:ed:f6:7d:f2|94
1621866951|24:db:ed:f6:7d:f2|90
1621940213|24:e3:14:49:87:16|87
1621838516|24:e3:14:49:87:16|85
1621844919|24:ee:9a:06:ae:05|81
1622011751|24:ee:9a:06:ae:06|84
1622026776|24:ee:9a:3a:90:ad|83
1621837143|24:ee:9a:53:b0:1a|72
1622015487|24:ee:9a:7a:a1:66|79
1621942572|24:fe:23:f0:ee:ed|79
1621852603|25:0e:41:46:65:60|80
1621837552|25:2c:b8:ae:95:9a|77
1621851103|25:3a:1d:d5:19:5c|73
1621948854|25:dc:90:78:9c:f7|74
1622018343|25:e1:89:12:9a:54|82
1621849482|25:f8:58:58:36:49|84
1621861214|27:f4:b7:35:03:d8|75
1622026801|28:02:d8:b1:3b:a3|91
1621933825|28:16:a8:71:f7:46|73
1621836912|28:33:34:e8:78:45|73
1622028758|28:39:5e:d7:66:99|72
1621841849|28:39:5e:d7:66:99|79
1621855109|28:39:5e:db:af:91|87
1621945505|28:3f:d7:aa:da:9b|75
1621840560|28:56:c9:bf:26:0d|68
1621922477|28:6a:ba:d3:9b:29|67
1621838680|28:7f:cf:de:a4:d1|64
1621944076|28:c6:3f:04:e3:0e|78
1622029913|28:c6:3f:c7:d3:46|86
1621836023|28:fb:d3:fa:8e:c1|73
1621852769|29:17:ff:ae:a8:62|73
1621929727|29:1c:ca:1c:9e:3d|73
1621837233|29:1e:50:b1:a8:ff|82
1621933033|29:44:75:a7:6f:a0|85
1621946261|29:54:22:7f:06:06|76
1621931219|29:97:f9:a3:df:0d|78
1621862108|2b:2b:a0:bf:0a:65|67
1621946136|2c:05:99:7a:af:b2|78
1621928356|2c:0a:9e:11:2e:f5|80
1621840340|2c:15:f5:dc:55:ec|70
1621923312|2c:4c:c6:b7:b9:e7|56
1621864656|2c:61:5b:66:f6:96|74
1621938835|2c:74:6c:d0:46:99|69
1621951310|2c:78:0e:de:ea:d4|88
1621933105|2c:b9:8d:b6:69:8f|83
1621923198|2c:bc:03:6a:be:1d|70
1622021433|2c:db:07:d4:78:49|89
1621934814|2c:db:72:9a:4f:fd|77
1621837134|2c:f7:fd:3d:b7:03|80
1621943813|2c:f9:bb:4e:9b:b6|81
1621940264|2d:25:44:e3:e2:41|79
1621948355|2d:35:bb:e2:d3:3f|89
1622017252|2d:a0:66:67:48:0c|72
1621854505|2d:ca:f8:49:f7:24|63
1622009801|2f:3c:08:3f:c9:91|66
1621927697|2f:75:d8:f6:7c:d1|77
1621923316|2f:c4:e1:38:28:67|78
1622014535|30:07:4d:0d:9e:da|75
1622012598|30:07:4d:44:ce:2b|83
1621938206|30:07:4d:4d:3e:bd|78
1622014040|30:07:4d:54:65:25|72
1621837351|30:07:4d:54:65:25|83
1622027720|30:07:4d:69:61:05|80
1621930503|30:07:4d:6a:3f:82|68
1621941502|30:07:4d:80:01:1b|72
1621926197|30:07:4d:8f:de:25|74
1621867648|30:07:4d:a6:4c:de|93
1621837772|30:07:4d:ab:fc:07|81
1621842501|30:07:4d:bd:c3:37|76
1621851284|30:24:32:d3:91:81|93
1622030911|30:95:e3:3d:c3:80|73
1621857524|30:95:e3:3d:c3:80|63
1621853115|30:a1:fa:08:3e:e2|80
1621857728|30:a9:de:95:d5:98|83
1621934861|30:a9:de:da:03:a2|76
1621950152|30:a9:de:da:bb:de|63
1621928444|30:f3:1c:d9:f1:b6|72
1621946489|31:55:92:56:d5:2d|78
1621853896|31:6f:36:b9:2e:f9|76
1621841655|31:7a:d8:7c:5f:19|75
1621949230|31:87:84:8a:81:f1|67
1621940152|31:8b:e3:f4:2a:16|80
1621937362|31:da:b1:1b:ec:ed|70
1621842026|31:dc:7f:5c:f2:8e|69
1621845007|34:12:98:46:f8:60|76
1621848158|34:12:f9:4e:a2:8a|71
1622018410|34:12:f9:4e:a2:8a|65
1621933293|34:12:f9:4e:a2:8a|70
1621949964|34:12:f9:70:a4:23|75
1622035007|34:12:f9:70:a4:23|79
1621850932|34:12:f9:70:a4:23|73
1622025254|34:12:f9:fd:68:af|69
1621847589|34:12:f9:fd:68:af|77
1621932807|34:1c:f0:1e:1d:11|85
1622013224|34:1c:f0:6f:ba:34|77
1621937839|34:2e:b7:d8:05:ef|80
1622020076|34:36:3b:85:1e:32|75
1621928295|34:36:3b:86:fc:56|79
1622008838|34:41:5d:a6:33:67|74
1621838360|34:41:5d:a6:33:67|76
1622011914|34:41:5d:bf:bd:e6|75
1621844118|34:41:5d:bf:bd:e6|75
1621923842|34:41:5d:bf:bd:e6|81
1621947085|34:41:5d:cb:b7:04|90
1621862390|34:41:5d:cb:b7:04|88
1622021047|34:41:5d:cb:be:ac|93
1622010066|34:41:5d:cb:c5:14|90
1621853418|34:41:5d:cb:c5:14|92
1622009754|34:41:5d:cb:c9:1f|91
1621937669|34:41:5d:cb:c9:1f|90
1621856829|34:41:5d:cb:c9:1f|92
1621929597|34:5f:64:b8:b7:e4|80
1621934213|34:64:3e:fa:d2:f0|72
1622013360|34:79:16:22:40:61|63
1622030135|34:79:16:93:df:77|90
1622013623|34:8b:75:30:61:44|69
1621949000|34:8b:75:58:b6:38|87
1622014303|34:8b:75:ec:bd:d7|76
1621944988|34:8b:75:ec:bd:d7|77
1621852645|34:9a:d0:1b:a5:33|68
1622022097|34:a3:95:b2:3b:55|83
1621923848|34:bb:1f:ce:36:a8|79
1622008955|34:e1:2d:6a:a5:09|83
1621863026|34:e1:2d:6a:a5:09|78
1621922626|34:e1:2d:6a:a5:09|81
1621935617|34:e2:fd:63:27:23|79
1622012340|34:f3:9a:02:63:bd|86
1622033097|34:f3:9a:2a:8d:de|89
1622010990|34:f3:9a:6e:9e:f2|80
1621927345|34:f3:9a:6e:9e:f2|72
1622014716|35:29:d4:48:8a:a3|88
1621844710|35:3a:b5:c4:da:13|84
1622023722|35:3b:11:2b:c6:bf|78
1621848067|35:53:4f:5f:da:6c|72
1622032806|35:af:74:09:69:d0|81
1621941064|35:b2:a6:17:b5:8c|75
1622026911|35:d6:fd:94:60:0c|81
1621924111|35:ff:7c:f5:80:65|77
1621854228|37:0d:c1:98:4d:e6|82
1621854932|37:65:bc:89:52:df|78
1621837289|37:b2:9b:ad:0b:81|71
1621837243|37:c2:3d:9b:72:a2|80
1621948391|37:cc:42:0a:2f:35|83
1621855655|37:df:28:f3:1c:f2|74
1621936973|37:ec:3a:e8:64:82|75
1622019974|37:f1:60:57:ef:82|71
1621837671|38:2d:e8:20:69:7d|81
1621849850|38:35:9b:0a:98:56|73
1621934731|38:53:9c:8e:25:c3|78
1621945889|38:73:ee:24:b4:5d|81
1621854244|38:8b:7b:c2:77:ba|80
1622010116|38:f9:d3:2b:3c:dd|84
1621855033|38:f9:d3:2b:3c:dd|86
1622030429|38:fb:14:b5:65:67|78
1621864115|38:fb:14:b5:65:67|79
1622019636|39:47:05:21:46:6b|81
1621848300|39:8f:07:f8:65:14|78
1621851604|39:9e:a7:6e:84:45|55
1622017259|39:df:53:7e:c9:5f|72
1621840767|39:f1:ad:90:09:38|91
1621850940|39:fd:ad:6a:e9:34|74
1622012011|3b:48:3e:77:b3:41|68
1621927689|3b:8b:7e:5d:32:30|77
1621932494|3b:9b:da:e8:34:9a|67
1621853039|3b:9c:2c:09:6c:16|74
1621927323|3b:a4:a1:6b:66:8d|71
1621927155|3b:bd:6a:ce:19:6b|85
1621937384|3b:de:06:33:d8:49|80
1621938074|3b:fd:97:71:be:65|83
1621939905|3c:05:18:a9:cf:83|76
1622020282|3c:05:6b:be:3f:3f|90
1621939088|3c:0b:78:b0:38:8c|74
1622034654|3c:20:f6:90:32:15|87
1622036691|3c:20:f6:d6:8f:cd|88
1621940130|3c:20:f6:db:c2:50|77
1622021623|3c:22:fb:30:93:b2|69
1621859702|3c:22:fb:bb:e4:15|69
1621837402|3c:22:fb:c1:52:89|79
1622017133|3c:2e:ff:b2:76:a9|57
1622031953|3c:57:6c:b9:fe:44|91
1621946395|3c:57:6c:b9:fe:44|74
1621838256|3c:57:6c:c7:6e:20|72
1622011311|3c:57:6c:c7:9d:04|76
1622010011|3c:58:c2:bf:97:d5|80
1621930393|3c:58:c2:bf:97:d5|71
1621858392|3c:58:c2:bf:97:d5|72
1622025501|3c:58:c2:d4:c6:91|75
1622026318|3c:58:c2:d4:c6:92|75
1621853488|3c:58:c2:d4:c6:92|80
1622008819|3c:91:80:02:54:2d|70
1621929210|3c:99:01:10:c8:da|84
1621836934|3c:9c:0f:65:12:38|78
1621925207|3c:a2:2a:14:62:16|73
1621948996|3c:ab:49:a2:f8:6d|73
1621837930|3c:c4:9a:4c:2c:84|85
1621838269|3c:f6:62:46:86:a4|77
1621842614|3c:f7:a4:25:44:2f|68
1622035979|3c:f7:a4:a9:04:ab|89
1621934101|3c:fa:43:b8:27:dd|89
1621861592|3c:fa:43:b8:27:dd|76
1621927533|3c:fb:e2:fa:a9:93|70
1621943205|3d:2f:75:8e:0b:d8|79
1622013027|3d:61:b0:8f:a0:d1|78
1621943579|3d:c4:30:ae:80:d8|74
1621932224|3f:13:fc:89:c8:df|72
1622017054|3f:71:ce:80:39:50|66
1622022845|3f:96:8c:07:e9:ab|61
1621852317|3f:a6:25:fa:cb:d5|60
1621845038|40:2b:bf:f9:2e:1e|79
1622034113|40:3f:8c:43:77:ac|86
1621836027|40:3f:8c:43:77:ac|66
1621857179|40:40:a7:53:24:c8|93
1621942950|40:9b:cd:9c:d9:ad|86
1621935671|40:a1:08:a0:c9:a3|77
1621933472|40:a1:08:c5:1b:4c|76
1621953103|40:a1:08:e0:54:81|87
1621946789|40:a2:93:03:7a:07|77
1621854718|40:b6:38:ab:f8:5c|85
1621944221|40:d3:ae:e7:c5:66|77
1621859384|40:d3:ae:e7:c5:66|89
1622034828|40:d3:ae:fc:3d:e0|66
1621863186|40:d3:ae:fc:3d:e0|84
1621944913|40:f3:08:72:89:2d|86
1622037989|40:f5:20:44:c3:a4|81
1621836113|40:f5:20:44:c4:48|75
1622013233|40:f5:20:44:c5:24|73
1621924729|40:f5:20:44:c5:24|76
1621844423|40:f5:20:44:c6:14|80
1621841000|40:f5:20:44:c6:2c|82
1622017964|40:f5:20:44:c6:44|67
1621836112|40:f5:20:44:c6:44|71
1621923475|40:f5:20:44:c6:44|63
1621838455|40:f5:20:44:c7:98|84
1622011532|40:f5:20:44:c8:9c|74
1621930193|40:f5:20:44:c8:9c|71
1621836357|40:f5:20:44:c8:9c|70
1622016406|40:f5:20:44:c8:e4|66
1621836356|40:f5:20:44:c8:e4|67
1621840104|40:f5:20:44:c9:0c|79
1621937052|40:f5:20:44:c9:90|80
1621837683|40:f5:20:44:c9:90|75
1622011789|40:f5:20:44:c9:94|85
1621928480|40:f5:20:44:c9:e4|77
1622014694|40:f5:20:44:c9:e4|71
1621836481|40:f5:20:44:c9:e4|72
1621922945|40:f5:20:44:ca:1c|65
1622012006|40:f5:20:44:ca:70|72
1621923264|40:f5:20:44:ca:70|73
1621928934|40:f5:20:44:cb:80|82
1621839893|40:f5:20:44:cb:80|82
1622009177|40:f5:20:44:cb:a4|76
1621846890|40:f5:20:44:cb:ac|87
1621836469|40:f5:20:46:c2:dc|72
1622014557|40:f5:20:46:c2:f8|77
1622013805|40:f5:20:46:c4:08|77
1621838606|40:f5:20:46:c4:c0|76
1621924724|40:f5:20:46:c4:d0|81
1621836179|40:f5:20:46:c4:d0|82
1621930205|40:f5:20:46:c5:c0|78
1621840634|40:f5:20:46:c5:c0|79
1621836466|40:f5:20:46:c7:04|74
1622014703|40:f5:20:46:c8:38|76
1621944474|40:f5:20:46:c8:38|74
1621836366|40:f5:20:46:c8:38|75
1621947849|40:f5:20:48:8c:e0|80
1621836120|40:f5:20:48:8c:e0|80
1621930213|40:f5:20:48:8c:e8|83
1622037297|40:f5:20:48:8c:e8|74
1621840736|40:f5:20:48:8c:e8|82
1621924499|40:f5:20:48:8d:34|77
1621837670|40:f5:20:48:8d:34|75
1621840215|40:f5:20:48:8e:54|83
1621836594|40:f5:20:48:8f:00|75
1621855739|41:10:1c:da:bc:31|76
1621949792|41:74:15:13:cb:28|71
1622013838|41:b4:75:f9:4c:c8|70
1621927469|41:d0:29:c2:65:95|83
1621929463|43:13:d5:39:ef:bf|78
1621923330|43:13:fa:d8:83:8b|75
1622030111|43:30:7f:7c:f4:c1|73
1621945896|43:74:9c:ac:84:b8|66
1621849992|43:dd:34:35:d1:8c|79
1621950279|43:fe:1b:2b:fc:ee|73
1622027320|44:59:e3:7e:36:5c|78
1621929006|44:5c:e9:b1:ba:ac|74
1621929213|44:75:42:45:33:4c|75
1621836939|44:85:00:18:d4:ae|71
1621931582|44:88:ed:55:e4:f3|80
1621860336|44:d7:91:d0:f5:9b|72
1621855152|44:da:9c:39:8e:c3|54
1621837738|44:f3:1c:4d:32:c0|80
1621934604|44:f9:b7:54:ce:31|76
1621923001|45:17:fc:5e:9f:8c|71
1621842066|45:44:10:c1:e1:b9|75
1621930613|47:1b:8b:20:31:ae|82
1621863485|47:34:67:c6:cc:53|78
1621935766|47:4d:1d:b5:d6:19|78
1621940322|47:60:71:f2:d2:23|84
1621931071|47:b5:ba:73:c6:b7|71
1621838176|47:eb:a0:a1:7f:b5|79
1621928239|48:37:3b:73:a2:37|65
1621940283|48:5a:3f:8c:45:8b|64
1621947806|48:5f:99:98:c6:5f|94
1621861399|48:5f:99:98:c6:5f|94
1621923658|48:60:5f:2d:d1:3d|65
1622035972|48:79:4d:9d:c3:35|86
1621932213|48:79:4d:ad:2a:8d|79
1622024684|48:89:e7:62:ab:79|67
1621856723|48:89:e7:62:ab:79|71
1621926179|48:89:e7:62:ab:79|77
1621846491|48:89:e7:8c:75:df|93
1621950076|48:89:e7:fd:05:84|89
1622026143|48:9d:24:7b:8d:28|80
1621851595|48:9d:24:7b:8d:28|69
1621931108|48:9d:24:7b:8d:28|81
1622011085|48:9d:24:84:5e:fd|79
1621845323|48:9d:24:84:5e:fd|80
1621923144|48:9d:24:84:5e:fd|80
1621929534|48:9d:d1:28:e9:c9|61
1621844753|48:9d:d1:28:e9:c9|62
1621859729|48:9d:d1:96:f5:45|86
1621852869|48:a4:72:08:65:ec|77
1621836031|48:a4:72:4d:bd:e0|66
1622010789|48:a4:72:9d:22:81|81
1621855760|48:a4:72:9d:22:81|82
1621923506|48:a4:72:9d:22:81|80
1621951470|48:ba:4e:d5:d1:40|90
1621864330|48:ba:4e:d5:d1:40|92
1621836886|48:cc:0b:23:1d:f6|81
1621836895|48:f1:7f:a3:dc:3e|83
1622030922|48:f5:df:4f:cd:e5|92
1621841725|48:fc:b6:61:98:75|67
1621950330|48:fc:b6:64:fc:c6|89
1621946595|48:fc:b6:ef:1b:8b|79
1622028585|48:fc:b6:ef:1b:8b|73
1621857826|48:fc:b6:ef:1b:8b|76
1621854520|48:fd:a3:f0:59:19|79
1621937229|49:55:52:d2:dc:85|81
1621838380|49:8e:cb:09:27:a3|82
1621862671|49:91:d4:be:4a:1a|77
1621853470|49:98:a9:17:4f:ed|66
1622029254|49:b5:7d:f1:66:8f|70
1621839615|49:d3:3f:ee:77:25|73
1621860418|4b:1f:c6:2f:55:d0|76
1621928844|4b:39:a3:76:b1:58|77
1621850830|4b:76:df:ac:9b:9c|69
1621837993|4c:18:9a:42:e8:07|68
1622016057|4c:1d:96:13:48:86|77
1622016791|4c:1d:96:ab:7a:98|78
1621923172|4c:1d:96:e6:e2:4f|73
1621843384|4c:1d:96:e6:e2:4f|67
1622018952|4c:34:88:68:ce:64|63
1621926024|4c:34:88:69:ba:b3|68
1621851071|4c:53:01:f9:6c:18|74
1621936416|4c:74:bf:77:fc:32|81
1621842877|4c:74:bf:77:fc:32|66
1621854045|4c:a0:15:3a:7f:c2|79
1621947096|4c:b2:70:b8:68:85|71
1622032566|4c:b4:6c:ad:cc:c4|78
1621946987|4c:dd:31:5f:ff:00|77
1622018871|4c:dd:31:f3:32:57|84
1621850082|4c:dd:31:f3:32:57|90
1621933101|4c:dd:31:f3:32:57|74
1621868194|4c:f2:02:0a:87:35|93
1621849537|4c:ff:10:5d:74:7a|81
1621865336|4d:20:cc:dc:54:d3|75
1621838594|4d:78:2d:d9:d2:44|84
1621837385|4d:85:1b:77:33:96|76
1621836195|4d:bb:80:51:13:58|81
1621933799|4d:d3:2f:0f:65:7a|72
1621945462|4d:dd:a1:8f:41:1c|84
1621850892|4f:1d:6b:2d:99:8a|68
1622023603|4f:28:f8:75:4f:57|70
1621848062|4f:a3:83:3a:4a:a8|76
1622010115|50:2f:9b:79:b6:5c|80
1621862249|50:3d:c6:c1:6f:9a|80
1622023653|50:7a:55:6a:4c:08|82
1621946928|50:7a:55:6a:4c:08|80
1621839929|50:82:d5:78:f0:22|75
1621853718|50:8f:42:64:cb:bc|82
1621936972|50:8f:79:52:ca:af|76
1621837347|50:d7:8b:02:4d:5c|78
1622024152|50:eb:71:9b:04:dd|69
1621941118|50:eb:71:9b:04:dd|74
1622030694|50:ed:3c:2c:57:cc|51
1621855036|50:ed:3c:2c:57:cc|60
1621953224|50:f0:d3:17:27:1a|80
1621851023|50:f1:16:e9:3c:1c|73
1621936111|51:28:b2:f9:b2:18|83
1621949150|51:92:61:47:5c:1b|67
1621949567|51:c4:c5:a6:85:74|66
1621838601|51:dd:99:35:85:86|71
1621941811|53:0c:8a:ac:ab:ee|77
1621836879|53:50:0f:70:14:34|80
1621837049|53:9d:86:d0:b3:d9|84
1621928767|54:09:10:b6:a8:39|81
1622030543|54:27:58:d1:f5:95|76
1621943593|54:3e:34:2a:ea:69|77
1622012650|54:8d:5a:0d:02:fa|68
1621937190|54:8d:5a:c5:96:d5|68
1621937120|54:8d:5a:c5:96:d6|69
1621856466|54:8d:5a:cb:de:2d|71
1622014876|54:8d:5a:cb:de:2e|73
1621856415|54:8d:5a:cb:de:2e|74
1621838787|54:ae:27:2a:72:0c|65
1622019233|54:b8:02:02:df:ea|81
1622018473|54:ba:d6:20:03:fa|69
1621854430|54:c9:80:17:b5:69|72
1621858640|54:de:95:01:ee:12|86
1621928943|54:fc:f0:9b:2d:2f|80
1622013567|55:61:37:ef:b0:9e|72
1621836929|55:72:ce:e4:da:b0|75
1621947145|55:80:c5:df:9f:a2|69
1621927469|57:8a:0a:5f:9e:3b|86
1621839569|57:b4:f3:29:99:6b|75
1621928989|57:c9:3d:aa:65:81|75
1621851264|57:d8:d0:70:73:ff|79
1621851135|57:f1:46:02:a4:9a|75
1621927724|57:f6:3d:9f:d8:8c|80
1621842992|58:00:e3:ef:c0:a1|69
1621924238|58:0b:37:87:09:1d|82
1622036596|58:20:59:a9:e6:a4|88
1621931136|58:3b:39:7c:2b:3a|79
1622025459|58:60:33:50:3e:99|73
1621859531|58:85:e9:ae:82:a3|78
1622020133|58:9b:23:64:24:31|90
1621862251|58:a0:23:ed:af:94|84
1621932133|58:a0:23:ed:af:fd|80
1621860766|58:a0:23:ed:af:fd|88
1621852231|58:a2:5b:e3:47:7b|65
1621854047|58:a4:6f:7f:f5:00|76
1621946408|58:b6:00:6e:75:62|78
1621838435|58:ba:97:95:85:8e|91
1621945355|58:fb:84:02:5b:84|68
1621947473|59:0c:84:64:f7:aa|79
1621947083|59:1a:eb:6d:c4:28|71
1621947083|59:23:58:8e:3e:95|71
1622025396|59:55:7c:4c:bd:f9|81
1621836866|59:5f:53:59:24:e8|77
1621854086|59:ae:ff:2d:c4:57|71
1621850137|59:fd:f9:05:cd:f3|76
1621849985|5b:10:b1:fc:a3:1d|69
1622028996|5b:46:c7:28:dc:e3|72
1621855793|5b:62:da:7e:a7:28|81
1621855312|5b:75:ae:0d:d3:bb|66
1622030475|5b:d7:f0:5c:9d:5d|79
1622036752|5c:1c:b9:e1:96:ad|89
1622037642|5c:20:84:4f:1c:b4|92
1621949479|5c:23:d0:2c:52:97|65
1621846135|5c:2e:59:cd:eb:27|75
1621846346|5c:59:2b:75:f3:f2|80
1621836143|5c:5f:67:89:19:67|68
1621943493|5c:5f:67:d0:66:fa|82
1621948142|5c:66:6c:b6:c5:67|86
1621854903|5c:86:d3:ac:c1:49|69
1621839596|5c:89:b5:4d:6a:cc|72
1621926845|5c:a3:32:f9:44:ec|75
1621838300|5c:ba:ef:f6:8b:49|78
1621838387|5c:bb:41:5f:f1:d1|80
1621922589|5c:c5:d4:e0:7a:95|65
1621946318|5c:e5:3d:c2:e4:1f|81
1621934630|5c:ea:1d:15:9a:b1|90
1621847057|5c:ea:1d:90:12:d5|73
1621940467|5c:ea:1d:90:12:d5|75
1621927480|5d:48:0a:87:fa:37|83
1621840780|5d:71:12:54:dc:f1|75
1622013256|5d:77:96:21:a3:af|68
1621850706|5d:90:21:72:9b:79|64
1621856926|5d:be:76:1b:8d:53|80
1621839673|5d:e8:9a:fa:d3:cf|71
1621927176|5f:32:aa:d8:69:ec|55
1621946180|5f:34:6b:3b:46:b3|79
1621928264|5f:35:d2:57:f6:08|81
1621947405|5f:bc:a2:a1:d0:ee|66
1621934776|60:21:01:8e:5e:c1|83
1621934697|60:23:a4:df:d8:d0|73
1621845609|60:23:a4:df:d8:d0|69
1621934697|60:23:a4:df:d8:f4|76
1621843122|60:23:a4:df:d8:f4|72
1622009626|60:39:21:3c:2f:d7|67
1622018567|60:a1:f8:72:cf:c9|85
1621945575|60:ab:14:fe:e6:14|90
1622016718|60:af:6d:bd:f9:85|63
1622014813|60:f1:89:47:1a:46|69
1621951082|60:f1:89:47:1a:46|84
1621849354|60:f1:89:7b:53:56|74
1622015229|60:f2:62:1c:af:a2|72
1621848629|60:f2:62:1c:af:a2|75
1622028220|60:f2:62:1c:af:a3|78
1622025426|60:f2:62:dc:93:e9|70
1622028610|60:f2:62:dc:9d:30|76
1622010943|60:f6:77:ce:29:a8|73
1621929430|60:f6:77:ce:29:a8|76
1621854091|61:86:c7:d8:0a:e0|63
1621946047|61:ae:90:e9:1e:10|73
1621948428|61:c2:6c:ca:80:9e|75
1621947128|61:d3:f2:f5:73:38|76
1621840477|61:d6:13:f0:54:29|61
1621841336|61:f7:8d:6d:19:f3|80
1621927177|63:44:9e:07:73:a3|78
1621932429|63:47:d1:ca:be:8e|75
1621930948|63:f9:3d:90:a0:1a|68
1622027304|64:03:7f:d2:b9:4b|78
1621948499|64:06:d1:8c:f4:c4|71
1621927534|64:1d:2c:5b:2d:e3|77
1621947530|64:3c:f8:b4:bb:8d|72
1621933996|64:3d:f5:cc:8a:ae|80
1622013229|64:5d:86:ac:f5:da|66
1621935784|64:5d:86:ac:f5:da|74
1622025399|64:6e:54:e9:5c:42|79
1621945903|64:b0:d6:87:99:18|82
1622008805|64:be:bb:98:f4:c0|70
1621841027|64:c7:53:de:88:90|77
1621932810|64:c8:90:ab:1b:51|81
1621860814|65:dc:75:30:fe:b6|82
1621927959|65:dd:bc:64:61:90|83
1621927350|67:85:2f:3d:5f:9a|78
1621929816|67:d9:79:5e:4c:57|81
1621933639|68:0a:0f:1e:e2:7d|84
1621853259|68:17:29:0d:95:e4|75
1621851161|68:2c:84:b9:25:74|78
1622011697|68:54:5a:6e:b0:db|74
1621930916|68:54:5a:6e:b0:dc|76
1621838008|68:54:5a:6e:b0:dc|77
1622009679|68:5a:cf:c3:cc:d5|51
1621853920|68:66:a5:f1:42:0e|74
1621931181|68:69:a9:a8:13:a4|70
1621836915|68:bf:2e:07:27:9e|76
1622025186|68:cb:9e:c2:b6:ca|76
1622020290|68:db:f5:d4:61:f3|62
1621935087|68:ec:c5:55:ea:47|78
1621949645|69:0f:34:ff:37:a8|76
1622029170|69:10:36:4f:2e:ad|71
1621861635|69:7d:e9:05:47:38|70
1621843941|69:a6:fe:c2:0d:19|78
1622013139|69:e9:57:fe:c6:7b|74
1621950838|69:f1:f7:e8:7b:bd|80
1621935411|69:f4:47:65:1a:a6|76
1621931074|6b:11:a9:29:22:6c|74
1621856439|6b:73:48:fa:c1:aa|82
1621840740|6b:e7:43:38:c3:a6|65
1622018555|6b:e7:fd:4b:30:48|82
1621855735|6c:03:86:c3:73:71|78
1621852228|6c:24:5d:3c:97:94|62
1621862180|6c:2a:bc:42:07:6f|83
1621952840|6c:49:3d:02:58:7b|88
1622034274|6c:90:53:23:69:04|73
1621853073|6c:b4:ed:91:92:9c|71
1621840591|6c:b7:49:cf:bb:bf|71
1621836708|6c:c7:ec:13:a2:7c|81
1622020393|6c:c7:ec:1b:25:39|83
1622019416|6c:c7:ec:2a:5f:70|78
1621938572|6c:c7:ec:2f:66:92|85
1621929064|6c:c7:ec:6a:7c:e3|71
1621839903|6c:c7:ec:6a:7c:e3|74
1622009474|6c:c7:ec:7b:fb:b1|64
1621923319|6c:c7:ec:95:56:a5|81
1622009965|6c:c7:ec:9c:24:73|81
1621862440|6c:c7:ec:b7:6b:82|84
1622020215|6c:c7:ec:d0:dd:39|75
1622031167|6c:c7:ec:d6:79:a0|87
1621853191|6c:c7:ec:d9:eb:c7|70
1621922697|6c:c7:ec:d9:eb:c7|84
1621935805|6c:de:0d:1f:ca:07|73
1621948497|6d:43:9b:1f:44:79|75
1621863774|6d:72:94:0a:14:b2|68
1621924145|6f:17:e1:87:02:c1|82
1621842687|6f:21:5f:78:22:7d|65
1621865066|6f:56:29:22:8c:62|79
1621947191|6f:66:04:d6:cf:07|70
1622016072|6f:80:f8:7f:67:3b|86
1621946487|6f:88:23:df:3a:22|83
1622036083|6f:93:d1:2b:82:ba|88
1621949009|6f:de:3b:ce:5d:2a|72
1621841611|6f:f9:66:ec:67:83|76
1622008805|70:03:9f:01:40:fe|71
1621952156|70:3a:51:2b:b1:53|90
1621926352|70:3a:51:31:43:10|79
1621927900|70:5a:ac:20:df:c7|85
1621927521|70:5a:ac:f0:f6:28|74
1621842191|70:5a:ac:f0:f6:28|73
1622032269|70:5c:df:4a:74:6a|71
1622010432|70:9c:d1:12:b5:e2|72
1621926331|70:9c:d1:12:b5:e2|84
1621938639|70:9f:a9:eb:a6:d8|83
1621948709|70:b9:d3:2a:e9:f8|72
1622013613|70:bb:e9:cd:22:99|68
1622030231|70:bc:10:73:00:91|80
1621935243|70:bc:10:73:00:91|69
1621939500|70:bc:10:7c:10:e6|71
1621863956|70:c9:4e:6e:e5:71|77
1621863835|70:dc:56:4f:55:ab|78
1621853562|71:0a:56:fc:16:78|80
1621941409|71:a2:43:3e:71:b1|72
1621922978|71:a5:63:fa:06:45|78
1621933721|71:d7:87:e2:34:40|72
1621840331|71:da:7b:61:b3:3c|72
1621840371|73:1f:02:2b:04:27|79
1621930935|74:58:18:7c:af:b7|69
1622009400|74:70:fd:a6:ca:ed|83
1621860663|74:70:fd:a6:ca:ed|71
1622013238|74:70:fd:a6:d8:3a|64
1621953037|74:75:90:a5:f8:2a|87
1621928063|74:ac:b3:4d:e8:c5|79
1621934301|74:b5:87:9a:a6:69|74
1621927913|74:c1:4f:f3:09:55|89
1622034549|74:c1:7d:8a:27:bb|81
1622009311|74:d8:3e:9e:5b:d8|65
1621850187|74:d8:3e:9e:5b:d8|79
1621922565|74:d8:3e:9e:5b:d8|70
1622019803|74:d8:3e:fe:c1:21|72
1622022061|74:d8:3e:ff:41:a5|77
1621936477|74:df:bf:48:3b:01|75
1622034886|74:e5:f9:85:06:51|93
1621927363|74:e6:cf:d9:7e:5d|54
1621923539|74:eb:80:f8:50:48|73
1621937711|74:ed:92:90:04:7f|74
1622027944|75:07:6a:84:0b:90|75
1622030160|75:10:02:b3:47:7b|84
1621837099|75:1b:88:75:7d:07|81
1621928662|75:3d:61:b6:1f:e0|71
1621854522|75:b2:2d:8c:9a:85|74
1621937558|75:d3:24:98:c3:2f|71
1622019098|75:f2:0d:e9:4b:64|78
1622033103|77:cf:16:a4:d6:9e|64
1621950027|78:11:dd:09:17:15|76
1622018992|78:2c:6d:11:ec:5f|76
1621840456|78:3c:fd:33:6a:de|66
1621949861|78:3d:55:2c:ff:94|68
1621839342|78:4b:87:da:53:bb|77
1621923662|78:4b:87:da:53:bb|79
1621849769|78:4f:43:38:11:e5|77
1621838790|78:4f:43:7b:f4:81|76
1622017430|78:4f:43:85:e8:b3|84
1621838554|78:51:0c:00:97:9f|67
1621851048|78:5c:7e:82:13:f6|70
1622022959|78:64:c0:d7:8f:dd|78
1621850352|78:88:6d:5c:3f:98|81
1622014133|78:c3:e9:59:e2:18|68
1621854425|78:dd:d9:83:94:9f|90
1621838866|78:ea:71:b4:93:1f|72
1621949442|79:e4:6d:66:a8:25|65
1621855597|79:f0:a7:18:43:85|71
1621859107|7b:fc:f7:8d:ff:f0|76
1622011568|7c:0a:c0:1e:1e:74|77
1621946625|7c:0b:ed:55:c1:90|67
1621842112|7c:23:02:38:90:f2|80
1621929451|7c:23:02:e9:66:ce|72
1621950202|7c:26:25:71:af:c1|69
1621857179|7c:3d:26:d7:c8:8f|78
1622037559|7c:46:85:5f:52:5c|74
1621927579|7c:4c:87:e7:4b:64|81
1621941552|7c:67:a2:8e:02:bf|80
1621855916|7c:67:a2:8e:06:1b|89
1621937490|7c:67:a2:8e:06:1b|93
1621838564|7c:72:57:2c:29:7a|75
1621927278|7c:76:35:7c:a9:07|78
1622019225|7c:76:35:7c:b3:2a|83
1622015089|7c:76:35:7c:b3:2b|76
1621843372|7c:76:68:79:8c:a5|64
1621840580|7c:76:68:f0:4d:f7|78
1622036761|7c:78:7e:de:2a:12|88
1621845437|7c:89:56:cd:4f:1c|82
1622014839|7c:8a:e1:f5:db:b3|93
1622014804|7c:a1:77:29:f7:9c|67
1621855316|7c:a1:77:29:f7:9c|66
1621922545|7c:a1:77:29:f7:9c|70
1621954070|7c:d6:61:ca:d8:95|88
1621867719|7c:d6:61:ca:d8:95|83
1622034229|7c:f8:11:83:e2:3f|69
1621942747|7d:3b:12:c7:1a:54|78
1621940664|7d:ab:cf:66:89:92|74
1622027935|7d:c3:30:b1:f2:e9|78
1622013533|7d:d9:2f:e3:1d:dd|65
1621840433|7d:fe:80:a4:5a:7c|72
1621838360|7f:16:46:0f:81:0b|71
1621928078|7f:3e:52:68:5b:52|76
1621929143|7f:57:90:a0:02:5b|69
1621928856|7f:8b:17:20:01:7d|76
1621841643|7f:8d:86:1c:34:a6|77
1622023129|7f:9f:4d:16:e4:6f|59
1621850774|7f:d6:38:1c:cc:2c|70
1621860764|7f:e6:69:c1:ac:ac|77
1621843547|7f:fd:c6:fb:22:4b|79
1621844759|80:21:e2:87:ea:58|80
1621933975|80:22:57:69:e8:63|73
1622012127|80:29:28:99:78:f8|71
1621855337|80:32:53:75:0e:95|78
1622010515|80:35:c1:cf:2b:90|85
1621853147|80:49:63:13:0e:3b|73
1621951563|80:4e:70:6c:6f:ea|88
1622021180|80:4e:70:e9:52:f2|91
1622010288|80:4e:70:fd:17:d8|77
1621922415|80:4e:70:fd:17:d8|81
1621929445|80:65:6d:75:b5:3a|78
1622030124|80:66:25:d7:34:3e|72
1622038056|80:7a:bf:a1:9c:08|87
1621853732|80:84:d4:39:b0:7d|72
1621848372|80:b0:3d:a5:57:b5|70
1621927175|80:b0:3d:a5:57:b5|90
1621928676|80:be:05:5e:ca:8c|78
1621854245|80:be:05:5e:ca:8c|86
1622014387|80:c5:f2:56:77:e1|79
1622012512|80:c7:0b:ea:ae:de|72
1622030691|80:ce:b9:07:75:68|90
1622015015|80:ce:b9:27:c5:d2|88
1622033675|80:ce:b9:bc:5f:93|94
1622010102|80:ce:b9:c3:b8:65|77
1621838076|80:ce:b9:c3:b8:65|69
1621926458|80:ce:b9:c3:b8:65|72
1622020036|80:ce:b9:d5:f7:95|90
1621948583|80:ce:b9:d5:f7:95|75
1621848659|80:ce:b9:d5:f7:95|87
1622037464|80:ec:cc:5a:0f:dd|89
1621929278|80:fc:6e:6c:8a:1c|78
1621839673|81:3d:60:3f:52:ca|70
1622017338|81:cd:be:ca:2d:53|76
1621857996|81:db:db:fd:dc:c1|73
1621843007|83:b8:eb:ef:45:69|78
1621936758|83:c7:44:8f:03:9b|83
1621846180|83:ee:b5:25:06:32|78
1621854606|83:fa:da:09:43:ef|63
1622009038|84:1b:77:f3:6c:6d|73
1622014980|84:1b:77:f4:e8:31|83
1621923326|84:1b:77:fd:b2:95|62
1622019874|84:2e:27:37:89:04|58
1621945914|84:2e:27:37:89:04|76
1621841713|84:66:5d:c1:1c:f5|62
1622016410|84:a5:97:be:c2:3a|67
1621948835|84:ab:1a:b3:bb:92|75
1622015826|84:ab:1a:c8:d5:38|80
1621862901|84:b8:d4:0c:81:9a|78
1622019308|84:c5:a6:fb:2b:f6|81
1621934097|84:c5:a6:fb:2b:f6|80
1621941824|85:5a:a6:62:d6:b3|75
1621837830|85:a0:02:20:54:4e|86
1621839559|87:56:d1:91:46:a5|66
1621950037|87:8d:e4:ee:e1:42|71
1622033021|88:07:4b:e7:cf:33|91
1621932692|88:0c:45:3c:13:19|85
1621950490|88:10:8f:97:53:63|86
1621843894|88:10:8f:97:53:63|70
1621861604|88:19:d5:99:41:c6|67
1621853970|88:40:3b:2b:c1:4b|80
1621945150|88:40:3b:2b:c1:4b|81
1622011641|88:53:95:0f:37:0f|79
1622019237|88:5f:ce:9c:fd:71|85
1621942236|88:5f:e8:71:02:5b|75
1621847134|88:66:a5:d8:5e:8f|85
1621844991|88:83:22:2d:7d:2f|77
1621933805|88:83:22:83:fe:a6|71
1622018196|88:83:5d:96:cd:b0|92
1621855452|88:83:5d:96:cd:b0|88
1621861495|88:86:07:3c:3d:dc|66
1621938371|88:9f:6f:85:f1:10|86
1622017626|88:9f:6f:8a:4f:1e|69
1622023262|88:a4:79:14:6c:e5|73
1621856638|88:a4:79:14:6c:e5|76
1621841268|88:ae:07:96:5e:ac|70
1621923705|88:b1:11:2a:a0:53|73
1621843218|88:b1:11:2a:a0:53|82
1621939957|88:b1:11:2a:a0:54|76
1622021597|88:b1:11:2a:a0:54|76
1621856115|88:b1:11:2a:a0:54|75
1621945216|88:b1:11:d8:e8:bb|88
1621842265|88:b4:a6:00:42:f6|75
1621839901|88:b4:a6:08:13:c7|78
1621932546|88:b4:a6:08:4a:fe|74
1621840620|88:b4:a6:09:dd:91|77
1621931550|88:b4:a6:0c:4e:cb|76
1621838388|88:b4:a6:16:21:d5|80
1621842218|88:b4:a6:16:58:0c|79
1622012912|88:b4:a6:17:22:d6|72
1622013342|88:b4:a6:17:59:d6|78
1621933216|88:b4:a6:18:23:d7|77
1621841380|88:b4:a6:1a:4b:ff|73
1621837054|88:b4:a6:1d:28:dc|75
1622013262|88:b4:a6:1d:5f:dc|73
1622012215|88:b4:a6:21:2c:a9|73
1622012931|88:b4:a6:21:c0:74|78
1621923274|88:b4:a6:27:7c:30|83
1622012865|88:b4:a6:27:8f:43|69
1622013244|88:b4:a6:2a:13:90|72
1621838271|88:b4:a6:2c:6e:22|77
1622012891|88:b4:a6:2c:cb:48|75
1621840620|88:b4:a6:32:74:28|77
1621836040|88:b4:a6:33:3e:f2|75
1621931826|88:b4:a6:34:3f:f3|76
1621932870|88:b4:a6:35:77:2b|78
1621932546|88:b4:a6:36:c2:76|78
1621839901|88:b4:a6:39:7b:2f|77
1622012265|88:b4:a6:3d:7f:33|79
1622013283|88:b4:a6:3e:49:fd|72
1621932885|88:b4:a6:40:bb:6f|82
1622012160|88:b4:a6:48:53:07|81
1621839557|88:b4:a6:48:e5:99|76
1622012235|88:b4:a6:4a:55:09|85
1621838176|88:b4:a6:4b:56:0a|75
1621932556|88:b4:a6:4c:46:fa|75
1622013111|88:b4:a6:4c:57:0b|70
1621932536|88:b4:a6:4f:80:34|77
1621838623|88:b4:a6:50:4c:00|74
1622012948|88:b4:a6:53:5e:12|80
1622013056|88:b4:a6:53:84:38|73
1621838765|88:b4:a6:53:f2:6f|70
1622012874|88:b4:a6:54:f1:a5|72
1622012855|88:b4:a6:55:2b:a8|74
1621843166|88:b4:a6:58:78:2c|76
1621933195|88:b4:a6:58:9a:17|75
1621932605|88:b4:a6:5d:68:1c|77
1622012180|88:b4:a6:5e:8f:43|75
1622013253|88:b4:a6:60:25:d9|72
1622012838|88:b4:a6:60:a2:56|74
1621839646|88:b4:a6:64:03:80|75
1622013322|88:b4:a6:66:a8:5c|78
1622013312|88:b4:a6:68:05:b9|80
1621836811|88:b4:a6:6d:78:2c|73
1621843761|88:b4:a6:6e:d6:8a|75
1622013159|88:b4:a6:71:7c:30|71
1621933195|88:b4:a6:72:a3:57|78
1622013007|88:b4:a6:74:7f:fc|67
1621841548|88:b4:a6:75:b7:6b|75
1622013081|88:b4:a6:75:b7:6b|75
1622013292|88:b4:a6:79:e1:95|73
1621836040|88:b4:a6:7b:86:3a|73
1621838223|88:b4:a6:7c:87:3b|78
1621837423|88:b4:a6:7d:1a:ce|80
1621837054|88:b4:a6:7d:88:3c|75
1622012141|88:b4:a6:7f:8a:3e|78
1621841613|88:b4:a6:83:eb:9f|74
1622013484|88:b4:a6:85:59:0d|74
1622012235|88:b4:a6:86:5a:0e|75
1621933235|88:b4:a6:88:f0:a4|77
1622013071|88:b4:a6:90:d2:86|75
1621836858|88:b4:a6:92:b2:66|78
1621932688|88:b4:a6:97:5a:d7|82
1621836161|88:b4:a6:9d:a8:5c|76
1621840335|88:b4:a6:9e:50:04|69
1621837376|88:b4:a6:9e:be:72|81
1622012977|88:b4:a6:9e:e0:94|76
1621933331|88:b4:a6:9f:73:27|76
1622012180|88:b4:a6:a2:e4:98|74
1622012948|88:b4:a6:a3:77:2b|74
1621933014|88:b4:a6:a3:ae:62|81
1622013120|88:b4:a6:a9:a5:22|72
1622013559|88:b4:a6:a9:b4:68|70
1622012123|88:b4:a6:ab:dc:90|75
1621837677|88:b4:a6:ad:81:35|79
1622012294|88:b4:a6:af:74:28|79
1621838813|88:b4:a6:b1:bc:70|76
1622012305|88:b4:a6:b2:e3:97|76
1621932519|88:b4:a6:b2:f4:a8|76
1621837659|88:b4:a6:b5:f7:74|74
1622012106|88:b4:a6:b8:7b:f8|77
1621932896|88:b4:a6:c0:02:b6|81
1622012957|88:b4:a6:c0:15:c9|79
1622013139|88:b4:a6:c2:5f:13|70
1622013510|88:b4:a6:c2:87:3b|72
1622013148|88:b4:a6:c7:0b:bf|67
1621839207|88:b4:a6:cb:0d:c1|81
1622012324|88:b4:a6:cb:e9:9d|75
1621843419|88:b4:a6:cf:00:b4|74
1622012865|88:b4:a6:cf:a3:57|69
1622013397|88:b4:a6:d0:93:06|70
1621840369|88:b4:a6:d0:b9:6d|75
1622013234|88:b4:a6:d6:e1:95|78
1622013484|88:b4:a6:d8:40:bd|73
1621837376|88:b4:a6:d8:d4:88|80
1621923265|88:b4:a6:d8:e3:97|65
1621839159|88:b4:a6:db:e6:9a|75
1621842540|88:b4:a6:dd:c6:7a|73
1621842511|88:b4:a6:de:7d:31|73
1621924726|88:b4:a6:de:90:44|72
1621837217|88:b4:a6:df:7c:f9|76
1622012891|88:b4:a6:e0:6c:e9|74
1621838765|88:b4:a6:e3:25:d9|75
1621838970|88:b4:a6:e9:f4:a8|75
1621932840|88:b4:a6:ec:8b:08|77
1621931550|88:b4:a6:f1:46:fa|73
1621839112|88:b4:a6:f1:fc:b0|78
1621836114|88:b4:a6:f4:ff:b3|68
1621843761|88:b4:a6:f7:28:dc|75
1622013253|88:b4:a6:fc:e5:99|76
1621841257|88:b4:a6:fd:65:19|74
1622012215|88:b4:a6:fe:40:f4|76
1621840502|88:b4:a6:ff:9e:52|82
1621930327|89:22:12:45:6f:f7|76
1621854446|89:30:eb:19:ef:98|60
1621837089|89:6a:d7:19:4f:ed|80
1621837060|89:d7:80:d0:72:54|75
1621945634|8b:0a:cb:73:25:59|84
1621932142|8b:3d:95:89:3f:27|76
1621941973|8b:95:d5:4f:5f:d8|72
1621935649|8b:ca:1e:20:10:df|75
1621929087|8b:dc:c9:91:00:70|74
1622036542|8c:25:05:4a:7c:0b|73
1622021342|8c:3d:77:49:53:80|68
1621839916|8c:45:00:15:f4:b0|76
1622030566|8c:45:00:81:6e:07|84
1621850987|8c:45:00:81:6e:07|82
1621951847|8c:45:00:a5:d0:51|90
1621934302|8c:4c:56:3f:78:a8|78
1621931173|8c:70:5a:15:3e:58|78
1621923160|8c:79:f5:0e:e4:f6|72
1621861062|8c:85:90:0f:e9:0e|84
1621923513|8c:85:90:75:1d:84|79
1621845855|8c:85:90:82:46:a4|84
1621927523|8c:85:90:86:b9:e0|78
1622037616|8c:9b:e9:1c:52:74|90
1622021527|8c:b8:4a:06:98:1a|83
1621861520|8c:b8:4a:06:98:1a|85
1622016713|8c:b8:4a:1e:2f:28|81
1622030695|8c:b8:4a:2a:69:06|71
1622010104|8c:b8:4a:32:b9:fe|79
1621854522|8c:b8:4a:3b:5a:d2|83
1621946140|8c:b8:4a:49:ca:f1|86
1622013539|8c:b8:4a:8a:21:cd|81
1621836881|8c:c0:eb:64:3a:2e|81
1621846476|8c:c6:81:1a:f3:5b|67
1621946322|8c:c6:81:6f:e4:42|80
1621936433|8c:d5:42:f1:3b:2c|80
1621944809|8c:eb:c6:b3:94:55|76
1622036051|8c:eb:c6:b3:94:55|92
1621935020|8c:f4:7f:31:d9:05|88
1621940363|8c:f5:a3:05:e2:47|74
1621849836|8c:f5:a3:66:8f:b4|67
1621932733|8c:f5:a3:d7:cc:2d|76
1621943933|8c:f5:a3:dd:36:35|81
1621950218|8d:36:07:86:cd:99|74
1621854148|8d:70:63:f8:47:1c|64
1621851607|8d:7c:1b:03:97:b9|58
1621949807|8d:9e:b2:ed:7e:01|76
1621837603|8d:b2:5f:e5:f0:5c|76
1621948575|8d:f1:16:19:16:fd|87
1621946534|8d:fc:5b:5c:2d:4e|72
1621853942|8f:6f:2a:c4:fb:6a|74
1621837809|8f:99:1e:05:a9:54|78
1621845543|90:23:3d:0c:fc:e1|75
1622030206|90:32:4b:78:24:79|71
1621858229|90:32:4b:78:24:79|70
1621935505|90:32:4b:78:24:79|65
1622035124|90:61:ae:49:fa:8e|85
1622014991|90:61:ae:fc:b8:d1|87
1621926167|90:61:ae:fc:b8:d2|85
1621932783|90:78:41:9c:91:90|83
1621927716|90:84:30:55:cb:21|73
1622013793|90:9c:4a:b6:d5:f0|82
1622026752|90:b2:1f:c1:c7:6c|83
1622025238|90:b6:86:fe:db:11|77
1621929952|90:b9:f2:71:04:8f|81
1621862145|90:cc:df:c0:c1:9b|77
1621854547|90:e1:88:a4:4d:36|73
1622023756|90:f4:8c:47:e2:f0|63
1621952839|90:f7:e7:8c:98:fe|87
1621937155|91:17:e3:37:c9:0d|73
1621950020|91:50:50:e6:3f:3b|80
1621851572|91:6e:61:44:a8:ac|77
1621837147|91:f1:15:a0:c5:cc|78
1621861653|93:13:1f:5e:36:58|77
1621840437|93:bb:fd:57:fe:13|73
1621850466|94:0e:6b:f0:ee:7c|76
1621931311|94:2d:dc:7d:a3:40|86
1621837203|94:31:4d:6f:61:bf|75
1621950318|94:3a:76:56:99:b0|85
1621846493|94:5b:ac:42:9b:34|76
1621836892|94:65:2d:d0:cc:ac|84
1622019678|94:65:2d:dc:ac:48|82
1621947521|94:65:2d:dc:ac:48|79
1621858512|94:65:2d:dc:ac:48|74
1622012843|94:65:9c:66:64:df|82
1621953025|94:6b:be:41:d4:ac|86
1621840488|94:75:24:b2:68:9f|80
1622026156|94:76:b7:01:d4:81|79
1621839688|94:7c:c7:d9:85:eb|75
1622013649|94:8b:69:7b:a1:95|81
1621931785|94:8f:83:58:0c:ce|68
1621948815|94:94:26:5d:ac:89|91
1622028929|94:b1:0a:d0:e1:56|86
1621842036|94:b1:0a:d0:e1:56|70
1622016130|94:be:46:6f:74:fb|85
1621951426|94:be:46:6f:74:fb|86
1622014966|94:bf:2d:d8:c3:d6|72
1621928252|94:bf:2d:d8:c3:d6|74
1622015027|94:bf:2d:d9:86:60|71
1621924507|94:e6:f7:60:ba:ee|72
1622022278|94:e7:0b:af:a6:68|85
1621933358|94:e7:0b:af:a6:68|73
1622022112|95:07:0e:98:33:70|76
1622021200|95:0b:08:27:13:34|71
1621926928|95:69:74:7a:25:d9|71
1622034920|95:9a:77:38:36:ce|68
1622017615|97:0d:59:80:d0:fb|71
1622021187|97:1e:34:50:7c:6a|72
1621854785|97:5a:92:42:55:90|85
1622022046|97:64:e1:fe:80:64|66
1621949800|97:a1:58:67:fd:45|71
1621849982|97:e5:b8:68:f6:c7|81
1621926339|98:04:9d:4e:69:6f|70
1622017426|98:09:cf:64:f4:d2|75
1622019822|98:0d:51:52:c1:f2|83
1621848371|98:0d:51:52:c1:f2|87
1621836850|98:22:ef:b9:ba:91|69
1622023118|98:2c:bc:01:ea:8c|78
1621930358|98:2c:bc:01:ea:8c|87
1622017916|98:2c:bc:2f:53:a0|62
1621932634|98:2c:bc:2f:53:a0|61
1621926162|98:2c:bc:60:15:5d|74
1622018747|98:3b:8f:0d:da:4b|72
1621931471|98:3b:8f:b5:ad:15|79
1621852887|98:3e:a0:be:ce:ee|80
1621946410|98:46:0a:9b:6f:48|79
1621836728|98:54:1b:a2:7e:ed|69
1621836118|98:54:1b:a2:7e:ee|74
1622030232|98:54:1b:be:fb:b3|76
1621947736|98:5f:d3:ef:60:c3|78
1622017328|98:5f:d3:ef:60:c3|73
1621864545|98:5f:d3:ef:60:c3|77
1621944598|98:65:10:ef:29:c7|82
1621852218|98:6f:60:a6:1b:89|81
1621940022|98:74:da:bf:d8:a6|90
1622033868|98:74:da:c1:4d:d7|80
1621935641|98:76:ce:f2:a9:b9|75
1622029894|98:af:65:33:9c:0d|79
1621855707|98:ca:33:db:07:c7|69
1622009334|98:dd:ea:d5:7d:a7|73
1621922747|98:dd:ea:d5:7d:a7|80
1622015093|98:e0:d9:32:cb:b8|84
1622014818|98:f1:70:1b:a8:59|75
1621922431|98:f1:70:1b:a8:59|67
1621861552|9b:85:7b:55:ec:c5|71
1621838544|9b:a6:63:1d:4e:3d|79
1621853694|9b:e6:fa:ea:21:8f|63
1621864641|9b:f0:07:43:52:9e|77
1621946515|9c:0c:b6:6b:63:a7|75
1621925821|9c:29:76:e3:f8:50|75
1622013903|9c:29:76:e3:f8:51|65
1621927664|9c:29:76:e3:f8:51|62
1621841704|9c:2b:d2:83:d2:89|78
1622032188|9c:30:5b:6b:fa:a5|79
1621940459|9c:30:5b:6b:fa:a5|83
1622037479|9c:33:cb:40:ff:a4|88
1621838218|9c:3e:71:ac:32:c9|75
1621865066|9c:5f:5a:14:21:03|89
1621953890|9c:5f:5a:25:bc:a9|91
1621949982|9c:7f:f5:98:83:48|67
1621939793|9c:a5:13:54:fc:35|78
1621924231|9c:b6:d0:97:1b:9d|73
1622023540|9c:f2:f8:0b:c9:37|87
1621939337|9c:f3:87:bd:74:b8|67
1621856863|9c:f3:87:c7:31:92|86
1621934767|9d:1b:06:10:8f:87|74
1622010705|9d:31:a2:a1:b2:b4|81
1622013550|9d:84:2d:c1:3c:44|75
1622023457|9d:91:39:1c:ce:34|66
1621933942|9d:92:c9:fc:93:8d|70
1621839820|9d:a0:16:e3:b0:bf|81
1621935466|9f:17:cb:30:4f:85|83
1622024745|9f:4d:3c:db:45:5d|76
1621852790|9f:5b:72:7f:71:59|70
1622023710|9f:83:06:ee:29:b8|75
1621933113|9f:bf:32:06:1f:8b|83
1621927312|9f:da:4f:e8:af:ac|75
1621949784|a0:01:29:6f:b0:47|73
1621927385|a0:18:28:84:31:e1|81
1622014034|a0:28:ed:05:f7:db|66
1621836178|a0:6c:7e:56:0d:78|89
1621945829|a0:78:17:93:ae:cf|80
1621941914|a0:86:23:75:3b:06|66
1621940221|a0:88:b4:15:4b:ec|71
1621928471|a0:90:56:67:b0:b9|79
1621931628|a0:99:9b:10:1f:8b|93
1621852185|a0:a3:61:71:bd:9b|81
1621930093|a0:a4:c5:b1:fc:ba|82
1621853293|a0:a4:c5:b1:fc:ba|80
1622036154|a0:af:bd:85:d2:1b|94
1621927094|a0:c9:a0:b6:a2:46|79
1621849389|a0:c9:a0:b6:a2:46|69
1621843006|a0:c9:a0:c6:aa:1b|72
1622037258|a0:cc:2b:07:93:fa|86
1621926417|a0:cc:2b:c8:75:21|82
1621837892|a0:cc:2b:c8:75:21|79
1622027183|a0:d8:07:47:10:e7|68
1621937052|a0:ef:f3:3f:f2:2a|77
1621837701|a1:2a:d6:c4:d7:af|87
1622009989|a1:85:9a:7c:e8:c4|73
1621926190|a1:87:5a:20:fe:a2|68
1621941302|a1:b0:d3:86:c9:e0|85
1621837861|a1:d9:99:d6:eb:77|68
1621936070|a1:fc:4f:fd:ac:49|77
1621842438|a3:25:21:3c:c3:73|67
1621931862|a3:70:38:d8:6b:01|78
1621845337|a3:9c:b5:1c:d0:b2|67
1621838597|a3:bb:33:a3:96:64|79
1621949921|a3:d3:05:e7:e6:0b|74
1622032348|a4:08:ea:5c:06:93|84
1622012314|a4:45:19:4d:3c:4e|74
1621844279|a4:45:19:4d:3c:4e|76
1621922402|a4:4b:d5:56:46:b3|78
1622021390|a4:50:46:10:7a:b7|88
1621838220|a4:55:90:c4:5e:e6|84
1621855029|a4:5c:1e:5b:25:22|66
1621928898|a4:83:e7:3c:42:b3|86
1622012403|a4:83:e7:a4:7e:33|72
1621925329|a4:83:e7:a4:7e:33|75
1621927722|a4:96:46:7a:e4:0a|73
1621927709|a4:97:76:3b:ab:ee|79
1621841272|a4:9b:4f:25:f1:c9|77
1621939068|a4:9b:4f:e3:b2:98|66
1622024280|a4:b1:c1:d6:51:cd|71
1621860902|a4:b1:c1:d6:51:cd|67
1621939084|a4:b1:c1:d6:51:cd|68
1621841020|a4:bd:fa:b7:18:11|77
1621859104|a4:c3:f0:c9:2c:cd|69
1622024748|a4:c4:94:45:e4:58|81
1621942479|a4:c4:94:45:e4:58|82
1622022445|a4:cb:0f:21:03:3b|69
1621854914|a4:d9:31:d8:79:11|72
1622022547|a4:e4:b8:80:55:71|76
1621851914|a4:e4:b8:80:55:71|69
1621943706|a4:e4:b8:80:55:71|74
1621844785|a4:e4:b8:94:90:67|82
1621954423|a4:f0:5e:d2:cc:77|68
1621838295|a5:31:66:48:14:c9|72
1621949686|a5:3e:82:57:72:c3|71
1621948858|a5:94:e7:6a:c8:0d|70
1621837540|a7:18:2f:7b:e8:29|80
1621864037|a7:1b:1b:09:3d:ad|76
1621851829|a7:29:52:ed:4d:4d|66
1621923384|a7:2e:b7:95:50:43|78
1621949083|a7:6a:71:c6:6c:60|68
1621861000|a7:d9:83:9e:38:b7|74
1622027162|a7:f8:ca:08:70:48|84
1621927258|a8:20:6a:d4:14:da|81
1622012235|a8:51:5b:2e:d0:b3|85
1621839342|a8:66:7f:64:04:08|75
1622010014|a8:6d:aa:0c:8a:69|79
1621846778|a8:6d:aa:0c:8a:69|72
1621842792|a8:6d:aa:c8:e6:41|73
1621840109|a8:81:7e:89:8b:2f|65
1621928856|a8:81:7e:8f:3c:21|80
1621839679|a8:81:7e:8f:3c:21|75
1621853047|a8:8e:83:26:da:29|78
1621953719|a8:96:75:35:9a:40|78
1621852748|a8:96:75:63:da:d8|84
1621934689|a8:9c:ed:6d:c8:bd|74
1621846728|a8:9c:ed:6d:c8:bd|85
1621942867|a8:c2:1d:0e:25:9f|78
1621935189|a8:db:03:54:b1:1d|70
1621928114|a9:10:49:cd:f9:e1|79
1621864156|a9:28:07:2d:6c:45|83
1621840495|a9:5c:f5:b8:9f:f5|72
1621950726|a9:f2:a0:f7:ca:0b|83
1622021560|ab:05:6c:88:75:3b|77
1621926742|ab:1f:d4:eb:fe:09|55
1621838348|ab:67:e8:40:57:27|79
1622014979|ab:bd:74:e2:c0:c3|80
1621926193|ab:dc:84:dd:b0:2d|78
1622013758|ac:07:5f:2a:c1:44|65
1621853086|ac:4b:6c:ac:1d:33|77
1622030942|ac:52:8e:8a:a9:7c|91
1622027597|ac:57:75:3e:62:5e|93
1621937857|ac:57:75:3e:62:5e|92
1621837322|ac:5f:3e:f4:e0:3f|81
1622026958|ac:92:32:f5:48:dd|82
1621851904|ac:a7:a4:b0:fb:4c|66
1621942728|ac:d5:64:02:f7:bf|74
1622024557|ac:fd:ce:37:75:12|80
1621857217|ac:fd:ce:37:75:12|85
1621928308|ad:7d:e9:3e:54:0b|74
1621946226|ad:9c:da:32:63:8d|78
1621855607|ad:b7:6b:fd:2b:46|79
1621931931|ad:e1:cf:31:30:0e|70
1621928743|ad:f4:53:bd:7c:05|78
1621841087|af:1c:a7:70:f7:83|69
1621850756|af:35:62:77:c2:95|66
1621847977|af:40:05:52:07:41|84
1621852115|af:4a:aa:be:04:ec|69
1622023691|af:4e:36:3c:09:d9|82
1622022775|af:98:85:3e:0f:fe|79
1621927737|af:b0:d7:5a:70:a1|84
1621931868|af:ee:67:e2:eb:fb|70
1621838524|b0:02:aa:85:ae:5a|74
1621943857|b0:35:9f:9d:d0:e1|74
1621923725|b0:35:b5:e5:7c:80|78
1621855413|b0:35:b5:e5:7c:80|84
1621928212|b0:53:17:d2:79:43|68
1621841198|b0:6f:e0:1e:1e:e8|86
1621841006|b0:6f:e0:b0:41:f2|69
1622011407|b0:70:2d:bc:e2:2a|75
1621951357|b0:72:bf:42:e9:d6|84
1622011279|b0:9e:fa:9c:e3:8f|64
1621922943|b0:a2:e7:cf:24:4c|77
1621855116|b0:a2:e7:cf:24:4c|79
1621922635|b0:a4:60:93:b5:52|73
1621837036|b0:a4:60:93:b5:52|78
1621926453|b0:a4:60:9d:d8:bb|71
1621925825|b0:e1:7e:a6:4b:f5|69
1621853107|b0:e1:7e:a6:4b:f5|73
1622019731|b0:e2:35:27:28:ef|84
1621853393|b0:e2:35:27:28:ef|82
1621842342|b0:e2:35:c0:db:b6|73
1621848375|b0:e2:35:c0:db:d9|75
1621848983|b0:e2:35:c1:19:46|80
1621864789|b0:e2:35:c1:1c:05|83
1622014736|b0:e2:35:c1:26:0e|77
1621836001|b0:e2:35:c1:26:0e|81
1621948915|b0:e2:35:c1:26:0e|72
1621927877|b0:e2:35:c1:27:b1|83
1621932159|b0:e2:35:c1:2f:22|81
1621836021|b0:fc:36:aa:71:6b|92
1621948753|b0:fc:36:aa:71:6b|86
1621859805|b1:81:1b:7b:73:e4|82
1621942145|b1:d8:60:8d:b0:f5|67
1621930925|b3:04:7e:14:da:e9|54
1622010271|b3:67:10:3b:eb:a4|87
1622027948|b3:88:0c:d5:cf:a6|81
1621852532|b3:91:e1:d4:6f:e6|66
1621852849|b3:96:3f:19:c1:79|64
1621852508|b3:e8:12:bd:7f:3b|74
1621851739|b3:ec:c0:6a:cf:f9|62
1621950017|b4:42:e9:97:7a:3d|82
1622035543|b4:52:7d:dc:f1:37|77
1621855439|b4:62:91:03:b6:64|83
1621839365|b4:6b:fc:d3:24:03|76
1622015386|b4:74:43:65:6d:79|75
1621853852|b4:8b:19:75:a2:1c|72
1621932829|b4:8b:19:da:a2:ef|77
1621836014|b4:ae:2b:e1:d7:d5|72
1621941802|b4:b1:4a:3f:46:9b|84
1621836931|b5:77:e7:d3:eb:a9|79
1621946519|b5:e0:79:c3:fd:81|74
1621943212|b5:f5:1d:61:ba:7a|83
1621850762|b7:75:d7:0f:e7:31|77
1621928003|b7:af:35:fe:f3:ae|81
1621850080|b7:b5:dc:e3:54:00|74
1621943907|b7:ef:dc:3c:dc:7f|79
1621923283|b8:01:96:76:d6:e4|79
1621947464|b8:12:3e:69:8e:b1|74
1622020080|b8:2f:b7:b2:c4:11|88
1622008804|b8:53:ac:c7:31:1b|77
1621850317|b8:53:ac:c7:31:1b|81
1621926046|b8:53:ac:c7:31:1b|74
1621932345|b8:57:d8:a1:22:3a|71
1622013004|b8:67:5d:b4:8c:4f|78
1622031985|b8:8a:60:ed:5d:50|76
1622009804|b8:9a:2a:af:32:ff|68
1622008842|b8:c9:b5:39:58:b9|83
1622037201|b8:c9:b5:ca:58:dd|80
1621855601|b8:d7:af:02:86:de|80
1621949566|b8:d7:af:02:86:de|85
1622031304|b8:d7:af:b6:77:f7|76
1621940690|b8:d7:af:b6:77:f7|78
1621927239|b8:e4:5a:69:cc:ad|76
1622008850|b8:ee:65:67:04:86|76
1621846551|b8:f6:b1:d7:72:ad|84
1621856458|b9:07:9d:67:ff:b6|79
1621851017|b9:21:19:8f:93:6a|77
1621929815|b9:40:6f:f1:7e:61|81
1621932025|b9:7d:79:1b:27:0b|68
1622011836|b9:99:8b:73:53:93|70
1621860917|b9:ac:ab:9c:52:fd|78
1621851122|b9:be:c2:79:52:fd|68
1621929113|b9:bf:d6:e1:b5:5e|71
1621935454|bb:2f:18:26:79:f4|73
1621837791|bb:44:ce:7d:69:04|76
1621856161|bb:49:e9:4e:fc:a0|71
1621948955|bb:67:06:45:1a:ac|69
1621938916|bb:9d:11:14:89:82|81
1621852811|bb:bf:01:e7:c6:a9|73
1622030178|bb:cd:0d:53:cb:ed|73
1622023215|bb:e9:21:7a:93:4f|53
1621861221|bb:f0:53:7f:71:f8|82
1621939451|bb:f3:28:27:47:0a|77
1621945848|bc:06:7e:39:99:de|79
1621852542|bc:09:63:1d:0b:b5|77
1622017179|bc:17:b8:3f:bb:e6|76
1621941010|bc:2e:f6:68:9a:c7|68
1622021091|bc:2f:3d:e3:70:cf|81
1621923066|bc:2f:3d:e3:70:cf|83
1621853889|bc:2f:3d:e3:70:cf|74
1621949315|bc:30:1d:39:f9:6c|75
1621836596|bc:3a:ea:bc:1f:8c|77
1621859220|bc:3d:85:c0:5c:7b|76
1621927748|bc:47:f7:6c:6a:20|74
1622023359|bc:4c:c4:8c:38:54|85
1622033810|bc:4c:c4:b5:df:a6|81
1621940993|bc:4c:c4:b5:df:a6|76
1621935392|bc:5a:54:29:a0:a7|80
1621839888|bc:63:3e:ca:06:28|76
1621923815|bc:83:85:0f:41:06|79
1622021613|bc:83:85:12:f8:91|76
1621934268|bc:83:85:ef:10:d6|66
1621839343|bc:83:85:ef:10:d6|64
1621855348|bc:96:6c:38:d3:70|67
1621841315|bc:e2:65:e0:6d:34|76
1621930108|bc:ff:eb:b9:b9:35|86
1621924056|bd:2b:62:d9:e8:58|81
1621845327|bd:42:f6:00:0b:99|75
1621839562|bd:44:09:d5:8d:5e|79
1621860962|bf:38:35:76:59:91|84
1621842366|bf:77:59:97:78:78|73
1621839414|c0:05:fe:5e:12:30|81
1622009564|c0:17:4d:13:3f:73|84
1621852191|c0:17:4d:13:3f:73|57
1622030608|c0:17:4d:14:52:71|65
1621836110|c0:17:4d:14:52:71|71
1621855318|c0:17:4d:2f:18:3f|79
1621837160|c0:17:4d:38:2f:34|81
1622029482|c0:17:4d:c7:46:e7|94
1621942479|c0:77:53:13:68:a1|80
1621851402|c0:93:dc:f0:5e:cd|74
1621850348|c0:b5:d7:d9:00:6d|62
1621929802|c0:b6:58:52:15:74|81
1622014837|c0:b6:f9:3d:5a:8b|64
1621859267|c0:b6:f9:3d:5a:8b|66
1621944063|c0:b6:f9:3d:5a:8b|63
1621944226|c0:b6:f9:3d:5a:8c|73
1622028945|c0:b6:f9:aa:5f:0f|89
1621850144|c0:b6:f9:aa:5f:0f|71
1621922987|c0:b8:83:7c:e7:4b|74
1622015490|c0:b8:83:7c:e7:4b|80
1621855098|c0:b8:83:7c:e7:4b|68
1621841618|c0:b8:83:c9:f2:c5|77
1622017870|c0:bd:c8:fb:69:ef|65
1622009384|c0:d2:dd:66:05:c5|73
1621923151|c0:d2:dd:66:05:c5|72
1622032377|c0:d2:f3:84:bf:02|66
1621860628|c0:ee:fb:e0:6f:e0|88
1621946567|c1:0f:35:c2:35:5c|67
1622028745|c1:5f:5e:72:95:ce|75
1622013129|c1:79:8d:2b:d3:10|77
1621841653|c1:a6:97:c9:03:8b|74
1621846213|c3:0d:57:4f:e7:c6|77
1621932496|c3:a3:ce:a1:3f:1d|84
1621860139|c3:a8:a0:ee:06:44|75
1621927042|c3:bc:6a:7e:48:4f|77
1621865096|c3:f4:22:c1:b8:7e|87
1621941813|c3:fd:8c:fb:ca:61|77
1621837183|c4:04:74:67:f4:19|81
1621838690|c4:06:83:25:f3:02|70
1622022498|c4:06:83:5e:86:3c|81
1621855866|c4:28:85:52:21:92|80
1621927605|c4:50:01:87:88:56|81
1622008948|c4:57:6e:4e:d2:b7|73
1621927925|c4:57:6e:4e:d2:b7|71
1621854354|c4:5d:c1:35:bd:90|78
1621841682|c4:61:94:21:d2:a5|72
1621851199|c4:7b:7c:2a:f4:7b|78
1622013405|c4:8e:8f:f3:80:bd|77
1621853555|c4:9b:db:8e:9b:ca|80
1621933726|c4:9d:ed:1e:a5:b5|83
1621837041|c4:9d:ed:1e:a5:b5|70
1621923504|c4:9f:4c:84:b2:8b|61
1621928654|c4:c7:36:f3:ce:63|72
1621863776|c4:d9:87:f2:a9:40|93
1622035636|c4:fe:5b:af:e2:43|70
1622032987|c5:29:3f:54:5c:49|86
1621945897|c5:34:a4:4d:74:b7|82
1621851210|c5:86:e6:63:7c:06|73
1621947515|c7:a8:02:18:90:6c|76
1622019108|c8:02:10:bf:67:e0|69
1621922530|c8:02:10:bf:67:e0|70
1621845859|c8:02:10:bf:67:e0|71
1621838935|c8:1d:56:30:d0:21|70
1622013136|c8:23:bd:d6:26:ed|72
1622020739|c8:34:8e:63:06:4e|81
1621923741|c8:45:e2:1c:07:41|78
1621949847|c8:64:f1:b5:d1:ce|81
1621927643|c8:c9:96:c8:42:7e|72
1621838239|c8:ca:ee:87:d8:b2|64
1621849374|c8:d0:83:0f:25:c6|85
1621867120|c8:d0:83:6c:e3:0d|90
1622024630|c8:dd:33:e8:cc:9e|85
1622010626|c8:e1:a7:09:48:a2|75
1621923419|c8:e1:a7:09:48:a2|72
1622013551|c8:e9:ca:6f:8b:ee|75
1621941089|c8:f7:33:db:5a:83|73
1621948781|c9:3d:bf:f0:96:57|79
1622030181|c9:9e:7f:c8:6e:2d|63
1621838046|c9:b7:d0:34:b8:33|74
1621850871|cb:1b:76:44:ff:5c|69
1621851001|cb:62:86:79:cd:6e|73
1622022499|cb:95:1c:9d:72:a9|78
1621853036|cb:98:2e:a8:03:14|79
1621852569|cb:c8:66:9a:e4:2f|72
1621928144|cb:dc:a3:e1:68:a1|83
1622021200|cc:0f:a6:c1:97:24|77
1621852125|cc:20:e8:9f:f7:61|88
1622034006|cc:21:19:3d:04:29|89
1621951905|cc:21:19:4c:56:94|89
1621860192|cc:21:19:89:75:37|66
1621949646|cc:30:35:90:5e:ac|73
1621855572|cc:3d:82:4f:04:39|75
1621841197|cc:3d:82:4f:21:7b|75
1621836039|cc:46:4e:cf:02:6e|77
1621930780|cc:46:4e:eb:40:3a|65
1621923519|cc:69:9c:49:fa:e4|81
1622009859|cc:71:44:75:37:7e|71
1621861583|cc:a9:b8:bb:dc:fb|68
1621839937|cc:c7:60:86:61:5f|57
1621934209|cc:e5:3e:ca:46:8e|74
1621837889|cd:9c:e7:31:5a:57|78
1621850220|cd:a5:4d:11:07:ed|74
1621853055|cd:a7:54:1d:f0:0b|76
1621950423|cf:7c:d7:52:0c:81|86
1621852293|cf:a4:dc:1e:a4:3b|80
1621943555|cf:bc:e6:c1:9d:e6|73
1621845837|cf:fe:58:ab:98:e4|85
1622035953|d0:16:b4:19:0b:8b|88
1621936730|d0:25:98:6f:08:4c|72
1621847399|d0:25:98:a4:d0:04|79
1621947798|d0:4b:25:2a:51:44|80
1622025837|d0:53:49:df:f2:fd|84
1621927545|d0:57:4a:2e:e4:35|75
1621861424|d0:5c:23:30:e8:f0|64
1622033103|d0:7f:a0:a7:0e:8f|94
1621928918|d0:b4:08:65:04:0f|76
1622010925|d0:c6:37:12:3b:3f|79
1621837112|d0:c6:37:12:3b:3f|76
1621847439|d0:c6:37:d6:fa:fb|78
1622010213|d0:d8:06:05:2a:84|87
1622032036|d1:10:48:9b:3f:1e|79
1621929221|d1:95:15:41:fa:0c|72
1621853958|d1:9c:f5:b2:06:6e|79
1622021821|d1:bd:a4:be:e8:c4|58
1621838578|d1:c8:df:26:d9:2f|72
1621842228|d1:ec:b7:8e:df:d3|62
1621932749|d3:5b:1e:24:3b:81|80
1621928231|d3:f5:01:47:94:6b|65
1621854373|d4:04:85:60:8a:73|85
1621927265|d4:38:7a:5a:bd:f3|85
1621837704|d4:3b:04:79:25:8e|70
1622020399|d4:3b:04:a0:aa:55|79
1621842061|d4:3b:04:a0:aa:55|75
1621932619|d4:3b:04:a0:aa:55|73
1621927736|d4:43:95:f5:9a:82|78
1621942230|d4:4d:a4:fb:89:da|74
1621927502|d4:5d:52:ef:15:2f|79
1621836853|d4:6d:6d:e0:e8:c2|76
1621850833|d4:7b:e4:6f:0e:de|71
1621837320|d4:90:9c:95:53:5d|60
1621843653|d4:ae:05:39:ce:27|75
1622036062|d4:b7:61:87:81:46|93
1621940296|d4:b7:61:87:81:5b|88
1621938658|d4:b7:61:a0:6f:13|94
1621858093|d4:b7:61:a0:6f:13|94
1621931115|d4:d2:52:b8:18:02|77
1621922431|d4:d2:52:b8:18:70|74
1621927383|d4:d5:81:ba:07:97|50
1621849910|d5:1c:8e:1f:b7:73|74
1621849902|d5:c0:24:b9:ed:1b|80
1621855012|d7:29:fb:79:49:f9|61
1621931221|d7:62:54:4f:5a:fd|82
1621861532|d7:b5:94:ea:64:96|67
1621853925|d7:ec:aa:4a:7e:42|63
1622032625|d7:f6:6d:bb:6a:40|81
1621944998|d8:1c:79:ad:a4:d0|84
1622025674|d8:1e:dd:b0:55:af|66
1621952036|d8:32:e3:50:2a:2a|74
1621853501|d8:44:ce:f5:25:33|80
1621940311|d8:4c:90:b3:ff:30|60
1622017520|d8:4c:90:b3:ff:30|76
1621859394|d8:4c:90:b3:ff:30|69
1621851173|d8:56:05:1f:2f:0d|76
1622015752|d8:95:07:e5:54:af|81
1621927152|d8:9c:67:92:75:77|86
1621836198|d8:9c:67:92:75:77|77
1621930540|d8:9e:61:e8:92:59|77
1621840647|d8:9e:61:e8:92:59|74
1621933549|d8:a1:43:8d:9b:e2|73
1621837665|d8:bb:2c:46:1a:fe|89
1621938936|d8:c4:50:f6:7b:a1|84
1621837926|d8:c4:6a:d0:71:0a|80
1621853542|d8:ee:fe:8a:ab:72|86
1622031178|d8:f2:ca:11:cb:b4|67
1621861610|d8:f2:ca:11:cb:b4|65
1622009871|d8:f2:ca:b4:e4:9d|77
1621837750|d8:f2:ca:b4:e4:9d|82
1621927046|d9:30:72:89:e7:28|81
1621838538|d9:39:20:d6:c5:87|79
1621946572|d9:b1:17:6f:ad:50|77
1622022455|d9:f8:6f:a5:66:7a|81
1621929228|db:ee:70:9a:6f:3b|76
1621852235|dc:16:b2:53:78:d6|83
1621930039|dc:16:b2:89:23:f3|76
1621838809|dc:16:b2:89:23:f3|70
1621841008|dc:1e:42:eb:2b:cf|75
1621928368|dc:66:72:c8:54:03|89
1621944917|dc:72:9b:76:b1:e2|53
1621922701|dc:85:de:c0:4c:df|86
1622009637|dc:85:de:c0:4c:df|86
1621837414|dc:85:de:c0:4c:df|86
1621868263|dc:89:83:2f:e0:db|89
1622032625|dc:8b:28:41:99:fc|68
1621944538|dc:8b:28:65:9c:35|69
1622023196|dc:8b:28:77:df:e4|83
1621855603|dc:98:24:3a:a4:26|84
1622021130|dc:a9:04:8b:73:d0|79
1621941004|dc:b7:2e:bb:2b:e4|62
1622031863|dc:b7:2e:bb:2b:e4|80
1621855121|dc:b7:2e:bb:2b:e4|75
1621841614|dc:ea:fa:2e:04:02|80
1622030822|dc:ef:ca:39:fb:f1|88
1621923057|dc:ef:ca:d0:b6:00|87
1622010761|dc:f0:90:bf:1e:84|64
1621836842|dc:f0:90:bf:1e:84|75
1621922706|dc:f0:90:bf:1e:84|75
1621945881|dc:f6:e4:a9:87:7f|78
1621863797|dc:f7:56:07:94:c8|50
1622036140|dc:f7:56:2d:77:ec|88
1621849772|dc:fb:48:8a:de:c8|77
1621851217|dd:36:c1:9c:8b:8e|75
1621850757|dd:95:0d:0f:92:dc|61
1621838209|dd:97:ef:1c:f9:55|74
1622016575|df:1d:10:ab:c2:a0|87
1621841011|df:2e:53:b6:fc:1a|80
1622022623|df:98:10:a0:05:cb|69
1621850700|df:b8:ef:74:b9:63|60
1622013031|e0:3d:ac:f8:51:9b|63
1621948551|e0:3e:15:cc:fc:9a|92
1621944012|e0:5f:45:bc:fa:7e|64
1621838330|e0:89:7e:16:7b:fc|80
1621852907|e0:9d:31:f5:93:26|91
1622018339|e0:aa:96:0b:f7:ce|69
1621838188|e0:aa:96:0b:f7:ce|90
1621845710|e0:b5:2d:0b:9b:1b|68
1621927346|e0:ca:94:84:33:6f|92
1622027828|e0:f8:47:19:70:40|91
1621854495|e1:11:96:98:ae:92|75
1621930359|e1:51:53:bc:6f:c4|82
1622026145|e1:8c:c9:38:bd:92|84
1621946153|e1:ce:8b:81:a5:ce|83
1621940136|e3:0f:fb:5e:ad:82|70
1621940897|e3:47:89:df:82:95|73
1621941946|e3:65:03:8d:54:d0|69
1621947067|e3:70:90:1f:2d:74|68
1621852406|e3:ab:cd:58:15:3b|76
1621852208|e3:c2:72:77:ac:9b|61
1622010361|e3:d2:7e:9c:80:e5|86
1621926919|e3:e1:af:7e:b9:70|79
1621935894|e3:fd:fb:7b:c4:a1|75
1621941680|e4:0e:ee:7e:92:40|77
1621933942|e4:0e:ee:e4:dd:b8|76
1622010534|e4:2b:34:e5:1f:49|74
1621846905|e4:2b:34:e5:1f:49|73
1621842363|e4:39:2e:51:b1:67|75
1621837027|e4:9c:29:7f:66:9b|84
1621922439|e4:a4:71:ae:bb:90|71
1621954266|e4:a4:71:b6:54:0e|94
1621937128|e4:a7:c5:e7:1b:63|69
1622016134|e4:aa:ea:cd:96:f3|78
1621954560|e4:b2:fb:41:fd:a7|88
1622029201|e4:b3:18:4b:d3:f4|92
1621948730|e4:b3:18:4b:d3:f4|92
1621922635|e4:b3:18:9c:52:34|81
1621854967|e4:b3:18:c7:54:bb|78
1622029891|e4:b3:18:e9:1f:15|90
1621923568|e4:f8:9c:34:dd:d4|78
1621928482|e5:2b:6e:a0:4d:bf|79
1621934031|e5:ad:58:cb:e2:94|68
1622027858|e7:53:14:96:37:78|73
1621931121|e7:55:20:23:b5:57|74
1621943795|e7:61:74:b4:b2:c7|83
1621838248|e7:d0:22:a1:dd:92|62
1621862792|e8:26:31:95:7d:f0|78
1621849010|e8:2a:ea:19:b9:2d|88
1621850357|e8:59:ef:fd:de:f1|73
1622012150|e8:5a:8b:62:63:17|72
1621838528|e8:5a:8b:62:63:17|64
1621938666|e8:5a:8b:62:63:17|74
1622010055|e8:93:09:2e:01:ee|76
1621841342|e8:93:09:2e:01:ee|67
1621842056|e8:98:d4:f2:26:47|72
1621861198|e8:a8:4b:da:97:7b|68
1622021231|e8:d0:fc:f6:9c:2f|76
1621928510|e9:0a:ef:eb:eb:f1|83
1621842179|e9:11:e4:99:c2:c2|75
1621935442|e9:49:8b:17:c6:10|77
1621933007|e9:67:0e:70:8c:26|80
1621853481|e9:6f:7a:4c:34:c8|64
1622034944|e9:78:b3:28:82:c1|81
1621949460|e9:ce:c3:d3:8e:aa|72
1621851435|e9:de:70:30:3a:7a|77
1621849992|e9:f3:b5:49:73:72|70
1621836801|eb:0e:3b:70:cd:04|85
1621946616|eb:3d:0e:00:d4:ee|76
1621852516|eb:6f:91:f5:1d:41|74
1622023086|eb:84:2a:4d:97:34|55
1621864034|eb:9d:40:c1:e6:b7|77
1621937241|eb:c4:5e:70:de:1c|82
1621949858|eb:cc:f6:98:c1:1f|72
1621927881|eb:dd:ae:ff:2a:05|68
1621839284|ec:01:ee:d0:10:6f|79
1622031438|ec:07:37:65:2e:5c|75
1622012242|ec:10:7b:5e:84:75|88
1621944840|ec:1f:72:11:3b:8d|69
1622028908|ec:1f:72:11:3b:8d|70
1621843917|ec:1f:72:11:3b:8d|71
1622028689|ec:1f:72:2b:f8:b6|79
1622027973|ec:1f:72:66:0c:0a|88
1622022022|ec:1f:72:7b:e0:80|85
1621923160|ec:1f:72:7b:e0:80|82
1622012556|ec:1f:72:80:10:d2|81
1621836022|ec:1f:72:83:9f:04|88
1621937266|ec:30:d7:a2:0b:f9|80
1621850739|ec:4b:c7:d8:1a:ca|70
1621838352|ec:6f:8f:b9:0f:3a|74
1622030759|ec:8c:9a:d6:70:98|65
1621931881|ec:8c:9a:d6:70:98|83
1621842180|ec:8c:9a:d6:70:98|78
1621922429|ec:9b:f3:ab:a6:5a|87
1622035611|ec:9b:f3:d1:58:e4|53
1621852525|ec:cb:db:73:6e:d1|66
1621939108|ec:d0:9f:fb:bc:fa|86
1622021204|ec:f4:17:47:02:e2|78
1621923993|ed:0f:b6:6b:07:6f|78
1621949616|ed:23:f3:5b:52:b1|70
1621929098|ed:78:43:35:65:9f|77
1621855052|ed:d2:6a:db:23:31|63
1621924107|ed:e0:dd:46:76:39|77
1621946656|ef:16:78:5b:a6:c7|72
1622019156|ef:7a:c2:4b:22:c7|82
1621853923|ef:95:d2:a1:f8:3d|70
1621851757|ef:9b:81:c9:1a:f9|80
1621923395|ef:a8:54:4d:09:ed|79
1621923021|ef:b3:34:ab:ef:55|73
1621947670|ef:bd:3b:63:89:7d|80
1621860417|ef:c7:8f:f2:48:cb|77
1621927331|ef:d1:66:ce:1d:49|61
1621854139|f0:25:74:20:e1:2f|70
1622029236|f0:67:28:a0:bf:5d|78
1621853020|f0:67:28:c0:6d:ab|77
1621837399|f0:6d:78:5a:ad:4d|63
1621838751|f0:6e:0b:e3:c3:f7|71
1621935597|f0:79:60:24:57:02|76
1621931020|f0:98:9d:9e:ea:42|80
1622020019|f0:98:9d:9e:ea:42|82
1621844637|f0:98:9d:9e:ea:42|81
1621839498|f0:98:9d:ae:7a:e1|84
1621929467|f0:98:9d:e7:9a:9a|77
1621935075|f0:99:b6:d1:3c:7b|80
1621843868|f0:99:b6:d1:3c:7b|71
1621949700|f0:a1:85:d9:57:ab|69
1621954523|f0:a3:5a:8d:fe:5d|89
1622016607|f0:d5:bf:29:6a:bc|77
1622016614|f0:d5:bf:29:6a:bd|82
1622013327|f0:d5:bf:bb:9e:41|75
1622013329|f0:d5:bf:bb:9e:42|73
1621925865|f0:d5:bf:bb:9e:42|68
1622021425|f0:e0:98:29:ac:36|73
1621861309|f0:f6:1c:6a:8b:f2|74
1621947471|f1:11:96:08:ec:15|78
1622023094|f1:19:54:b8:1d:38|70
1621838669|f1:41:d2:bc:0f:c6|73
1621858326|f1:53:77:96:0e:d2|79
1621941199|f1:80:a9:97:f5:cf|78
1621838238|f1:8f:76:8b:44:0a|64
1621941110|f1:94:29:d5:4f:8f|68
1621950346|f1:a5:ca:20:16:e5|78
1622017512|f1:d0:cb:df:d7:ec|74
1621948453|f1:e2:7c:60:f9:5c|77
1622027946|f3:0e:f8:3d:40:88|72
1621853100|f3:6a:54:fb:ff:72|70
1621851066|f3:6d:0b:42:60:f3|77
1622016405|f4:06:69:66:c2:22|75
1621839184|f4:06:69:66:c2:22|78
1622014151|f4:0e:22:b7:7d:3f|70
1621929086|f4:0f:24:1f:fc:8b|83
1621945807|f4:5c:89:a9:4f:db|75
1621948886|f4:60:51:48:f3:e2|74
1622037405|f4:71:90:0d:4d:ab|86
1621851531|f4:80:77:2d:9e:a4|75
1622028855|f4:8c:50:c8:a5:14|88
1621945663|f4:8c:50:c8:a5:14|77
1622011002|f4:96:34:99:a8:36|82
1622012172|f4:96:34:99:a8:37|78
1621853183|f4:96:34:99:a8:37|81
1621927525|f4:96:34:99:a8:37|79
1621861035|f4:af:9e:8e:32:4c|80
1621843893|f4:c2:48:1c:39:41|73
1621836919|f4:c2:48:73:ec:87|73
1622027319|f4:c2:48:8a:0b:85|81
1622023606|f4:d5:9a:a8:8f:05|72
1622034364|f5:60:2b:4d:e8:90|73
1622028742|f5:67:25:c4:11:d5|75
1621852462|f5:7b:84:58:dc:38|77
1621837430|f5:7d:3d:74:80:f1|68
1621854410|f5:a8:d8:66:2c:45|61
1621839921|f5:f5:81:0e:23:60|77
1622024730|f7:20:1d:aa:3b:13|74
1621937302|f7:63:18:42:3f:bf|79
1622027311|f7:6a:c0:0e:82:4b|79
1621854484|f7:70:16:3b:0c:83|74
1622027942|f7:e6:ac:d5:88:54|70
1621837797|f8:23:b6:fc:25:3c|82
1622032340|f8:28:19:ee:7c:3b|83
1621848579|f8:29:88:d3:f4:b4|84
1622035780|f8:59:71:32:6d:e3|82
1621856310|f8:59:71:32:6d:e3|86
1621922630|f8:59:71:32:6d:e3|83
1621932516|f8:63:3f:94:59:80|74
1621846743|f8:87:f1:43:7e:38|71
1621841801|f8:94:c2:02:03:5f|83
1622014438|f8:94:c2:09:20:f9|62
1622012055|f8:94:c2:09:21:30|72
1621938436|f8:94:c2:09:21:30|67
1621934428|f8:9a:78:8a:5b:ae|77
1621922777|f8:a2:d6:e3:d6:4d|88
1621940591|f8:ac:65:80:24:5b|77
1621836018|f8:c3:9e:bd:24:a8|61
1621932369|f8:cf:c8:17:99:0a|81
1621852206|f8:d9:43:b1:5c:aa|75
1622011773|f8:da:0c:4e:06:cb|75
1621845965|f8:e4:e3:67:29:6f|64
1621933064|f8:e4:e3:91:ee:c0|66
1621855137|f8:e4:e3:91:ee:c0|79
1621922542|f8:e4:e3:e4:6a:06|71
1621836842|f8:e4:e3:e4:6a:06|75
1622024616|f8:e4:e3:e4:6b:ec|88
1621941747|f8:e7:a0:21:57:77|71
1621836914|f8:e9:4e:b0:58:77|67
1621931835|f8:ff:c2:03:88:ee|82
1622011526|f8:ff:c2:53:af:bc|63
1622020649|f8:ff:c2:55:88:41|79
1621855750|f9:0e:28:c5:0a:ac|77
1621930214|f9:17:eb:f8:52:62|75
1621948422|f9:25:d8:5c:b1:be|85
1621846055|f9:3e:5f:df:11:aa|73
1621837422|f9:82:e9:ae:7d:95|78
1621846521|f9:ba:80:57:0d:65|76
1621854312|f9:e5:20:92:b6:61|78
1622015602|fb:42:31:90:76:18|72
1621850806|fb:60:9c:e5:e7:f8|68
1621947072|fb:c2:f9:76:83:0a|80
1621837102|fb:c8:95:dc:2f:d2|75
1621840542|fb:e7:8b:23:90:8c|70
1621928591|fc:0a:95:64:b9:9b|77
1621928209|fc:15:3e:5a:00:cc|70
1621929196|fc:3f:02:52:8f:26|80
1621844029|fc:42:03:bf:e2:94|74
1621854384|fc:53:41:12:d8:89|76
1622009831|fc:66:cf:e1:47:39|82
1622016454|fc:77:74:f2:c7:db|76
1621923480|fc:77:74:f2:c7:db|70
1621945115|fc:aa:b6:64:33:e0|93
1622017544|fc:ab:90:4f:07:dd|85
1621857109|fc:ab:90:4f:07:dd|89
1621949903|fc:b1:fd:5e:37:bf|67
1621852568|fc:b8:2a:8d:96:23|64
1621856450|fc:ca:b5:4e:0c:2b|75
1622011427|fc:db:b3:1b:cb:72|83
1622036606|fc:db:b3:2d:1c:54|88
1621928670|fc:dc:2a:6d:a9:71|85
1621858619|fd:64:72:87:60:83|76
1622017812|fd:71:0c:bc:df:b0|86
1622028994|fd:e5:8a:31:81:d2|75
1621933739|ff:1b:de:62:77:47|75
1621949043|ff:2b:da:c0:7e:7a|69
1621853745|ff:6d:8b:41:08:89|80
1621850718|ff:73:1a:e2:5a:76|73
1622026344|ff:8d:73:9a:6a:3d|76
1622028958|ff:9f:c2:1f:ae:36|72
1621846524|ff:c4:a6:5d:15:d5|76
1622013248|ff:e2:17:88:1a:67|66