1616400797|00:d0:c9:f3:00:70|84
1616400812|3c:dc:bc:62:2a:44|94
1616400812|00:d0:c9:f3:00:70|84
1616400827|80:30:49:23:bc:11|90
1616400827|00:d0:c9:f3:00:70|84
1616400827|3c:dc:bc:62:2a:44|94
1616400842|2c:ae:2b:32:26:0f|93
1616400842|2c:fd:ab:58:b8:fb|92
1616400842|00:d0:c9:f3:00:70|83
1616400842|80:30:49:23:bc:11|90
1616400857|40:f5:20:46:c1:e4|59
1616400857|00:d0:c9:f3:00:70|84
1616400857|2c:ae:2b:32:26:0f|93
1616400872|00:d0:c9:f3:00:70|83
1616400872|40:f5:20:46:c1:e4|60
1616400887|00:d0:c9:f3:00:70|85
1616400902|98:49:14:b2:2f:b2|95
1616400902|00:d0:c9:f3:00:70|84
1616400917|40:f5:20:46:c5:40|75
1616400917|ac:b5:7d:f3:13:ed|92
1616400917|00:d0:c9:f3:00:70|85
1616400917|98:49:14:b2:2f:b2|95
1616400932|90:78:b2:0e:14:9e|93
1616400932|00:d0:c9:f3:00:70|86
1616400932|40:f5:20:46:c5:40|72
1616400947|40:f5:20:46:c5:40|73
1616400947|94:d0:0d:70:86:d6|92
1616400947|d4:c9:4b:6d:8e:64|91
1616400947|00:d0:c9:f3:00:70|84
1616400947|28:f0:76:14:84:f2|89
1616400947|90:78:b2:0e:14:9e|93
1616400962|00:d0:c9:f3:00:70|86
1616400962|40:f5:20:46:c5:40|76
1616400977|34:8b:75:38:36:45|91
1616400977|00:d0:c9:f3:00:70|82
1616400992|00:d0:c9:f3:00:70|84
1616401007|40:f5:20:48:8d:38|74
1616401007|00:d0:c9:f3:00:70|84
1616401022|00:d0:c9:f3:00:70|86
1616401037|9c:28:f7:a8:0f:92|87
1616401037|00:d0:c9:f3:00:70|85
1616401037|d4:c9:4b:6f:e4:0b|89
1616401052|d4:c9:4b:6f:e4:0b|85
1616401052|00:d0:c9:f3:00:70|83
1616401052|9c:28:f7:a8:0f:92|87
1616401067|fc:42:03:72:6a:9f|87
1616401067|00:d0:c9:f3:00:70|85
1616401082|00:d0:c9:f3:00:70|83
1616401082|fc:42:03:72:6a:9f|87
1616401097|00:d0:c9:f3:00:70|84
1616401112|00:d0:c9:f3:00:70|85
1616401127|28:f0:76:14:84:f2|86
1616401127|00:d0:c9:f3:00:70|86
1616401142|00:d0:c9:f3:00:70|85
1616401142|28:f0:76:14:84:f2|86
1616401157|c0:8c:71:ac:d7:8e|89
1616401157|60:1d:91:1b:44:68|91
1616401157|00:d0:c9:f3:00:70|86
1616401172|00:d0:c9:f3:00:70|85
1616401172|c0:8c:71:ac:d7:8e|89
1616401187|00:d0:c9:f3:00:70|85
1616401202|00:d0:c9:f3:00:70|84
1616401217|00:d0:c9:f3:00:70|85
1616401232|a4:5d:36:f9:94:8a|94
1616401232|00:d0:c9:f3:00:70|83
1616401247|28:f0:76:14:84:f2|93
1616401247|00:d0:c9:f3:00:70|85
1616401247|a4:5d:36:f9:94:8a|94
1616401262|70:8a:09:45:b3:3f|90
1616401262|00:d0:c9:f3:00:70|83
1616401277|00:d0:c9:f3:00:70|84
1616401277|70:8a:09:45:b3:3f|90
1616401292|00:d0:c9:f3:00:70|84
1616401307|00:d0:c9:f3:00:70|86
1616401322|00:d0:c9:f3:00:70|85
1616401337|3c:dc:bc:04:59:16|91
1616401337|00:d0:c9:f3:00:70|85
1616401352|ac:5f:3e:f4:e0:3f|59
1616401352|00:d0:c9:f3:00:70|85
1616401352|3c:dc:bc:04:59:16|91
1616401367|a4:5d:36:f9:94:8a|95
1616401367|00:d0:c9:f3:00:70|85
1616401367|ac:5f:3e:f4:e0:3f|67
1616401382|00:d0:c9:f3:00:70|84
1616401382|a4:5d:36:f9:94:8a|95
1616401397|90:78:b2:0e:14:9e|93
1616401397|00:d0:c9:f3:00:70|83
1616401412|00:d0:c9:f3:00:70|85
1616401427|00:0c:e7:e9:f7:14|91
1616401427|04:f0:21:40:a2:7e|86
1616401427|c0:17:4d:14:1a:89|90
1616401427|28:f0:76:14:84:f2|83
1616401427|a0:2c:33:25:d8:e2|91
1616401427|00:d0:c9:f3:00:70|83
1616401442|dc:74:a8:8a:6a:cc|91
1616401442|00:d0:c9:f3:00:70|85
1616401442|00:0c:e7:e9:f7:14|91
1616401457|00:d0:c9:f3:00:70|83
1616401457|dc:74:a8:8a:6a:cc|91
1616401472|00:d0:c9:f3:00:70|86
1616401487|00:d0:c9:f3:00:70|88
1616401502|00:d0:c9:f3:00:70|84
1616401517|a4:e4:b8:af:f1:1b|91
1616401517|00:d0:c9:f3:00:70|86
1616401532|00:d0:c9:f3:00:70|86
1616401532|a4:e4:b8:af:f1:1b|91
1616401547|9c:e0:63:ef:a3:3b|94
1616401547|28:f0:76:14:84:f2|90
1616401547|00:d0:c9:f3:00:70|84
1616401562|00:d0:c9:f3:00:70|85
1616401577|ac:5f:3e:f4:e0:3f|57
1616401577|a4:5d:36:f9:94:8a|95
1616401577|4c:49:e3:21:24:ae|90
1616401577|00:d0:c9:f3:00:70|85
1616401592|70:5a:ac:b7:1c:63|93
1616401592|a4:5d:36:f9:94:8a|94
1616401592|00:d0:c9:f3:00:70|84
1616401592|ac:5f:3e:f4:e0:3f|57
1616401607|28:f0:76:14:84:f2|88
1616401607|00:d0:c9:f3:00:70|85
1616401607|70:5a:ac:b7:1c:63|93
1616401622|00:d0:c9:f3:00:70|86
1616401637|00:d0:c9:f3:00:70|84
1616401652|00:d0:c9:f3:00:70|86
1616401667|00:d0:c9:f3:00:70|86
1616401682|00:d0:c9:f3:00:70|85
1616401697|00:d0:c9:f3:00:70|86
1616401712|00:d0:c9:f3:00:70|85
1616401712|ac:5f:3e:f4:e0:3f|55
1616401727|24:46:c8:d3:1b:5a|92
1616401727|28:f0:76:14:84:f2|92
1616401727|80:30:49:23:bc:11|90
1616401727|00:d0:c9:f3:00:70|83
1616401727|00:02:36:f0:05:1e|91
1616401742|c0:8c:71:8e:ee:7d|93
1616401742|7c:23:02:08:b5:2e|92
1616401742|00:d0:c9:f3:00:70|83
1616401757|00:d0:c9:f3:00:70|85
1616401757|c0:8c:71:8e:ee:7d|93
1616401772|00:d0:c9:f3:00:70|84
1616401787|00:d0:c9:f3:00:70|84
1616401802|00:d0:c9:f3:00:70|83
1616401817|a4:5d:36:f9:94:8a|94
1616401817|00:d0:c9:f3:00:70|84
1616401832|7c:23:02:08:b5:2e|88
1616401832|04:b4:29:e2:5d:23|72
1616401832|00:d0:c9:f3:00:70|83
1616401832|a4:5d:36:f9:94:8a|94
1616401847|28:f0:76:14:84:f2|86
1616401847|ac:5f:3e:f4:e0:3f|71
1616401847|00:d0:c9:f3:00:70|84
1616401862|00:d0:c9:f3:00:70|84
1616401862|40:83:de:e1:70:dc|94
1616401862|28:f0:76:14:84:f2|86
1616401877|00:d0:c9:f3:00:70|84
1616401892|00:d0:c9:f3:00:70|86
1616401907|60:1d:91:55:7a:ac|90
1616401907|28:f0:76:14:84:f2|92
1616401907|00:d0:c9:f3:00:70|86
1616401922|00:d0:c9:f3:00:70|85
1616401922|60:1d:91:55:7a:ac|90
1616401937|00:d0:c9:f3:00:70|85
1616401952|00:d0:c9:f3:00:70|85
1616401967|28:f0:76:14:84:f2|90
1616401967|00:d0:c9:f3:00:70|86
1616401982|00:d0:c9:f3:00:70|85
1616401982|28:f0:76:14:84:f2|90
1616401997|00:d0:c9:f3:00:70|84
1616402012|ac:b5:7d:f3:13:ed|92
1616402012|00:d0:c9:f3:00:70|85
1616402027|7c:23:02:08:b5:2e|93
1616402027|28:f0:76:14:84:f2|89
1616402027|00:d0:c9:f3:00:70|83
1616402027|ac:b5:7d:f3:13:ed|92
1616402042|04:f0:21:40:a2:1c|93
1616402042|00:d0:c9:f3:00:70|83
1616402042|7c:23:02:08:b5:2e|93
1616402057|4c:49:e3:21:24:ae|89
1616402057|00:d0:c9:f3:00:70|84
1616402057|04:f0:21:40:a2:1c|93
1616402072|60:1d:91:92:90:6d|92
1616402072|60:1d:91:62:e1:f4|92
1616402072|cc:c0:79:60:4b:22|89
1616402072|00:d0:c9:f3:00:70|84
1616402087|a4:5d:36:f9:94:8a|95
1616402087|28:f0:76:14:84:f2|86
1616402087|00:d0:c9:f3:00:70|86
1616402087|60:1d:91:92:90:6d|92
1616402102|00:d0:c9:f3:00:70|84
1616402102|a4:5d:36:f9:94:8a|95
1616402117|00:d0:c9:f3:00:70|83
1616402132|ec:10:7b:c5:6f:d5|89
1616402132|8c:83:e1:24:19:7a|92
1616402132|00:02:36:f0:03:f8|92
1616402132|00:d0:c9:f3:00:70|85
1616402132|7c:23:02:08:b5:2e|91
1616402147|00:d0:c9:f3:00:70|85
1616402147|ec:10:7b:c5:6f:d5|89
1616402162|00:d0:c9:f3:00:70|83
1616402177|00:d0:c9:f3:00:70|83
1616402192|00:d0:c9:f3:00:70|85
1616402207|28:f0:76:14:84:f2|87
1616402207|00:d0:c9:f3:00:70|84
1616402222|00:d0:c9:f3:00:70|84
1616402222|28:f0:76:14:84:f2|87
1616402237|7c:23:02:08:b5:2e|88
1616402237|00:d0:c9:f3:00:70|85
1616402252|a0:27:b6:83:91:3f|91
1616402252|00:d0:c9:f3:00:70|85
1616402252|7c:23:02:08:b5:2e|88
1616402267|28:f0:76:14:84:f2|91
1616402267|7c:23:02:08:b5:2e|92
1616402267|00:d0:c9:f3:00:70|85
1616402267|a0:27:b6:83:91:3f|91
1616402282|00:d0:c9:f3:00:70|85
1616402282|28:f0:76:14:84:f2|91
1616402297|00:d0:c9:f3:00:70|86
1616402312|00:d0:c9:f3:00:70|82
1616402327|a4:5d:36:f9:94:8a|93
1616402327|00:d0:c9:f3:00:70|86
1616402342|00:d0:c9:f3:00:70|85
1616402342|a4:5d:36:f9:94:8a|95
1616402357|04:b4:29:e2:5d:23|59
1616402357|00:d0:c9:f3:00:70|83
1616402357|80:ce:b9:20:4b:e4|87
1616402372|00:d0:c9:f3:00:70|83
1616402387|28:f0:76:14:84:f2|93
1616402387|00:d0:c9:f3:00:70|84
1616402402|00:d0:c9:f3:00:70|85
1616402402|28:f0:76:14:84:f2|93
1616402417|00:d0:c9:f3:00:70|83
1616402432|00:d0:c9:f3:00:70|85
1616402447|00:d0:c9:f3:00:70|84
1616402462|00:d0:c9:f3:00:70|84
1616402462|24:18:1d:c5:7e:a0|93
1616402477|00:d0:c9:f3:00:70|82
1616402492|00:d0:c9:f3:00:70|83
1616402507|28:f0:76:14:84:f2|84
1616402507|00:d0:c9:f3:00:70|83
1616402507|24:18:1d:c5:7e:a0|91
1616402522|00:d0:c9:f3:00:70|84
1616402522|28:f0:76:14:84:f2|84
1616402537|00:d0:c9:f3:00:70|84
1616402552|60:1d:91:92:b2:40|90
1616402552|00:d0:c9:f3:00:70|84
1616402567|00:d0:c9:f3:00:70|85
1616402567|60:1d:91:92:b2:40|89
1616402582|00:d0:c9:f3:00:70|84
1616402582|00:0c:e7:85:10:e9|92
1616402597|60:1d:91:92:b2:40|90
1616402597|00:d0:c9:f3:00:70|83
1616402612|00:d0:c9:f3:00:70|83
1616402612|60:1d:91:92:b2:40|90
1616402627|24:18:1d:c5:7e:a0|90
1616402627|00:d0:c9:f3:00:70|85
1616402642|00:d0:c9:f3:00:70|83
1616402657|00:d0:c9:f3:00:70|85
1616402672|00:d0:c9:f3:00:70|85
1616402687|28:f0:76:14:84:f2|91
1616402687|00:d0:c9:f3:00:70|85
1616402702|00:d0:c9:f3:00:70|83
1616402702|28:f0:76:14:84:f2|91
1616402717|80:30:49:23:bc:11|91
1616402717|60:1d:91:92:b2:40|91
1616402717|00:d0:c9:f3:00:70|83
1616402732|c0:8c:71:8e:83:9e|92
1616402732|00:d0:c9:f3:00:70|84
1616402732|80:30:49:23:bc:11|91
1616402747|00:02:36:f0:05:22|91
1616402747|00:d0:c9:f3:00:70|84
1616402747|c0:8c:71:8e:83:9e|92
1616402762|60:1d:91:92:b2:40|93
1616402762|00:d0:c9:f3:00:70|84
1616402777|00:d0:c9:f3:00:70|86
1616402777|60:1d:91:92:b2:40|93
1616402792|60:1d:91:92:b2:40|89
1616402792|00:d0:c9:f3:00:70|84
1616402807|14:1f:78:19:13:01|94
1616402807|00:d0:c9:f3:00:70|84
1616402807|60:1d:91:92:b2:40|89
1616402822|a4:5d:36:f9:94:8a|93
1616402822|00:d0:c9:f3:00:70|85
1616402822|14:1f:78:19:13:01|94
1616402837|60:1d:91:92:b2:40|91
1616402837|00:d0:c9:f3:00:70|84
1616402837|a4:5d:36:f9:94:8a|94
1616402852|00:d0:c9:f3:00:70|85
1616402852|60:1d:91:92:b2:40|92
1616402867|00:d0:c9:f3:00:70|81
1616402882|00:d0:c9:f3:00:70|85
1616402897|00:d0:c9:f3:00:70|86
1616402912|00:d0:c9:f3:00:70|85
1616402927|28:f0:76:14:84:f2|84
1616402927|00:d0:c9:f3:00:70|84
1616402942|00:d0:c9:f3:00:70|85
1616402942|28:f0:76:14:84:f2|84
1616402957|00:d0:c9:f3:00:70|86
1616402972|00:d0:c9:f3:00:70|83
1616402987|00:d0:c9:f3:00:70|86
1616403002|0c:70:4a:a3:7f:2a|89
1616403002|00:d0:c9:f3:00:70|84
1616403017|00:d0:c9:f3:00:70|85
1616403017|0c:70:4a:a3:7f:2a|89
1616403032|c0:8c:71:8e:a2:88|92
1616403032|00:d0:c9:f3:00:70|84
1616403047|00:d0:c9:f3:00:70|85
1616403047|24:18:1d:3d:e6:7f|91
1616403047|04:b4:29:e2:5d:23|71
1616403047|c0:8c:71:8e:a2:88|92
1616403062|00:0c:e7:9f:f3:79|94
1616403062|a4:5d:36:f9:94:8a|93
1616403062|00:d0:c9:f3:00:70|84
1616403077|a4:5d:36:f9:94:8a|94
1616403077|00:d0:c9:f3:00:70|85
1616403092|00:d0:c9:f3:00:70|83
1616403092|a4:5d:36:f9:94:8a|94
1616403107|28:f0:76:14:84:f2|87
1616403107|00:d0:c9:f3:00:70|84
1616403122|00:d0:c9:f3:00:70|85
1616403122|28:f0:76:14:84:f2|87
1616403137|b0:e2:35:c1:0b:3d|65
1616403137|00:02:36:f0:05:07|90
1616403137|00:d0:c9:f3:00:70|83
1616403152|04:b4:29:e2:5d:23|67
1616403152|00:d0:c9:f3:00:70|86
1616403152|b0:e2:35:c1:0b:3d|63
1616403167|28:f0:76:14:84:f2|89
1616403167|00:d0:c9:f3:00:70|85
1616403167|04:b4:29:e2:5d:23|67
1616403182|00:d0:c9:f3:00:70|86
1616403182|28:f0:76:14:84:f2|89
1616403197|00:d0:c9:f3:00:70|84
1616403212|00:d0:c9:f3:00:70|84
1616403227|00:d0:c9:f3:00:70|85
1616403242|00:02:36:f0:05:79|89
1616403242|00:d0:c9:f3:00:70|85
1616403257|00:d0:c9:f3:00:70|84
1616403272|c0:8c:71:8d:f6:f4|94
1616403272|74:e5:f9:cf:a7:a1|93
1616403272|00:d0:c9:f3:00:70|86
1616403287|28:f0:76:14:84:f2|92
1616403287|3c:dc:bc:62:2a:44|93
1616403287|00:d0:c9:f3:00:70|84
1616403287|c0:8c:71:8d:f6:f4|94
1616403302|00:d0:c9:f3:00:70|84
1616403302|28:f0:76:14:84:f2|92
1616403317|10:44:00:20:13:10|89
1616403317|80:01:84:5e:10:82|91
1616403317|00:d0:c9:f3:00:70|85
1616403317|00:02:36:f0:05:25|91
1616403332|c0:8c:71:8e:e7:f6|92
1616403332|00:d0:c9:f3:00:70|84
1616403332|10:44:00:20:13:10|89
1616403347|28:f0:76:14:84:f2|87
1616403347|00:d0:c9:f3:00:70|83
1616403362|00:d0:c9:f3:00:70|86
1616403362|28:f0:76:14:84:f2|87
1616403377|00:d0:c9:f3:00:70|84
1616403392|24:18:1d:c5:7e:a0|92
1616403392|c0:bd:c8:9c:a8:0f|91
1616403392|00:d0:c9:f3:00:70|84
1616403407|d4:c9:4b:6f:9f:0e|92
1616403407|00:d0:c9:f3:00:70|85
1616403407|7c:23:02:08:b5:2e|88
1616403407|24:18:1d:c5:7e:a0|92
1616403422|34:8b:75:68:52:22|90
1616403422|3c:57:6c:59:7a:3d|90
1616403422|00:d0:c9:f3:00:70|85
1616403422|d4:c9:4b:6f:9f:0e|92
1616403437|80:30:49:23:bc:11|93
1616403437|fc:62:b9:9a:8e:47|93
1616403437|3c:57:6c:59:7a:3d|94
1616403437|7c:23:02:08:b5:2e|89
1616403437|00:d0:c9:f3:00:70|85
1616403437|34:8b:75:68:52:22|90
1616403452|00:d0:c9:f3:00:70|84
1616403452|80:30:49:23:bc:11|93
1616403467|00:d0:c9:f3:00:70|85
1616403482|9c:8d:7c:8a:9b:b8|92
1616403482|d4:c9:4b:6f:f2:d2|93
1616403482|00:d0:c9:f3:00:70|84
1616403497|00:d0:c9:f3:00:70|84
1616403497|7c:23:02:08:b5:2e|92
1616403497|9c:8d:7c:8a:9b:b8|92
1616403512|00:d0:c9:f3:00:70|86
1616403512|a4:5d:36:f9:94:8a|94
1616403527|28:f0:76:14:84:f2|84
1616403527|7c:23:02:08:b5:2e|90
1616403527|a4:5d:36:f9:94:8a|92
1616403527|60:1d:91:92:11:36|91
1616403527|3c:57:6c:bf:ca:46|93
1616403527|00:d0:c9:f3:00:70|84
1616403542|c0:8c:71:8d:96:26|91
1616403542|00:d0:c9:f3:00:70|84
1616403542|28:f0:76:14:84:f2|84
1616403557|34:8b:75:68:52:22|93
1616403557|00:d0:c9:f3:00:70|84
1616403557|7c:23:02:08:b5:2e|90
1616403557|a4:5d:36:f9:94:8a|93
1616403572|04:b4:29:e2:5d:23|67
1616403572|00:d0:c9:f3:00:70|83
1616403572|34:8b:75:68:52:22|93
1616403587|00:d0:c9:f3:00:70|84
1616403602|00:d0:c9:f3:00:70|84
1616403617|00:d0:c9:f3:00:70|83
1616403632|00:d0:c9:f3:00:70|85
1616403647|00:d0:c9:f3:00:70|86
1616403662|00:d0:c9:f3:00:70|86
1616403662|28:f0:76:14:84:f2|91
1616403677|00:d0:c9:f3:00:70|84
1616403692|00:d0:c9:f3:00:70|86
1616403707|00:d0:c9:f3:00:70|84
1616403707|00:08:22:7a:81:44|94
1616403722|28:f0:76:14:84:f2|87
1616403722|00:d0:c9:f3:00:70|83
1616403737|00:d0:c9:f3:00:70|85
1616403752|70:5a:ac:6c:65:16|91
1616403752|40:83:de:e7:24:d9|94
1616403752|00:d0:c9:f3:00:70|85
1616403767|00:d0:c9:f3:00:70|84
1616403767|70:5a:ac:6c:65:16|91
1616403782|00:d0:c9:f3:00:70|85
1616403782|28:f0:76:14:84:f2|85
1616403782|a4:5d:36:f9:94:8a|94
1616403797|f4:0e:22:6d:17:f1|93
1616403797|a4:5d:36:f9:94:8a|94
1616403797|00:d0:c9:f3:00:70|86
1616403812|00:d0:c9:f3:00:70|83
1616403812|f4:0e:22:6d:17:f1|93
1616403827|10:98:c3:b5:13:35|94
1616403827|04:f0:21:45:91:40|92
1616403827|00:d0:c9:f3:00:70|85
1616403842|00:d0:c9:f3:00:70|86
1616403842|10:98:c3:b5:13:35|94
1616403857|00:d0:c9:f3:00:70|86
1616403872|00:d0:c9:f3:00:70|84
1616403887|c0:d3:c0:c6:41:af|92
1616403887|c8:d7:b0:ce:31:2c|89
1616403887|00:d0:c9:f3:00:70|84
1616403902|28:f0:76:14:84:f2|87
1616403902|00:d0:c9:f3:00:70|85
1616403902|c0:d3:c0:c6:41:af|92
1616403917|c0:d3:c0:c6:41:af|91
1616403917|b4:0f:b3:13:f8:0d|90
1616403917|00:d0:c9:f3:00:70|83
1616403917|28:f0:76:14:84:f2|87
1616403932|00:d0:c9:f3:00:70|85
1616403947|00:d0:c9:f3:00:70|84
1616403962|28:f0:76:14:84:f2|89
1616403962|00:d0:c9:f3:00:70|84
1616403977|00:d0:c9:f3:00:70|84
1616403992|00:d0:c9:f3:00:70|85
1616404007|00:d0:c9:f3:00:70|84
1616404022|a4:5d:36:f9:94:8a|92
1616404022|28:f0:76:14:84:f2|88
1616404022|00:d0:c9:f3:00:70|84
