1622029557|00:01:2f:f4:ad:00|72
1621927978|00:0c:e7:00:7a:f1|68
1621861835|00:0c:e7:00:8f:c2|67
1621929796|00:0c:e7:00:95:2f|68
1622029187|00:0c:e7:00:b4:c0|73
1621923697|00:0c:e7:00:cd:12|82
1621943841|00:0c:e7:00:e2:df|71
1621941862|00:0c:e7:01:3b:eb|70
1622034779|00:0c:e7:01:43:55|69
1621845540|00:0c:e7:01:71:2c|73
1621864968|00:0c:e7:01:f7:e3|70
1621944626|00:0c:e7:02:65:4a|72
1621836814|00:0c:e7:02:8c:21|68
1622016450|00:0c:e7:03:9d:3f|72
1622028657|00:0c:e7:03:cb:eb|73
1622017214|00:0c:e7:03:db:4e|72
1621853293|00:0c:e7:04:05:b2|67
1621942161|00:0c:e7:04:45:40|69
1621932635|00:0c:e7:04:6e:36|75
1622033388|00:0c:e7:04:bc:70|57
1622011839|00:0c:e7:04:d5:2e|71
1622018169|00:0c:e7:04:e9:2c|80
1621927948|00:0c:e7:05:0a:d1|74
1621861712|00:0c:e7:05:2a:89|83
1622018985|00:0c:e7:05:59:12|74
1622026205|00:0c:e7:05:d7:33|70
1621858803|00:0c:e7:05:db:8d|74
1621846059|00:0c:e7:06:fa:63|73
1621930241|00:0c:e7:07:47:7f|66
1621845864|00:0c:e7:07:9e:d4|66
1621854389|00:0c:e7:07:9f:fd|71
1622034813|00:0c:e7:08:28:a9|67
1621849809|00:0c:e7:08:33:60|66
1621930683|00:0c:e7:08:3c:74|74
1621859797|00:0c:e7:08:a6:71|66
1621933366|00:0c:e7:09:16:f0|76
1622012757|00:0c:e7:09:6a:4c|75
1621840948|00:0c:e7:09:87:36|81
1621836086|00:0c:e7:09:b3:fb|78
1621931456|00:0c:e7:09:bd:9f|72
1622033441|00:0c:e7:0a:52:99|66
1621938197|00:0c:e7:0a:ce:6c|78
1621945121|00:0c:e7:0b:13:f9|74
1622018594|00:0c:e7:0c:23:84|73
1621945225|00:0c:e7:0c:7a:9c|71
1622028395|00:0c:e7:0d:5a:72|74
1621837949|00:0c:e7:0d:6c:5d|80
1621864053|00:0c:e7:0d:6e:48|68
1621861766|00:0c:e7:0d:96:c8|84
1622022563|00:0c:e7:0d:ca:f9|73
1622031590|00:0c:e7:0f:3f:31|69
1622027424|00:0c:e7:0f:d9:70|73
1622031715|00:0c:e7:0f:f5:d4|66
1621945861|00:0c:e7:10:d9:f2|63
1622035440|00:0c:e7:11:08:40|69
1621928053|00:0c:e7:11:c4:bf|78
1621859290|00:0c:e7:12:6c:7e|72
1621850233|00:0c:e7:12:9e:21|76
1621864042|00:0c:e7:12:b6:e8|69
1622013283|00:0c:e7:13:01:98|70
1621930663|00:0c:e7:13:08:25|64
1621837809|00:0c:e7:13:2b:94|73
1621937921|00:0c:e7:13:a8:c7|73
1622018619|00:0c:e7:13:c8:bf|79
1621926496|00:0c:e7:14:5a:ec|74
1621946400|00:0c:e7:15:13:16|70
1621939919|00:0c:e7:15:57:14|62
1621931765|00:0c:e7:15:82:be|70
1621855532|00:0c:e7:15:a6:f2|69
1621936107|00:0c:e7:15:a7:1e|76
1621926985|00:0c:e7:15:ae:e2|73
1621942216|00:0c:e7:15:bb:5e|58
1622022859|00:0c:e7:15:dc:a4|71
1621948118|00:0c:e7:16:3c:66|66
1621845286|00:0c:e7:16:4f:99|76
1621932442|00:0c:e7:17:65:e9|70
1621944917|00:0c:e7:17:74:b6|68
1621842626|00:0c:e7:17:b1:4a|63
1622011545|00:0c:e7:18:1a:0f|70
1621947512|00:0c:e7:18:3c:88|71
1621849034|00:0c:e7:18:e5:7b|69
1622034739|00:0c:e7:19:3e:cc|69
1621942712|00:0c:e7:1a:23:61|67
1622020957|00:0c:e7:1a:4c:2b|66
1621922634|00:0c:e7:1a:55:0c|64
1622028603|00:0c:e7:1a:f7:2c|81
1622024632|00:0c:e7:1b:10:a6|83
1622024581|00:0c:e7:1c:42:81|82
1622028390|00:0c:e7:1c:69:09|61
1621931904|00:0c:e7:1c:b1:8e|71
1621841436|00:0c:e7:1c:b9:2f|66
1621839640|00:0c:e7:1d:06:a5|72
1621930144|00:0c:e7:1d:12:6a|74
1621947996|00:0c:e7:1d:ae:5a|65
1622028217|00:0c:e7:1e:41:09|74
1621925921|00:0c:e7:1e:6b:0b|72
1621928974|00:0c:e7:1f:85:a2|70
1621944437|00:0c:e7:1f:f5:09|71
1621943619|00:0c:e7:20:08:07|69
1621928309|00:0c:e7:20:70:d3|68
1621929583|00:0c:e7:20:f0:d1|68
1621926618|00:0c:e7:21:ed:05|72
1622022938|00:0c:e7:22:c2:7a|75
1621930113|00:0c:e7:22:e4:34|69
1622034785|00:0c:e7:23:5f:7d|70
1621856653|00:0c:e7:23:7d:e5|68
1621842700|00:0c:e7:23:86:fe|71
1621937597|00:0c:e7:24:9e:54|69
1621864485|00:0c:e7:25:0d:3a|72
1622029472|00:0c:e7:25:50:59|68
1622034039|00:0c:e7:25:8a:43|73
1621938046|00:0c:e7:25:8c:70|73
1621859111|00:0c:e7:26:0c:a7|74
1621858523|00:0c:e7:26:98:53|65
1622034667|00:0c:e7:26:ac:9c|79
1621928616|00:0c:e7:26:eb:97|76
1621934665|00:0c:e7:28:3b:d5|70
1621863981|00:0c:e7:28:42:43|70
1621929657|00:0c:e7:28:48:68|69
1621858697|00:0c:e7:29:b1:3b|76
1622024874|00:0c:e7:29:f7:59|73
1622028677|00:0c:e7:2a:50:8f|71
1621943258|00:0c:e7:2a:61:8c|65
1621929499|00:0c:e7:2b:0f:a3|70
1622012749|00:0c:e7:2b:38:6d|72
1621928724|00:0c:e7:2b:a6:b3|79
1621934742|00:0c:e7:2b:cb:c4|72
1621843890|00:0c:e7:2b:ff:b9|73
1621849128|00:0c:e7:2c:06:62|76
1621865090|00:0c:e7:2d:42:28|68
1621926594|00:0c:e7:2d:94:1b|69
1621854173|00:0c:e7:2e:13:c7|69
1621937536|00:0c:e7:2e:3d:d7|70
1621935606|00:0c:e7:2e:9b:00|70
1621855639|00:0c:e7:2e:f1:b9|79
1621926146|00:0c:e7:2f:1e:d4|78
1621862492|00:0c:e7:2f:a5:08|78
1621924772|00:0c:e7:2f:bc:e2|74
1621859357|00:0c:e7:30:f6:45|69
1621863740|00:0c:e7:31:1b:db|69
1621845829|00:0c:e7:31:40:d2|68
1622026366|00:0c:e7:31:56:76|71
1621944697|00:0c:e7:31:60:f4|65
1622027455|00:0c:e7:32:fb:81|77
1621931994|00:0c:e7:33:23:9f|76
1621943217|00:0c:e7:33:31:9b|79
1621935486|00:0c:e7:33:6f:19|69
1621849061|00:0c:e7:33:93:58|71
1622027280|00:0c:e7:34:83:9f|71
1622028527|00:0c:e7:34:8e:03|68
1621929447|00:0c:e7:35:30:03|75
1621858120|00:0c:e7:35:4a:ff|69
1621947196|00:0c:e7:35:53:fc|64
1621860980|00:0c:e7:35:b4:23|77
1621948366|00:0c:e7:35:d9:72|67
1622029693|00:0c:e7:36:9f:bf|70
1621853883|00:0c:e7:36:ca:83|69
1621948968|00:0c:e7:37:d4:26|82
1621838554|00:0c:e7:37:f1:f1|73
1621952470|00:0c:e7:38:16:f3|87
1621838609|00:0c:e7:38:44:e8|73
1621858852|00:0c:e7:38:63:69|73
1622021708|00:0c:e7:38:7c:b9|65
1621932446|00:0c:e7:38:8c:a8|74
1622014789|00:0c:e7:39:52:b1|67
1621928175|00:0c:e7:39:72:63|72
1621839635|00:0c:e7:39:bd:9d|70
1621933406|00:0c:e7:39:d1:04|76
1622030567|00:0c:e7:39:e3:a5|69
1621933927|00:0c:e7:3a:53:2f|80
1622019774|00:0c:e7:3a:fe:01|69
1621933023|00:0c:e7:3b:32:fd|72
1621948729|00:0c:e7:3b:9b:3f|67
1621856112|00:0c:e7:3b:aa:fa|73
1621924970|00:0c:e7:3c:5f:53|69
1621931224|00:0c:e7:3c:fc:fe|75
1621925410|00:0c:e7:3c:ff:1f|75
1621948471|00:0c:e7:3d:1e:ac|69
1622009047|00:0c:e7:3d:b1:40|71
1621855020|00:0c:e7:3d:e1:0e|82
1621944217|00:0c:e7:3d:f1:6d|71
1621927251|00:0c:e7:3e:13:a8|73
1621923456|00:0c:e7:3e:a5:bf|71
1621926229|00:0c:e7:3f:20:89|72
1621856772|00:0c:e7:3f:a1:08|73
1621946828|00:0c:e7:3f:fa:45|69
1621948586|00:0c:e7:40:6e:58|62
1621923135|00:0c:e7:41:02:f5|65
1621946633|00:0c:e7:41:22:ad|72
1622032182|00:0c:e7:41:5a:aa|80
1622031051|00:0c:e7:41:7c:c6|73
1621838845|00:0c:e7:41:ba:57|77
1621930437|00:0c:e7:42:f2:a0|64
1621838188|00:0c:e7:43:66:64|62
1621923184|00:0c:e7:44:3e:b7|74
1622034716|00:0c:e7:44:42:b6|68
1621845656|00:0c:e7:44:4f:0a|78
1621949026|00:0c:e7:44:d3:26|68
1621945128|00:0c:e7:44:fc:69|68
1621849264|00:0c:e7:45:1a:e3|76
1621935364|00:0c:e7:45:dd:49|70
1621859969|00:0c:e7:45:ed:a8|66
1621836483|00:0c:e7:46:7a:58|74
1621930598|00:0c:e7:47:a0:1e|79
1621942553|00:0c:e7:48:60:01|72
1622030184|00:0c:e7:48:64:58|66
1622008954|00:0c:e7:48:a9:16|69
1621948338|00:0c:e7:48:dd:11|67
1621863610|00:0c:e7:48:e0:98|70
1621846928|00:0c:e7:48:f9:b7|83
1622026703|00:0c:e7:49:14:1f|74
1621859227|00:0c:e7:4a:09:c7|73
1621923531|00:0c:e7:4a:c2:d8|84
1621926171|00:0c:e7:4a:d4:d2|75
1621927128|00:0c:e7:4b:41:3b|70
1622024445|00:0c:e7:4b:6a:ae|73
1621926233|00:0c:e7:4b:da:39|73
1621849017|00:0c:e7:4c:13:79|65
1621854014|00:0c:e7:4c:b6:ad|65
1621855773|00:0c:e7:4c:d8:eb|67
1621838550|00:0c:e7:4c:e8:58|70
1621850452|00:0c:e7:4d:20:6a|69
1621861450|00:0c:e7:4d:3d:92|73
1621848067|00:0c:e7:4d:64:82|69
1621864515|00:0c:e7:4d:b8:11|70
1621942717|00:0c:e7:4d:c4:9e|79
1621944918|00:0c:e7:4e:ea:3d|69
1621950426|00:0c:e7:4f:5a:94|71
1621947832|00:0c:e7:50:36:e9|75
1621946414|00:0c:e7:51:5d:44|70
1621929816|00:0c:e7:51:63:7f|69
1621931661|00:0c:e7:51:81:6a|64
1622014667|00:0c:e7:51:97:21|71
1621943798|00:0c:e7:52:57:2e|70
1621924951|00:0c:e7:52:a7:dc|67
1622032321|00:0c:e7:52:e5:26|70
1621930461|00:0c:e7:54:53:90|71
1621846823|00:0c:e7:54:63:ba|68
1621930304|00:0c:e7:54:de:46|68
1621929869|00:0c:e7:55:c3:7d|75
1621854085|00:0c:e7:56:01:2f|72
1621860211|00:0c:e7:56:d0:df|70
1621838114|00:0c:e7:56:db:67|74
1622017969|00:0c:e7:57:15:9d|74
1622031468|00:0c:e7:57:20:3c|79
1621928481|00:0c:e7:57:ac:8c|75
1621862370|00:0c:e7:58:13:30|69
1621859562|00:0c:e7:58:18:82|70
1621860250|00:0c:e7:58:7c:60|78
1621846885|00:0c:e7:58:a1:75|69
1622026866|00:0c:e7:58:b3:87|76
1622028645|00:0c:e7:58:d5:7d|78
1621939767|00:0c:e7:58:df:b4|74
1621849710|00:0c:e7:59:33:4d|70
1622034759|00:0c:e7:5a:4d:16|64
1621864118|00:0c:e7:5a:bc:41|77
1622024215|00:0c:e7:5a:c0:f7|58
1622016511|00:0c:e7:5b:0e:78|71
1621947258|00:0c:e7:5b:d0:ec|69
1621936925|00:0c:e7:5b:df:ed|76
1622015470|00:0c:e7:5c:79:3e|73
1622026646|00:0c:e7:5c:98:39|64
1621860617|00:0c:e7:5c:b2:19|72
1621946451|00:0c:e7:5c:d6:ec|76
1621844531|00:0c:e7:5d:0c:b4|83
1621836339|00:0c:e7:5d:2a:cc|69
1622015046|00:0c:e7:5d:52:23|67
1621844418|00:0c:e7:5d:5c:28|83
1622009636|00:0c:e7:5e:35:e6|78
1621862441|00:0c:e7:5e:54:df|75
1621930689|00:0c:e7:5e:ec:02|70
1621842869|00:0c:e7:5f:01:85|70
1621842214|00:0c:e7:5f:5d:aa|72
1622028595|00:0c:e7:5f:61:18|82
1621856218|00:0c:e7:5f:62:34|64
1621926062|00:0c:e7:5f:af:2f|74
1621844270|00:0c:e7:5f:b4:9d|66
1622026858|00:0c:e7:60:41:aa|70
1622032443|00:0c:e7:60:fc:ec|73
1621849274|00:0c:e7:61:36:8b|75
1622027289|00:0c:e7:61:9f:ee|68
1621931480|00:0c:e7:62:07:a7|68
1622018371|00:0c:e7:62:32:9c|90
1621949033|00:0c:e7:63:2c:f6|74
1622008990|00:0c:e7:64:03:92|70
1622010267|00:0c:e7:64:43:e5|66
1621931856|00:0c:e7:64:9e:bd|70
1621836928|00:0c:e7:64:b9:90|75
1622012587|00:0c:e7:65:80:9b|75
1622027680|00:0c:e7:65:b7:5c|74
1621855545|00:0c:e7:67:26:72|79
1621839590|00:0c:e7:67:38:ea|76
1621926920|00:0c:e7:67:8d:1d|73
1621853572|00:0c:e7:67:af:cd|84
1621934582|00:0c:e7:68:cd:e9|72
1621922878|00:0c:e7:68:da:d1|70
1621947026|00:0c:e7:69:03:4e|69
1621837010|00:0c:e7:69:21:2b|84
1621926978|00:0c:e7:69:5d:85|71
1621922678|00:0c:e7:69:5e:11|71
1621846985|00:0c:e7:69:7f:79|86
1622014546|00:0c:e7:6a:4c:ed|71
1621848316|00:0c:e7:6b:6f:2d|69
1621860558|00:0c:e7:6b:95:e6|71
1621854516|00:0c:e7:6c:05:79|77
1621843807|00:0c:e7:6c:61:58|72
1621950607|00:0c:e7:6c:bd:84|67
1621858094|00:0c:e7:6c:e3:b3|69
1621859381|00:0c:e7:6d:bc:76|57
1622011615|00:0c:e7:6d:e8:8b|69
1622019632|00:0c:e7:70:1e:91|62
1621843815|00:0c:e7:70:cc:c4|69
1621843301|00:0c:e7:70:e6:8c|76
1621857938|00:0c:e7:71:08:9a|70
1621949881|00:0c:e7:71:5f:2f|68
1621858884|00:0c:e7:71:be:99|68
1622031105|00:0c:e7:71:e7:72|68
1621930152|00:0c:e7:73:46:69|74
1622032178|00:0c:e7:73:48:f6|72
1622037125|00:0c:e7:74:06:4d|92
1621938620|00:0c:e7:74:5a:1d|77
1621924058|00:0c:e7:74:83:2f|79
1621863773|00:0c:e7:74:a0:91|69
1622030034|00:0c:e7:75:ac:2c|65
1621948423|00:0c:e7:76:7d:a2|68
1621847586|00:0c:e7:76:cb:0b|65
1622017927|00:0c:e7:76:d9:d4|69
1621942542|00:0c:e7:76:ff:79|81
1621926442|00:0c:e7:77:38:cd|75
1621931060|00:0c:e7:77:8c:e9|66
1621924078|00:0c:e7:77:a7:83|72
1622016796|00:0c:e7:78:52:81|73
1621932077|00:0c:e7:78:5e:f5|81
1621849123|00:0c:e7:78:8e:10|69
1621934564|00:0c:e7:78:c0:e2|72
1622026448|00:0c:e7:78:f0:19|70
1621864496|00:0c:e7:79:31:07|72
1621946906|00:0c:e7:79:60:06|78
1621849044|00:0c:e7:79:64:6a|69
1622023360|00:0c:e7:79:70:b6|71
1621948898|00:0c:e7:79:a3:05|76
1622024366|00:0c:e7:7a:04:97|83
1622021923|00:0c:e7:7a:90:97|79
1621942973|00:0c:e7:7a:96:c1|74
1621946272|00:0c:e7:7a:a3:0d|71
1621858869|00:0c:e7:7b:8b:48|79
1621859432|00:0c:e7:7b:ae:14|72
1622022684|00:0c:e7:7b:fb:3f|75
1621924075|00:0c:e7:7c:68:0c|74
1622016243|00:0c:e7:7d:5d:7a|75
1621845379|00:0c:e7:7d:65:96|69
1621863623|00:0c:e7:7d:bd:77|78
1621930446|00:0c:e7:7d:d3:02|67
1622018010|00:0c:e7:7d:e6:6d|65
1622010860|00:0c:e7:7e:99:18|67
1621843696|00:0c:e7:7e:bc:43|71
1621850110|00:0c:e7:7f:38:6a|71
1621837132|00:0c:e7:7f:3e:4d|72
1622022830|00:0c:e7:7f:71:25|76
1622027344|00:0c:e7:80:53:d5|75
1621858072|00:0c:e7:80:c4:39|77
1621856917|00:0c:e7:81:83:11|66
1621949388|00:0c:e7:81:91:73|66
1622024014|00:0c:e7:82:55:dc|72
1621842201|00:0c:e7:83:00:a8|72
1622016235|00:0c:e7:83:18:49|69
1621848918|00:0c:e7:83:2d:5d|70
1622028592|00:0c:e7:83:3c:6a|66
1622021827|00:0c:e7:83:4c:da|73
1621923499|00:0c:e7:83:77:f8|75
1621942683|00:0c:e7:83:ed:c3|67
1621857791|00:0c:e7:84:21:8e|70
1621943873|00:0c:e7:84:e0:41|68
1622031954|00:0c:e7:85:08:5e|70
1621947290|00:0c:e7:85:3a:10|66
1621837738|00:0c:e7:85:96:46|67
1621862129|00:0c:e7:86:01:ae|74
1622021758|00:0c:e7:86:59:2a|76
1621930120|00:0c:e7:86:b2:c1|66
1621931457|00:0c:e7:86:d3:d1|69
1621854114|00:0c:e7:87:71:04|70
1621850089|00:0c:e7:88:52:49|75
1621855347|00:0c:e7:88:f6:40|78
1621849198|00:0c:e7:89:33:44|70
1621837184|00:0c:e7:89:5f:cd|71
1621931677|00:0c:e7:89:ab:b8|66
1621943542|00:0c:e7:8a:07:29|66
1621950390|00:0c:e7:8a:7c:46|81
1621850830|00:0c:e7:8a:a2:70|81
1621859053|00:0c:e7:8a:a4:61|67
1621938410|00:0c:e7:8a:f5:75|67
1622027180|00:0c:e7:8b:04:bf|73
1621855524|00:0c:e7:8b:12:47|67
1621943202|00:0c:e7:8b:2f:b8|71
1622016362|00:0c:e7:8c:26:42|71
1621860350|00:0c:e7:8c:d0:07|77
1621863429|00:0c:e7:8d:0e:9a|62
1621849030|00:0c:e7:8d:39:e6|65
1621931696|00:0c:e7:8d:4f:92|65
1621930478|00:0c:e7:8e:7c:b3|72
1621847317|00:0c:e7:8e:8b:34|72
1621930969|00:0c:e7:8e:d1:c6|69
1621857109|00:0c:e7:8e:ed:5b|73
1621930447|00:0c:e7:8e:f2:83|71
1621937714|00:0c:e7:8e:fe:cc|68
1621945116|00:0c:e7:8f:16:e8|68
1622034726|00:0c:e7:8f:2d:9b|70
1621934374|00:0c:e7:8f:89:49|61
1621926602|00:0c:e7:8f:a3:6b|70
1621940036|00:0c:e7:8f:d2:81|66
1621944083|00:0c:e7:8f:e3:6e|74
1621860538|00:0c:e7:90:71:65|64
1622028737|00:0c:e7:90:7b:18|71
1621949961|00:0c:e7:90:b7:cd|72
1621934562|00:0c:e7:90:f8:0c|76
1621946538|00:0c:e7:91:85:bf|75
1621945732|00:0c:e7:91:8a:49|77
1621846429|00:0c:e7:92:33:ac|73
1621848999|00:0c:e7:92:88:db|52
1621948097|00:0c:e7:92:8c:65|71
1621943369|00:0c:e7:92:9e:95|70
1621949908|00:0c:e7:93:66:10|85
1621864171|00:0c:e7:93:b0:da|63
1621843622|00:0c:e7:95:7a:2f|76
1622026569|00:0c:e7:96:0d:6c|77
1621924787|00:0c:e7:96:3d:bd|68
1621930128|00:0c:e7:96:e4:aa|71
1622026327|00:0c:e7:97:5a:63|80
1621864045|00:0c:e7:97:7f:87|71
1621836955|00:0c:e7:98:4d:07|85
1621950262|00:0c:e7:98:9e:54|69
1622011534|00:0c:e7:99:56:96|72
1622027942|00:0c:e7:99:da:99|83
1621837063|00:0c:e7:9a:68:b7|65
1621848667|00:0c:e7:9a:6f:e4|73
1621844113|00:0c:e7:9a:da:59|73
1621857872|00:0c:e7:9a:e5:74|72
1622036374|00:0c:e7:9b:22:25|66
1622016441|00:0c:e7:9b:85:39|71
1621862008|00:0c:e7:9b:e7:e7|68
1621931419|00:0c:e7:9c:d4:77|71
1621862758|00:0c:e7:9c:e7:0d|73
1622010308|00:0c:e7:9d:5c:df|77
1621844740|00:0c:e7:9d:5d:10|92
1622022687|00:0c:e7:9d:66:69|72
1621928220|00:0c:e7:9d:7c:88|61
1621946316|00:0c:e7:9d:7e:42|67
1621936244|00:0c:e7:9e:47:86|67
1621861440|00:0c:e7:9e:5b:6e|75
1622016487|00:0c:e7:9e:5c:12|66
1621933245|00:0c:e7:9f:1a:56|75
1621861575|00:0c:e7:9f:51:7f|75
1621927617|00:0c:e7:a0:45:9c|72
1621853967|00:0c:e7:a0:76:61|77
1622025623|00:0c:e7:a0:bd:fc|71
1621928190|00:0c:e7:a1:10:57|75
1621934379|00:0c:e7:a1:16:01|78
1622020970|00:0c:e7:a1:99:ed|80
1621836240|00:0c:e7:a2:33:ad|71
1621933003|00:0c:e7:a2:8a:13|73
1621948725|00:0c:e7:a2:99:0b|70
1621854637|00:0c:e7:a3:2d:23|78
1621927537|00:0c:e7:a3:51:8a|69
1621844523|00:0c:e7:a3:a3:dc|76
1621854224|00:0c:e7:a4:10:b8|75
1621927999|00:0c:e7:a4:83:37|79
1621845908|00:0c:e7:a4:f0:a7|72
1621853321|00:0c:e7:a4:fa:25|73
1621927103|00:0c:e7:a5:60:6a|72
1621853064|00:0c:e7:a6:77:6d|79
1622009928|00:0c:e7:a6:8e:56|75
1621838575|00:0c:e7:a7:78:54|67
1621848046|00:0c:e7:a7:f3:a5|71
1621857499|00:0c:e7:a8:6b:79|69
1621845253|00:0c:e7:a8:7c:42|76
1621950613|00:0c:e7:a8:9b:69|72
1621945690|00:0c:e7:a9:67:b3|81
1621943018|00:0c:e7:aa:5d:54|70
1622018676|00:0c:e7:aa:b7:56|77
1621853525|00:0c:e7:aa:e5:81|68
1621858845|00:0c:e7:ab:14:6d|66
1621855036|00:0c:e7:ab:95:51|74
1621945433|00:0c:e7:ac:05:b6|70
1622017949|00:0c:e7:ac:05:fa|72
1621931298|00:0c:e7:ac:33:b1|67
1621848868|00:0c:e7:ac:53:a6|66
1621845318|00:0c:e7:ac:db:89|60
1622025711|00:0c:e7:ad:06:28|67
1621846106|00:0c:e7:ad:2f:bc|72
1621944617|00:0c:e7:ae:36:64|73
1622014910|00:0c:e7:ae:73:80|73
1622026625|00:0c:e7:ae:a8:69|71
1621940047|00:0c:e7:ae:bd:96|68
1621862222|00:0c:e7:af:14:36|71
1621855146|00:0c:e7:af:1a:03|67
1621863676|00:0c:e7:b0:60:cd|71
1622019063|00:0c:e7:b0:6f:8c|72
1621930855|00:0c:e7:b1:42:4a|83
1621836943|00:0c:e7:b1:e6:c8|73
1621938255|00:0c:e7:b2:54:60|85
1622025566|00:0c:e7:b2:79:ef|68
1621938099|00:0c:e7:b3:26:9e|72
1621846568|00:0c:e7:b3:8b:d1|75
1621925297|00:0c:e7:b4:41:a0|71
1621855114|00:0c:e7:b4:95:1e|75
1621842895|00:0c:e7:b4:cf:98|71
1621859478|00:0c:e7:b5:78:69|71
1621942642|00:0c:e7:b5:84:95|76
1621931076|00:0c:e7:b5:93:8e|69
1621844744|00:0c:e7:b6:a4:e9|68
1621858424|00:0c:e7:b7:36:24|72
1621837547|00:0c:e7:b7:39:47|64
1622013573|00:0c:e7:b7:af:19|83
1621842131|00:0c:e7:b7:c1:d8|76
1621923219|00:0c:e7:b8:39:16|73
1621944527|00:0c:e7:b9:19:8d|69
1622024998|00:0c:e7:b9:45:d3|73
1622022102|00:0c:e7:b9:64:f3|81
1621852832|00:0c:e7:b9:6f:39|67
1621860232|00:0c:e7:b9:7c:03|78
1621858639|00:0c:e7:b9:c4:b3|88
1621945877|00:0c:e7:b9:e5:3c|62
1622032504|00:0c:e7:b9:ed:31|57
1622026547|00:0c:e7:ba:08:45|80
1621929589|00:0c:e7:ba:3d:ca|71
1621854785|00:0c:e7:ba:e5:14|67
1622024523|00:0c:e7:bb:b1:06|73
1621843848|00:0c:e7:bb:e3:11|74
1621925941|00:0c:e7:bc:b1:0e|67
1622012824|00:0c:e7:bd:26:95|71
1622015774|00:0c:e7:bd:a1:34|75
1621848343|00:0c:e7:bd:bc:cd|61
1621942227|00:0c:e7:bd:df:d0|68
1622016812|00:0c:e7:bd:e4:f2|79
1621836919|00:0c:e7:be:37:5d|69
1621842807|00:0c:e7:be:67:56|85
1621862274|00:0c:e7:be:71:9d|78
1621861085|00:0c:e7:be:88:7d|64
1621848538|00:0c:e7:be:9b:e2|68
1621842376|00:0c:e7:be:b1:4b|75
1621945040|00:0c:e7:bf:7f:e7|69
1621936381|00:0c:e7:bf:b7:30|72
1622008818|00:0c:e7:c0:6f:11|74
1621923247|00:0c:e7:c0:a7:57|74
1621935232|00:0c:e7:c0:d5:8d|74
1621839623|00:0c:e7:c1:14:f2|63
1621922643|00:0c:e7:c2:0e:4f|75
1621923588|00:0c:e7:c2:1d:0c|84
1621862684|00:0c:e7:c2:ab:1e|69
1621862630|00:0c:e7:c2:d5:0a|69
1621847349|00:0c:e7:c3:51:78|70
1621849106|00:0c:e7:c3:91:c9|66
1621839233|00:0c:e7:c4:02:12|71
1621864236|00:0c:e7:c4:30:5f|70
1621950205|00:0c:e7:c4:bb:a4|73
1621923448|00:0c:e7:c5:a3:6f|78
1621942531|00:0c:e7:c6:78:a5|73
1621948468|00:0c:e7:c6:94:fe|67
1621838570|00:0c:e7:c6:c3:1b|72
1622033061|00:0c:e7:c7:8f:5f|75
1621842082|00:0c:e7:c7:fd:73|73
1621862735|00:0c:e7:c9:59:89|73
1621924357|00:0c:e7:c9:61:17|76
1622031102|00:0c:e7:c9:b6:af|74
1622026778|00:0c:e7:ca:7c:4c|63
1621943457|00:0c:e7:ca:d3:3b|73
1621836023|00:0c:e7:cb:27:37|69
1621931411|00:0c:e7:cb:52:d9|64
1621849092|00:0c:e7:cb:a2:6b|77
1621850120|00:0c:e7:cb:b1:ef|70
1621938371|00:0c:e7:cb:c7:06|69
1621836691|00:0c:e7:cc:76:47|69
1621864606|00:0c:e7:cc:9d:88|72
1621934661|00:0c:e7:cd:29:2d|66
1621944568|00:0c:e7:cd:38:ba|69
1621941317|00:0c:e7:cd:73:2b|70
1621859152|00:0c:e7:cd:fb:f0|87
1621847228|00:0c:e7:ce:3f:02|73
1621864103|00:0c:e7:cf:31:27|71
1622022085|00:0c:e7:cf:a0:5f|72
1621858102|00:0c:e7:cf:cd:87|66
1621923163|00:0c:e7:cf:de:1a|65
1622030730|00:0c:e7:cf:e9:8d|74
1621847144|00:0c:e7:d0:69:55|77
1621847720|00:0c:e7:d0:d8:a4|67
1621950296|00:0c:e7:d1:29:01|72
1621844812|00:0c:e7:d1:6b:79|73
1622015411|00:0c:e7:d1:79:23|77
1621860230|00:0c:e7:d1:88:63|69
1621943881|00:0c:e7:d2:36:85|72
1621935109|00:0c:e7:d2:9c:02|63
1621943711|00:0c:e7:d3:42:4d|66
1622020892|00:0c:e7:d3:af:05|74
1621930145|00:0c:e7:d4:b8:56|72
1621849870|00:0c:e7:d5:08:0b|67
1622035711|00:0c:e7:d5:1e:4d|70
1621933504|00:0c:e7:d5:2d:08|76
1621945597|00:0c:e7:d5:be:eb|68
1622025151|00:0c:e7:d5:d2:64|67
1621858241|00:0c:e7:d6:89:03|68
1621855720|00:0c:e7:d6:da:f5|70
1621853123|00:0c:e7:d7:06:d8|82
1621842246|00:0c:e7:d7:6e:94|73
1621928120|00:0c:e7:d7:ac:75|72
1621925621|00:0c:e7:d8:f5:f6|74
1622030745|00:0c:e7:d9:3b:f2|70
1621925547|00:0c:e7:d9:c6:fb|73
1621856121|00:0c:e7:d9:d0:ef|69
1621946321|00:0c:e7:da:1f:5c|77
1621860542|00:0c:e7:da:63:c9|70
1622018903|00:0c:e7:da:99:cc|72
1621935678|00:0c:e7:da:9e:7d|67
1621926906|00:0c:e7:da:a4:7b|65
1621930011|00:0c:e7:da:aa:ca|74
1622010202|00:0c:e7:db:b6:b2|70
1622018280|00:0c:e7:db:d7:63|77
1622030042|00:0c:e7:dc:13:ec|68
1621854911|00:0c:e7:dc:2e:aa|73
1622028925|00:0c:e7:dc:78:de|69
1621859812|00:0c:e7:dc:97:53|67
1621862926|00:0c:e7:dc:b2:4a|74
1621943904|00:0c:e7:dc:fd:a3|70
1621931820|00:0c:e7:dd:61:3d|68
1621928017|00:0c:e7:dd:a6:f0|61
1621838724|00:0c:e7:dd:c5:60|75
1622016195|00:0c:e7:dd:dd:e4|70
1622015037|00:0c:e7:dd:ef:aa|68
1621860103|00:0c:e7:de:3d:b4|74
1621928843|00:0c:e7:de:bf:1e|68
1621930313|00:0c:e7:de:c7:74|67
1621846123|00:0c:e7:de:ca:40|79
1621859257|00:0c:e7:de:ed:fa|72
1622017966|00:0c:e7:df:09:9d|72
1621923071|00:0c:e7:df:ee:79|71
1621837730|00:0c:e7:df:f7:dc|70
1621923199|00:0c:e7:df:f7:ea|71
1621848070|00:0c:e7:e1:9e:ca|72
1621934740|00:0c:e7:e2:9f:c1|53
1621839645|00:0c:e7:e2:d7:a6|75
1622022888|00:0c:e7:e2:d9:3f|65
1621837788|00:0c:e7:e3:0f:63|75
1621948068|00:0c:e7:e3:5a:61|68
1621860494|00:0c:e7:e3:c4:cb|68
1621858264|00:0c:e7:e4:25:5f|76
1621837941|00:0c:e7:e4:27:0d|69
1621847842|00:0c:e7:e4:ae:c9|70
1621862128|00:0c:e7:e5:49:59|62
1622010765|00:0c:e7:e5:a7:2f|68
1622010268|00:0c:e7:e5:be:c7|79
1621862894|00:0c:e7:e6:1e:fe|72
1621949397|00:0c:e7:e6:4e:9b|69
1621863508|00:0c:e7:e6:8a:41|72
1622024496|00:0c:e7:e6:94:50|70
1621849259|00:0c:e7:e7:f5:54|75
1621934385|00:0c:e7:e8:1e:e8|87
1621857065|00:0c:e7:e8:5a:39|73
1621851857|00:0c:e7:e8:b4:83|70
1621927007|00:0c:e7:e8:c7:3e|77
1621860044|00:0c:e7:e9:23:dd|65
1621931373|00:0c:e7:e9:8d:d4|71
1621925819|00:0c:e7:e9:99:b6|73
1621865087|00:0c:e7:e9:fb:73|69
1621836381|00:0c:e7:ea:14:03|72
1621862824|00:0c:e7:ea:91:86|74
1621837448|00:0c:e7:eb:05:b9|63
1622018433|00:0c:e7:eb:21:20|74
1621860266|00:0c:e7:eb:9b:40|66
1621948721|00:0c:e7:eb:c1:bb|66
1621864895|00:0c:e7:ee:cc:5d|73
1622029439|00:0c:e7:ef:6f:a3|70
1621924656|00:0c:e7:ef:c7:bb|86
1621845943|00:0c:e7:f0:1a:6d|75
1621944461|00:0c:e7:f0:6f:76|71
1621924225|00:0c:e7:f0:79:96|68
1622025243|00:0c:e7:f1:06:8c|71
1622022778|00:0c:e7:f1:6f:95|82
1622028958|00:0c:e7:f2:10:88|70
1622016574|00:0c:e7:f2:38:dc|80
1621930121|00:0c:e7:f3:5c:97|66
1621848995|00:0c:e7:f3:79:27|55
1621926521|00:0c:e7:f4:3c:7b|76
1621837825|00:0c:e7:f5:00:9a|72
1621858644|00:0c:e7:f5:c6:a4|71
1622017745|00:0c:e7:f6:09:ac|70
1621865023|00:0c:e7:f6:23:45|75
1621947298|00:0c:e7:f6:3e:98|71
1621942532|00:0c:e7:f6:68:77|72
1621847366|00:0c:e7:f7:61:99|71
1621930622|00:0c:e7:f7:a4:e6|86
1621923337|00:0c:e7:f8:0f:b9|73
1621936052|00:0c:e7:f8:d0:b7|80
1621863551|00:0c:e7:f9:53:ce|73
1621926852|00:0c:e7:f9:6a:44|75
1622016336|00:0c:e7:f9:89:ea|68
1622027739|00:0c:e7:f9:df:a3|66
1621858580|00:0c:e7:fa:44:25|71
1622028814|00:0c:e7:fa:7e:ca|71
1622028614|00:0c:e7:fb:41:2a|85
1621853619|00:0c:e7:fb:46:1a|76
1621941984|00:0c:e7:fb:f2:f8|74
1621839209|00:0c:e7:fc:79:f5|79
1621933999|00:0c:e7:fc:b9:50|77
1622029108|00:0c:e7:fc:c8:8e|85
1621945669|00:0c:e7:fd:03:14|71
1622027927|00:0c:e7:fd:32:cc|72
1621925421|00:0c:e7:fd:79:f5|68
1621923464|00:0c:e7:fd:80:8c|69
1621844027|00:0c:e7:fe:1c:ff|81
1621859399|00:0c:e7:fe:76:57|74
1621857118|00:0c:e7:fe:7c:69|67
1621849613|00:0c:e7:ff:08:91|72
1621930117|00:0c:e7:ff:87:7b|66
1621928925|00:11:4d:0f:2e:97|69
1622022590|00:1a:13:82:c2:15|89
1621950020|00:1a:13:82:c2:15|87
1621946092|00:1b:12:4b:fe:f2|76
1622030188|00:21:07:fd:02:94|68
1622023015|00:23:15:d1:c3:3d|74
1621844531|00:23:15:d1:c3:3d|80
1621936654|00:23:a7:48:a2:c8|72
1621924701|00:26:69:01:9e:90|73
1622013022|00:28:f8:2b:3a:45|74
1621924077|00:28:f8:2b:3a:45|68
1622013222|00:28:f8:2b:3a:46|76
1621923927|00:28:f8:2b:3a:46|71
1621937698|00:28:f8:71:23:48|80
1622011843|00:28:f8:a0:5f:cd|75
1621929060|00:32:0c:6f:65:0a|68
1621925336|00:3f:88:5e:fc:c5|73
1622026657|00:71:cc:62:e8:8b|86
1621925941|00:7c:2d:eb:0f:c6|78
1622008840|00:7c:2d:ed:47:c4|59
1621928797|00:7c:2d:ed:47:c4|69
1621924281|00:8a:fe:e6:ab:01|74
1621950173|00:95:13:df:c5:86|87
1621926129|00:9a:cd:41:fa:ff|79
1621928542|00:9b:5d:fd:ac:92|74
1621924513|00:9d:6b:37:5f:0d|74
1622009510|00:ae:fa:56:cc:3c|80
1621838716|00:ae:fa:56:cc:3c|73
1622023098|00:b5:d0:43:ef:a1|71
1621923232|00:b5:d0:43:ef:a1|81
1622021999|00:bb:60:b8:26:26|76
1621852938|00:e1:8c:ba:cb:c9|83
1621922577|00:e1:8c:ba:cb:c9|88
1622009514|00:e1:8c:ba:cb:ca|85
1621937649|00:ec:0a:4a:48:36|67
1622028777|00:ec:0a:4a:48:36|64
1621925361|00:f4:8b:41:a0:c6|68
1621928077|01:36:92:bb:f5:ad|67
1621926847|01:60:64:78:0c:11|68
1621852430|01:78:02:7b:58:0d|65
1621856448|01:82:6d:57:a9:43|79
1621927028|01:bf:9e:7d:eb:72|72
1621947422|01:c3:1a:4a:ec:8d|75
1621851560|01:ca:1e:c3:51:8a|70
1621858341|01:e5:fc:5d:61:76|77
1621930779|03:10:84:97:c2:f3|68
1621854902|03:4a:3f:89:c1:30|83
1621926914|03:c0:2b:3c:1d:1e|72
1621838745|03:ee:5a:c2:10:4b|83
1622025989|04:4a:6c:d3:02:e4|64
1622011675|04:8c:9a:b0:80:73|74
1621936358|04:8e:44:05:18:9b|73
1622034545|04:b4:29:e2:5d:23|74
1621859129|04:b4:29:e2:5d:23|77
1622019673|04:ba:8d:9d:e5:8b|78
1621937266|04:ba:8d:bd:77:f7|80
1621856813|04:c2:3e:97:7d:77|77
1622017305|04:c8:07:14:72:ac|66
1622023046|04:d3:b0:8f:79:fb|67
1621851479|04:d3:b0:91:05:19|76
1622018583|04:d6:aa:0e:68:12|75
1621842010|04:d6:aa:0f:30:00|81
1622025012|04:d6:aa:1f:68:71|83
1622016108|04:d6:aa:22:9d:01|83
1621862671|04:d6:aa:3b:68:ab|87
1621867866|04:d6:aa:41:21:f7|87
1622010410|04:d6:aa:53:53:0f|85
1622012621|04:d6:aa:57:50:a9|81
1622009028|04:d6:aa:65:0d:c1|86
1622019662|04:d6:aa:68:2a:b1|81
1621839221|04:d6:aa:68:2a:b1|78
1621932301|04:d6:aa:6e:b9:2d|79
1621862958|04:d6:aa:71:42:e1|88
1621840386|04:d6:aa:9b:fd:43|74
1622025099|04:d6:aa:ac:07:a9|84
1621938073|04:d6:aa:c0:da:d8|82
1621863652|04:d6:aa:e2:02:b3|87
1621839139|04:d6:aa:fa:aa:64|83
1621922783|04:e5:36:32:d3:38|72
1621845400|04:e5:36:32:d3:38|75
1622035034|04:e5:98:a8:f6:2f|85
1621926807|04:ea:c4:3e:e2:99|70
1622009083|04:ed:33:b4:55:7d|79
1622017978|04:f1:28:60:01:fe|86
1621926891|05:11:e9:4d:f5:cd|78
1622025720|05:23:a1:32:e8:0e|77
1621927525|05:b0:9c:d4:3f:61|68
1622018561|05:b2:ac:7a:6a:d0|79
1621949592|05:ef:b5:9b:7c:f2|73
1621839685|07:76:bf:3a:5a:68|66
1621840542|07:7f:43:10:9f:42|75
1621837432|07:ce:8b:29:b5:34|81
1622034540|08:25:25:7c:ff:b5|87
1621853807|08:25:25:a4:c1:7e|90
1621838505|08:4a:ee:b8:d1:d6|67
1621938692|08:4d:44:43:2c:d0|61
1621929912|08:4f:7c:9e:74:e7|79
1621937042|08:7f:98:90:11:b9|76
1621852795|08:7f:98:90:11:b9|84
1621946090|08:90:f1:1c:b4:95|76
1621854502|08:9e:f1:14:42:bc|74
1622028968|08:a1:66:46:42:9f|69
1621839501|08:bf:a0:86:62:24|77
1621846871|08:bf:a0:86:b3:c8|80
1622015352|08:c5:e1:07:65:ff|79
1622031837|08:c5:e1:0b:3c:74|80
1621922453|08:c5:e1:0c:ff:06|75
1621943327|08:c5:e1:16:e3:48|73
1622019309|08:c5:e1:19:81:72|75
1622010822|08:c5:e1:25:31:82|67
1621936834|08:c5:e1:25:31:82|67
1621844437|08:c5:e1:38:21:27|74
1621950086|08:c5:e1:45:b7:54|73
1622028973|08:c5:e1:90:81:e1|77
1621949075|08:c5:e1:b2:ea:71|77
1621933241|08:c5:e1:b3:d4:86|81
1621929204|08:c5:e1:ee:9d:ac|88
1621923053|08:c5:e1:f5:a9:e4|70
1621949507|08:f3:c3:fb:67:cd|67
1622014526|08:f6:9c:1e:79:d1|68
1621852337|09:57:42:fb:4a:cf|73
1621862638|09:da:1e:d4:4c:74|51
1621934077|09:dc:d0:6a:1b:2e|86
1622013031|0b:44:cb:f2:a9:98|79
1621927959|0b:67:f0:7e:00:2f|69
1621846093|0b:ae:da:79:ad:c7|73
1621854016|0c:18:97:04:5e:4a|68
1621840963|0c:21:51:a9:e4:d0|70
1622012841|0c:2c:54:62:9b:fd|70
1621926529|0c:2c:54:62:9b:fd|89
1621840761|0c:56:7e:f8:26:f7|73
1621933236|0c:60:7a:af:b1:00|83
1621842432|0c:70:4a:db:bf:d9|80
1621858498|0c:71:3f:04:f6:08|69
1621853950|0c:75:01:72:09:56|65
1622012809|0c:7a:15:8e:46:44|72
1621927497|0c:7e:26:9e:19:1e|67
1621924538|0c:8c:24:bf:0f:65|70
1622030098|0c:8c:24:bf:12:72|54
1622010496|0c:8f:ff:17:4a:75|71
1621947694|0c:8f:ff:17:4a:75|75
1621927812|0c:96:e6:76:6e:eb|83
1622028751|0c:96:e6:76:6e:eb|86
1621934917|0c:96:e6:76:6f:a7|86
1621857337|0c:96:e6:76:6f:a7|86
1621930487|0c:db:68:31:a9:ef|66
1622010505|0c:e0:dc:38:9d:09|93
1621945576|0c:f3:46:ce:ad:6b|59
1621842308|0d:03:ad:2c:a3:c3|81
1621851084|0d:04:ba:e6:6d:94|64
1621928673|0d:42:e4:a6:db:17|69
1621940098|0d:4a:b7:47:c4:db|66
1621840794|0d:53:e9:8b:d2:b7|74
1621837775|0d:5a:4f:47:05:28|74
1621925387|0d:5a:d9:5b:03:ff|71
1621926123|0d:81:9d:10:b8:56|73
1621838407|0d:8a:ab:5d:a8:aa|67
1621925317|0f:44:01:6e:e2:01|69
1621854471|0f:52:3d:df:42:f7|68
1621849907|0f:53:d2:4e:85:d5|67
1621924124|0f:8a:48:b9:1b:35|66
1621836792|0f:c6:0f:5a:a8:f6|76
1621927261|0f:d0:9a:49:b8:5f|71
1622017283|10:02:b5:46:93:5d|67
1622009880|10:02:b5:50:2c:65|77
1622011261|10:02:b5:50:2c:66|79
1622021884|10:28:d5:a3:bc:0e|77
1621853717|10:32:7e:c0:40:29|62
1621950495|10:3f:44:25:21:0b|81
1621943857|10:3f:44:ea:54:fb|89
1621859192|10:44:00:39:7b:c9|67
1621838029|10:47:20:b8:96:e5|83
1621952865|10:4e:47:f8:d2:91|80
1621925288|10:87:06:ba:9b:cb|72
1622029527|10:8a:b6:97:54:4f|75
1621837288|10:8e:e0:67:f5:f0|75
1622037188|10:bc:97:b6:c7:cd|86
1621864272|10:bc:97:b6:c7:cd|82
1621845314|10:e9:53:54:47:62|76
1621927269|10:f8:ed:96:dc:2f|74
1621840164|11:11:f0:7e:6c:36|81
1621855318|11:9a:9a:8b:d9:7e|81
1621937166|11:e0:3a:2c:89:97|65
1621850673|13:34:fe:a1:4c:8b|70
1621842203|13:54:96:8f:fa:5b|71
1621840328|13:8c:77:f3:a8:8d|71
1622022988|13:8e:43:2d:ef:e1|85
1621837490|13:d2:5d:e7:34:65|73
1621929165|13:f9:11:09:bf:6a|74
1621931553|14:1f:78:e1:97:31|75
1622017034|14:20:5e:e9:17:7a|74
1621924810|14:32:d1:72:61:5f|79
1621840249|14:32:d1:72:61:5f|76
1621859629|14:4f:8a:c2:9b:92|81
1621940193|14:56:8e:76:31:29|77
1621837327|14:5e:2f:c0:be:0f|73
1621923052|14:66:2b:b5:9a:86|88
1621927102|14:7d:da:42:8b:32|82
1622021288|14:7d:da:42:8b:32|79
1621847997|14:7d:da:42:8b:32|73
1621846123|14:95:db:aa:bc:62|74
1622035890|14:9f:3c:bd:42:71|83
1621928270|14:ab:c5:3c:8d:fe|78
1622013060|14:ab:c5:5e:0d:e9|90
1621857114|14:ab:c5:e0:f6:55|75
1621938728|14:e3:62:4f:b9:8c|66
1621949236|15:66:68:6c:da:c3|86
1621936780|15:6a:7e:45:b7:83|83
1621925314|15:78:9c:61:c6:cb|67
1621949394|15:7e:90:3e:d6:59|77
1621846709|15:dc:c9:38:74:f8|69
1622011453|15:fc:f8:b1:9f:28|68
1621855810|17:20:fd:ad:cd:a4|81
1621940292|17:6f:0d:79:94:06|70
1621840484|17:80:bd:9e:85:08|76
1621923283|17:d9:8d:c8:77:9f|78
1621923258|17:f0:85:cc:0d:a4|80
1621934079|18:25:bd:94:72:8b|67
1621950669|18:3a:2d:21:96:c5|87
1621948980|18:3e:ef:c0:6f:98|78
1622012675|18:3e:ef:c0:6f:98|74
1621849075|18:3e:ef:c0:6f:98|72
1622017984|18:3e:ef:c5:75:f3|79
1621854373|18:3e:ef:c5:75:f3|71
1621935540|18:47:3d:e4:91:f7|79
1622013124|18:47:3d:e4:91:f7|83
1621857424|18:47:3d:e4:91:f7|79
1622029045|18:56:80:35:8b:ad|83
1621937018|18:56:80:35:8c:98|85
1621863717|18:56:80:35:8c:98|81
1621937880|18:56:80:35:8d:fb|83
1622017736|18:56:80:35:8d:fb|86
1621849684|18:5f:9b:cc:a3:95|63
1621854599|18:66:b2:d2:0e:07|64
1621866908|18:70:3b:c9:10:33|89
1621846297|18:7e:b9:30:20:00|79
1621861249|18:c2:8b:25:58:b5|75
1621851229|18:cc:18:9b:9e:2a|68
1621922498|18:cc:18:9b:9e:2b|71
1621851944|18:cc:18:9b:9e:2b|80
1622027565|18:cc:18:b8:8d:8c|88
1621923512|18:df:b1:1a:c6:29|69
1622026956|18:f6:43:1c:6b:4b|76
1621949448|19:70:87:ab:09:8e|67
1621948700|19:83:65:cf:b1:52|64
1622016062|19:8e:7d:8c:98:de|68
1621855624|19:98:62:fa:11:a2|84
1621926587|1b:a8:df:5a:2d:42|71
1621852188|1b:ad:df:38:34:ef|69
1621853153|1b:bf:0a:de:86:91|66
1622013187|1c:15:2e:d4:8a:37|87
1622030532|1c:1a:c0:21:43:e9|80
1621856125|1c:1a:c0:21:43:e9|76
1621944336|1c:1a:c0:21:43:e9|79
1622020478|1c:42:7d:90:43:fb|72
1621858225|1c:67:58:4a:ec:ad|67
1621928056|1c:7b:e7:e4:61:a4|75
1621938142|1c:89:a8:f2:f0:7e|76
1621949812|1c:b7:96:f7:c1:2b|80
1622010626|1c:b7:96:f7:c1:2b|90
1621836707|1c:cc:d6:2a:fa:04|82
1621946264|1c:cc:d6:2a:fa:04|88
1622016695|1c:cc:d6:ea:11:47|66
1622022997|1c:cc:d6:fa:18:ff|72
1621925629|1c:cf:5e:70:0e:97|75
1621864797|1c:d6:d9:7a:b0:19|69
1621929121|1d:04:1c:9e:3d:ad|64
1621927208|1d:b1:6a:f8:65:02|70
1621947473|1d:c2:39:4a:a2:86|84
1621922605|1d:e1:af:c3:fe:d6|81
1621933214|1f:c6:10:cc:4e:3c|74
1621945121|20:31:1c:de:3c:e7|91
1621842212|20:5d:9c:73:f0:7b|67
1621929994|20:79:18:30:2d:75|86
1621853131|20:79:18:30:2d:75|77
1621852602|20:79:18:30:2d:76|74
1621851812|20:79:18:7f:09:90|86
1621837002|20:79:18:93:a3:2d|70
1621926710|20:79:18:fb:4f:9b|72
1621849904|20:80:bc:86:3d:96|66
1621853327|20:a1:c3:51:c3:02|64
1621866239|20:a6:0c:30:2f:19|68
1621852444|20:ef:94:9f:0c:52|74
1622034548|20:f2:ab:0e:2f:0f|72
1621851783|20:f4:78:5f:a7:3e|84
1621839399|21:0b:c3:25:5e:7e|65
1621838188|21:1f:e8:82:29:b9|70
1621839810|21:34:18:aa:22:de|64
1622010661|21:4b:02:8a:5a:d2|80
1621850637|21:a7:77:7c:f1:5c|69
1622015781|21:ca:d0:a7:9b:05|86
1621851497|23:ae:04:5d:52:23|76
1621836893|23:b7:0e:40:8b:21|68
1621849984|23:ba:b3:12:42:c4|65
1622023803|23:df:1e:bb:90:57|74
1621863043|24:17:26:5b:73:30|66
1622024206|24:18:1d:09:da:56|81
1622018509|24:18:1d:0a:05:13|76
1622023186|24:18:1d:17:3e:65|69
1621930854|24:18:1d:1d:c0:95|70
1622009054|24:18:1d:1e:70:bd|80
1622026421|24:18:1d:37:6e:b5|80
1621922559|24:18:1d:8c:86:db|74
1622019052|24:18:1d:8c:86:db|75
1621850894|24:18:1d:8c:86:db|83
1621941878|24:18:1d:92:2c:71|73
1621839931|24:18:1d:9d:83:fb|88
1622009111|24:18:1d:aa:40:de|83
1621836259|24:18:1d:aa:40:de|85
1621925232|24:18:1d:aa:40:de|78
1622012086|24:18:1d:fc:01:80|66
1621837968|24:5a:b5:a7:ac:36|66
1621925762|24:77:03:25:42:f4|74
1621943903|24:8e:f5:10:1e:83|83
1621851080|24:a3:e0:2c:ea:82|68
1621851452|24:bc:03:e3:dc:5b|72
1621948774|24:dd:97:f2:28:9c|71
1622029947|24:dd:e6:0a:9e:8e|71
1622022595|24:e3:14:49:87:16|80
1621838053|24:e3:14:49:87:16|78
1621854254|24:ee:27:cd:97:53|65
1621949761|24:ee:9a:06:ae:05|94
1622016756|24:ee:9a:06:ae:05|91
1622011936|24:ee:9a:06:ae:06|91
1621944415|24:ee:9a:06:ae:06|83
1622026715|24:ee:9a:3a:90:ad|77
1621837142|24:ee:9a:53:b0:1a|72
1622015492|24:ee:9a:7a:a1:66|85
1621851105|25:3a:1d:d5:19:5c|64
1621851237|25:a8:87:8e:e3:ee|70
1621856794|25:ab:1a:65:28:db|75
1621946169|25:c0:b3:98:03:bf|67
1621929068|25:c3:98:56:48:c3|72
1621928599|25:d9:7e:16:af:84|71
1621948857|25:dc:90:78:9c:f7|66
1621851046|27:0b:71:c1:57:34|63
1621926619|27:10:dd:cb:b6:2e|72
1621926334|27:19:23:eb:24:9e|69
1621839657|27:1d:55:46:cb:18|71
1621927105|27:43:ec:40:04:44|66
1621850623|27:d2:1d:98:d7:d0|73
1621934248|28:16:a8:71:f7:46|83
1621948875|28:19:06:54:45:e0|87
1621950224|28:24:e7:74:9d:73|79
1621949660|28:24:ff:35:7f:1f|93
1621858897|28:24:ff:35:7f:1f|89
1621933809|28:2a:19:e6:75:3a|70
1622025440|28:33:34:54:91:f6|84
1621836518|28:33:34:e8:78:45|78
1621842657|28:39:5e:d7:66:99|84
1621838714|28:7f:cf:de:a4:d1|74
1622020310|28:7f:cf:de:a4:d2|71
1621839409|28:97:88:95:70:16|66
1621927951|28:a5:7b:dd:27:96|68
1621944201|28:c6:3f:04:e3:0e|71
1622034980|28:c6:3f:c7:d3:46|80
1621923422|28:f3:66:a8:b9:9a|82
1622029131|28:f9:fe:b8:3d:86|62
1622022586|28:fb:d3:fa:8e:7f|89
1621943409|28:fb:d3:fa:8e:a1|90
1621836146|28:fb:d3:fa:8e:c1|87
1621852770|29:17:ff:ae:a8:62|69
1621853050|29:ae:68:89:e6:53|67
1621850962|29:f8:14:52:73:fd|84
1621845106|2b:5b:29:58:2f:bf|74
1621863953|2b:66:c9:ef:8a:e6|66
1621928359|2c:0a:9e:11:2e:f5|67
1621840342|2c:15:f5:dc:55:ec|64
1621923051|2c:4c:c6:b7:b9:e7|77
1621864658|2c:61:5b:66:f6:96|77
1622010078|2c:a9:f0:4d:bb:4b|87
1621860340|2c:d1:40:10:d7:21|80
1621861529|2c:d5:c7:6a:83:d6|80
1621837136|2c:f7:fd:3d:b7:03|64
1622013389|2c:fd:ab:58:b4:35|85
1621839343|2c:fd:ab:58:b4:35|90
1622037134|2c:fd:ab:a8:3d:21|91
1622028958|2d:0e:13:f3:d7:47|57
1621925267|2d:1b:94:67:55:8a|68
1621849753|2d:46:e0:c5:b0:84|67
1621854507|2d:ca:f8:49:f7:24|84
1622029943|2d:fd:e8:d8:9b:34|73
1621861085|2f:60:71:cc:cf:35|79
1621843132|2f:82:98:32:83:2d|64
1621842271|2f:ab:4f:3e:1a:56|82
1621923319|2f:c4:e1:38:28:67|83
1621841908|2f:f0:a2:ab:4d:0f|68
1622009382|30:03:01:02:1f:15|75
1622014506|30:07:4d:0d:9e:da|79
1622013281|30:07:4d:44:ce:2b|82
1621952036|30:07:4d:4d:3e:bd|84
1622012808|30:07:4d:54:65:25|88
1621837385|30:07:4d:54:65:25|75
1622011376|30:07:4d:58:14:be|76
1621930511|30:07:4d:6a:3f:82|80
1621941537|30:07:4d:80:01:1b|77
1621925299|30:07:4d:8f:de:25|80
1622031429|30:07:4d:ab:fc:07|80
1621945509|30:07:4d:ab:fc:07|87
1621837769|30:07:4d:ab:fc:07|78
1621842485|30:07:4d:bd:c3:37|73
1621853456|30:25:ce:30:5a:57|72
1621839661|30:36:07:3a:70:82|77
1621841980|30:45:96:13:af:68|66
1621854565|30:47:aa:e4:ff:91|64
1622032716|30:5e:16:84:70:5d|69
1621925583|30:95:e3:3d:c3:80|61
1622030915|30:95:e3:3d:c3:80|70
1621857476|30:95:e3:3d:c3:80|67
1621847921|30:a9:de:da:03:94|81
1621849131|30:a9:de:da:03:a2|78
1621936279|30:a9:de:da:6b:84|83
1622025728|30:a9:de:da:6b:84|80
1621858156|30:a9:de:da:6b:84|79
1621935417|30:a9:de:da:6f:6e|83
1622028794|30:a9:de:da:6f:70|83
1621948382|30:a9:de:da:6f:70|81
1621849890|30:ae:62:50:70:8a|66
1622008928|30:d1:6b:99:9e:d9|83
1621922573|30:d1:6b:99:9e:d9|82
1622029143|30:dc:c4:2f:d0:c3|62
1621928001|30:ec:86:2a:82:53|71
1621928446|30:f3:1c:d9:f1:b6|68
1621925195|31:55:cf:8a:04:f0|69
1621850831|31:6b:55:7f:7d:ce|56
1621847256|31:af:e4:26:db:f4|76
1621944094|31:d0:00:17:de:a0|89
1622032398|31:df:0f:36:dc:17|84
1621837778|31:ee:23:34:25:46|76
1621928797|33:48:4a:ea:b9:e5|67
1621933920|34:12:f9:4e:a2:8a|70
1622018414|34:12:f9:4e:a2:8a|75
1621848099|34:12:f9:4e:a2:8a|90
1621945927|34:12:f9:70:a4:23|69
1621859489|34:12:f9:70:a4:23|74
1622019268|34:12:f9:fd:68:af|75
1621844919|34:12:f9:fd:68:af|65
1621940629|34:2e:b6:b4:35:63|76
1621944803|34:2e:b7:d8:05:ef|87
1621929276|34:35:29:1c:ce:83|68
1622020229|34:36:3b:85:1e:32|86
1621925359|34:36:3b:86:fc:56|76
1621952863|34:39:04:c5:f4:e2|86
1622008842|34:41:5d:a6:33:67|74
1621837795|34:41:5d:a6:33:67|74
1621923891|34:41:5d:bf:bd:e6|77
1622021299|34:41:5d:bf:bd:e6|81
1621844057|34:41:5d:bf:bd:e6|79
1622013171|34:8b:75:30:61:44|75
1621866300|34:8b:75:58:b6:38|84
1622023219|34:8b:75:ec:bd:d7|74
1621945212|34:8b:75:ec:bd:d7|74
1621922837|34:a3:95:b2:3b:55|79
1622022132|34:a3:95:b2:3b:55|90
1621850538|34:a3:95:b2:3b:55|71
1621851059|34:b0:2a:24:75:00|76
1621951639|34:b2:0a:f1:08:04|82
1621923825|34:bb:1f:ce:36:a8|69
1621837638|34:c9:d6:80:bd:53|71
1621864398|34:e0:da:8e:76:c7|77
1621922506|34:e1:2d:6a:a5:09|66
1622009205|34:e1:2d:6a:a5:09|66
1621863021|34:e1:2d:6a:a5:09|64
1622011980|34:f3:9a:02:63:bd|79
1621859063|34:f3:9a:02:63:bd|80
1622030022|34:f3:9a:2a:8d:de|83
1622011175|34:f3:9a:6e:9e:f2|71
1621840693|34:f3:9a:6e:9e:f2|67
1621927348|34:f3:9a:6e:9e:f2|75
1621848194|35:4d:c2:ca:65:32|75
1621927621|35:d9:3a:d2:ed:b6|74
1621854229|37:0d:c1:98:4d:e6|73
1621929119|37:12:be:64:94:86|66
1621924915|37:38:45:63:aa:34|69
1621841888|37:39:23:a9:60:44|72
1621855802|37:48:26:70:0d:62|82
1621846161|37:db:e9:33:04:49|75
1622019977|37:f1:60:57:ef:82|72
1621853404|37:f1:f2:1f:b1:e3|71
1621837648|38:2d:e8:20:69:7d|80
1621934229|38:53:9c:8e:25:c3|82
1621843311|38:53:9c:90:a8:16|82
1622020107|38:68:a4:ec:83:15|70
1621836918|38:f9:d3:50:82:2e|68
1621848990|38:fb:14:b5:65:67|88
1621840585|39:1e:b5:75:d7:b3|69
1622019640|39:47:05:21:46:6b|80
1621849473|39:5b:74:c6:bb:06|70
1621853068|3b:0a:54:4e:bd:82|72
1621861644|3b:4c:a6:6a:b4:4a|81
1621939734|3c:05:18:a9:cf:83|84
1621952843|3c:16:e3:f8:7f:cd|80
1622034824|3c:20:f6:90:32:15|76
1622037164|3c:20:f6:d6:8f:cd|89
1621940132|3c:20:f6:db:c2:50|77
1621841141|3c:22:fb:bb:e4:15|87
1622033650|3c:57:6c:3a:82:58|90
1621954483|3c:57:6c:b9:fe:44|91
1621837901|3c:57:6c:c7:6e:20|73
1622010022|3c:57:6c:c7:9d:04|65
1621854470|3c:57:6c:d8:b6:d5|92
1621932285|3c:58:c2:bf:97:d5|82
1622008815|3c:58:c2:bf:97:d5|70
1621858491|3c:58:c2:bf:97:d5|82
1622025505|3c:58:c2:d4:c6:91|80
1621853491|3c:58:c2:d4:c6:92|81
1622008800|3c:91:80:02:54:2d|71
1621836936|3c:9c:0f:65:12:38|78
1621925209|3c:a2:2a:14:62:16|69
1621840558|3c:ac:1f:0d:d4:d6|72
1622036179|3c:f7:a4:a9:04:ab|81
1621948620|3c:fa:43:b8:27:dd|82
1622009617|3c:fa:43:b8:27:dd|76
1621861620|3c:fa:43:b8:27:dd|84
1621927131|3d:35:a2:90:0c:2f|66
1621836597|3f:f4:74:7d:a8:8b|85
1621954252|40:25:c2:cb:3a:0c|92
1622034813|40:25:c2:cb:3a:0c|92
1621845040|40:2b:bf:f9:2e:1e|68
1622034737|40:3f:8c:43:77:ac|84
1621947836|40:3f:8c:43:77:ac|87
1621925660|40:8b:a9:7a:4d:e9|80
1622009230|40:98:ad:24:c5:f1|90
1621867287|40:9b:cd:9c:d9:ad|94
1621848366|40:9c:28:ee:07:7e|71
1621936159|40:a1:08:a0:c9:a3|71
1621862437|40:a1:08:e0:1b:dd|91
1621867292|40:a1:08:e0:54:81|88
1621949041|40:a6:1e:4b:a9:13|76
1621953029|40:c7:fd:bb:19:e0|87
1621946916|40:d3:ae:e7:c5:66|87
1621865384|40:d3:ae:fc:3d:e0|88
1621940139|40:d7:af:0b:89:56|66
1621849845|40:db:74:a8:f7:d3|71
1622034194|40:f3:08:72:89:2d|72
1621862620|40:f3:08:72:89:2d|73
1621946576|40:f3:08:72:89:2d|86
1621924861|40:f5:20:44:c4:48|87
1621836129|40:f5:20:44:c4:48|84
1621924683|40:f5:20:44:c5:24|86
1621840997|40:f5:20:44:c6:2c|75
1621923484|40:f5:20:44:c6:44|84
1622017992|40:f5:20:44:c6:44|79
1621836249|40:f5:20:44:c6:44|78
1621836491|40:f5:20:44:c7:98|85
1621840169|40:f5:20:44:c8:08|72
1622011527|40:f5:20:44:c8:9c|71
1621836061|40:f5:20:44:c8:9c|73
1621836214|40:f5:20:44:c8:e4|73
1621836318|40:f5:20:44:c9:0c|65
1621924646|40:f5:20:44:c9:90|86
1621836377|40:f5:20:44:c9:90|89
1622014692|40:f5:20:44:c9:e4|74
1621836488|40:f5:20:44:c9:e4|68
1621922959|40:f5:20:44:ca:1c|78
1621923276|40:f5:20:44:ca:70|77
1621840179|40:f5:20:44:ca:7c|69
1621928935|40:f5:20:44:cb:80|71
1621839894|40:f5:20:44:cb:80|65
1622009185|40:f5:20:44:cb:a4|87
1621839868|40:f5:20:44:cb:ac|75
1622014562|40:f5:20:46:c2:f8|73
1621836225|40:f5:20:46:c2:f8|75
1622014993|40:f5:20:46:c4:08|86
1621836070|40:f5:20:46:c4:08|80
1621840168|40:f5:20:46:c4:5c|74
1621836076|40:f5:20:46:c4:c0|73
1621925295|40:f5:20:46:c4:d0|84
1621836311|40:f5:20:46:c4:d0|83
1622012894|40:f5:20:46:c5:c0|75
1621840610|40:f5:20:46:c5:c0|74
1622009131|40:f5:20:46:c6:24|75
1622014709|40:f5:20:46:c8:38|66
1621836342|40:f5:20:46:c8:38|69
1621836297|40:f5:20:48:8c:e0|83
1621924549|40:f5:20:48:8d:34|86
1621836284|40:f5:20:48:8d:34|84
1621839953|40:f5:20:48:8e:54|69
1622012652|40:f5:20:48:8f:00|71
1621836284|40:f5:20:48:8f:00|71
1621852278|41:56:2d:34:91:aa|71
1621949795|41:74:15:13:cb:28|64
1621924056|41:b3:24:fb:10:34|70
1622013842|41:b4:75:f9:4c:c8|81
1621927472|41:d0:29:c2:65:95|68
1621926145|41:ff:db:ce:2f:b5|66
1622030115|43:30:7f:7c:f4:c1|64
1621845699|43:47:8d:5a:b1:09|85
1621927250|43:52:27:fb:95:c4|68
1621850367|43:62:5e:76:d0:e3|70
1621948099|43:6c:6e:ae:2b:0a|75
1621849295|43:6d:96:74:db:5a|62
1621843953|44:00:10:ce:8e:d9|88
1621924085|44:25:85:f4:8a:bb|75
1621925963|44:36:0e:9a:19:45|69
1621844813|44:4a:db:60:cc:2b|67
1621940842|44:59:e3:7e:36:5c|86
1621929009|44:5c:e9:b1:ba:ac|71
1622010321|44:6d:6c:b9:1a:fe|77
1621929216|44:75:42:45:33:4c|71
1621838269|44:85:00:18:d4:ae|65
1621863446|44:85:00:71:9c:56|72
1621927325|44:da:f2:82:aa:16|68
1621926927|45:27:07:9a:2c:43|62
1621928363|45:2a:a4:9a:9b:30|73
1621851611|45:3b:6c:6f:a5:00|66
1621850773|45:4a:7d:84:ce:db|67
1621926897|45:b1:56:09:3d:b0|64
1621924309|45:f9:10:ff:9e:f2|70
1621925278|47:16:87:01:d2:c0|62
1621948807|47:7d:58:b0:1e:6b|82
1621838177|47:eb:a0:a1:7f:b5|69
1621864445|48:01:c5:5d:75:05|90
1621854138|48:12:a6:0d:2e:e6|64
1622020068|48:2a:25:6e:67:8c|82
1622025036|48:5f:99:98:c6:5f|91
1621948590|48:5f:99:98:c6:5f|90
1621854560|48:5f:99:98:c6:5f|90
1622035977|48:79:4d:9d:c3:35|85
1621934321|48:79:4d:9d:c3:35|60
1621952972|48:7c:96:ec:74:eb|83
1622024899|48:89:e7:62:ab:79|71
1621925464|48:89:e7:62:ab:79|80
1621862381|48:89:e7:fd:05:84|84
1622034322|48:9d:24:7b:8d:28|74
1621946862|48:9d:24:7b:8d:28|85
1621923147|48:9d:24:84:5e:fd|74
1622010252|48:9d:24:84:5e:fd|71
1621843482|48:9d:24:84:5e:fd|73
1621842862|48:9d:d1:28:e9:c9|64
1621848036|48:a4:72:08:65:ec|84
1621836329|48:a4:72:4d:bd:e0|74
1621923576|48:a4:72:9d:22:81|84
1622011964|48:a4:72:b2:c6:04|66
1621922780|48:a4:72:b2:c6:04|70
1621851397|48:a4:fe:e3:14:3d|77
1621950574|48:ba:4e:d5:d1:40|90
1622030055|48:ba:4e:d5:d1:40|92
1621925703|48:bb:23:76:88:19|69
1621841577|48:be:12:5a:c0:79|80
1622032715|48:fc:b6:64:fc:c6|91
1622020137|48:fc:b6:ed:ec:9b|90
1622031251|48:fc:b6:ef:1b:8b|91
1621857766|48:fc:b6:ef:1b:8b|74
1621859205|48:fd:a3:ef:d1:a1|90
1621852778|48:fd:a3:f0:59:19|70
1621851541|49:6f:e7:9b:c8:57|68
1621925521|49:c9:56:6b:95:c8|75
1621839616|49:d3:3f:ee:77:25|72
1621854135|49:d7:53:88:60:50|69
1621837165|49:fe:e2:d4:a9:b9|77
1621841701|4b:69:2b:d4:0b:35|71
1621850831|4b:76:df:ac:9b:9c|58
1622010035|4b:94:eb:26:d4:1b|82
1621838233|4c:18:9a:42:e8:07|72
1622009383|4c:1a:3d:76:13:70|81
1621931640|4c:1a:85:a2:35:cd|65
1622015995|4c:1d:96:13:48:86|62
1621924673|4c:1d:96:13:48:86|63
1622023785|4c:1d:96:ab:7a:98|78
1621923234|4c:1d:96:e6:e2:4f|68
1621842037|4c:1d:96:e6:e2:4f|68
1622018097|4c:34:88:40:8c:1a|71
1622018956|4c:34:88:68:ce:64|70
1621925960|4c:34:88:69:ba:b3|74
1621950559|4c:66:41:0e:2d:a3|87
1622020802|4c:66:41:52:30:3f|76
1621838131|4c:6d:d1:f5:a5:b4|77
1621939193|4c:74:bf:77:fc:32|74
1621844967|4c:74:bf:77:fc:32|85
1621854977|4c:78:93:cd:09:47|66
1621845782|4c:ac:51:c3:7d:6c|83
1621933123|4c:dd:31:f3:32:57|77
1622018304|4c:dd:31:f3:32:57|76
1621850100|4c:dd:31:f3:32:57|80
1621868221|4c:f2:02:0a:87:35|84
1621863162|4c:fe:35:af:99:77|81
1621848407|4d:30:c4:4f:b3:11|63
1621857419|4d:6d:6a:b9:24:ae|83
1621852608|4d:a1:2d:5e:69:4a|72
1621836191|4d:d6:47:47:c2:b4|84
1621933897|4d:df:83:05:cd:89|75
1621836910|4f:11:bb:2c:d0:a3|78
1621850894|4f:1d:6b:2d:99:8a|73
1621927137|4f:20:b4:8f:81:9f|63
1621937085|4f:53:2c:73:ed:06|75
1621840362|4f:7a:85:6c:90:98|69
1622022682|50:02:ed:ae:3d:65|77
1621942446|50:27:ab:31:f5:d5|75
1622010109|50:2f:9b:79:b6:5c|73
1621950060|50:3d:c6:c1:6f:9a|73
1622034418|50:3d:c6:c1:6f:9a|88
1621853226|50:49:ce:32:1b:b9|67
1621849746|50:5f:3a:ac:fe:c6|69
1621838633|50:69:c3:c0:f2:c5|71
1622035106|50:7a:55:6a:4c:08|66
1621868320|50:7a:55:6a:4c:08|80
1621951951|50:7a:55:6a:4c:08|82
1621853719|50:8f:42:64:cb:bc|66
1621845718|50:ad:a0:26:34:f1|77
1621840454|50:b2:f3:fd:e4:30|71
1621838460|50:e6:14:9a:5d:db|72
1621922411|50:eb:71:1f:71:01|63
1622024276|50:eb:71:9b:04:dd|73
1621940968|50:eb:71:9b:04:dd|68
1622030698|50:ed:3c:2c:57:cc|77
1621853733|50:ed:3c:2c:57:cc|66
1621927613|50:ed:3c:2c:57:cc|78
1622015840|50:ed:3c:48:74:1d|76
1621854894|50:ed:3c:48:74:1d|77
1621851024|50:f1:16:e9:3c:1c|65
1621928675|51:10:f6:cd:59:73|69
1621837997|51:27:4b:c2:73:06|70
1621949153|51:92:61:47:5c:1b|65
1621949570|51:c4:c5:a6:85:74|68
1621924052|51:ca:16:bb:59:a2|65
1621941814|53:0c:8a:ac:ab:ee|78
1621946507|53:4a:ca:a0:34:30|77
1621840450|53:8d:ec:14:f1:23|74
1621851594|53:d3:98:72:1b:eb|76
1621850324|53:d6:33:79:c0:c1|73
1621930005|53:fe:16:ae:5d:d1|68
1621928576|54:09:10:b6:a8:39|80
1621853475|54:3a:96:22:3c:96|65
1622033858|54:44:90:94:01:b8|68
1621949130|54:7d:30:00:e7:c5|74
1622012611|54:8d:5a:0d:02:fa|70
1621937316|54:8d:5a:c5:96:d5|74
1621937156|54:8d:5a:c5:96:d6|77
1621856436|54:8d:5a:cb:de:2d|62
1622014875|54:8d:5a:cb:de:2e|64
1621856416|54:8d:5a:cb:de:2e|62
1622037059|54:ae:27:2a:72:0c|75
1621941187|54:b2:9a:99:b8:e7|78
1622019185|54:b8:02:02:df:ea|61
1622018476|54:ba:d6:20:03:fa|60
1621949540|54:d8:e6:d2:30:c7|65
1621928427|54:fc:f0:9b:2d:2f|77
1621840397|55:1a:ca:6e:6f:7e|68
1621850627|55:46:72:f3:2d:02|69
1621836931|55:72:ce:e4:da:b0|74
1621922950|55:88:9a:6e:89:cb|83
1621950330|57:03:11:2f:63:d3|82
1621929016|57:2b:18:d9:08:a9|73
1621851061|57:3a:ad:33:56:ea|73
1621925572|57:8e:98:72:b3:88|66
1621838225|58:00:e3:ef:c0:a1|74
1621947051|58:05:d4:be:d6:00|82
1621928587|58:1d:be:0e:7f:00|68
1621845021|58:1d:bf:09:da:a4|69
1622025463|58:60:33:50:3e:99|75
1621859737|58:85:e9:ae:82:a3|72
1621944517|58:85:e9:ce:48:97|79
1622030104|58:8c:5a:86:87:34|67
1621862509|58:a0:23:ed:af:94|70
1621932136|58:a0:23:ed:af:fd|70
1621860215|58:a0:23:ed:af:fd|68
1622028824|58:f7:e6:d8:80:38|72
1621945669|58:fb:84:02:5b:84|69
1621947476|59:0c:84:64:f7:aa|79
1622029156|59:1e:41:a2:d9:f7|63
1622025400|59:55:7c:4c:bd:f9|85
1621926169|59:88:22:bc:7b:5f|67
1621945476|59:93:3d:e6:91:ff|73
1621850138|59:fd:f9:05:cd:f3|59
1621849987|5b:10:b1:fc:a3:1d|65
1621850453|5b:34:21:26:e1:12|66
1622029000|5b:46:c7:28:dc:e3|67
1621925335|5b:b2:e3:16:42:af|63
1621836944|5b:bc:93:2f:b2:0d|74
1621838484|5c:1b:23:01:b0:94|66
1621923375|5c:23:3d:74:1a:cd|80
1621844406|5c:2e:59:cd:eb:27|78
1621838509|5c:5e:57:88:ca:66|70
1621846451|5c:5f:67:89:19:67|80
1621943604|5c:5f:67:d0:66:fa|75
1621850895|5c:70:17:1e:5d:ef|70
1621854906|5c:86:d3:ac:c1:49|69
1621845430|5c:91:d8:0b:a3:65|85
1621938518|5c:9a:0c:ff:5f:21|82
1621838297|5c:ba:ef:f6:8b:49|66
1621922591|5c:c5:d4:e0:7a:95|73
1621847769|5c:ea:1d:90:12:d5|79
1621840781|5d:71:12:54:dc:f1|74
1621851266|5d:de:5d:8e:a9:a8|64
1621841425|5f:08:b3:2d:1e:81|80
1621855684|5f:50:99:7f:13:25|76
1621860469|5f:65:8a:92:09:26|69
1621840463|5f:6e:b5:67:fd:a4|70
1621840319|5f:a7:5d:41:f5:59|69
1621927013|5f:fb:94:38:ca:28|68
1622015656|60:03:08:8a:14:8c|81
1621934672|60:21:01:8e:5e:c1|76
1622024342|60:23:a4:df:d8:d0|70
1621836984|60:23:a4:df:d8:d0|63
1621928478|60:3c:3d:50:01:7a|70
1621937742|60:46:40:a5:55:b4|90
1622013378|60:49:b9:f8:8c:fb|78
1621843942|60:67:20:31:6a:94|72
1622016442|60:f1:89:47:1a:46|70
1621849414|60:f1:89:7b:53:56|77
1622028224|60:f2:62:1c:af:a3|73
1621849291|60:f2:62:1c:af:a3|72
1622025740|60:f2:62:dc:93:e9|79
1622029698|60:f2:62:dc:9d:30|80
1622010941|60:f6:77:ce:29:a8|79
1621843174|60:f6:77:ce:29:a8|75
1621930509|60:f6:77:ce:29:a8|80
1621927708|61:54:03:36:85:15|72
1621925598|61:7b:d1:8f:fe:2a|73
1621928170|61:88:32:02:1c:40|78
1621947655|61:a1:a9:5e:ef:42|80
1621948432|61:c2:6c:ca:80:9e|67
1621951143|61:f9:72:21:ef:18|93
1621927180|63:44:9e:07:73:a3|66
1621923369|63:4a:84:af:a6:d8|74
1621853974|63:68:6c:77:ce:3d|70
1621850098|63:8a:a0:0a:61:fb|77
1622027349|64:03:7f:d2:b9:4b|68
1622013961|64:5d:86:ac:f5:da|80
1621935977|64:5d:86:ac:f5:da|82
1622033640|64:88:7f:30:3a:c7|71
1621840525|64:b0:9f:ed:aa:99|74
1621849347|64:fc:03:2f:e0:df|70
1621836913|65:19:40:26:2f:14|81
1621925199|65:88:6e:8d:05:8c|72
1622030715|65:95:4c:68:63:80|68
1621847437|65:a5:a5:5a:99:5e|64
1621845199|65:bb:9e:b1:39:21|68
1621925699|65:d1:bd:9c:d3:4f|67
1621932368|67:03:55:7b:db:4f|81
1621858865|67:06:aa:8c:d9:b0|80
1621928791|67:53:97:4f:1a:0d|72
1621840657|67:6d:f2:b7:d2:cc|75
1621856520|67:c6:e9:7b:63:38|75
1621853276|67:cf:d6:fc:ba:14|69
1621948770|67:d7:1f:0c:e1:49|70
1621854238|68:17:29:0d:95:e4|81
1621847844|68:27:37:8d:c9:21|85
1621926399|68:27:37:8d:c9:21|79
1621852843|68:47:c4:e4:d6:b6|74
1621851142|68:4e:61:de:cd:e7|76
1622011343|68:54:5a:6e:b0:db|74
1621930917|68:54:5a:6e:b0:dc|70
1621838010|68:54:5a:6e:b0:dc|67
1622010728|68:5a:cf:c3:cc:d5|67
1621935749|68:70:45:0e:71:64|83
1622020294|68:db:f5:d4:61:f3|75
1621942870|68:ec:c5:55:ea:47|74
1621949648|69:0f:34:ff:37:a8|70
1622029174|69:10:36:4f:2e:ad|61
1621851209|69:31:ea:16:36:fe|70
1621853552|69:60:a8:25:3d:1b|69
1621949246|69:6d:74:93:78:cc|63
1621854294|69:84:aa:66:f1:bc|67
1621854039|69:98:1e:53:1d:a4|63
1621927979|69:df:98:74:75:f8|69
1621950841|69:f1:f7:e8:7b:bd|85
1621847988|6b:06:83:b8:15:6b|82
1621837162|6b:4e:66:bd:7d:32|71
1621928434|6b:65:7f:12:07:2b|62
1621926777|6b:90:b0:49:de:4f|66
1622034993|6b:93:45:00:39:cd|68
1621850849|6b:b5:85:1a:45:7f|70
1621928517|6b:c5:82:03:90:3a|66
1621944497|6b:f1:cc:8e:99:cf|78
1622013179|6b:f5:a2:68:00:36|74
1621928055|6b:f6:2b:f7:11:19|67
1621924285|6c:1d:a2:27:58:31|74
1622022689|6c:4d:73:a6:bc:3e|72
1622034278|6c:90:53:23:69:04|69
1621854338|6c:b0:0e:72:d7:fe|67
1621853074|6c:b4:ed:91:92:9c|60
1621836608|6c:c7:ec:13:a2:7c|79
1622020733|6c:c7:ec:2a:5f:70|72
1621923803|6c:c7:ec:47:f7:6f|66
1621847622|6c:c7:ec:47:f7:6f|85
1621929154|6c:c7:ec:6a:7c:e3|84
1621838093|6c:c7:ec:6a:7c:e3|72
1621923078|6c:c7:ec:95:56:a5|84
1622009964|6c:c7:ec:9c:24:73|80
1622031171|6c:c7:ec:d6:79:a0|85
1622019175|6c:c7:ec:d9:eb:c7|77
1622014388|6c:c7:ec:fd:9c:40|81
1621945566|6c:c7:ec:fd:9c:40|67
1621837956|6d:44:78:7f:ae:d1|78
1621851054|6d:4b:b4:8a:6c:5f|66
1621844604|6d:4c:37:86:cc:49|71
1621854328|6d:87:d3:8c:5b:cc|69
1621927283|6d:f5:4d:51:bf:d5|68
1621926348|6d:f7:96:8c:1b:a0|67
1621850427|6f:34:ee:31:66:38|66
1621837244|6f:4b:d4:28:1e:6b|81
1621850372|6f:5a:6f:32:a6:e0|73
1621842291|6f:5d:bf:86:0d:81|75
1622008833|70:03:9f:01:40:fe|88
1621952664|70:3a:51:2b:b1:53|90
1621925623|70:3a:51:31:43:10|75
1621927741|70:5a:ac:20:df:c7|60
1621927534|70:5a:ac:f0:f6:28|72
1621841340|70:5a:ac:f0:f6:28|72
1621845540|70:85:f1:ea:67:70|78
1622021058|70:9c:d1:12:b5:e2|66
1621925722|70:9c:d1:12:b5:e2|68
1621937151|70:9f:a9:eb:a6:d8|74
1622013585|70:bb:e9:cd:22:99|77
1622030270|70:bc:10:73:00:91|76
1621864261|70:c9:4e:6e:e5:71|83
1621933723|71:d7:87:e2:34:40|69
1621840333|71:da:7b:61:b3:3c|65
1621840699|73:79:b7:1c:be:fb|84
1621861429|73:88:09:b8:16:34|79
1621928741|73:bb:cf:34:ce:21|80
1621853740|73:c9:83:87:9f:ca|68
1621846897|73:d8:2f:7b:05:fa|66
1622015560|74:43:72:8d:4d:c3|83
1621949542|74:69:0e:75:f4:91|73
1621860665|74:70:fd:a6:ca:ed|73
1621923514|74:82:f3:4e:65:ba|71
1621842714|74:8a:28:12:ca:cc|87
1621858337|74:a7:36:6e:67:be|78
1621928007|74:c1:4f:f3:09:55|74
1622035632|74:c1:7d:8a:27:bb|76
1621922567|74:d8:3e:9e:5b:d8|68
1622009500|74:d8:3e:9e:5b:d8|72
1621836245|74:d8:3e:9e:5b:d8|72
1622020646|74:d8:3e:fe:c1:21|84
1622009992|74:d8:3e:ff:41:a5|80
1621934811|74:d8:3e:ff:41:a5|72
1621936479|74:df:bf:48:3b:01|82
1621927366|74:e6:cf:d9:7e:5d|77
1621922541|74:eb:80:f8:50:48|76
1621850936|75:09:fb:65:54:93|72
1622030164|75:10:02:b3:47:7b|79
1621943728|75:11:df:05:96:d2|70
1621928665|75:3d:61:b6:1f:e0|69
1621840960|75:71:80:01:50:3b|66
1622010951|75:a2:44:89:c9:e3|57
1621854525|75:b2:2d:8c:9a:85|64
1622016496|75:f9:2a:14:3e:66|81
1622009426|77:11:b4:61:e5:e5|77
1621940474|77:68:52:9a:47:d8|86
1621838124|77:87:f4:30:af:01|72
1621925605|77:c9:67:cb:b9:fb|74
1621927245|77:e4:00:e6:8c:e3|65
1621840457|78:3c:fd:33:6a:de|79
1621836290|78:46:b6:13:09:38|71
1621923664|78:4b:87:da:53:bb|69
1622010314|78:4b:87:da:53:bb|78
1621842177|78:4b:87:da:53:bb|70
1621845819|78:4f:43:38:11:e5|84
1622017434|78:4f:43:85:e8:b3|67
1621838555|78:51:0c:00:97:9f|72
1621933153|78:58:38:d1:ce:a0|79
1622024498|78:62:32:b7:71:79|80
1622024201|78:64:c0:d7:8f:dd|75
1622016152|78:72:91:bc:dd:2f|68
1621851064|78:84:4b:ea:23:00|70
1621850393|78:88:6d:5c:3f:98|72
1622029061|78:c3:e9:59:e2:18|76
1622016548|78:c3:e9:7d:72:d4|88
1621948811|78:c3:e9:7d:72:d4|89
1621853891|78:f5:78:e9:41:bb|68
1621926730|78:fb:a5:87:d5:cb|72
1621850923|79:2c:5e:ca:d3:a6|72
1621845987|79:8b:f2:2e:ed:02|68
1621846452|79:9c:6c:71:59:8f|74
1621855598|79:f0:a7:18:43:85|82
1621924653|7b:98:42:ff:94:c2|73
1621942161|7c:1c:68:8e:b9:5c|77
1621842490|7c:23:02:38:90:f2|73
1621929454|7c:23:02:e9:66:ce|73
1621950205|7c:26:25:71:af:c1|64
1621840268|7c:27:7b:ee:fe:06|77
1621836764|7c:3c:0a:f1:cc:b9|82
1622025327|7c:46:85:5f:52:5c|85
1621846840|7c:50:dd:f6:cb:88|71
1621848072|7c:52:0e:b1:2d:d7|76
1621953925|7c:67:a2:8c:fe:92|92
1621863317|7c:67:a2:8c:fe:92|92
1622030296|7c:67:a2:8e:06:ca|95
1621838565|7c:72:57:2c:29:7a|74
1622014853|7c:76:35:7c:b3:2a|75
1622015090|7c:76:35:7c:b3:2b|69
1621848413|7c:76:68:79:8c:a5|76
1621837733|7c:76:68:f0:4d:f7|74
1621845418|7c:89:56:cd:4f:1c|80
1622014771|7c:a1:77:29:f7:9c|78
1621924484|7c:a2:9b:7f:c4:ce|82
1621867721|7c:d6:61:ca:d8:95|91
1622011563|7d:33:21:23:29:dc|80
1621926894|7d:3d:f9:4e:97:5a|68
1621851280|7d:4a:6d:6c:09:2e|82
1621852830|7d:6b:40:b2:f6:bd|66
1621839388|7d:9a:ee:1b:ee:ff|66
1621850713|7d:eb:9f:24:64:da|71
1621927647|7d:f6:2c:1e:3d:2d|71
1621840434|7d:fe:80:a4:5a:7c|68
1621842203|7f:37:17:d2:56:eb|78
1622023133|7f:9f:4d:16:e4:6f|80
1622008922|80:19:34:1c:f7:00|72
1621855090|80:32:53:75:0e:95|72
1621945429|80:38:96:79:e5:55|66
1621951653|80:4e:70:6c:6f:ea|88
1622010931|80:4e:70:fd:17:d8|86
1621924613|80:4e:70:fd:17:d8|84
1622030128|80:66:25:d7:34:3e|64
1621948496|80:7f:cd:a8:88:62|72
1622030119|80:94:25:53:54:f8|70
1622028744|80:a1:b5:36:e6:dc|63
1621927015|80:b0:3d:a5:57:b5|67
1622021872|80:b0:3d:a5:57:b5|67
1621845186|80:b0:3d:a5:57:b5|73
1621925635|80:be:05:5e:ca:8c|80
1621854033|80:be:05:5e:ca:8c|71
1622012516|80:c7:0b:ea:ae:de|76
1622017872|80:ce:b9:1a:b9:1a|89
1622016212|80:ce:b9:c3:b8:65|66
1621836508|80:ce:b9:c3:b8:65|70
1622033000|80:cf:11:8d:e0:ec|85
1621837124|80:f0:5a:d1:25:19|60
1621927181|81:22:8e:80:b5:24|74
1621841732|81:3d:70:3d:46:88|74
1621949219|81:6b:06:d8:be:29|61
1621843815|81:6b:ed:82:6f:bd|75
1621849825|81:bc:0f:13:19:9b|56
1621836841|81:cd:e2:ef:b9:cb|75
1621838200|83:09:12:e0:5c:4c|75
1621854658|83:21:81:ce:d4:c7|63
1621853009|83:2f:20:03:18:31|70
1621856456|83:35:b5:da:53:7b|84
1621852418|83:3e:68:65:1f:19|70
1621947932|83:53:08:ee:28:7b|83
1621838190|83:84:49:50:a4:7f|69
1621839903|83:8b:3b:f5:74:9b|84
1621929124|83:f1:00:5b:62:ed|63
1621927918|84:06:0f:a8:e2:66|73
1622008842|84:1b:77:f3:6c:6d|61
1621924049|84:1b:77:fd:b2:95|74
1622019878|84:2e:27:37:89:04|75
1621945703|84:2e:27:37:89:04|65
1621841773|84:66:5d:c1:1c:f5|71
1621845942|84:67:1a:80:9d:09|81
1622020047|84:a9:b0:18:fd:1c|79
1621949554|84:ab:1a:b3:bb:92|78
1621836907|84:ab:1a:c4:59:74|76
1622015694|84:ab:1a:c8:d5:38|73
1622019552|84:c5:a6:fb:2b:f6|80
1621936736|84:c5:a6:fb:2b:f6|75
1621851131|84:e8:ce:32:81:d3|70
1621926166|84:f8:f6:53:31:b7|68
1621925588|85:44:62:dc:05:34|80
1621851110|85:82:80:fd:a0:b0|66
1621862908|85:b0:38:c1:ff:bb|64
1621926062|87:13:38:54:b6:93|79
1621839561|87:56:d1:91:46:a5|65
1621950094|87:6a:d1:bb:85:76|72
1622029511|87:a6:6a:ca:89:ec|72
1622033047|88:07:4b:e7:cf:33|87
1622016621|88:10:8f:97:53:63|75
1621862230|88:10:8f:97:53:63|73
1621928309|88:11:18:3d:27:1e|62
1621862405|88:40:3b:2b:c1:4b|87
1622011678|88:53:95:0f:37:0f|79
1621942427|88:5f:e8:71:02:5b|73
1621952843|88:6f:83:8f:20:b0|84
1621931886|88:7e:18:c9:2b:f0|71
1622023868|88:83:22:2d:7d:2f|84
1621844996|88:83:22:2d:7d:2f|84
1621935691|88:83:22:83:fe:a6|69
1622021540|88:83:5d:96:cd:b0|93
1622016284|88:86:5f:0c:6f:0b|70
1621938920|88:9f:6f:85:f1:10|76
1622009137|88:9f:6f:8a:4f:1e|79
1622021956|88:a4:79:14:6c:e5|71
1621849399|88:a4:79:14:6c:e5|76
1621841269|88:ae:07:96:5e:ac|74
1621842703|88:b1:11:2a:a0:54|70
1621932538|88:b4:a6:02:33:e7|70
1621837124|88:b4:a6:04:46:fa|82
1621932774|88:b4:a6:0c:4e:02|78
1621836041|88:b4:a6:0d:e1:95|73
1621924825|88:b4:a6:0e:50:04|70
1622012203|88:b4:a6:12:1d:d1|78
1622013198|88:b4:a6:13:1e:d2|79
1621932608|88:b4:a6:14:7c:30|76
1621841306|88:b4:a6:18:23:d7|71
1621844001|88:b4:a6:1f:50:04|70
1621932521|88:b4:a6:1f:61:15|85
1621933271|88:b4:a6:20:75:29|74
1622013401|88:b4:a6:22:e3:97|88
1621836886|88:b4:a6:27:23:d7|76
1621839161|88:b4:a6:29:34:e8|74
1621837424|88:b4:a6:2c:37:eb|73
1621932297|88:b4:a6:2c:cb:7f|79
1621932740|88:b4:a6:30:2a:de|77
1622013296|88:b4:a6:34:9c:50|76
1621932643|88:b4:a6:36:78:2c|75
1621933084|88:b4:a6:38:21:d5|81
1621924770|88:b4:a6:38:fd:b1|82
1621836373|88:b4:a6:3a:0e:8b|77
1621836858|88:b4:a6:3b:7d:31|75
1622013257|88:b4:a6:42:4d:01|81
1621836522|88:b4:a6:42:73:27|84
1621837677|88:b4:a6:44:2d:e1|75
1621842905|88:b4:a6:45:2e:e2|75
1621837519|88:b4:a6:45:50:04|80
1621842877|88:b4:a6:4c:d8:8c|76
1621924805|88:b4:a6:4e:13:c7|72
1622012258|88:b4:a6:4f:5a:0e|77
1621843856|88:b4:a6:4f:db:8f|73
1621931877|88:b4:a6:53:5e:db|79
1621840685|88:b4:a6:54:96:13|77
1622013084|88:b4:a6:57:51:05|79
1622012109|88:b4:a6:57:62:16|75
1621836811|88:b4:a6:58:63:17|74
1621838130|88:b4:a6:63:37:eb|75
1622012218|88:b4:a6:65:70:24|77
1622013306|88:b4:a6:6b:67:e4|87
1621840769|88:b4:a6:6b:ad:61|77
1621924874|88:b4:a6:6c:ae:62|70
1621924874|88:b4:a6:71:10:c4|71
1622012951|88:b4:a6:71:b3:30|78
1622012174|88:b4:a6:76:4a:fe|79
1621840832|88:b4:a6:78:83:37|74
1621924700|88:b4:a6:7d:d2:86|72
1621838389|88:b4:a6:7e:af:63|75
1621839950|88:b4:a6:85:c7:7b|79
1621840392|88:b4:a6:87:92:0f|79
1621838483|88:b4:a6:88:93:10|80
1621932691|88:b4:a6:8a:95:49|78
1621836239|88:b4:a6:8b:cd:4a|77
1621924665|88:b4:a6:8d:19:cd|74
1621842952|88:b4:a6:8f:9a:4e|78
1621932279|88:b4:a6:9b:a6:23|79
1621932863|88:b4:a6:9c:28:dc|80
1621841306|88:b4:a6:9c:a7:5b|79
1621933074|88:b4:a6:9c:de:92|80
1622012860|88:b4:a6:9e:06:ba|78
1621932279|88:b4:a6:9e:2a:de|75
1621932447|88:b4:a6:9e:a9:5d|78
1621837772|88:b4:a6:9f:bd:71|77
1621933218|88:b4:a6:a7:b2:66|75
1621924776|88:b4:a6:ac:5e:12|84
1621838272|88:b4:a6:ac:b7:34|75
1621836569|88:b4:a6:b1:bc:70|80
1621924729|88:b4:a6:b4:1c:d0|74
1621837614|88:b4:a6:b4:51:05|76
1622012860|88:b4:a6:b6:c1:75|77
1622012268|88:b4:a6:ba:48:fc|74
1621842379|88:b4:a6:ba:c5:79|80
1622013498|88:b4:a6:ba:d8:8c|74
1621843421|88:b4:a6:ba:fc:79|81
1621839019|88:b4:a6:bf:93:7e|77
1621838341|88:b4:a6:c4:cf:83|75
1621836522|88:b4:a6:c6:f7:ab|80
1621931906|88:b4:a6:c9:31:e5|76
1621843903|88:b4:a6:c9:d4:51|75
1621841614|88:b4:a6:ca:69:1d|79
1621838389|88:b4:a6:ca:d5:89|73
1622013356|88:b4:a6:cd:a1:55|76
1622013468|88:b4:a6:cf:da:8e|82
1621842512|88:b4:a6:d0:db:8f|71
1621843167|88:b4:a6:d1:02:b6|78
1622013365|88:b4:a6:d1:02:b6|84
1621839464|88:b4:a6:d3:04:b8|75
1621842905|88:b4:a6:d3:85:39|75
1621924825|88:b4:a6:d3:cf:83|67
1622012287|88:b4:a6:d4:d0:4d|76
1621839113|88:b4:a6:d9:78:2c|80
1621840455|88:b4:a6:d9:e4:98|76
1621842830|88:b4:a6:dd:e8:9c|77
1621839464|88:b4:a6:de:0f:c3|75
1621841429|88:b4:a6:de:46:fa|81
1622012154|88:b4:a6:e1:ca:7e|76
1621836192|88:b4:a6:e3:6f:23|81
1621838672|88:b4:a6:e3:b7:6b|73
1621843468|88:b4:a6:e6:28:dc|74
1621932398|88:b4:a6:e8:9a:17|76
1621932549|88:b4:a6:e9:51:05|77
1621924750|88:b4:a6:e9:bd:71|71
1621842465|88:b4:a6:f0:56:0a|71
1621932447|88:b4:a6:f0:fb:78|80
1621841138|88:b4:a6:f2:5a:0e|81
1621838224|88:b4:a6:f3:fe:b2|77
1621843227|88:b4:a6:f7:39:b6|81
1621843563|88:b4:a6:f8:cc:49|75
1621924665|88:b4:a6:fa:62:df|71
1621932558|88:b4:a6:fa:75:29|72
1621838719|88:b4:a6:fa:d0:4d|78
1621839066|88:b4:a6:fb:06:83|76
1621837567|88:b4:a6:fb:3d:f1|77
1621837377|88:b4:a6:fc:ae:62|73
1621924825|88:b4:a6:fe:79:2d|70
1621842708|88:b4:a6:ff:0a:be|68
1622020711|88:cd:33:e3:4e:7f|81
1621941252|89:4f:db:f5:81:e3|74
1621846292|89:6e:22:0e:de:a5|75
1621923190|89:93:c0:ad:41:ab|72
1621837061|89:d7:80:d0:72:54|75
1621849518|89:e3:3a:6f:73:1f|65
1621927705|89:ef:59:f1:53:3d|70
1622013396|8b:37:49:6b:f1:1b|71
1621928064|8b:79:23:fe:de:93|67
1621948875|8c:03:ef:7e:ea:d6|87
1621844527|8c:25:05:4a:7c:0b|75
1621839796|8c:45:00:15:f4:b0|73
1622037048|8c:45:00:81:6e:07|84
1621863529|8c:45:00:81:6e:07|88
1621851507|8c:58:39:bb:ce:92|72
1621931085|8c:70:5a:15:3e:58|63
1621838764|8c:79:f5:0e:e2:82|72
1621857872|8c:85:90:0f:e9:0e|79
1621923833|8c:85:90:75:1d:84|81
1621925619|8c:85:90:86:b9:e0|74
1622021660|8c:b8:4a:06:98:1a|76
1621858928|8c:b8:4a:06:98:1a|79
1621847771|8c:b8:4a:1e:2f:28|62
1622030699|8c:b8:4a:2a:69:06|82
1622014391|8c:b8:4a:4c:f7:ea|69
1622013358|8c:b8:4a:8a:21:cd|82
1621836881|8c:c0:eb:64:3a:2e|58
1621846454|8c:c6:81:1a:f3:5b|81
1621944812|8c:eb:c6:b3:94:55|79
1622034903|8c:eb:c6:b3:94:55|90
1621851253|8c:f5:a3:66:8f:b4|85
1621932736|8c:f5:a3:d7:cc:2d|80
1621943944|8c:f5:a3:dd:36:35|63
1621848295|8d:16:22:ed:12:94|68
1621929046|8d:4e:da:53:db:20|69
1621854926|8d:72:e2:af:bd:59|66
1621853007|8d:7d:60:ba:f9:bb|71
1621927241|8d:a8:6c:7b:f0:67|66
1621932469|8d:b6:60:b0:62:42|80
1621948578|8d:f1:16:19:16:fd|70
1621929223|8f:2b:dd:e5:37:6d|69
1621846131|8f:62:39:e6:9e:0e|73
1621849352|8f:64:e1:d0:8e:f5|77
1621854109|8f:7c:2a:0d:e2:da|68
1621842415|8f:84:66:7b:de:72|47
1622015165|8f:90:a8:63:84:37|72
1621946449|8f:91:7b:b0:24:ee|76
1621860871|8f:a7:ed:a0:90:3d|79
1621850289|8f:c0:6a:1a:be:69|74
1621949695|90:17:c8:0f:97:99|74
1621846302|90:29:72:5e:84:c3|77
1622014732|90:32:4b:78:24:79|79
1621936107|90:32:4b:78:24:79|79
1621925438|90:3f:ce:74:48:28|74
1622020248|90:55:63:e4:36:e1|81
1622014515|90:61:ae:fc:b8:d1|80
1621925986|90:61:ae:fc:b8:d1|77
1622014697|90:61:ae:fc:b8:d2|79
1621926173|90:61:ae:fc:b8:d2|74
1622015712|90:81:58:df:08:1e|80
1621840938|90:83:17:22:01:90|67
1621927718|90:84:30:55:cb:21|70
1621948459|90:97:f3:92:c0:b6|78
1621854802|90:97:f3:92:c0:b6|72
1621842105|90:97:f3:b5:c5:ea|63
1622015769|90:9c:4a:b6:d5:f0|69
1621948680|90:a7:d7:e2:de:82|63
1622032927|90:b2:1f:c1:c7:6c|87
1622023462|90:b6:86:fe:db:11|80
1621862054|90:cc:df:c0:c1:9b|68
1621836816|90:d0:43:ee:c2:68|72
1621846340|91:65:6e:fa:9d:53|73
1621949081|93:43:9b:9c:14:d2|82
1622013875|93:67:12:05:d8:82|76
1621924323|93:a7:46:ae:a1:d2|75
1621842282|93:e4:6a:2a:3a:49|69
1622034206|94:0e:6b:f0:ee:7c|69
1621851070|94:0e:6b:f0:ee:7c|69
1621928881|94:25:6d:20:04:95|73
1621934112|94:2d:dc:7d:a3:40|78
1621851420|94:32:6c:99:29:48|67
1621952878|94:3b:ad:ee:f4:48|83
1621935218|94:65:2d:3f:ef:09|79
1621838479|94:65:2d:3f:ef:09|76
1621838688|94:65:2d:d0:cc:ac|67
1622029822|94:65:2d:dc:ac:48|68
1621858204|94:65:2d:dc:ac:48|69
1622012922|94:65:9c:66:64:df|82
1622026138|94:76:b7:01:d4:81|81
1621839646|94:7f:af:c8:ae:00|70
1621946065|94:86:c9:02:e4:04|72
1621951531|94:94:26:5d:ac:89|87
1621928437|94:96:41:1d:16:2f|63
1621949338|94:aa:7d:db:e9:c3|71
1622028988|94:b1:0a:d0:e1:56|74
1621839765|94:b1:0a:d0:e1:56|74
1622022599|94:b8:6d:92:f1:99|70
1622036813|94:be:46:6f:74:fb|87
1621954048|94:be:46:6f:74:fb|83
1622014970|94:bf:2d:d8:c3:d6|76
1622014422|94:bf:2d:d9:86:60|72
1621927057|94:bf:2d:d9:86:60|72
1621924474|94:e6:f7:60:ba:ee|72
1622020182|94:e7:0b:af:a6:68|76
1621923909|94:e7:0b:af:a6:68|78
1622021204|95:0b:08:27:13:34|74
1621854822|95:27:d2:15:0b:d8|64
1622034924|95:9a:77:38:36:ce|72
1622015145|95:de:5d:b8:dd:8d|81
1621926402|95:f9:e0:7d:2e:10|64
1622021191|97:1e:34:50:7c:6a|77
1621851551|97:34:20:14:84:2f|68
1621938379|97:89:dc:39:1d:13|86
1621949804|97:a1:58:67:fd:45|77
1621849983|97:e5:b8:68:f6:c7|67
1621853938|97:fe:39:b9:d7:ae|66
1622017430|98:09:cf:64:f4:d2|83
1622020165|98:0d:51:52:c1:f2|85
1621941339|98:0d:51:52:c1:f2|67
1621851078|98:0d:51:52:c1:f2|71
1621836852|98:22:ef:b9:ba:91|64
1621838312|98:2c:bc:01:ea:8c|83
1621934495|98:2c:bc:2f:53:a0|76
1621925925|98:2c:bc:60:15:5d|84
1621927144|98:37:e5:cc:29:a0|61
1622012731|98:3b:8f:0d:da:4a|80
1622013017|98:3b:8f:0d:da:4b|79
1621931594|98:3b:8f:b5:ad:15|71
1621852889|98:3e:a0:be:ce:ee|66
1621836054|98:54:1b:a2:7e:ed|84
1621836132|98:54:1b:a2:7e:ee|78
1622030065|98:54:1b:be:fb:b3|56
1621837125|98:5c:f2:6e:28:32|65
1621864405|98:5f:d3:ef:60:c3|92
1621852244|98:6f:60:a6:1b:89|81
1621934998|98:74:da:bf:d8:a6|68
1622033894|98:74:da:c1:4d:d7|74
1621864309|98:7d:26:d7:42:c7|69
1621925316|98:9c:57:8c:2f:d2|66
1622028758|98:af:65:33:9c:0d|74
1621937272|98:c8:b8:e4:e8:e1|65
1621951276|98:ca:33:db:07:c7|79
1621854923|98:ca:33:db:07:c7|76
1622009337|98:dd:ea:d5:7d:a7|77
1621837284|98:dd:ea:d5:7d:a7|72
1621922808|98:dd:ea:d5:7d:a7|88
1622015182|98:e0:d9:32:cb:b8|76
1621837478|98:e0:d9:32:cb:b8|75
1622014822|98:f1:70:1b:a8:59|70
1621924182|98:f1:70:1b:a8:59|76
1621862776|98:f6:21:2d:f6:26|82
1621837729|99:55:29:5a:6b:2a|67
1621850313|99:5d:36:ad:6e:8e|65
1621929263|99:a5:03:f6:5f:2f|83
1621864005|9b:03:53:a7:55:d1|71
1622032388|9b:1a:c4:d3:00:c4|71
1621948571|9b:1e:6b:cf:0c:ab|88
1621926584|9b:9a:2f:73:c9:d4|68
1622012836|9b:a1:42:a7:17:fa|71
1621853187|9b:d8:64:92:c8:6e|71
1621924627|9c:29:76:e3:f8:50|72
1622013909|9c:29:76:e3:f8:51|70
1621927669|9c:29:76:e3:f8:51|72
1621930850|9c:2b:d2:83:d2:89|71
1621841703|9c:2b:d2:83:d2:89|72
1622032204|9c:30:5b:6b:fa:a5|72
1621931298|9c:4e:bb:1a:63:2f|79
1621836101|9c:5f:5a:14:21:03|87
1622015527|9c:9d:55:39:c0:54|65
1621940945|9c:a5:13:54:fc:35|83
1622036282|9c:b6:d0:15:7f:2f|91
1621939420|9c:f3:87:bd:74:b8|70
1621856081|9c:f3:87:c7:31:92|80
1621840931|9c:fe:ca:0d:08:24|64
1621848897|9d:07:27:b3:20:fe|67
1622010709|9d:31:a2:a1:b2:b4|84
1621924932|9d:46:79:d6:57:69|75
1621863168|9d:49:80:c5:58:44|73
1621849743|9d:4a:35:b0:32:6e|65
1621836925|9d:5c:f0:dc:ec:5e|80
1621837103|9d:73:bf:01:19:96|71
1622017025|9d:8d:10:59:72:20|85
1621840648|9d:8f:c8:81:56:f9|71
1621926763|9d:e7:30:18:c3:a0|72
1621923287|9f:19:e0:c1:4f:05|82
1621853750|9f:3c:e1:ec:46:7c|69
1621949833|9f:51:08:87:26:43|80
1621850745|9f:b6:23:f1:a3:0d|69
1621947941|9f:f8:64:d9:03:5a|87
1622013760|a0:28:ed:05:f7:db|69
1621947797|a0:78:17:93:ae:cf|81
1621940224|a0:88:b4:15:4b:ec|82
1621928473|a0:90:56:67:b0:b9|62
1621938798|a0:a4:38:88:e1:8b|65
1621857515|a0:a4:c5:b1:fc:ba|81
1621837385|a0:af:4d:db:10:53|70
1621927884|a0:c9:a0:b6:a2:46|79
1621844230|a0:c9:a0:c6:aa:1b|71
1622027847|a0:cc:2b:07:93:fa|77
1621927951|a0:cc:2b:c8:75:21|84
1621854095|a0:cc:2b:c8:75:21|80
1622027187|a0:d8:07:47:10:e7|79
1621926930|a1:1e:ef:59:a2:5c|69
1621837703|a1:2a:d6:c4:d7:af|68
1621939177|a1:51:2b:08:7a:5d|79
1622009992|a1:85:9a:7c:e8:c4|78
1621845506|a1:f6:0e:3f:73:a2|73
1621842439|a3:25:21:3c:c3:73|69
1621838135|a3:36:c7:ff:01:5e|76
1622021733|a3:90:fe:b3:56:14|73
1621846475|a3:9c:35:af:44:58|76
1621926120|a3:a1:61:22:8b:01|72
1621842821|a3:cc:2e:85:62:c2|85
1621949924|a3:d3:05:e7:e6:0b|70
1621844219|a4:17:cd:17:09:c6|56
1621926570|a4:25:21:b4:eb:58|65
1621942269|a4:2b:5c:1c:51:9a|67
1622013101|a4:45:19:4d:3c:4e|85
1621852696|a4:45:19:54:b8:10|90
1621839813|a4:57:f3:d7:8e:19|72
1622029128|a4:59:f5:00:cc:db|62
1621926369|a4:83:e7:3c:42:b3|72
1622011336|a4:83:e7:a4:7e:33|81
1621925297|a4:83:e7:a4:7e:33|80
1621939734|a4:9b:4f:e3:b2:98|65
1621939103|a4:b1:c1:d6:51:cd|67
1622024349|a4:b1:c1:d6:51:cd|66
1621861063|a4:b1:c1:d6:51:cd|68
1621924966|a4:c1:b3:6d:b0:7a|66
1621858809|a4:c3:f0:c9:2c:cd|78
1622021220|a4:c4:94:45:e4:58|76
1621942704|a4:c4:94:45:e4:58|72
1622022449|a4:cb:0f:21:03:3b|85
1622029715|a4:cd:9c:64:c2:cb|77
1621924592|a4:d1:8c:e7:72:e8|67
1621836307|a4:d1:8c:e7:72:e8|83
1621863973|a4:d5:d4:a9:ac:5a|86
1621854916|a4:d9:31:d8:79:11|87
1621937207|a4:e4:b8:80:55:71|79
1622022551|a4:e4:b8:80:55:71|69
1621851916|a4:e4:b8:80:55:71|81
1621847840|a4:e4:b8:94:90:67|84
1621840638|a4:e5:86:2e:e6:6e|73
1621840260|a4:e8:f7:f8:8a:00|66
1621844968|a4:ec:61:f1:25:b9|75
1621929457|a4:f2:3a:a0:00:34|77
1621837710|a5:00:3a:3e:cb:42|55
1621927852|a5:34:22:c2:7a:8b|66
1621949689|a5:3e:82:57:72:c3|67
1621948860|a5:94:e7:6a:c8:0d|65
1621849885|a5:b2:bd:31:41:ff|73
1621949688|a5:e5:7e:b6:06:0d|66
1622021727|a5:e5:8f:60:85:ea|80
1621943548|a7:0a:2a:3f:7b:2f|76
1622010111|a7:1a:9f:45:b4:22|78
1621927048|a7:27:9a:1b:79:c9|68
1621928306|a7:41:c7:d7:92:7a|68
1621927818|a7:5d:1c:a0:f0:77|77
1621948486|a7:61:66:8d:5c:cd|82
1621949087|a7:6a:71:c6:6c:60|64
1621837551|a7:a4:9b:ad:2c:13|67
1621861002|a7:d9:83:9e:38:b7|84
1621926194|a8:18:84:a2:09:00|71
1621927260|a8:20:6a:d4:14:da|82
1621840467|a8:62:b9:56:65:fc|74
1621839410|a8:66:7f:64:04:08|71
1622009949|a8:6d:aa:0c:8a:69|67
1621846760|a8:6d:aa:0c:8a:69|78
1621844539|a8:6d:aa:c8:e6:41|84
1621839955|a8:81:7e:89:8b:2f|72
1621929941|a8:81:7e:8f:3c:21|78
1621839500|a8:81:7e:8f:3c:21|75
1622017353|a8:8d:f0:5f:e5:d6|71
1621853048|a8:8e:83:26:da:29|65
1621953551|a8:96:75:35:9a:40|80
1621852059|a8:96:75:63:da:d8|86
1621852962|a8:9c:ed:6d:c8:bd|75
1621935756|a8:9f:ba:bd:95:dc|89
1621945963|a8:b1:cc:5c:f1:78|69
1621934777|a8:db:03:54:b1:1d|80
1621837587|a8:db:03:54:b1:1d|90
1621845278|a9:3c:2a:02:15:eb|74
1621837294|a9:76:c6:cf:63:92|75
1621837081|a9:93:29:be:5a:05|75
1622013880|a9:a8:67:c2:de:3e|73
1621862593|a9:c1:60:ba:f0:72|91
1621855339|a9:c9:5a:0f:34:b1|84
1622021564|ab:05:6c:88:75:3b|73
1621839471|ab:2b:d0:d7:fe:62|68
1621840576|ab:50:ee:a8:77:38|74
1621858814|ab:56:9e:c5:a6:e9|82
1621925321|ab:9e:9c:8a:6a:0e|70
1621852441|ab:c4:d1:7c:07:ff|68
1622020566|ab:c8:03:51:2b:c3|77
1621837736|ab:f3:0a:2b:4b:be|78
1622016038|ac:07:5f:2a:c1:44|68
1621853087|ac:4b:6c:ac:1d:33|66
1622030946|ac:52:8e:8a:a9:7c|82
1622015014|ac:64:cf:f4:01:6b|68
1621856340|ac:78:91:dc:11:41|63
1621845138|ac:92:32:71:3f:a6|81
1621942731|ac:d5:64:02:f7:bf|73
1621837799|ac:d5:64:02:f7:bf|78
1621837610|ac:eb:39:4e:19:c9|76
1622024739|ac:fd:ce:37:75:12|73
1621856910|ac:fd:ce:37:75:12|80
1621930902|ad:05:39:38:ba:dd|72
1621842001|ad:2d:d4:2a:6b:7d|78
1621927980|ad:6f:a3:37:f4:e5|67
1621949930|ad:af:ba:5e:85:80|67
1621850758|af:35:62:77:c2:95|64
1622016374|af:5b:fc:b6:35:e4|78
1621924064|af:a9:c5:8a:53:f6|74
1621929709|af:b5:aa:8f:a4:bb|66
1621928467|af:e2:bf:17:cf:a0|65
1621838526|b0:02:aa:85:ae:5a|70
1621846134|b0:28:3d:ee:97:e5|72
1621942530|b0:35:7e:ea:b2:0e|74
1621943857|b0:35:9f:9d:d0:e1|74
1621922805|b0:35:b5:e5:7c:80|76
1621849478|b0:35:b5:e5:7c:80|78
1621848815|b0:35:c0:7b:d0:b4|63
1622012658|b0:48:1a:97:d1:c9|80
1622021843|b0:55:08:32:53:ed|69
1621847238|b0:6f:e0:1e:1e:e8|74
1621840772|b0:6f:e0:b0:41:f2|71
1622011581|b0:70:2d:bc:e2:2a|73
1621951024|b0:72:bf:42:e9:d6|79
1621952972|b0:8a:4d:05:0b:4e|80
1622011283|b0:9e:fa:9c:e3:8f|68
1621924086|b0:a4:60:93:b5:52|70
1621836737|b0:a4:60:93:b5:52|76
1621925647|b0:a4:60:9d:d8:bb|73
1621926965|b0:b6:f6:0e:01:80|73
1621854401|b0:c7:6f:c1:32:d1|67
1621940943|b0:d4:a5:c2:f7:57|74
1621925479|b0:e1:7e:a6:4b:f5|66
1621853234|b0:e1:7e:a6:4b:f5|73
1621842713|b0:e2:35:c0:db:b6|73
1621928303|b0:e2:35:c1:27:b1|73
1621922656|b0:fc:36:a9:6a:2f|92
1621948611|b0:fc:36:aa:71:6b|88
1621926606|b1:17:60:3d:0a:e8|66
1621932960|b1:27:37:fd:87:c6|66
1621841954|b1:3e:fc:49:ef:4a|72
1621836841|b1:7a:12:41:a5:13|76
1621927533|b1:c6:31:d6:7e:4d|83
1621942148|b1:d8:60:8d:b0:f5|72
1621928717|b3:20:70:49:8b:f1|71
1621946057|b3:32:02:49:e7:aa|73
1621852620|b3:41:a8:21:64:f1|69
1621851271|b3:59:b7:36:34:b6|69
1621840671|b3:79:7f:18:5a:2f|69
1621852534|b3:91:e1:d4:6f:e6|83
1621846800|b3:c5:2f:ba:63:a0|78
1621840957|b4:29:6e:5f:a0:40|68
1622025797|b4:61:d9:8d:f6:71|62
1621841590|b4:64:17:b3:a9:80|74
1621837219|b4:6b:fc:d3:24:03|71
1622016028|b4:74:43:65:6d:79|67
1621929911|b4:8b:19:da:a2:ef|73
1622034722|b4:ae:2b:e1:d7:d5|73
1621837983|b4:c2:1d:7e:de:37|71
1621850379|b4:cc:02:98:e8:13|63
1621866215|b4:cd:27:15:6d:dd|94
1621936766|b4:ce:40:fb:07:0d|78
1622033275|b4:d1:18:fb:c0:0a|70
1621929923|b4:ec:8c:40:33:9b|62
1622023745|b5:32:61:fc:4b:e8|76
1621926360|b5:a7:db:bc:97:85|70
1621842775|b5:cd:b5:52:27:b1|74
1621837115|b5:ff:92:8f:96:36|64
1621845661|b7:7f:38:bf:47:2e|80
1622020852|b7:88:6e:ca:18:17|80
1621850081|b7:b5:dc:e3:54:00|65
1622020083|b8:2f:b7:b2:c4:11|83
1621929818|b8:53:ac:c7:31:1b|86
1621846932|b8:53:ac:c7:31:1b|77
1621932278|b8:57:d8:a1:22:3a|78
1622032127|b8:8a:60:ed:5d:50|65
1621928383|b8:94:e1:fc:2c:2e|66
1622009430|b8:9a:2a:af:32:ff|59
1622030139|b8:9d:3e:a3:50:3c|66
1621925234|b8:b3:27:7e:b2:9b|76
1622028327|b8:d7:af:02:86:de|87
1621950442|b8:d7:af:02:86:de|85
1622030964|b8:d7:af:b6:77:f7|79
1621940692|b8:d7:af:b6:77:f7|83
1621940269|b8:e9:1a:90:36:5b|74
1622008853|b8:ee:65:67:04:86|78
1621840821|b8:f6:b1:d7:72:ad|69
1621851478|b9:99:5b:80:a6:b8|72
1621860919|b9:ac:ab:9c:52:fd|81
1621932310|b9:ca:3b:e8:94:77|69
1621846847|bc:09:63:1d:0b:b5|78
1622031970|bc:0a:92:74:90:41|82
1622016373|bc:17:b8:3f:bb:e6|68
1621939068|bc:2e:f6:68:9a:c7|66
1622021118|bc:2f:3d:e3:70:cf|73
1621856666|bc:2f:3d:e3:70:cf|90
1621850581|bc:31:ec:c2:0a:ec|66
1621836232|bc:3a:ea:bc:1f:8c|76
1621859226|bc:3d:85:c0:5c:7b|64
1622033801|bc:4c:c4:b5:df:a6|80
1622022289|bc:54:51:9e:bb:86|81
1621860190|bc:54:51:9e:bb:86|80
1621923817|bc:83:85:0f:41:06|72
1622021317|bc:83:85:12:f8:91|62
1621934247|bc:83:85:ef:10:d6|66
1621836677|bc:83:85:ef:10:d6|69
1621929375|bc:ae:84:43:3d:ab|71
1621850769|bc:e2:65:e0:6d:34|83
1621935820|bc:ed:33:74:d4:2c|80
1621926227|bc:ff:75:26:9d:be|67
1621932253|bc:ff:eb:b9:b9:35|80
1621924058|bd:2b:62:d9:e8:58|72
1621839564|bd:44:09:d5:8d:5e|70
1621927444|bd:4c:c7:cf:46:c0|81
1621837816|bd:5d:48:e6:fe:b5|71
1621927487|bd:94:fd:6b:f9:90|84
1621850496|bd:db:f8:30:2b:7f|77
1621846713|bf:07:87:7a:81:b5|67
1621927912|bf:4a:72:23:ad:78|64
1621926917|bf:4d:b3:67:5d:1f|69
1621939729|bf:6e:18:0f:49:47|65
1621842367|bf:77:59:97:78:78|74
1621927596|bf:c2:e2:3b:9c:a7|66
1621851444|bf:f8:67:a6:40:49|74
1621928495|c0:08:7d:42:2b:4a|79
1622011987|c0:17:4d:13:3f:73|82
1622033317|c0:17:4d:14:52:71|77
1621836478|c0:17:4d:14:52:71|69
1621854820|c0:17:4d:2f:18:3f|78
1621841288|c0:17:4d:38:2f:34|77
1622030373|c0:17:4d:c7:46:e7|91
1621850349|c0:b5:d7:d9:00:6d|82
1621929091|c0:b6:58:52:15:74|81
1621944448|c0:b6:f9:3d:5a:8b|83
1622016064|c0:b6:f9:3d:5a:8b|82
1621859857|c0:b6:f9:3d:5a:8b|76
1621922989|c0:b8:83:7c:e7:4b|67
1622013176|c0:b8:83:7c:e7:4b|76
1621850802|c0:b8:83:7c:e7:4b|74
1621840299|c0:b8:83:c9:f2:c5|71
1621931339|c0:bd:d1:7f:41:e0|76
1622023226|c0:d2:dd:66:05:c5|69
1621923284|c0:d2:dd:66:05:c5|82
1622031980|c0:d2:f3:84:bf:02|67
1621933796|c0:ee:fb:e0:6f:e0|73
1621949262|c1:2e:c4:fe:ce:05|69
1621851484|c1:46:a5:e6:2e:b2|71
1621924135|c1:4d:87:c0:7a:cd|67
1622028749|c1:5f:5e:72:95:ce|70
1621849509|c1:70:ca:06:06:a9|78
1622016239|c1:84:4a:a9:64:17|66
1621925496|c1:c4:94:b1:10:16|73
1621945484|c3:27:ad:ef:9d:b1|79
1621925202|c3:3b:7a:56:78:49|69
1621844650|c3:50:e6:21:b2:ac|77
1621838632|c4:06:83:25:f3:02|62
1621952883|c4:3f:0f:36:41:97|86
1621927607|c4:50:01:87:88:56|75
1622014678|c4:57:6e:4e:d2:b7|79
1621926721|c4:57:6e:4e:d2:b7|78
1621844920|c4:57:6e:4e:d2:b7|73
1621854355|c4:5d:c1:35:bd:90|83
1621842284|c4:6a:39:53:13:f9|79
1622013409|c4:8e:8f:f3:80:bd|82
1621839876|c4:91:0c:b6:e6:85|71
1621853556|c4:9b:db:8e:9b:ca|70
1621933668|c4:9d:ed:1e:a5:b5|76
1621836202|c4:9d:ed:1e:a5:b5|67
1621923476|c4:9f:4c:84:b2:8b|68
1621950099|c4:a9:98:b7:94:c4|74
1621922925|c4:bf:60:df:06:89|91
1622011518|c4:e6:ba:f1:0d:a0|73
1622036884|c4:fe:5b:af:e2:43|75
1621839541|c5:15:a4:14:60:1f|68
1621927013|c5:77:1e:5a:6b:ac|61
1621841684|c5:b7:0c:00:cb:a0|73
1621939177|c5:d4:6c:93:72:19|78
1621850628|c7:12:96:aa:b6:b1|65
1622023916|c7:55:2a:b5:45:75|68
1621837730|c7:64:d9:6a:1e:4a|66
1621928700|c7:7a:2b:07:2b:87|70
1621838120|c7:90:cb:86:1b:55|77
1621849894|c7:c3:32:50:87:42|75
1621927257|c7:ef:a2:99:30:6d|72
1621925457|c8:02:10:bf:67:e0|72
1622019112|c8:02:10:bf:67:e0|72
1621843722|c8:02:10:bf:67:e0|75
1621846042|c8:1d:7f:49:4d:fe|78
1621928758|c8:8b:a7:aa:29:29|68
1621837382|c8:96:56:34:07:bd|67
1621837109|c8:ab:1d:10:c2:68|81
1622013118|c8:d0:83:0f:25:c6|86
1621853605|c8:d0:83:0f:25:c6|86
1622010629|c8:e1:a7:09:48:a2|70
1621840319|c8:e1:a7:09:48:a2|66
1621923435|c8:e1:a7:09:48:a2|70
1621941098|c8:f7:33:db:5a:83|77
1621850515|c8:f9:09:e0:b3:9b|71
1621840695|c9:72:99:28:02:bc|82
1621855668|c9:73:ee:93:08:4e|68
1621850872|cb:1b:76:44:ff:5c|71
1621922950|cb:54:04:b2:19:70|76
1621851400|cb:df:b5:4f:d5:5b|68
1621927248|cb:e0:14:bd:d1:1e|68
1621852327|cc:20:e8:9f:f7:61|72
1621853157|cc:31:61:62:73:eb|65
1621852257|cc:3a:61:90:fb:13|74
1621855526|cc:3d:82:4f:04:39|72
1621840974|cc:3d:82:4f:21:7b|67
1621836031|cc:46:4e:cf:02:6e|73
1621929752|cc:46:4e:eb:40:3a|64
1621937152|cc:9f:7a:bd:d7:7d|87
1622015095|cc:c0:79:fa:30:3d|74
1621938410|cc:c0:79:fa:30:3d|82
1621841667|cc:c7:60:86:61:5f|71
1621854642|cd:4a:0f:f0:45:ea|74
1622016480|cd:59:61:3f:71:a4|67
1621850222|cd:a5:4d:11:07:ed|64
1621853057|cd:a7:54:1d:f0:0b|72
1621851004|cd:bd:fe:9e:a1:f1|70
1621938421|cd:c2:75:27:36:f7|61
1621931271|cf:3a:2a:5f:10:88|86
1621926538|cf:57:d0:88:d9:06|73
1621846271|cf:a0:8b:b3:cc:44|80
1621852294|cf:a4:dc:1e:a4:3b|71
1621927464|cf:dc:d1:22:bb:a8|77
1621845839|cf:fe:58:ab:98:e4|74
1621840625|d0:23:18:0d:94:37|70
1621848935|d0:25:98:a4:d0:04|70
1622023974|d0:31:69:52:b0:7c|75
1622025841|d0:53:49:df:f2:fd|73
1621927548|d0:57:4a:2e:e4:35|76
1622033903|d0:7f:a0:a7:0e:8f|85
1622036450|d0:b1:28:fc:62:77|80
1622010934|d0:c6:37:12:3b:3f|74
1621836827|d0:c6:37:12:3b:3f|74
1621845420|d0:c6:37:c7:0d:f8|73
1621846049|d0:c6:37:d6:fa:fb|71
1621850363|d0:d3:45:4d:5f:d5|67
1621949610|d0:d9:d9:22:11:89|70
1621851232|d1:06:a9:c6:f3:ef|66
1621935315|d1:48:6d:07:5d:c1|69
1622018044|d1:5e:1a:58:ed:51|81
1621928674|d1:7e:1e:17:79:3f|75
1622019335|d1:91:55:9a:4e:11|66
1621851884|d1:d0:69:ec:1b:b6|74
1621931269|d1:e7:04:07:4e:cd|79
1621849097|d3:04:db:6b:86:d2|68
1622016051|d3:36:41:89:90:4c|80
1621946452|d3:45:b6:28:b7:da|74
1621932753|d3:5b:1e:24:3b:81|72
1621925711|d3:71:3a:d0:2f:a1|70
1621848329|d3:b1:f5:8c:6d:14|67
1621949663|d3:f1:4c:0f:14:33|74
1621927959|d4:1a:3f:f7:5f:55|90
1621926055|d4:25:9e:b3:86:27|74
1621837705|d4:3b:04:79:25:8e|66
1621927705|d4:3b:04:a0:aa:55|60
1622018490|d4:3b:04:a0:aa:55|68
1621841582|d4:3b:04:a0:aa:55|71
1621942657|d4:4d:a4:fb:89:da|69
1621927505|d4:5d:52:ef:15:2f|71
1621944764|d4:62:ea:38:0c:a1|66
1622031922|d4:62:ea:38:0c:a1|80
1621836054|d4:6d:6d:e0:e8:c2|70
1622010550|d4:90:9c:71:ca:12|75
1621836407|d4:90:9c:95:53:5d|70
1622020191|d4:a3:3d:b6:d7:24|79
1621842559|d4:ae:05:39:ce:27|76
1621855332|d4:b7:61:a0:6f:13|92
1621931002|d4:d2:52:b8:18:02|75
1621922492|d4:d2:52:b8:18:70|83
1621949885|d4:fa:d8:ce:a2:04|66
1621841772|d5:4a:33:72:2f:9e|80
1621926240|d5:81:e5:23:bf:a9|66
1621929148|d5:f1:6a:dc:ab:a8|66
1621851831|d7:0a:7d:05:1b:10|71
1621840308|d7:38:a1:68:66:0a|66
1621949618|d7:5f:21:82:04:d5|69
1621935697|d7:fe:12:27:b1:60|65
1621935696|d8:1c:79:ad:a4:d0|77
1622025678|d8:1e:dd:b0:55:af|64
1621952846|d8:32:e3:50:2a:2a|87
1621853960|d8:43:3f:ad:ae:f2|82
1622017526|d8:4c:90:b3:ff:30|73
1621861240|d8:4c:90:b3:ff:30|69
1621853452|d8:63:a3:7a:b0:29|68
1621930919|d8:68:c3:8c:38:c1|71
1621948494|d8:7a:e0:4c:e0:11|74
1621838461|d8:88:d2:26:0d:33|65
1621836679|d8:9c:67:92:75:77|80
1622017373|d8:9e:61:e8:92:59|76
1621930543|d8:9e:61:e8:92:59|64
1621933552|d8:a1:43:8d:9b:e2|77
1621837224|d8:bb:2c:46:1a:fe|79
1621841893|d8:bb:2c:f3:51:ac|72
1621853544|d8:ee:fe:8a:ab:72|70
1622031182|d8:f2:ca:11:cb:b4|72
1621861611|d8:f2:ca:11:cb:b4|77
1621854973|d8:f2:ca:28:54:c9|87
1622009875|d8:f2:ca:b4:e4:9d|78
1621837523|d8:f2:ca:b4:e4:9d|79
1621942567|d8:f2:ca:b4:e4:9d|75
1621860857|d9:14:78:d8:ef:38|81
1621947499|d9:6a:70:d7:d8:09|82
1621925286|d9:84:02:8c:b8:4c|70
1621860901|d9:bb:36:e1:74:13|67
1621853500|d9:cc:18:d4:a9:06|77
1621929568|d9:e7:3f:d0:81:77|65
1622022459|d9:f8:6f:a5:66:7a|81
1621841146|db:07:42:20:f5:76|73
1621924007|db:0f:76:c8:15:3f|68
1621928470|db:dc:07:b3:60:e3|69
1621854550|dc:16:b2:53:78:d6|84
1621929944|dc:66:72:c8:54:03|72
1621837377|dc:85:de:c0:4c:df|79
1621944549|dc:8b:28:65:9c:35|81
1622024055|dc:8b:28:77:df:e4|81
1622027988|dc:8e:c4:00:47:de|77
1622021452|dc:a9:04:8b:73:d0|77
1621926198|dc:b1:3a:b7:71:59|71
1621932203|dc:b7:2e:bb:2b:e4|75
1621845058|dc:b7:2e:bb:2b:e4|81
1621838784|dc:d7:05:77:68:23|79
1622029792|dc:ef:ca:39:fb:f1|86
1621922830|dc:f0:90:bf:1e:84|71
1622009119|dc:f0:90:bf:1e:84|76
1621836053|dc:f0:90:bf:1e:84|72
1621937345|dc:f7:56:07:94:c8|80
1622030687|dc:fb:48:11:89:79|79
1621923583|dc:fb:48:8a:de:c8|73
1621849777|dc:fb:48:8a:de:c8|73
1621838210|dd:03:d2:16:68:80|78
1621848894|dd:05:47:32:e7:a0|71
1621851218|dd:36:c1:9c:8b:8e|74
1621838211|dd:97:ef:1c:f9:55|72
1621927093|dd:ce:71:9a:1e:b2|67
1622022627|df:98:10:a0:05:cb|78
1621928526|df:dc:42:cf:41:bb|65
1621854012|df:e1:5d:50:7c:25|64
1621852456|e0:37:bf:d8:dc:b2|80
1622013035|e0:3d:ac:f8:51:9b|73
1621944806|e0:5f:45:bc:fa:7e|72
1621952637|e0:76:d0:be:91:c2|91
1621838129|e0:89:7e:16:7b:fc|65
1621849354|e0:b5:2d:0b:9b:1b|86
1621851188|e0:f8:71:10:35:1e|78
1621856327|e0:fc:0e:37:e3:3f|68
1621851528|e1:cb:0b:a4:83:b7|76
1621927064|e1:d6:8c:d8:2e:da|78
1621836959|e3:45:16:7a:ae:e0|86
1622027894|e3:49:95:34:c0:9c|83
1621941814|e4:0e:ee:7e:92:40|77
1622013649|e4:0e:ee:b9:0d:5b|72
1621934029|e4:0e:ee:e4:dd:b8|79
1621938803|e4:2a:ff:f4:08:36|63
1622009364|e4:2b:34:e5:1f:49|83
1621848277|e4:2b:34:e5:1f:49|85
1621842364|e4:39:2e:51:b1:67|69
1622028058|e4:70:b8:0d:b2:7c|84
1621837029|e4:9c:29:7f:66:9b|80
1621922539|e4:a4:71:ae:bb:90|79
1622017140|e4:aa:ea:cd:96:f3|82
1621931455|e4:aa:ea:cd:96:f3|74
1621922821|e4:b3:18:9c:52:34|69
1621841698|e4:b3:18:c7:54:bb|90
1622009087|e4:b3:18:e9:1f:15|79
1621843611|e4:b3:18:e9:1f:15|68
1621838050|e4:c4:48:6d:e6:87|69
1621839824|e4:f3:82:17:c3:92|70
1621923261|e4:f8:9c:34:dd:d4|75
1621843787|e4:f8:9c:34:dd:d4|82
1621925260|e5:4d:bb:3b:be:d7|70
1621925995|e5:6a:3a:25:b1:4a|67
1622034188|e5:92:4b:eb:60:9e|67
1621925638|e5:b7:b7:91:63:72|68
1621926517|e5:d0:6b:ab:e9:c3|68
1621852847|e5:fb:7d:f0:ee:ca|73
1621851492|e7:13:4a:25:d8:7f|75
1621855673|e7:2c:ec:b2:f1:3f|65
1622029808|e7:c0:c2:a6:5b:4e|65
1621848962|e8:2a:ea:19:b9:2d|75
1622034108|e8:50:8b:7a:0c:7c|84
1621848142|e8:55:c6:1b:9b:9a|75
1622025576|e8:5a:8b:62:63:17|83
1621843029|e8:5a:8b:62:63:17|71
1622016545|e8:93:09:2e:01:ee|69
1621842560|e8:93:09:2e:01:ee|83
1622035877|e8:d0:fc:f6:9c:2f|83
1621937804|e8:fb:e9:bd:dd:f5|89
1621928514|e9:0a:ef:eb:eb:f1|83
1621948560|e9:30:2a:31:7b:cd|76
1621852466|e9:43:8e:2b:eb:0a|66
1622011342|e9:43:f5:72:47:71|72
1621853482|e9:6f:7a:4c:34:c8|82
1621838474|e9:98:60:19:3c:21|68
1622023403|e9:b1:3c:b2:d9:50|73
1622028644|e9:be:53:7c:27:ab|73
1621933418|eb:03:77:d1:ed:ce|79
1621864167|eb:18:0d:78:ad:81|78
1621842206|eb:46:87:d8:b5:21|71
1621856361|eb:48:1e:2e:fd:f9|68
1621950106|eb:ee:70:3a:93:bd|70
1621839305|ec:01:ee:d0:10:6f|67
1621852965|ec:0b:1a:54:c6:0b|65
1621944832|ec:1f:72:11:3b:8d|93
1621843995|ec:1f:72:11:3b:8d|76
1622028693|ec:1f:72:2b:f8:b6|79
1621935679|ec:1f:72:2b:f8:b6|79
1622021880|ec:1f:72:7b:e0:80|75
1621923073|ec:1f:72:7b:e0:80|74
1622012920|ec:1f:72:80:10:d2|67
1621836058|ec:1f:72:83:9f:04|75
1622034082|ec:8c:9a:d6:70:98|70
1622035616|ec:9b:f3:d1:58:e4|76
1621837989|ec:9b:f3:d1:58:e4|70
1621850929|ec:d9:c4:02:d8:61|70
1621840324|ec:de:f7:71:67:35|71
1622021207|ec:f4:17:47:02:e2|80
1621923996|ed:0f:b6:6b:07:6f|71
1621846453|ed:22:25:c7:fd:8a|72
1621927840|ed:bf:b2:da:40:49|66
1621924109|ed:e0:dd:46:76:39|71
1621931521|ef:00:b6:7f:17:56|63
1621843027|ef:32:5c:54:0d:4d|77
1621853792|ef:49:29:08:67:4c|64
1621840430|ef:9a:3c:46:34:58|71
1621927333|ef:d1:66:ce:1d:49|74
1621852407|ef:d3:bf:c0:a5:83|70
1621854140|f0:25:74:20:e1:2f|69
1622032485|f0:28:34:b2:1c:5f|68
1621927020|f0:5e:a3:92:d3:82|69
1621852998|f0:67:28:c0:6d:ab|72
1622033740|f0:6d:78:5a:ad:4d|68
1621838832|f0:6e:0b:e3:c3:f7|78
1621841670|f0:79:60:24:57:02|87
1621837649|f0:92:7e:21:47:a3|84
1621848063|f0:98:9d:9e:ea:42|71
1621838758|f0:98:9d:ae:7a:e1|61
1621934955|f0:99:b6:d1:3c:7b|77
1621844738|f0:99:b6:d1:3c:7b|76
1621933058|f0:c6:11:6d:09:b3|79
1622016766|f0:d5:bf:29:6a:bc|84
1622018446|f0:d5:bf:29:6a:bd|83
1622014121|f0:d5:bf:bb:9e:41|69
1622013340|f0:d5:bf:bb:9e:42|76
1621924752|f0:d5:bf:bb:9e:42|80
1621861815|f0:f6:1c:6a:8b:f2|80
1621950350|f1:a5:ca:20:16:e5|85
1622021016|f1:c3:60:09:5b:81|76
1621932025|f1:e1:9c:b0:6d:05|70
1621854099|f3:30:54:bc:24:3a|75
1621944653|f3:3f:8e:df:35:fd|89
1622033546|f3:45:c8:de:46:cd|69
1621946487|f3:a8:9e:8f:6a:b7|71
1621854244|f3:af:60:3d:07:64|64
1621932113|f3:d2:13:ee:8b:4c|74
1622016461|f4:06:69:66:c2:22|78
1621839188|f4:06:69:66:c2:22|80
1621837337|f4:07:8d:b3:80:4b|71
1622014155|f4:0e:22:b7:7d:3f|73
1621931207|f4:0f:24:1f:fc:8b|70
1621842813|f4:0f:5d:35:bb:3d|75
1622015523|f4:26:21:70:e1:a5|77
1621851520|f4:49:81:cc:26:cc|78
1621945471|f4:5c:89:a9:4f:db|83
1621851028|f4:61:3a:af:f5:97|71
1621854225|f4:74:3e:bb:4f:f0|68
1621945666|f4:8c:50:c8:a5:14|88
1621850349|f4:8c:50:d5:79:e7|75
1621924740|f4:8c:50:fa:70:17|84
1621838775|f4:8d:8f:02:9b:f9|75
1621854101|f4:93:bc:0f:a9:d8|68
1622018172|f4:96:34:99:a8:36|83
1621853404|f4:96:34:99:a8:36|89
1621946416|f4:96:34:99:a8:36|79
1622018173|f4:96:34:99:a8:37|82
1621923752|f4:96:34:99:a8:37|81
1621850242|f4:b2:b3:fe:17:af|65
1621842848|f4:c2:48:1c:39:41|68
1621836772|f4:c2:48:73:ec:87|72
1622027375|f4:c2:48:8a:0b:85|82
1622031859|f4:e3:30:d0:87:2d|76
1621926755|f4:f9:b9:a0:0c:9f|71
1621851130|f5:11:a8:99:fa:ee|74
1622028746|f5:67:25:c4:11:d5|69
1621925484|f5:7b:23:54:09:84|74
1621837432|f5:7d:3d:74:80:f1|74
1621850954|f5:89:9e:c9:5e:bb|72
1621842244|f5:cd:a5:7b:2b:cb|65
1622024733|f7:20:1d:aa:3b:13|83
1621924281|f7:20:5b:e1:61:65|80
1621853463|f7:26:04:24:dd:65|76
1621841652|f7:2f:52:e9:4b:5d|71
1621932828|f7:81:c1:a4:09:aa|73
1621938818|f7:8c:35:6d:6c:1b|58
1621927304|f7:d5:9b:a0:0e:e3|75
1621854850|f7:e4:eb:42:e5:b5|85
1621839711|f8:0a:87:26:08:34|70
1621952992|f8:49:01:3b:35:16|87
1622035811|f8:59:71:32:6d:e3|80
1621922633|f8:59:71:32:6d:e3|78
1621845636|f8:59:71:c5:e1:12|77
1622024232|f8:5e:a0:2c:5f:24|80
1621846575|f8:87:f1:43:7e:38|79
1621841798|f8:94:c2:02:03:5f|70
1622014946|f8:94:c2:09:20:f9|82
1621938425|f8:94:c2:09:21:30|80
1621922502|f8:a2:d6:e3:d6:4d|84
1621940593|f8:ac:65:80:24:5b|66
1621949249|f8:b6:20:72:58:48|73
1621836009|f8:c3:9e:bd:24:a8|65
1621933198|f8:c9:0c:f2:f0:42|74
1622011850|f8:da:0c:4e:06:cb|82
1621846476|f8:e4:e3:67:29:6f|76
1621931711|f8:e4:e3:91:ee:c0|78
1621859459|f8:e4:e3:91:ee:c0|87
1621922545|f8:e4:e3:e4:6a:06|64
1621836035|f8:e4:e3:e4:6a:06|68
1621922586|f8:e4:e3:e4:6b:ec|64
1621943115|f8:e7:a0:21:57:77|78
1621838738|f8:e9:4e:b0:58:77|82
1621931183|f8:ff:c2:03:88:ee|87
1622015259|f8:ff:c2:53:af:bc|72
1621836854|f8:ff:c2:53:af:bc|73
1621925285|f8:ff:c2:53:af:bc|77
1622020347|f8:ff:c2:55:88:41|85
1621838456|f9:01:58:b8:64:ae|74
1621927501|f9:1f:16:8e:34:48|69
1621929114|f9:59:e0:88:c6:6d|64
1621849076|f9:63:a3:f1:41:e7|71
1621840542|f9:c1:c9:29:70:66|73
1621854314|f9:e5:20:92:b6:61|68
1622011290|fb:65:8a:85:9e:1c|73
1621837104|fb:c8:95:dc:2f:d2|71
1622029131|fc:0e:dc:4b:c3:07|79
1621836885|fc:30:be:91:88:eb|69
1621844057|fc:42:03:bf:e2:94|73
1621854385|fc:53:41:12:d8:89|69
1622009209|fc:66:cf:e1:47:39|70
1621837630|fc:77:74:f2:8e:65|92
1621855560|fc:77:74:f2:8e:66|82
1622011216|fc:77:74:f2:c7:db|72
1621923446|fc:77:74:f2:c7:db|79
1621945285|fc:aa:b6:64:33:e0|67
1621949906|fc:b1:fd:5e:37:bf|66
1621856452|fc:ca:b5:4e:0c:2b|76
1622011757|fc:db:b3:1b:cb:72|67
1621925659|fd:0c:87:8a:58:16|67
1622010514|fd:19:fe:9b:91:96|86
1621923198|fd:60:b8:a6:9d:f8|70
1621853091|fd:87:fe:54:21:cf|63
1621850374|fd:d5:e4:d3:44:40|67
1622028998|fd:e5:8a:31:81:d2|71
1621949045|ff:2b:da:c0:7e:7a|71
1621930982|ff:66:34:80:78:3c|83
1621853746|ff:6d:8b:41:08:89|69
1622028962|ff:9f:c2:1f:ae:36|62
1621851581|ff:f1:87:7f:25:27|69