1621785643|40:f5:20:48:8c:e8|30
1621785645|40:f5:20:46:c7:04|30
1621785645|48:ba:4e:d5:d1:40|82
1621785645|48:ba:4e:d5:d1:40|81
1621785646|40:f5:20:46:c7:04|30
1621785651|40:f5:20:48:8c:e8|35
1621785651|04:b4:29:e2:5d:23|31
1621785651|04:b4:29:e2:5d:23|32
1621785653|04:b4:29:e2:5d:23|33
1621785653|04:b4:29:e2:5d:23|39
1621785653|04:b4:29:e2:5d:23|44
1621785653|04:b4:29:e2:5d:23|48
1621785654|c4:d9:87:c8:3a:57|91
1621785655|40:f5:20:48:8c:e8|30
1621785656|48:ba:4e:d5:d1:40|85
1621785656|40:f5:20:46:c4:24|35
1621785658|40:f5:20:46:c7:04|26
1621785660|40:f5:20:46:c4:24|50
1621785660|7c:67:a2:8c:fe:92|92
1621785661|30:07:4d:0c:aa:97|94
1621785666|40:f5:20:46:c7:04|24
1621785666|48:ba:4e:d5:d1:40|81
1621785668|40:f5:20:46:c4:24|30
1621785671|78:dd:d9:6c:36:4e|87
1621785671|78:dd:d9:6c:36:4e|91
1621785673|40:f5:20:46:c4:24|31
1621785676|48:ba:4e:d5:d1:40|88
1621785680|40:f5:20:46:c4:24|31
1621785681|40:f5:20:46:c4:24|36
1621785684|40:f5:20:46:c6:24|29
1621785685|40:f5:20:46:c4:24|32
1621785688|40:f5:20:46:c6:24|31
1621785688|7c:67:a2:8e:07:97|76
1621785695|40:f5:20:46:c6:24|29
1621785697|48:ba:4e:d5:d1:40|86
1621785697|48:ba:4e:d5:d1:40|85
1621785697|40:f5:20:44:c4:48|50
1621785697|40:f5:20:44:c4:48|49
1621785701|40:f5:20:44:c4:48|48
1621785701|40:f5:20:44:c4:48|54
1621785705|40:f5:20:44:c4:48|52
1621785705|40:f5:20:44:c4:48|52
1621785708|40:f5:20:44:c4:48|51
1621785709|40:f5:20:44:c4:48|51
1621785712|40:f5:20:44:c4:48|49
1621785712|40:f5:20:46:c6:24|31
1621785713|40:f5:20:44:c4:48|45
1621785713|40:f5:20:44:c4:48|51
1621785714|40:f5:20:44:cb:80|49
1621785717|40:f5:20:44:c4:48|51
1621785717|40:f5:20:44:c4:48|58
1621785718|40:f5:20:44:cb:80|49
1621785720|7c:67:a2:8c:fe:92|91
1621785720|c4:d9:87:c8:3a:57|95
1621785721|40:f5:20:44:c4:48|43
1621785721|40:f5:20:44:c4:48|49
1621785725|40:f5:20:44:c4:48|48
1621785725|40:f5:20:44:c4:48|55
1621785725|40:f5:20:44:cb:80|43
1621785726|40:f5:20:44:cb:80|42
1621785727|48:ba:4e:d5:d1:40|85
1621785729|40:f5:20:44:c4:48|51
1621785729|40:f5:20:44:c4:48|59
1621785730|40:f5:20:44:cb:80|46
1621785730|40:f5:20:44:cb:80|43
1621785737|48:ba:4e:d5:d1:40|79
1621785737|40:f5:20:44:cb:80|46
1621785738|40:f5:20:44:cb:80|44
1621785738|c8:02:10:bc:d8:df|94
1621785738|40:f5:20:46:c5:c0|52
1621785738|40:f5:20:46:c5:c0|54
1621785742|40:f5:20:44:cb:80|46
1621785743|40:f5:20:46:c5:c0|62
1621785743|40:f5:20:46:c5:c0|54
1621785744|40:f5:20:46:c5:c0|68
1621785744|78:dd:d9:83:97:b9|94
1621785748|48:ba:4e:d5:d1:40|87
1621785748|7c:67:a2:8e:07:97|84
1621785750|40:f5:20:46:c5:c0|56
1621785750|40:f5:20:46:c5:c0|51
1621785751|40:f5:20:46:c5:c0|51
1621785752|40:f5:20:48:8c:38|43
1621785752|40:f5:20:48:8c:38|48
1621785754|40:f5:20:46:c5:c0|49
1621785755|40:f5:20:46:c5:c0|42
1621785756|40:f5:20:48:8c:38|51
1621785758|48:ba:4e:d5:d1:40|86
1621785758|48:ba:4e:d5:d1:40|88
1621785762|40:f5:20:46:c5:c0|45
1621785763|40:f5:20:46:c5:c0|40
1621785764|40:f5:20:48:8c:38|40
1621785767|40:f5:20:46:c5:c0|41
1621785768|40:f5:20:48:8c:38|49
1621785771|c8:02:10:bc:d8:df|93
1621785776|40:f5:20:48:8c:38|48
1621785779|40:f5:20:44:c3:a4|51
1621785780|40:f5:20:48:8c:38|41
1621785783|40:f5:20:44:c3:a4|54
1621785784|40:f5:20:44:c3:a4|51
1621785790|a4:4b:d5:ae:8f:e3|87
1621785790|a4:4b:d5:ae:8f:e3|90
1621785790|a4:4b:d5:ae:8f:e3|89
1621785791|40:f5:20:44:c3:a4|52
1621785791|40:f5:20:44:c3:a4|31
1621785795|40:f5:20:46:c2:74|49
1621785796|40:f5:20:46:c2:74|54
1621785799|48:ba:4e:d5:d1:40|82
1621785799|48:ba:4e:d5:d1:40|82
1621785800|40:f5:20:46:c2:74|44
1621785800|40:f5:20:46:c2:74|47
1621785807|40:f5:20:46:c2:74|46
1621785811|40:f5:20:48:8c:e0|58
1621785812|40:f5:20:48:8c:e0|60
1621785812|40:f5:20:46:c2:74|46
1621785815|40:f5:20:48:8c:e0|60
1621785816|40:f5:20:48:8c:e0|55
1621785818|40:f5:20:46:c5:7c|30
1621785819|40:f5:20:48:8c:e0|63
1621785820|40:f5:20:46:c2:74|44
1621785820|40:f5:20:48:8c:e0|55
1621785820|78:dd:d9:83:97:b9|91
1621785822|40:f5:20:48:8e:54|44
1621785822|40:f5:20:48:8e:54|46
1621785823|40:f5:20:48:8c:e0|47
1621785824|40:f5:20:46:c2:74|45
1621785824|40:f5:20:46:c2:74|47
1621785826|40:f5:20:46:c5:7c|37
1621785827|40:f5:20:48:8e:54|40
1621785827|40:f5:20:48:8c:e0|59
1621785828|40:f5:20:48:8c:e0|50
1621785828|a0:cc:2b:b5:e1:b2|93
1621785829|48:ba:4e:d5:d1:40|85
1621785829|40:f5:20:46:c5:7c|32
1621785832|40:f5:20:48:8c:e0|51
1621785833|40:f5:20:44:ca:70|53
1621785834|40:f5:20:48:8e:54|46
1621785834|b0:fc:36:aa:71:6b|95
1621785834|40:f5:20:48:8e:54|46
1621785835|40:f5:20:48:8c:e0|55
1621785835|40:f5:20:48:8c:e0|49
1621785836|40:f5:20:44:ca:70|46
1621785837|40:f5:20:44:ca:70|48
1621785838|40:f5:20:48:8e:54|40
1621785839|40:f5:20:48:8c:e0|49
1621785839|40:f5:20:48:8d:34|41
1621785840|40:f5:20:48:8c:e0|51
1621785841|40:f5:20:44:ca:70|47
1621785841|40:f5:20:46:c5:7c|30
1621785842|40:f5:20:44:ca:70|58
1621785842|40:f5:20:44:c8:08|36
1621785843|b0:fc:36:a9:6a:2f|89
1621785843|b0:fc:36:a9:6a:2f|90
1621785843|40:f5:20:48:8c:e0|52
1621785843|40:f5:20:48:8d:34|48
1621785844|40:f5:20:48:8d:34|46
1621785844|40:f5:20:48:8c:e0|52
1621785845|40:f5:20:44:ca:70|50
1621785845|40:f5:20:44:ca:70|50
1621785845|40:f5:20:46:c5:7c|58
1621785846|40:f5:20:46:c5:7c|61
1621785846|40:f5:20:48:8e:54|53
1621785846|40:f5:20:48:8e:54|48
1621785847|40:f5:20:44:c8:08|40
1621785848|40:f5:20:44:ca:70|46
1621785849|40:f5:20:44:ca:70|46
1621785850|40:f5:20:46:c5:7c|55
1621785850|40:f5:20:46:c5:7c|56
1621785851|40:f5:20:48:8e:54|49
1621785851|40:f5:20:48:8d:34|55
1621785851|40:f5:20:48:8d:34|50
1621785851|40:f5:20:44:c6:44|36
1621785853|40:f5:20:44:ca:70|52
1621785854|40:f5:20:44:ca:70|53
1621785854|40:f5:20:44:c8:08|39
1621785854|40:f5:20:44:c8:08|43
1621785855|40:f5:20:48:8d:34|55
1621785856|40:f5:20:48:8d:34|55
1621785856|40:f5:20:44:c6:44|41
1621785857|40:f5:20:44:c6:44|37
1621785857|40:f5:20:44:ca:70|55
1621785858|40:f5:20:44:c8:08|39
1621785859|40:f5:20:44:c8:08|38
1621785859|40:f5:20:48:8c:d4|49
1621785860|48:ba:4e:d5:d1:40|81
1621785860|40:f5:20:48:8c:d4|50
1621785861|40:f5:20:44:ca:70|57
1621785862|78:dd:d9:6c:36:4e|92
1621785863|40:f5:20:48:8d:34|57
1621785863|40:f5:20:44:c6:44|37
1621785863|40:f5:20:48:8d:34|61
1621785865|40:f5:20:48:8c:d4|46
1621785865|40:f5:20:44:ca:70|53
1621785867|40:f5:20:44:c6:44|51
1621785867|40:f5:20:48:8d:34|57
1621785868|40:f5:20:48:8d:34|52
1621785869|40:f5:20:44:c6:44|58
1621785870|48:ba:4e:d5:d1:40|83
1621785871|40:f5:20:48:8c:d4|48
1621785872|40:f5:20:48:8c:d4|44
1621785876|40:f5:20:44:c6:44|41
1621785876|40:f5:20:44:c6:44|47
1621785880|40:f5:20:48:8c:d4|47
1621785880|48:ba:4e:d5:d1:40|84
1621785880|48:ba:4e:d5:d1:40|83
1621785882|40:f5:20:46:c3:90|51
1621785882|40:f5:20:46:c3:90|55
1621785883|40:f5:20:48:8c:d4|50
1621785884|40:f5:20:48:8c:d4|45
1621785887|40:f5:20:46:c3:90|52
1621785887|c8:02:10:bc:d8:df|91
1621785888|40:f5:20:46:c3:90|56
1621785888|40:f5:20:48:8c:d4|45
1621785889|40:f5:20:48:8c:d4|49
1621785890|48:ba:4e:d5:d1:40|82
1621785890|48:ba:4e:d5:d1:40|83
1621785892|04:b4:29:e2:5d:23|41
1621785894|40:f5:20:46:c3:90|53
1621785896|40:f5:20:44:c8:9c|47
1621785897|40:f5:20:46:c3:90|52
1621785897|7c:67:a2:8e:07:60|70
1621785898|40:f5:20:46:c3:90|59
1621785900|40:f5:20:46:c3:90|57
1621785900|40:f5:20:44:c8:9c|34
1621785901|40:f5:20:44:ca:1c|51
1621785904|40:f5:20:44:c8:9c|35
1621785905|40:f5:20:44:ca:1c|49
1621785905|40:f5:20:44:ca:1c|46
1621785906|40:f5:20:46:c3:90|54
1621785907|40:f5:20:44:c8:9c|34
1621785907|40:f5:20:46:c3:90|54
1621785910|40:f5:20:46:c3:90|48
1621785911|48:ba:4e:d5:d1:40|83
1621785911|40:f5:20:46:c3:90|47
1621785913|40:f5:20:44:c8:e4|50
1621785913|40:f5:20:44:c8:e4|48
1621785916|40:f5:20:44:c8:9c|35
1621785917|40:f5:20:44:ca:1c|56
1621785917|40:f5:20:44:c8:e4|55
1621785918|40:f5:20:44:c8:e4|51
1621785919|b0:fc:36:aa:55:5f|86
1621785919|b0:fc:36:aa:55:5f|88
1621785921|48:ba:4e:d5:d1:40|81
1621785921|40:f5:20:44:ca:1c|49
1621785921|40:f5:20:44:ca:1c|55
1621785924|40:f5:20:44:ca:1c|55
1621785925|40:f5:20:44:c8:e4|49
1621785928|7c:67:a2:8e:07:97|78
1621785928|7c:67:a2:8e:07:97|74
1621785929|40:f5:20:44:ca:1c|50
1621785929|40:f5:20:44:c8:e4|37
1621785930|40:f5:20:46:c4:c0|35
1621785932|48:ba:4e:d5:d1:40|84
1621785933|40:f5:20:44:ca:1c|56
1621785933|40:f5:20:44:ca:1c|55
1621785935|78:dd:d9:83:98:7d|94
1621785935|40:f5:20:46:c4:c0|36
1621785937|40:f5:20:44:c8:e4|66
1621785941|40:f5:20:46:c4:c0|38
1621785944|c8:02:10:bc:d8:df|91
1621785947|40:f5:20:46:c4:c0|33
1621785954|40:f5:20:46:c4:c0|57
1621785959|40:f5:20:46:c4:c0|15
1621785967|c8:02:10:bc:d8:df|91
1621785967|7c:67:a2:8e:06:ca|88
1621785982|40:f5:20:46:c2:f8|54
1621785982|40:f5:20:46:c2:f8|50
1621785986|40:f5:20:46:c2:f8|46
1621785986|40:f5:20:46:c2:f8|48
1621785988|7c:67:a2:8e:07:97|85
1621785990|40:f5:20:46:c2:f8|56
1621785991|40:f5:20:46:c2:f8|53
1621785996|40:f5:20:44:c6:2c|50
1621785998|40:f5:20:46:c2:f8|33
1621785999|2c:fd:ab:58:48:45|91
1621785999|40:f5:20:44:c6:2c|56
1621786000|40:f5:20:44:c6:2c|58
1621786002|40:f5:20:46:c2:f8|22
1621786003|78:dd:d9:83:98:7d|86
1621786005|40:f5:20:46:c2:f8|23
1621786006|40:f5:20:46:c2:f8|21
1621786007|40:f5:20:44:c6:2c|50
1621786007|40:f5:20:44:c6:2c|50
1621786007|40:f5:20:44:c9:94|49
1621786011|40:f5:20:44:c6:2c|42
1621786013|40:f5:20:44:c9:94|50
1621786013|48:ba:4e:d5:d1:40|74
1621786013|48:ba:4e:d5:d1:40|74
1621786014|40:f5:20:46:c2:f8|23
1621786016|40:f5:20:44:c9:94|54
1621786019|40:f5:20:44:c9:94|51
1621786019|40:f5:20:44:c9:94|63
1621786019|40:f5:20:44:c6:2c|28
1621786023|48:ba:4e:d5:d1:40|83
1621786023|40:f5:20:44:c9:94|60
1621786023|40:f5:20:44:c6:2c|24
1621786024|c8:02:10:bc:d8:df|94
1621786024|40:f5:20:44:c6:2c|23
1621786025|40:f5:20:44:c9:94|37
1621786028|40:f5:20:48:8f:00|59
1621786032|40:f5:20:44:c9:94|33
1621786032|40:f5:20:48:8f:00|52
1621786033|48:ba:4e:d5:d1:40|74
1621786033|48:ba:4e:d5:d1:40|76
1621786034|b0:fc:36:aa:71:6d|90
1621786036|40:f5:20:44:c9:94|31
1621786039|40:f5:20:48:8f:00|48
1621786044|48:ba:4e:d5:d1:40|73
1621786044|48:ba:4e:d5:d1:40|73
1621786049|40:f5:20:44:c9:0c|47
1621786049|40:f5:20:44:c9:0c|48
1621786052|40:f5:20:48:8f:00|22
1621786053|40:f5:20:44:c9:0c|48
1621786056|40:f5:20:48:8f:00|27
1621786061|40:f5:20:44:c9:0c|46
1621786061|40:f5:20:44:c9:0c|45
1621786064|40:f5:20:44:c9:e4|56
1621786064|40:f5:20:44:c9:e4|60
1621786065|40:f5:20:44:c9:0c|48
1621786065|40:f5:20:44:c9:0c|50
1621786068|40:f5:20:44:c9:e4|60
1621786073|40:f5:20:44:c9:0c|50
1621786073|40:f5:20:44:c9:0c|54
1621786074|48:ba:4e:d5:d1:40|82
1621786075|40:f5:20:44:c9:e4|53
1621786076|40:f5:20:44:c9:e4|56
1621786077|40:f5:20:44:c9:0c|32
1621786080|40:f5:20:44:c9:e4|23
1621786084|48:ba:4e:d5:d1:40|77
1621786087|7c:67:a2:8e:06:ca|86
1621786095|48:ba:4e:d5:d1:40|76
1621786105|48:ba:4e:d5:d1:40|81
1621786125|48:ba:4e:d5:d1:40|80
1621786136|48:ba:4e:d5:d1:40|80
1621786136|48:ba:4e:d5:d1:40|79
1621786140|a8:96:75:35:9a:40|93
1621786140|7c:67:a2:8c:fe:92|87
1621786146|48:ba:4e:d5:d1:40|80
1621786146|48:ba:4e:d5:d1:40|79
1621786154|78:dd:d9:83:98:7d|90
1621786160|b0:fc:36:aa:55:5f|90
1621786160|b0:fc:36:aa:55:5f|88
1621786160|b0:fc:36:aa:55:5f|90
1621786166|48:ba:4e:d5:d1:40|82
1621786168|7c:67:a2:8e:07:97|74
1621786177|48:ba:4e:d5:d1:40|82
1621786184|08:25:25:a4:c1:7e|94
1621786197|7c:67:a2:8e:07:60|86
1621786207|48:ba:4e:d5:d1:40|84
1621786228|7c:67:a2:8e:07:97|76
1621786230|78:dd:d9:6c:36:4e|96
1621786238|48:ba:4e:d5:d1:40|86
1621786238|48:ba:4e:d5:d1:40|88
1621786258|48:ba:4e:d5:d1:40|91
1621786267|7c:67:a2:8e:06:ca|86
1621786268|48:ba:4e:d5:d1:40|89
1621786279|48:ba:4e:d5:d1:40|78
1621786279|48:ba:4e:d5:d1:40|78
1621786288|7c:67:a2:8e:07:97|76
1621786289|48:ba:4e:d5:d1:40|83
1621786299|48:ba:4e:d5:d1:40|86
1621786309|48:ba:4e:d5:d1:40|86
1621786312|40:f5:20:48:8f:00|60
1621786316|40:f5:20:48:8f:00|32
1621786319|48:ba:4e:d5:d1:40|86
1621786319|48:ba:4e:d5:d1:40|85
1621786322|b0:fc:36:a9:6a:2f|93
1621786323|40:f5:20:48:8f:00|35
1621786340|40:f5:20:48:8f:00|33
1621786348|7c:67:a2:8e:07:97|74
1621786350|48:ba:4e:d5:d1:40|88
1621786353|78:dd:d9:83:98:7d|93
1621786360|48:ba:4e:d5:d1:40|91
1621786377|7c:67:a2:8e:07:60|73
1621786380|7c:67:a2:8c:fe:92|85
1621786391|48:ba:4e:d5:d1:40|81
1621786408|7c:67:a2:8e:07:97|70
1621786411|ac:5f:3e:f4:e0:3f|94
1621786422|48:ba:4e:d5:d1:40|84
1621786422|48:ba:4e:d5:d1:40|84
1621786432|48:ba:4e:d5:d1:40|86
1621786448|7c:67:a2:8e:06:ca|87
1621786452|48:ba:4e:d5:d1:40|88
1621786460|b0:fc:36:aa:55:5f|94
1621786465|98:54:1b:be:fb:b3|94
1621786465|98:54:1b:be:fb:b3|93
1621786473|48:ba:4e:d5:d1:40|85
1621786483|48:ba:4e:d5:d1:40|82
1621786483|48:ba:4e:d5:d1:40|83
1621786493|48:ba:4e:d5:d1:40|85
1621786500|78:dd:d9:6c:36:4e|90
1621786500|7c:67:a2:8c:fe:92|90
1621786503|48:ba:4e:d5:d1:40|82
1621786513|48:ba:4e:d5:d1:40|84
1621786524|48:ba:4e:d5:d1:40|84
1621786524|48:ba:4e:d5:d1:40|84
1621786528|7c:67:a2:8e:07:97|72
1621786528|7c:67:a2:8e:07:97|73
1621786532|98:54:1b:be:fb:b3|91
1621786532|98:54:1b:be:fb:b3|92
1621786535|bc:2f:3d:e3:70:cf|88
1621786535|bc:2f:3d:e3:70:cf|88
1621786536|58:48:22:81:a2:37|86
1621786544|98:9e:63:68:61:cc|89
1621786544|98:9e:63:68:61:cc|88
1621786552|78:dd:d9:83:98:7d|89
1621786552|78:dd:d9:83:98:7d|89
1621786560|7c:67:a2:8c:fe:92|87
1621786561|bc:2f:3d:e3:70:cf|87
1621786561|bc:2f:3d:e3:70:cf|87
1621786561|bc:2f:3d:e3:70:cf|88
1621786561|bc:2f:3d:e3:70:cf|87
1621786563|58:48:22:81:a2:37|89
1621786564|48:ba:4e:d5:d1:40|81
1621786569|bc:2f:3d:e3:70:cf|80
1621786569|bc:2f:3d:e3:70:cf|78
1621786573|ac:5f:3e:f4:e0:3f|70
1621786574|c8:02:10:bc:d8:df|91
1621786575|48:ba:4e:d5:d1:40|84
1621786586|c8:02:10:bc:d8:df|92
1621786597|c8:02:10:bc:d8:df|93
1621786598|98:54:1b:be:fb:b3|95
1621786598|98:54:1b:be:fb:b3|90
1621786598|98:54:1b:be:fb:b3|89
1621786598|98:54:1b:be:fb:b3|89
1621786620|78:dd:d9:83:98:7d|91
1621786621|80:4e:70:6c:6f:ea|93
1621786623|b0:fc:36:a9:6a:2f|84
1621786623|b0:fc:36:a9:6a:2f|83
1621786623|b0:fc:36:a9:6a:2f|85
1621786623|b0:fc:36:a9:6a:2f|83
1621786628|7c:67:a2:8e:06:ca|73
1621786628|78:dd:d9:6c:36:4e|91
1621786628|78:dd:d9:6c:36:4e|88
1621786637|d4:6d:6d:e0:c1:9e|88
1621786640|8c:79:f5:10:16:e8|90
1621786641|ac:5f:3e:f4:e0:3f|66
1621786641|ac:5f:3e:f4:e0:3f|60
1621786643|c8:02:10:bc:d8:df|85
1621786643|58:48:22:81:a2:37|85
1621786645|bc:7e:8b:e7:0e:78|85
1621786650|f4:8c:50:c8:a5:46|86
1621786652|84:c5:a6:43:57:38|87
1621786659|d8:c4:6a:c3:d9:e0|69
1621786659|a8:be:27:c1:ff:0a|74
1621786664|98:9e:63:68:61:cc|69
1621786672|a8:be:27:c1:ff:0a|70
1621786672|a8:7c:01:d7:b5:27|93
1621786672|a8:7c:01:d7:b5:27|94
1621786674|b0:fc:36:aa:71:6b|87
1621786674|b0:fc:36:aa:71:6b|87
1621786674|b0:fc:36:aa:71:6b|88
1621786674|b0:fc:36:aa:71:6b|87
1621786679|a8:be:27:c6:44:84|78
1621786681|7c:67:a2:8e:06:1b|90
1621786684|dc:ef:ca:ce:94:82|79
1621786684|dc:ef:ca:ce:94:82|80
1621786684|dc:ef:ca:ce:94:82|83
1621786684|dc:ef:ca:ce:94:82|79
1621786684|98:9e:63:68:61:cc|80
1621786689|0c:8c:24:bf:12:72|83
1621786689|ac:5f:3e:f4:e0:3f|47
1621786693|c0:17:4d:c7:46:e7|87
1621786693|c0:17:4d:c7:46:e7|87
1621786693|c0:17:4d:c7:46:e7|88
1621786698|c4:d9:87:c8:3a:57|89
1621786698|c4:d9:87:c8:3a:57|89
1621786698|c4:d9:87:c8:3a:57|92
1621786699|b0:fc:36:aa:55:5f|88
1621786700|84:c0:ef:61:93:5d|72
1621786702|40:d3:ae:fc:3d:e0|79
1621786706|a8:7c:01:d7:b5:27|84
1621786706|78:dd:d9:83:97:b9|74
1621786707|bc:7e:8b:e7:0e:78|66
1621786709|f4:d1:08:4e:22:df|68
1621786710|f4:d1:08:4e:22:df|77
1621786711|78:dd:d9:6c:36:4e|73
1621786712|c8:02:10:bd:08:72|79
1621786718|48:ba:4e:d5:d1:40|88
1621786718|48:ba:4e:d5:d1:40|87
1621786721|78:dd:d9:83:97:b9|79
1621786721|78:dd:d9:83:98:7d|69
1621786722|c8:02:10:bc:d8:df|68
1621786722|c8:02:10:bc:d8:df|68
1621786723|a8:7c:01:d7:b5:27|81
1621786723|a8:7c:01:d7:b5:27|85
1621786723|ac:5f:3e:f4:e0:3f|50
1621786723|ac:5f:3e:f4:e0:3f|46
1621786724|a4:6b:b6:35:40:8a|75
1621786726|c0:b5:cd:2c:4e:e5|74
1621786727|c0:b5:cd:2c:4e:e5|70
1621786727|c0:b5:cd:2c:4e:e5|71
1621786727|78:dd:d9:83:94:9f|72
1621786729|78:dd:d9:6c:36:4e|61
1621786730|34:41:5d:cb:be:b1|76
1621786731|78:dd:d9:83:94:9f|71
1621786732|d4:6d:6d:e0:3e:d1|72
1621786733|a8:96:75:35:9a:40|53
1621786733|a8:96:75:35:9a:40|54
1621786733|a8:96:75:35:9a:40|55
1621786733|a8:96:75:35:9a:40|52
1621786733|a8:96:75:35:9a:40|52
1621786733|a8:96:75:35:9a:40|53
1621786733|a8:96:75:35:9a:40|54
1621786735|c8:02:10:bc:d8:df|77
1621786735|78:dd:d9:83:97:b9|68
1621786735|88:07:4b:e7:cf:33|78
1621786738|20:f4:78:da:02:b1|86
1621786740|d0:28:ba:57:4f:b3|88
1621786741|88:07:4b:e7:cf:33|79
1621786741|88:07:4b:e7:cf:33|80
1621786741|28:24:ff:35:7f:1f|85
1621786741|28:39:5e:d6:f7:7a|76
1621786747|d4:6d:6d:e0:e8:d1|66
1621786748|48:ba:4e:d5:d1:40|86
1621786750|78:dd:d9:83:97:b9|73
1621786752|08:25:25:a4:c1:7e|79
1621786752|08:25:25:a4:c1:7e|76
1621786752|08:25:25:a4:c1:7e|79
1621786752|20:f4:78:da:02:b1|88
1621786754|78:dd:d9:83:98:7d|77
1621786758|c8:02:10:bc:d8:df|72
1621786759|48:ba:4e:d5:d1:40|83
1621786769|c8:02:10:bc:d8:df|72
1621786769|e4:5d:75:08:3f:dd|92
1621786769|e4:5d:75:08:3f:dd|90
1621786769|e4:5d:75:08:3f:dd|94
1621786769|e4:5d:75:08:3f:dd|89
1621786771|78:dd:d9:83:98:7d|73
1621786779|0c:8c:24:bf:12:72|65
1621786783|c0:17:4d:c7:46:e7|81
1621786783|c0:17:4d:c7:46:e7|81
1621786783|c0:17:4d:c7:46:e7|80
1621786783|c0:17:4d:c7:46:e7|80
1621786787|c0:17:4d:c7:46:e7|78
1621786787|c0:17:4d:c7:46:e7|77
1621786787|c0:17:4d:c7:46:e7|79
1621786787|c0:17:4d:c7:46:e7|78
1621786792|c8:02:10:bd:08:72|83
1621786792|c8:02:10:bc:d8:df|79
1621786793|ac:5f:3e:f4:e0:3f|67
1621786794|34:41:5d:cb:be:b1|74
1621786796|d4:6d:6d:e0:36:f7|76
1621786798|98:54:1b:be:fb:b3|71
1621786798|98:54:1b:be:fb:b3|70
1621786798|98:54:1b:be:fb:b3|70
1621786798|f8:59:71:35:c8:9d|89
1621786798|f8:59:71:35:c8:9d|90
1621786802|d4:6d:6d:e0:e8:c2|69
1621786802|d4:6d:6d:e0:e8:c2|72
1621786803|28:39:5e:d6:f7:7a|76
1621786804|d4:6d:6d:e0:e8:c2|70
1621786807|2c:fd:ab:58:48:45|61
1621786807|78:dd:d9:83:94:9f|82
1621786809|0c:8c:24:bf:12:72|79
1621786809|b8:27:eb:65:e6:62|78
1621786814|30:d1:6b:99:9e:d9|89
1621786815|c8:02:10:bd:08:72|83
1621786815|c8:02:10:bc:d8:df|74
1621786821|bc:fe:d9:6f:f4:a0|87
1621786821|a8:96:75:35:9a:40|62
1621786821|a8:96:75:35:9a:40|60
1621786821|a8:96:75:35:9a:40|60
1621786821|2c:fd:ab:58:48:45|62
1621786822|2c:fd:ab:58:48:45|62
1621786822|2c:fd:ab:58:48:45|62
1621786822|2c:fd:ab:58:48:45|63
1621786822|2c:fd:ab:58:48:45|71
1621786822|2c:fd:ab:58:48:45|72
1621786822|2c:fd:ab:58:48:45|58
1621786822|2c:fd:ab:58:48:45|59
1621786822|2c:fd:ab:58:48:45|59
1621786822|2c:fd:ab:58:48:45|66
1621786824|84:c0:ef:61:93:5d|78
1621786825|8c:79:f5:10:16:e8|76
1621786825|c8:02:10:bd:08:72|82
1621786826|78:dd:d9:83:97:b9|65
1621786826|78:dd:d9:83:97:b9|66
1621786829|f4:d1:08:4e:22:df|65
1621786830|48:ba:4e:d5:d1:40|90
1621786832|bc:7e:8b:e7:0e:78|69
1621786832|bc:7e:8b:e7:0e:78|67
1621786836|78:dd:d9:83:94:9f|79
1621786838|c8:02:10:bd:08:72|80
1621786841|2c:fd:ab:58:48:45|57
1621786841|2c:fd:ab:58:48:45|58
1621786841|2c:fd:ab:58:48:45|58
1621786841|2c:fd:ab:58:48:45|64
1621786847|78:dd:d9:6c:36:4e|63
1621786848|c8:02:10:bd:08:72|79
1621786851|30:d1:6b:9a:3d:95|80
1621786851|30:d1:6b:9a:3d:95|79
1621786852|d4:6d:6d:e0:3e:d1|71
1621786856|d4:6d:6d:e0:36:f7|74
1621786857|7c:67:a2:8e:07:60|84
1621786861|48:ba:4e:d5:d1:40|83
1621786861|c8:02:10:bc:d8:df|70
1621786862|30:b4:9e:0d:24:68|90
1621786864|98:54:1b:be:fb:b3|59
1621786864|88:07:4b:e7:cf:33|76
1621786865|d4:6d:6d:e0:e8:c2|69
1621786865|28:39:5e:d6:f7:7a|76
1621786866|d4:6d:6d:e0:e8:c2|74
1621786870|0c:8c:24:bf:12:72|71
1621786870|0c:8c:24:bf:12:72|64
1621786870|0c:8c:24:bf:12:72|63
1621786870|08:25:25:a4:c1:7e|77
1621786870|08:25:25:a4:c1:7e|80
1621786871|48:ba:4e:d5:d1:40|83
1621786873|24:77:03:25:42:f4|77
1621786873|24:77:03:25:42:f4|75
1621786874|c0:17:4d:c7:46:e7|79
1621786874|c0:17:4d:c7:46:e7|79
1621786874|c0:17:4d:c7:46:e7|79
1621786874|b0:fc:36:aa:71:6d|87
1621786874|20:f4:78:fb:75:f3|84
1621786880|78:dd:d9:6c:36:4e|68
1621786880|78:dd:d9:6c:36:4e|67
1621786882|0c:54:15:a8:3c:07|92
1621786884|c8:02:10:bc:d8:df|77
1621786886|84:c0:ef:61:93:5d|75
1621786886|84:c0:ef:61:93:5d|74
1621786887|8c:79:f5:10:16:e8|74
1621786887|8c:79:f5:10:16:e8|75
1621786889|f4:d1:08:4e:22:df|72
1621786890|98:54:1b:a2:7e:66|71
1621786890|d4:b7:61:87:81:5b|93
1621786891|7c:7a:91:78:82:69|84
1621786901|d4:b7:61:87:81:5b|90
1621786901|d4:b7:61:87:81:5b|89
1621786901|d4:b7:61:87:81:5b|88
1621786907|c8:02:10:bc:d8:df|72
1621786911|d4:b7:61:87:81:5b|90
1621786912|78:dd:d9:83:94:9f|77
1621786916|d4:6d:6d:e0:36:f7|73
1621786916|78:dd:d9:83:97:b9|68
1621786917|34:41:5d:cb:be:b1|79
1621786920|a8:96:75:35:9a:40|65
1621786920|a8:96:75:35:9a:40|66
1621786920|78:dd:d9:83:98:7d|65
1621786926|d4:6d:6d:e0:e8:c2|71
1621786926|d4:6d:6d:e0:e8:d1|67
1621786926|78:dd:d9:83:94:9f|78
1621786928|40:25:c2:cb:3a:0c|94
1621786930|78:dd:d9:6c:36:4e|70
1621786930|98:54:1b:be:fb:b3|59
1621786930|98:54:1b:be:fb:b3|61
1621786930|a8:96:75:35:9a:40|71
1621786930|a8:96:75:35:9a:40|72
1621786931|78:dd:d9:83:97:b9|74
1621786932|48:ba:4e:d5:d1:40|86
1621786933|74:c6:3b:7f:c8:45|80
1621786936|00:0c:e7:47:a3:92|86
1621786937|d4:6d:6d:e0:c1:9e|67
1621786937|d4:6d:6d:e0:c1:9e|69
1621786947|a8:7c:01:d7:b5:27|78
1621786947|a8:7c:01:d7:b5:27|78
1621786948|78:dd:d9:6c:36:4e|67
1621786948|78:dd:d9:6c:36:4e|68
1621786952|c8:02:10:bc:d8:df|74
1621786954|0c:8c:24:bf:0c:c2|73
1621786955|bc:7e:8b:e7:0e:78|69
1621786955|bc:7e:8b:e7:0e:78|70
1621786957|08:c5:e1:07:65:ff|76
1621786957|98:54:1b:a2:7e:66|72
1621786957|98:54:1b:a2:7e:66|72
1621786960|0c:8c:24:bf:12:72|75
1621786960|0c:8c:24:bf:12:72|74
1621786963|48:ba:4e:d5:d1:40|81
1621786963|48:ba:4e:d5:d1:40|82
1621786968|0c:8c:24:bf:0c:c2|75
1621786968|0c:8c:24:bf:0c:c2|78
1621786968|0c:8c:24:bf:0c:c2|75
1621786970|78:dd:d9:83:98:7d|81
1621786971|78:dd:d9:83:98:7d|82
1621786973|48:ba:4e:d5:d1:40|85
1621786975|c8:02:10:bc:d8:df|84
1621786976|d4:6d:6d:e0:36:f7|79
1621786976|34:41:5d:cb:be:b1|87
1621786981|78:dd:d9:6c:36:4e|70
1621786983|48:ba:4e:d5:d1:40|86
1621786983|48:ba:4e:d5:d1:40|88
1621786988|d0:28:ba:57:4f:b3|79
1621786989|28:39:5e:d6:f7:7a|78
1621786989|0c:8c:24:bf:12:72|73
1621786989|0c:8c:24:bf:12:72|67
1621786991|08:25:25:a4:c1:7e|74
1621786993|48:ba:4e:d5:d1:40|87
1621786996|98:54:1b:be:fb:b3|74
1621786996|98:54:1b:be:fb:b3|74
1621786996|98:54:1b:be:fb:b3|65
1621786997|c8:02:10:bd:08:72|80
1621786998|c8:02:10:bc:d8:df|78
1621786998|a8:96:75:35:9a:40|71
1621786998|a8:96:75:35:9a:40|72
1621786998|d4:6d:6d:e0:c1:9e|68
1621787002|80:8a:8b:4a:8a:01|92
1621787002|80:8a:8b:4a:8a:01|91
1621787002|80:8a:8b:4a:8a:01|92
1621787003|78:dd:d9:83:98:7d|73
1621787004|0c:8c:24:bf:12:72|77
1621787004|0c:8c:24:bf:12:72|76
1621787004|0c:8c:24:bf:12:72|71
1621787004|0c:8c:24:bf:12:72|72
1621787004|48:ba:4e:d5:d1:40|86
1621787007|78:dd:d9:83:97:b9|71
1621787007|78:dd:d9:83:97:b9|68
1621787009|f4:d1:08:4e:22:df|72
1621787011|8c:79:f5:10:16:e8|76
1621787011|8c:79:f5:10:16:e8|76
1621787016|24:ec:99:3e:b2:4a|89
1621787017|78:dd:d9:83:94:9f|85
1621787018|bc:7e:8b:e7:0e:78|70
1621787018|bc:7e:8b:e7:0e:78|71
1621787020|c8:02:10:bd:08:72|84
1621787021|d4:6d:6d:e0:36:de|70
1621787021|78:dd:d9:83:97:b9|77
1621787022|7c:76:68:47:86:b9|91
1621787023|2c:fd:ab:58:48:45|72
1621787026|78:dd:d9:6c:36:4e|73
1621787031|d4:6d:6d:e0:3e:d1|72
1621787039|dc:8b:28:79:1f:71|70
1621787039|dc:8b:28:79:1f:71|72
1621787039|a8:7c:01:d7:b5:27|83
1621787041|28:24:ff:35:7f:1f|91
1621787041|f8:59:71:35:c8:9d|90
1621787043|c8:02:10:bd:08:72|82
1621787050|78:dd:d9:83:97:b9|79
1621787054|30:d1:6b:99:9e:d9|81
1621787054|74:c6:3b:7f:c8:45|85
1621787054|30:d1:6b:99:9e:d9|80
1621787055|f0:25:b7:7b:ad:04|73
1621787058|d4:6d:6d:e0:c1:9e|74
1621787066|30:07:4d:09:93:ae|90
1621787067|c8:02:10:bc:d8:df|78
1621787071|78:dd:d9:83:98:7d|71
1621787071|78:dd:d9:83:98:7d|69
1621787073|84:c0:ef:61:93:5d|74
1621787074|8c:79:f5:10:16:e8|78
1621787076|78:dd:d9:6c:36:4e|74
1621787076|78:dd:d9:6c:36:4e|71
1621787079|c8:02:10:bd:08:72|81
1621787079|bc:7e:8b:e7:0e:78|74
1621787079|bc:7e:8b:e7:0e:78|75
1621787081|d0:28:ba:57:4f:b3|78
1621787083|20:f4:78:fc:25:0d|76
1621787084|a8:96:75:35:9a:40|78
1621787084|a8:96:75:35:9a:40|79
1621787085|60:ab:67:9a:78:3d|84
1621787090|98:54:1b:a2:7e:66|71
1621787090|0c:8c:24:bf:0c:c2|69
1621787090|0c:8c:24:bf:0c:c2|68
1621787091|0c:8c:24:bf:0c:c2|72
1621787091|0c:8c:24:bf:0c:c2|71
1621787091|30:d1:6b:9a:3d:95|85
1621787092|30:d1:6b:9a:3d:95|83
1621787094|0c:8c:24:bf:12:72|64
1621787094|0c:8c:24:bf:12:72|63
1621787097|60:ab:67:9a:78:3d|86
1621787097|34:8b:75:1d:05:09|86
1621787099|dc:8b:28:79:1f:71|62
1621787099|a8:7c:01:d7:b5:27|85
1621787100|34:41:5d:cb:be:b1|65
1621787105|0c:8c:24:bf:0c:c2|63
1621787106|48:ba:4e:d5:d1:40|87
1621787109|78:dd:d9:6c:36:4e|77
1621787109|0c:8c:24:bf:12:72|65
1621787109|0c:8c:24:bf:12:72|65
1621787109|0c:8c:24:bf:12:72|69
1621787109|0c:8c:24:bf:12:72|71
1621787113|c8:02:10:bc:d8:df|65
1621787113|28:39:5e:d6:f7:7a|67
1621787113|28:39:5e:d6:f7:7a|68
1621787113|08:25:25:a4:c1:7e|67
1621787114|74:c6:3b:7f:c8:45|77
1621787114|74:c6:3b:7f:c8:45|73
1621787114|74:c6:3b:7f:c8:45|75
1621787114|74:c6:3b:7f:c8:45|75
1621787115|5c:51:81:dd:21:95|76
1621787115|5c:51:81:dd:21:95|76
1621787115|5c:51:81:dd:21:95|75
1621787115|5c:51:81:dd:21:95|76
1621787120|5c:51:81:dd:21:95|74
1621787122|78:dd:d9:83:98:7d|78
1621787122|78:dd:d9:83:98:7d|81
1621787122|78:dd:d9:83:94:9f|86
1621787123|c8:02:10:bd:08:72|77
1621787125|5c:51:81:dd:21:95|74
1621787125|5c:51:81:dd:21:95|74
1621787127|d0:28:ba:57:4f:b3|81
1621787130|60:ab:67:9a:78:3d|87
1621787131|5c:51:81:dd:21:95|79
1621787131|d4:b7:61:87:81:5b|93
1621787132|1c:cc:d6:40:cf:99|89
1621787132|1c:cc:d6:40:cf:99|89
1621787133|20:f4:78:fb:75:f3|81
1621787135|84:c0:ef:61:93:5d|70
1621787136|8c:79:f5:10:16:e8|79
1621787136|8c:79:f5:10:16:e8|80
1621787136|c8:02:10:bc:d8:df|69
1621787140|78:dd:d9:83:97:b9|76
1621787141|78:dd:d9:83:98:7d|75
1621787141|78:dd:d9:83:98:7d|72
1621787143|08:25:25:a4:c1:7e|79
1621787146|a8:7c:01:d7:b5:27|87
1621787146|5c:51:81:dd:21:95|76
1621787146|5c:51:81:dd:21:95|75
1621787146|c8:02:10:bd:08:72|77
1621787147|c8:02:10:bc:d8:df|73
1621787147|c8:02:10:bc:d8:df|69
1621787148|08:25:25:a4:c1:7e|73
1621787151|30:d1:6b:9a:3d:95|83
1621787151|d4:6d:6d:e0:3e:d1|76
1621787154|a8:96:75:35:9a:40|71
1621787154|a8:96:75:35:9a:40|72
1621787157|98:54:1b:a2:7e:66|70
1621787157|98:54:1b:a2:7e:66|70
1621787157|d4:b7:61:87:81:46|95
1621787159|78:dd:d9:83:98:7d|70
1621787159|dc:8b:28:79:1f:71|85
1621787164|20:f4:78:fc:25:0d|56
1621787164|20:f4:78:fc:25:0d|58
1621787164|20:f4:78:fc:25:0d|55
1621787167|08:25:25:a4:c1:7e|80
1621787169|d0:28:ba:57:4f:b3|82
1621787169|c8:02:10:bd:08:72|74
1621787171|d4:6d:6d:e0:e8:c2|72
1621787174|74:c6:3b:7f:c8:45|77
1621787174|74:c6:3b:7f:c8:45|74
1621787177|48:ba:4e:d5:d1:40|85
1621787181|0c:8c:24:bf:0c:c2|77
1621787181|0c:8c:24:bf:0c:c2|78
1621787182|c8:02:10:bd:08:72|73
1621787182|c8:02:10:bc:d8:df|68
1621787184|0c:8c:24:bf:12:72|68
1621787184|0c:8c:24:bf:12:72|70
1621787184|0c:8c:24:bf:12:72|65
1621787184|0c:8c:24:bf:12:72|66
1621787186|f0:25:b7:7b:ad:04|80
1621787189|94:76:b7:35:57:45|86
1621787193|c8:02:10:bd:08:72|79
1621787193|c8:02:10:bc:d8:df|72
1621787194|94:76:b7:35:57:45|80
1621787194|d0:28:ba:57:4f:b3|79
1621787194|d0:28:ba:57:4f:b3|81
1621787198|8c:79:f5:10:16:e8|81
1621787198|8c:79:f5:10:16:e8|82
1621787198|78:dd:d9:83:94:9f|82
1621787201|d4:b7:61:87:81:5b|90
1621787201|d4:b7:61:87:81:5b|91
1621787201|d4:b7:61:87:81:5b|87
1621787202|78:dd:d9:83:97:b9|77
1621787203|bc:7e:8b:e7:0e:78|77
1621787203|bc:7e:8b:e7:0e:78|76
1621787204|bc:7e:8b:e7:0e:78|70
1621787208|48:ba:4e:d5:d1:40|86
1621787209|d0:28:ba:57:4f:b3|82
1621787209|54:fc:f0:52:37:84|75
1621787210|94:76:b7:35:57:45|86
1621787210|0c:8c:24:bf:0c:c2|63
1621787210|0c:8c:24:bf:0c:c2|63
1621787211|d4:6d:6d:e0:3e:d1|77
1621787212|78:dd:d9:83:94:9f|82
1621787216|c8:02:10:bd:08:72|74
1621787216|78:dd:d9:83:97:b9|68
1621787221|08:25:25:a4:c1:7e|74
1621787222|20:f4:78:fb:75:f3|77
1621787227|78:dd:d9:83:94:9f|89
1621787227|78:dd:d9:6c:36:4e|69
1621787227|78:dd:d9:6c:36:4e|71
1621787228|c8:02:10:bd:08:72|79
1621787229|a4:4b:d5:ae:8f:e3|73
1621787231|78:dd:d9:83:97:b9|76
1621787231|78:dd:d9:83:97:b9|87
1621787234|b0:fc:36:aa:71:6d|90
1621787234|30:d1:6b:99:9e:d9|79
1621787235|00:0c:e7:e7:91:fe|91
1621787241|94:76:b7:35:57:45|69
1621787247|20:f4:78:fc:25:0d|73
1621787249|f4:d1:08:4e:22:df|50
1621787261|a8:7c:01:d7:b5:27|71
1621787262|c8:02:10:bd:08:72|81
1621787263|98:54:1b:be:fb:b3|72
1621787263|98:54:1b:be:fb:b3|72
1621787266|80:8a:8b:4a:8a:01|91
1621787267|d4:6d:6d:e0:e8:c2|54
1621787267|d4:6d:6d:e0:e8:c2|53
1621787268|68:e7:c2:ef:d6:d1|86
1621787268|68:e7:c2:ef:d6:d1|86
1621787269|08:25:25:a4:c1:7e|62
1621787270|08:25:25:a4:c1:7e|63
1621787271|80:8a:8b:4a:8a:01|87
1621787271|80:8a:8b:4a:8a:01|89
1621787272|d4:6d:6d:e0:3e:d1|53
1621787285|c8:02:10:bc:d8:df|72
1621787286|0c:8c:24:bf:0c:c2|83
1621787287|d4:6d:6d:e0:e8:d1|75
1621787289|0c:8c:24:bf:12:72|69
1621787289|0c:8c:24:bf:12:72|63
1621787290|b8:27:eb:65:e6:62|66
1621787290|0c:8c:24:bf:12:72|65
1621787290|0c:8c:24:bf:12:72|66
1621787294|30:d1:6b:99:9e:d9|84
1621787294|b0:fc:36:aa:71:6d|91
1621787295|78:dd:d9:6c:36:4e|79
1621787296|78:dd:d9:6c:36:4e|77
1621787296|c8:02:10:bd:08:72|78
1621787297|d4:6d:6d:e0:c1:9e|61
1621787298|7c:76:68:47:86:b9|85
1621787300|08:25:25:a4:c1:7e|72
1621787300|0c:8c:24:bf:0c:c2|69
1621787309|f4:d1:08:4e:22:df|67
1621787311|08:25:25:a4:c1:7e|71
1621787319|c8:02:10:bc:d8:df|74
1621787321|78:dd:d9:83:97:b9|81
1621787321|78:dd:d9:83:97:b9|82
1621787321|8c:79:f5:10:16:e8|66
1621787322|8c:79:f5:10:16:e8|65
1621787322|8c:79:f5:10:16:e8|65
1621787324|24:18:1d:1b:9c:35|74
1621787324|a4:6b:b6:35:40:8a|69
1621787329|98:54:1b:be:fb:b3|70
1621787329|98:54:1b:be:fb:b3|68
1621787330|80:8a:8b:4a:8a:01|92
1621787333|d4:6d:6d:e0:e8:c2|55
1621787333|d4:6d:6d:e0:e8:c2|54
1621787335|0c:8c:24:bf:07:4f|79
1621787335|0c:8c:24:bf:07:4f|81
1621787335|d4:6d:6d:e0:36:f7|64
1621787340|f8:59:71:35:c8:9d|85
1621787341|48:ba:4e:d5:d1:40|87
1621787341|f8:59:71:35:c8:9d|89
1621787341|f8:59:71:35:c8:9d|88
1621787342|c8:02:10:bc:d8:df|73
1621787347|d4:6d:6d:e0:e8:d1|68
1621787353|88:07:4b:e7:cf:33|71
1621787353|48:5f:99:98:c6:5f|90
1621787353|88:07:4b:e7:cf:33|67
1621787357|40:3f:8c:39:a6:2f|87
1621787359|08:c5:e1:f5:a9:e4|53
1621787359|08:c5:e1:f5:a9:e4|64
1621787361|48:ba:4e:d5:d1:40|89
1621787361|48:ba:4e:d5:d1:40|95
1621787364|0c:8c:24:bf:07:4f|80
1621787365|c8:02:10:bc:d8:df|76
1621787365|08:c5:e1:f5:a9:e4|68
1621787365|08:c5:e1:f5:a9:e4|64
1621787369|f4:d1:08:4e:22:df|66
1621787370|08:c5:e1:f5:a9:e4|63
1621787374|24:77:03:25:42:f4|81
1621787376|08:c5:e1:f5:a9:e4|59
1621787376|08:c5:e1:f5:a9:e4|57
1621787376|08:c5:e1:f5:a9:e4|58
1621787376|08:c5:e1:f5:a9:e4|57
1621787377|c8:02:10:bd:08:72|80
1621787379|08:25:25:a4:c1:7e|72
1621787379|08:25:25:a4:c1:7e|76
1621787379|08:25:25:a4:c1:7e|77
1621787384|8c:79:f5:10:16:e8|69
1621787384|8c:79:f5:10:16:e8|70
1621787385|a4:6b:b6:35:40:8a|83
1621787387|08:c5:e1:f5:a9:e4|59
1621787387|08:c5:e1:f5:a9:e4|67
1621787387|08:c5:e1:f5:a9:e4|62
1621787388|c8:02:10:bd:08:72|76
1621787388|c8:02:10:bd:08:72|80
1621787390|0c:8c:24:bf:0c:c2|74
1621787392|30:d1:6b:9a:3d:95|85
1621787392|d4:6d:6d:e0:3e:d1|62
1621787393|a8:96:75:35:9a:40|87
1621787393|08:c5:e1:f5:a9:e4|67
1621787396|78:dd:d9:6c:36:4e|86
1621787398|08:c5:e1:f5:a9:e4|66
1621787398|c8:02:10:bd:08:72|68
1621787401|c8:02:10:bc:d8:df|67
1621787402|08:25:25:a4:c1:7e|71
1621787402|08:25:25:a4:c1:7e|74
1621787407|34:41:5d:cb:be:b1|89
1621787407|78:dd:d9:83:94:9f|83
1621787408|34:41:5d:cb:be:b1|74
1621787409|0c:8c:24:bf:12:72|64
1621787412|78:dd:d9:83:97:b9|72
1621787412|48:ba:4e:d5:d1:40|89
1621787414|c0:17:4d:c7:46:e7|76
1621787414|c0:17:4d:c7:46:e7|75
1621787414|08:25:25:a4:c1:7e|65
1621787418|80:8a:8b:4a:8a:01|90
1621787419|08:25:25:a4:c1:7e|63
1621787419|08:25:25:a4:c1:7e|63
1621787419|08:25:25:a4:c1:7e|61
1621787423|28:39:5e:d6:f7:7a|73
1621787423|28:39:5e:d6:f7:7a|74
1621787426|78:dd:d9:83:97:b9|81
1621787429|a8:96:75:35:9a:40|68
1621787430|f4:d1:08:4e:22:df|71
1621787432|08:25:25:a4:c1:7e|75
1621787444|84:c0:ef:61:93:5d|65
1621787444|84:c0:ef:61:93:5d|65
1621787446|8c:79:f5:10:16:e8|64
1621787446|8c:79:f5:10:16:e8|65
1621787451|d4:6d:6d:e0:3e:d1|74
1621787452|bc:7e:8b:e7:0e:78|74
1621787454|0c:8c:24:bf:07:4f|77
1621787454|0c:8c:24:bf:07:4f|79
1621787458|7c:78:7e:de:2a:12|76
1621787459|dc:8b:28:79:1f:71|78
1621787461|78:dd:d9:83:98:7d|81
1621787461|78:dd:d9:83:98:7d|81
1621787463|98:54:1b:be:fb:b3|63
1621787466|0c:8c:24:bf:0c:c2|81
1621787466|0c:8c:24:bf:0c:c2|82
1621787467|d4:6d:6d:e0:e8:d1|60
1621787467|7c:78:7e:de:2a:12|76
1621787469|34:41:5d:cb:be:b1|64
1621787470|0c:8c:24:bf:12:72|71
1621787470|0c:8c:24:bf:12:72|69
1621787470|0c:8c:24:bf:12:72|68
1621787470|0c:8c:24:bf:12:72|67
1621787470|0c:8c:24:bf:12:72|66
1621787471|a4:4b:d5:ae:8f:e3|70
1621787474|04:b4:29:e2:5d:23|66
1621787479|d4:6d:6d:e0:c1:9e|67
1621787479|d4:6d:6d:e0:c1:9e|68
1621787483|c8:02:10:bc:d8:df|73
1621787484|a8:96:75:35:9a:40|78
1621787484|a8:96:75:35:9a:40|78
1621787489|f4:d1:08:4e:22:df|71
1621787492|0c:8c:24:bf:0f:65|72
1621787493|c8:02:10:bc:d8:df|71
1621787495|08:c5:e1:f5:a9:e4|89
1621787495|0c:8c:24:bf:0c:c2|74
1621787495|0c:8c:24:bf:0c:c2|73
1621787495|0c:8c:24:bf:0c:c2|76
1621787496|0c:8c:24:bf:0c:c2|75
1621787498|78:dd:d9:83:94:9f|83
1621787499|0c:8c:24:bf:12:72|67
1621787499|0c:8c:24:bf:12:72|67
1621787499|0c:8c:24:bf:12:72|65
1621787499|0c:8c:24:bf:12:72|65
1621787501|d4:6d:6d:e0:36:de|64
1621787502|78:dd:d9:83:97:b9|82
1621787503|c8:02:10:bd:08:72|75
1621787504|c0:17:4d:c7:46:e7|78
1621787504|c0:17:4d:c7:46:e7|77
1621787504|c0:17:4d:c7:46:e7|77
1621787504|c0:17:4d:c7:46:e7|77
1621787507|8c:79:f5:10:16:e8|71
1621787508|c0:17:4d:c7:46:e7|81
1621787508|c0:17:4d:c7:46:e7|80
1621787508|c0:17:4d:c7:46:e7|81
1621787508|c0:17:4d:c7:46:e7|81
1621787509|7c:78:7e:de:2a:12|89
1621787509|7c:78:7e:de:2a:12|90
1621787511|d4:6d:6d:e0:3e:d1|68
1621787512|78:dd:d9:83:94:9f|91
1621787513|d4:6d:6d:e0:e8:c2|66
1621787513|bc:7e:8b:e7:0e:78|76
1621787514|bc:7e:8b:e7:0e:78|77
1621787516|d4:6d:6d:e0:36:f7|52
1621787516|c8:02:10:bc:d8:df|74
1621787517|78:dd:d9:83:97:b9|83
1621787519|dc:8b:28:79:1f:71|75
1621787521|28:24:ff:35:7f:1f|84
1621787523|f8:59:71:35:c8:9d|87
1621787524|d8:32:e3:50:2a:2a|75
1621787527|6c:c7:ec:13:a2:7c|86
1621787529|98:54:1b:be:fb:b3|67
1621787529|98:54:1b:be:fb:b3|66
1621787533|88:07:4b:e7:cf:33|82
1621787539|c8:02:10:bc:d8:df|74
1621787539|d4:6d:6d:e0:c1:9e|71
1621787539|88:07:4b:e7:cf:33|71
1621787545|08:25:25:a4:c1:7e|68
1621787546|00:0c:e7:82:e3:b2|72
1621787546|00:0c:e7:82:e3:b2|72
1621787547|c8:02:10:bd:08:72|77
1621787547|78:dd:d9:6c:36:4e|73
1621787548|88:07:4b:e7:cf:33|73
1621787548|88:07:4b:e7:cf:33|70
1621787548|7c:67:a2:8e:07:97|87
1621787554|a8:96:75:35:9a:40|72
1621787555|48:ba:4e:d5:d1:40|90
1621787560|c8:02:10:bd:08:72|81
1621787560|0c:8c:24:bf:12:72|63
1621787560|0c:8c:24:bf:12:72|65
1621787560|0c:8c:24:bf:12:72|66
1621787560|0c:8c:24:bf:12:72|67
1621787560|0c:8c:24:bf:12:72|67
1621787562|c8:02:10:bc:d8:df|73
1621787565|58:85:a2:1e:1a:3b|87
1621787565|58:85:a2:1e:1a:3b|84
1621787565|58:85:a2:1e:1a:3b|87
1621787565|48:ba:4e:d5:d1:40|92
1621787576|a8:96:75:35:9a:40|80
1621787576|a8:96:75:35:9a:40|80
1621787576|d4:6d:6d:e0:36:f7|56
1621787576|bc:7e:8b:e7:0e:78|72
1621787576|d4:6d:6d:e0:e8:c2|61
1621787579|dc:8b:28:79:1f:71|76
1621787583|b0:fc:36:a9:6a:2f|95
1621787583|0c:8c:24:bf:0f:65|69
1621787583|0c:8c:24:bf:0f:65|72
1621787583|0c:8c:24:bf:0f:65|72
1621787583|0c:8c:24:bf:0f:65|74
1621787584|0c:8c:24:bf:0f:65|74
1621787586|0c:8c:24:bf:0c:c2|77
1621787588|d4:6d:6d:e0:e8:d1|59
1621787594|c0:17:4d:c7:46:e7|79
1621787595|30:d1:6b:99:9e:d9|85
1621787598|0c:8c:24:bf:0f:65|70
1621787598|0c:8c:24:bf:0f:65|67
1621787598|0c:8c:24:bf:0f:65|67
1621787598|c0:17:4d:c7:46:e7|83
1621787598|c0:17:4d:c7:46:e7|83
1621787598|c0:17:4d:c7:46:e7|84
1621787604|08:25:25:a4:c1:7e|74
1621787608|c8:02:10:bc:d8:df|74
1621787609|90:e7:c4:df:7f:14|88
1621787609|90:e7:c4:df:7f:14|89
1621787610|f4:d1:08:4e:22:df|72
1621787616|7c:76:68:47:86:b9|69
1621787616|7c:76:68:47:86:b9|70
1621787616|c8:02:10:bd:08:72|84
1621787619|c8:02:10:bc:d8:df|74
1621787624|a4:6b:b6:35:40:8a|73
1621787627|0c:8c:24:bf:0f:65|65
1621787627|0c:8c:24:bf:0f:65|65
1621787627|0c:8c:24:bf:0f:65|64
1621787629|c8:02:10:bd:08:72|83
1621787631|c8:02:10:bc:d8:df|75
1621787632|d4:6d:6d:e0:3e:d1|63
1621787635|d4:6d:6d:e0:36:f7|62
1621787635|d4:6d:6d:e0:36:f7|61
1621787639|dc:8b:28:79:1f:71|68
1621787639|c8:02:10:bd:08:72|76
1621787639|c8:02:10:bd:08:72|74
1621787640|78:dd:d9:83:98:7d|83
1621787641|24:77:03:25:42:f4|84
1621787642|00:0c:e7:1d:38:11|77
1621787642|00:0c:e7:1d:38:11|77
1621787642|00:0c:e7:1d:38:11|80
1621787642|00:0c:e7:1d:38:11|81
1621787642|c8:02:10:bc:d8:df|74
1621787642|c8:02:10:bc:d8:df|76
1621787646|54:fc:f0:52:37:84|63
1621787648|54:fc:f0:52:37:84|50
1621787648|6c:c7:ec:13:a2:7c|89
1621787649|00:d0:c9:f3:00:70|93
1621787649|0c:8c:24:bf:07:4f|83
1621787649|0c:8c:24:bf:07:4f|84
1621787651|0c:8c:24:bf:12:72|73
1621787658|d4:6d:6d:e0:c1:9e|64
1621787662|98:54:1b:be:fb:b3|72
1621787662|c8:02:10:bd:08:72|72
1621787665|c8:02:10:bc:d8:df|71
1621787669|f4:d1:08:4e:22:df|73
1621787673|24:18:1d:1b:9c:35|92
1621787675|c8:02:10:bd:08:72|74
1621787677|00:d0:c9:f3:00:70|98
1621787678|0c:8c:24:bf:07:4f|71
1621787679|0c:8c:24:bf:07:4f|75
1621787680|0c:8c:24:bf:12:72|71
1621787684|54:fc:f0:52:37:84|63
1621787684|c0:17:4d:c7:46:e7|79
1621787684|c0:17:4d:c7:46:e7|80
1621787684|c0:17:4d:c7:46:e7|79
1621787684|c0:17:4d:c7:46:e7|79
1621787684|c0:17:4d:c7:46:e7|79
1621787685|a4:6b:b6:35:40:8a|76
1621787688|0c:8c:24:bf:0f:65|77
1621787688|0c:8c:24:bf:0f:65|75
1621787688|c0:17:4d:c7:46:e7|77
1621787688|0c:8c:24:bf:0f:65|77
1621787688|0c:8c:24:bf:0f:65|77
1621787688|c0:17:4d:c7:46:e7|77
1621787688|c0:17:4d:c7:46:e7|78
1621787688|c0:17:4d:c7:46:e7|78
1621787689|c0:17:4d:c7:46:e7|77
1621787690|78:dd:d9:83:98:7d|83
1621787691|0c:8c:24:bf:0c:c2|79
1621787692|98:54:1b:a2:7e:66|81
1621787693|84:c0:ef:61:93:5d|59
1621787693|84:c0:ef:61:93:5d|59
1621787694|8c:79:f5:10:16:e8|66
1621787694|8c:79:f5:10:16:e8|63
1621787694|8c:79:f5:10:16:e8|65
1621787694|0c:8c:24:bf:12:72|72
1621787696|d4:6d:6d:e0:36:f7|59
1621787697|78:dd:d9:83:97:b9|81
1621787698|d4:6d:6d:e0:e8:c2|53
1621787698|88:07:4b:e7:cf:33|53
1621787698|88:07:4b:e7:cf:33|53
1621787698|88:07:4b:e7:cf:33|53
1621787698|88:07:4b:e7:cf:33|53
1621787698|88:07:4b:e7:cf:33|53
1621787698|88:07:4b:e7:cf:33|52
1621787698|88:07:4b:e7:cf:33|56
1621787699|78:dd:d9:6c:36:4e|78
1621787699|d4:6d:6d:e0:e8:c2|55
1621787699|d4:6d:6d:e0:e8:c2|55
1621787703|f8:59:71:35:c8:9d|90
1621787703|f8:59:71:35:c8:9d|89
1621787703|20:f4:78:fb:75:f3|79
1621787705|0c:8c:24:bf:0c:c2|71
1621787708|24:77:03:25:42:f4|83
1621787708|24:77:03:25:42:f4|84
1621787717|78:dd:d9:6c:36:4e|80
1621787717|78:dd:d9:6c:36:4e|83
1621787717|d4:6d:6d:e0:c1:9e|59
1621787718|78:dd:d9:6c:36:4e|74
1621787719|c8:02:10:bd:08:72|78
1621787722|c8:02:10:bc:d8:df|70
1621787728|98:54:1b:be:fb:b3|70
1621787728|98:54:1b:be:fb:b3|70
1621787729|a8:96:75:35:9a:40|75
1621787729|a8:96:75:35:9a:40|75
1621787729|f4:d1:08:4e:22:df|76
1621787730|e4:5d:75:08:3f:dd|87
1621787730|e4:5d:75:08:3f:dd|82
1621787730|f4:d1:08:4e:22:df|70
1621787730|f4:d1:08:4e:22:df|68
1621787733|a8:96:75:35:9a:40|77
1621787733|28:39:5e:d6:f7:7a|71
1621787733|28:39:5e:d6:f7:7a|71
1621787733|a8:96:75:35:9a:40|72
1621787733|a8:96:75:35:9a:40|68
1621787741|08:25:25:a4:c1:7e|83
1621787742|c8:02:10:bd:08:72|71
1621787745|c8:02:10:bc:d8:df|75
1621787751|d4:6d:6d:e0:3e:d1|49
1621787755|84:c0:ef:61:93:5d|56
1621787755|c8:02:10:bd:08:72|69
1621787755|0c:8c:24:bf:12:72|68
1621787755|0c:8c:24:bf:12:72|68
1621787755|8c:79:f5:10:16:e8|53
1621787755|8c:79:f5:10:16:e8|53
1621787755|8c:79:f5:10:16:e8|52
1621787755|8c:79:f5:10:16:e8|52
1621787757|c8:02:10:bc:d8:df|70
1621787757|7c:67:a2:8e:07:60|87
1621787759|dc:8b:28:79:1f:71|73
1621787759|dc:8b:28:79:1f:71|75
1621787759|48:ba:4e:d5:d1:40|92
1621787760|d4:6d:6d:e0:e8:c2|64
1621787760|d4:6d:6d:e0:e8:c2|59
1621787765|c8:02:10:bd:08:72|75
1621787766|c8:02:10:bd:08:72|74
1621787766|0c:8c:24:bf:0c:c2|84
1621787766|0c:8c:24:bf:0c:c2|82
1621787766|0c:8c:24:bf:0c:c2|79
1621787768|20:f4:78:da:02:b1|77
1621787772|2c:fd:ab:58:48:45|77
1621787775|c0:17:4d:c7:46:e7|72
1621787775|30:d1:6b:99:9e:d9|83
1621787775|30:d1:6b:99:9e:d9|83
1621787777|34:41:5d:cb:be:b1|72
1621787777|d4:6d:6d:e0:c1:9e|53
1621787778|c8:02:10:bd:08:72|73
1621787779|0c:8c:24:bf:0f:65|73
1621787779|0c:8c:24:bf:0f:65|71
1621787779|c0:17:4d:c7:46:e7|78
1621787779|c0:17:4d:c7:46:e7|79
1621787779|c0:17:4d:c7:46:e7|79
1621787779|c0:17:4d:c7:46:e7|79
1621787780|c8:02:10:bc:d8:df|67
1621787781|0c:8c:24:bf:0c:c2|79
1621787781|0c:8c:24:bf:0c:c2|79
1621787785|0c:8c:24:bf:12:72|66
1621787785|0c:8c:24:bf:12:72|67
1621787785|0c:8c:24:bf:12:72|72
1621787785|0c:8c:24:bf:12:72|70
1621787786|ac:5f:3e:f4:e0:3f|51
1621787786|ac:5f:3e:f4:e0:3f|50
1621787788|7c:67:a2:8e:07:97|83
1621787789|c8:02:10:bd:08:72|68
1621787796|98:54:1b:be:fb:b3|64
1621787799|48:a4:72:4d:bd:e0|71
1621787801|c8:02:10:bd:08:72|69
1621787805|a4:6b:b6:35:40:8a|75
1621787811|30:d1:6b:9a:3d:95|84
1621787813|78:dd:d9:83:94:9f|87
1621787817|84:c0:ef:61:93:5d|68
1621787817|78:dd:d9:83:97:b9|83
1621787821|d4:6d:6d:e0:e8:c2|61
1621787821|50:5b:c2:93:17:09|82
1621787822|f8:59:71:35:c8:9d|89
1621787823|50:5b:c2:93:17:09|80
1621787823|b0:fc:36:a9:6a:2f|87
1621787825|c8:02:10:bc:d8:df|67
1621787825|c8:02:10:bc:d8:df|71
1621787825|98:54:1b:a2:7e:66|67
1621787826|d4:6d:6d:e0:e8:d1|71
1621787830|78:dd:d9:83:97:b9|75
1621787830|0c:8c:24:bf:07:4f|79
1621787832|54:fc:f0:52:37:84|68
1621787834|74:c6:3b:7f:c8:45|82
1621787834|74:c6:3b:7f:c8:45|82
1621787837|c8:02:10:bc:d8:df|66
1621787838|d4:6d:6d:e0:c1:9e|56
1621787841|d0:28:ba:57:4f:b3|74
1621787846|c8:02:10:bd:08:72|70
1621787848|c8:02:10:bc:d8:df|69
1621787849|78:dd:d9:6c:36:4e|79
1621787851|d4:b7:61:87:81:5b|90
1621787852|54:fc:f0:52:37:84|73
1621787858|c8:02:10:bd:08:72|67
1621787859|0c:8c:24:bf:07:4f|81
1621787860|c8:02:10:bc:d8:df|70
1621787860|c8:02:10:bc:d8:df|79
1621787861|0c:8c:24:bf:12:72|63
1621787865|c0:17:4d:c7:46:e7|76
1621787865|c0:17:4d:c7:46:e7|74
1621787865|c0:17:4d:c7:46:e7|74
1621787865|c0:17:4d:c7:46:e7|73
1621787865|a4:6b:b6:35:40:8a|77
1621787869|c8:02:10:bd:08:72|72
1621787869|c0:17:4d:c7:46:e7|74
1621787869|c0:17:4d:c7:46:e7|74
1621787869|c0:17:4d:c7:46:e7|74
1621787869|c0:17:4d:c7:46:e7|74
1621787869|c0:17:4d:c7:46:e7|75
1621787869|c0:17:4d:c7:46:e7|75
1621787869|c0:17:4d:c7:46:e7|76
1621787869|c0:17:4d:c7:46:e7|75
1621787869|c0:17:4d:c7:46:e7|75
1621787869|c0:17:4d:c7:46:e7|75
1621787869|0c:8c:24:bf:0f:65|71
1621787870|78:dd:d9:83:98:7d|84
1621787871|c8:02:10:bc:d8:df|68
1621787874|0c:8c:24:bf:07:4f|79
1621787874|0c:8c:24:bf:07:4f|79
1621787874|0c:8c:24:bf:07:4f|80
1621787875|0c:8c:24:bf:12:72|68
1621787875|0c:8c:24:bf:12:72|68
1621787879|8c:79:f5:10:16:e8|68
1621787883|c8:02:10:bc:d8:df|68
1621787883|c8:02:10:bc:d8:df|70
1621787888|58:20:59:6f:ab:47|66
1621787888|58:20:59:6f:ab:47|66
1621787888|58:20:59:6f:ab:47|67
1621787888|58:20:59:6f:ab:47|66
1621787888|58:20:59:6f:ab:47|66
1621787888|58:20:59:6f:ab:47|67
1621787888|58:20:59:6f:ab:47|68
1621787888|58:20:59:6f:ab:47|68
1621787888|58:20:59:6f:ab:47|67
1621787888|58:20:59:6f:ab:47|68
1621787888|58:20:59:6f:ab:47|69
1621787888|58:20:59:6f:ab:47|68
1621787888|58:20:59:6f:ab:47|72
1621787889|0c:8c:24:bf:07:4f|76
1621787889|0c:8c:24:bf:07:4f|76
1621787889|6c:c7:ec:13:a2:7c|79
1621787890|0c:8c:24:bf:12:72|67
1621787891|d4:6d:6d:e0:36:f7|75
1621787891|98:54:1b:a2:7e:66|71
1621787891|98:54:1b:a2:7e:66|70
1621787892|d4:b7:61:87:81:5b|92
1621787892|d4:6d:6d:e0:36:f7|70
1621787894|c8:02:10:bc:d8:df|67
1621787894|74:c6:3b:7f:c8:45|83
1621787894|74:c6:3b:7f:c8:45|82
1621787895|74:c6:3b:7f:c8:45|86
1621787895|40:f5:20:44:c3:a4|46
1621787897|40:f5:20:44:c3:a4|43
1621787897|2c:fd:ab:58:48:45|81
1621787898|0c:8c:24:bf:0f:65|70
1621787898|0c:8c:24:bf:0f:65|71
1621787898|34:41:5d:cb:be:b1|61
1621787898|0c:8c:24:bf:0f:65|71
1621787901|40:f5:20:44:c3:a4|39
1621787903|c0:b5:cd:2c:4e:e5|71
1621787904|0c:8c:24:bf:12:72|62
1621787904|0c:8c:24:bf:12:72|64
1621787904|0c:8c:24:bf:12:72|65
1621787906|c8:02:10:bc:d8:df|66
1621787907|24:77:03:25:42:f4|72
1621787907|24:77:03:25:42:f4|73
1621787908|40:f5:20:44:c3:a4|41
1621787908|40:f5:20:44:c3:a4|44
1621787912|40:f5:20:44:c3:a4|43
1621787913|40:f5:20:44:c3:a4|39
1621787913|0c:8c:24:bf:0f:65|69
1621787919|78:dd:d9:83:97:b9|87
1621787920|28:39:5e:d6:f7:7a|62
1621787920|40:f5:20:44:c3:a4|41
1621787921|58:85:a2:1e:1a:3b|89
1621787921|58:85:a2:1e:1a:3b|89
1621787921|58:85:a2:1e:1a:3b|86
1621787921|58:85:a2:1e:1a:3b|85
1621787921|20:f4:78:da:02:b1|83
1621787921|20:f4:78:da:02:b1|84
1621787925|40:f5:20:44:c3:a4|42
1621787926|1c:dd:ea:c1:18:51|69
1621787932|d4:6d:6d:e0:3e:d1|65
1621787936|a8:96:75:35:9a:40|80
1621787938|c8:02:10:bd:08:72|70
1621787940|c8:02:10:bc:d8:df|67
1621787942|8c:79:f5:10:16:e8|65
1621787942|8c:79:f5:10:16:e8|65
1621787947|d4:6d:6d:e0:e8:d1|75
1621787947|d4:6d:6d:e0:e8:d1|66
1621787951|c8:02:10:bc:d8:df|68
1621787954|74:c6:3b:7f:c8:45|82
1621787954|74:c6:3b:7f:c8:45|83
1621787959|98:54:1b:a2:7e:66|73
1621787959|98:54:1b:a2:7e:66|72
1621787963|c8:02:10:bc:d8:df|71
1621787964|0c:8c:24:bf:07:4f|83
1621787964|0c:8c:24:bf:07:4f|84
1621787964|0c:8c:24:bf:07:4f|76
1621787965|0c:8c:24:bf:12:72|67
1621787966|88:07:4b:e7:cf:33|65
1621787970|08:25:25:a4:c1:7e|79
1621787971|78:dd:d9:83:98:7d|85
1621787974|24:77:03:25:42:f4|82
1621787974|24:77:03:25:42:f4|82
1621787974|24:77:03:25:42:f4|81
1621787974|7c:76:68:47:86:b9|59
1621787974|7c:76:68:47:86:b9|59
1621787974|24:77:03:25:42:f4|81
1621787981|28:39:5e:d6:f7:7a|60
1621787981|28:39:5e:d6:f7:7a|59
1621787989|0c:8c:24:bf:0f:65|73
1621787989|0c:8c:24:bf:0f:65|73
1621787990|58:85:a2:1e:1a:3b|82
1621787990|58:85:a2:1e:1a:3b|81
1621787991|0c:8c:24:bf:0c:c2|71
1621787991|0c:8c:24:bf:0c:c2|72
1621787991|d4:6d:6d:e0:3e:d1|63
1621787992|30:07:4d:09:93:ae|87
1621787994|c8:02:10:bd:08:72|68
1621787995|98:54:1b:be:fb:b3|63
1621787995|98:54:1b:be:fb:b3|62
1621787995|98:54:1b:be:fb:b3|63
1621787999|ec:1f:72:e6:bd:78|72
1621788002|84:c0:ef:61:93:5d|64
1621788002|84:c0:ef:61:93:5d|65
1621788004|08:25:25:a4:c1:7e|78
1621788004|8c:79:f5:10:16:e8|68
1621788004|8c:79:f5:10:16:e8|68
1621788006|d4:6d:6d:e0:e8:c2|71
1621788007|c8:02:10:bd:08:72|72
1621788009|78:dd:d9:83:97:b9|81
1621788010|d8:32:e3:50:2a:2a|66
1621788010|7c:76:68:47:86:b9|66
1621788011|7c:76:68:47:86:b9|68
1621788011|7c:76:68:47:86:b9|68
1621788014|74:c6:3b:7f:c8:45|81
1621788014|74:c6:3b:7f:c8:45|81
1621788017|d4:b7:61:87:81:5b|91
1621788017|ec:1f:72:e6:bd:78|71
1621788020|c8:02:10:bc:d8:df|68
1621788020|a8:96:75:35:9a:40|71
1621788023|34:41:5d:cb:be:b1|63
1621788024|78:dd:d9:83:97:b9|83
1621788025|98:54:1b:a2:7e:66|70
1621788025|98:54:1b:a2:7e:66|71
1621788027|ec:1f:72:e6:bd:78|64
1621788027|ec:1f:72:e6:bd:78|64
1621788027|ec:1f:72:e6:bd:78|65
1621788027|ec:1f:72:e6:bd:78|65
1621788027|ec:1f:72:e6:bd:78|65
1621788030|c8:02:10:bd:08:72|73
1621788031|c0:17:4d:22:ce:f5|84
1621788033|c8:02:10:bc:d8:df|74
1621788034|e4:f8:9c:34:dd:d4|83
1621788038|78:dd:d9:83:97:b9|89
1621788040|0c:8c:24:bf:07:4f|84
1621788043|c8:02:10:bc:d8:df|71
1621788043|c8:02:10:bc:d8:df|67
1621788043|28:39:5e:d6:f7:7a|55
1621788043|28:39:5e:d6:f7:7a|55
1621788044|00:0c:e7:8a:33:7e|78
1621788044|00:0c:e7:8a:33:7e|77
1621788046|d4:b7:61:87:81:5b|89
1621788050|78:dd:d9:6c:36:4e|83
1621788051|d4:6d:6d:e0:3e:d1|61
1621788051|d4:6d:6d:e0:3e:d1|58
1621788051|08:25:25:a4:c1:7e|87
1621788052|30:d1:6b:9a:3d:95|84
1621788052|30:d1:6b:9a:3d:95|83
1621788053|c8:02:10:bd:08:72|73
1621788056|c8:02:10:bc:d8:df|71
1621788056|0c:8c:24:bf:12:72|64
1621788056|0c:8c:24:bf:12:72|63
1621788059|dc:8b:28:79:1f:71|81
1621788064|84:c0:ef:61:93:5d|68
1621788065|d4:b7:61:a0:6f:0d|89
1621788071|d4:6d:6d:e0:36:f7|68
1621788075|b0:fc:36:aa:71:6d|90
1621788075|74:c6:3b:7f:c8:45|90
1621788075|74:c6:3b:7f:c8:45|91
1621788075|30:d1:6b:99:9e:d9|83
1621788075|b0:fc:36:aa:71:6d|92
1621788079|c8:02:10:bc:d8:df|67
1621788079|0c:8c:24:bf:0f:65|78
1621788081|0c:8c:24:bf:0c:c2|73
1621788081|0c:8c:24:bf:0c:c2|73
1621788084|0c:8c:24:bf:07:4f|73
1621788085|0c:8c:24:bf:12:72|65
1621788085|0c:8c:24:bf:12:72|65
1621788085|0c:8c:24:bf:12:72|62
1621788085|0c:8c:24:bf:12:72|63
1621788085|7c:76:68:47:86:b9|71
1621788085|7c:76:68:47:86:b9|72
1621788085|7c:76:68:47:86:b9|72
1621788085|7c:76:68:47:86:b9|71
1621788089|f4:d1:08:4e:22:df|71
1621788089|f4:d1:08:4e:22:df|75
1621788092|98:54:1b:a2:7e:66|64
1621788092|98:54:1b:a2:7e:66|64
1621788099|c8:02:10:bc:d8:df|65
1621788099|c8:02:10:bc:d8:df|63
1621788104|c0:17:4d:c7:46:e7|71
1621788105|a4:6b:b6:35:40:8a|78
1621788108|24:77:03:25:42:f4|76
1621788108|24:77:03:25:42:f4|76
1621788108|24:77:03:25:42:f4|77
1621788110|c8:02:10:bd:08:72|69
1621788110|c8:02:10:bd:08:72|67
1621788111|30:d1:6b:9a:3d:95|83
1621788112|c8:02:10:bc:d8:df|68
1621788112|c8:02:10:bc:d8:df|65
1621788114|28:39:5e:db:af:91|90
1621788120|c8:02:10:bd:08:72|77
1621788121|60:23:a4:df:d8:d0|72
1621788121|60:23:a4:df:d8:d0|71
1621788121|60:23:a4:df:d8:d0|73
1621788126|2c:fd:ab:58:48:45|76
1621788126|2c:fd:ab:58:48:45|76
1621788127|d4:6d:6d:e0:e8:c2|70
1621788129|78:dd:d9:83:97:b9|80
1621788129|d4:6d:6d:e0:e8:c2|69
1621788129|98:54:1b:be:fb:b3|66
1621788129|98:54:1b:be:fb:b3|68
1621788129|98:54:1b:be:fb:b3|69
1621788131|ac:5f:3e:f4:e0:3f|51
1621788133|c8:02:10:bd:08:72|65
1621788133|88:83:5d:96:cd:b0|93
1621788134|30:d1:6b:99:9e:d9|85
1621788134|c0:17:4d:c7:46:e7|70
1621788134|c0:17:4d:c7:46:e7|72
1621788134|c0:17:4d:c7:46:e7|71
1621788134|c0:17:4d:c7:46:e7|70
1621788135|d8:32:e3:50:2a:2a|77
1621788135|c8:02:10:bc:d8:df|55
1621788136|d4:b7:61:87:81:5b|90
1621788137|d4:6d:6d:e0:c1:9e|71
1621788138|d4:b7:61:a0:6f:13|94
1621788138|e4:5d:75:08:3f:dd|81
1621788138|e4:5d:75:08:3f:dd|79
1621788138|d4:6d:6d:e0:c1:9e|68
1621788140|ec:1f:72:e6:bd:78|78
1621788143|c8:02:10:bd:08:72|67
1621788144|d0:28:ba:57:4f:b3|65
1621788145|d0:28:ba:57:4f:b3|67
1621788145|0c:8c:24:bf:07:4f|80
1621788145|0c:8c:24:bf:07:4f|80
1621788145|0c:8c:24:bf:07:4f|79
1621788145|0c:8c:24:bf:07:4f|79
1621788147|88:07:4b:e7:cf:33|83
1621788148|20:f4:78:fb:75:f3|75
1621788151|d4:b7:61:87:81:5b|90
1621788151|78:dd:d9:6c:36:4e|81
1621788158|78:dd:d9:83:97:b9|87
1621788158|c8:02:10:bc:d8:df|66
1621788158|98:54:1b:a2:7e:66|60
1621788160|08:25:25:a4:c1:7e|78
1621788166|20:f4:78:fb:75:f3|84
1621788166|c8:02:10:bd:08:72|66
1621788167|28:39:5e:d6:f7:7a|74
1621788169|c8:02:10:bc:d8:df|64
1621788172|30:d1:6b:9a:3d:95|71
1621788172|0c:8c:24:bf:0c:c2|54
1621788172|0c:8c:24:bf:0c:c2|54
1621788172|30:d1:6b:9a:3d:95|73
1621788172|0c:8c:24:bf:0c:c2|57
1621788172|0c:8c:24:bf:0c:c2|57
1621788172|0c:8c:24:bf:0c:c2|58
1621788174|b0:fc:36:aa:71:6b|83
1621788174|b0:fc:36:aa:71:6b|84
1621788174|24:77:03:25:42:f4|60
1621788174|24:77:03:25:42:f4|65
1621788174|24:77:03:25:42:f4|65
1621788174|24:77:03:25:42:f4|65
1621788175|0c:8c:24:bf:12:72|61
1621788175|0c:8c:24:bf:12:72|64
1621788175|0c:8c:24:bf:12:72|65
1621788175|0c:8c:24:bf:12:72|65
1621788186|0c:8c:24:bf:0c:c2|68
1621788186|0c:8c:24:bf:0c:c2|69
1621788186|0c:8c:24:bf:0c:c2|65
1621788186|0c:8c:24:bf:0c:c2|63
1621788187|d4:b7:61:a0:6f:13|94
1621788188|78:dd:d9:83:98:7d|81
1621788189|c8:02:10:bd:08:72|61
1621788190|0c:8c:24:bf:12:72|65
1621788190|0c:8c:24:bf:12:72|66
1621788191|d4:6d:6d:e0:36:f7|72
1621788191|d4:6d:6d:e0:e8:c2|67
1621788192|d4:b7:61:87:81:5b|92
1621788196|98:54:1b:be:fb:b3|65
1621788197|d4:6d:6d:e0:c1:9e|65
1621788199|0c:8c:24:bf:0f:65|68
1621788201|d4:b7:61:87:81:5b|87
1621788201|0c:8c:24:bf:0c:c2|63
1621788201|0c:8c:24:bf:0c:c2|64
1621788201|d4:b7:61:87:81:5b|87
1621788201|0c:8c:24:bf:0c:c2|61
1621788201|0c:8c:24:bf:0c:c2|61
1621788202|c8:02:10:bd:08:72|69
1621788203|78:dd:d9:83:94:9f|89
1621788205|60:23:a4:df:d8:f4|66
1621788205|60:23:a4:df:d8:f4|66
1621788205|60:23:a4:df:d8:f4|65
1621788210|f4:d1:08:4e:22:df|75
1621788212|c8:02:10:bd:08:72|65
1621788213|0c:8c:24:bf:0f:65|65
1621788213|0c:8c:24:bf:0f:65|63
1621788213|0c:8c:24:bf:0f:65|69
1621788213|0c:8c:24:bf:0f:65|69
1621788215|c8:02:10:bc:d8:df|58
1621788219|78:dd:d9:83:97:b9|82
1621788220|78:dd:d9:83:98:7d|81
1621788224|30:07:4d:09:93:ae|88
1621788224|98:54:1b:a2:7e:66|64
1621788225|c0:17:4d:c7:46:e7|72
1621788225|c0:17:4d:c7:46:e7|69
1621788225|c0:17:4d:c7:46:e7|71
1621788225|c0:17:4d:c7:46:e7|70
1621788225|c0:17:4d:c7:46:e7|74
1621788225|c0:17:4d:c7:46:e7|74
1621788225|c8:02:10:bd:08:72|64
1621788227|f4:8c:50:fa:70:17|89
1621788228|c8:02:10:bc:d8:df|64
1621788229|c0:17:4d:c7:46:e7|76
1621788229|c0:17:4d:c7:46:e7|79
1621788229|c0:17:4d:c7:46:e7|78
1621788229|c0:17:4d:c7:46:e7|79
1621788229|c0:17:4d:c7:46:e7|77
1621788229|28:39:5e:d6:f7:7a|67
1621788229|28:39:5e:d6:f7:7a|67
1621788234|b0:fc:36:aa:71:6b|83
1621788234|b0:fc:36:aa:71:6b|82
1621788234|b0:fc:36:aa:71:6b|82
1621788238|c8:02:10:bc:d8:df|60
1621788239|dc:8b:28:79:1f:71|82
1621788241|7c:76:68:47:86:b9|73
1621788241|7c:76:68:47:86:b9|72
1621788243|b0:fc:36:a9:6a:2f|86
1621788246|c8:02:10:bd:08:72|62
1621788248|c8:02:10:bc:d8:df|65
1621788252|78:dd:d9:6c:36:4e|84
1621788256|28:39:5e:db:af:91|91
1621788258|d4:6d:6d:e0:c1:9e|74
1621788258|08:25:25:a4:c1:7e|78
1621788261|c8:02:10:bc:d8:df|60
1621788261|c8:02:10:bc:d8:df|58
1621788262|98:54:1b:be:fb:b3|69
1621788262|98:54:1b:be:fb:b3|71
1621788262|0c:8c:24:bf:0c:c2|70
1621788266|0c:8c:24:bf:12:72|64
1621788266|0c:8c:24:bf:12:72|66
1621788266|0c:8c:24:bf:12:72|65
1621788268|54:fc:f0:52:37:84|77
1621788269|34:41:5d:cb:be:b1|89
1621788270|78:dd:d9:6c:36:4e|80
1621788271|88:07:4b:e7:cf:33|77
1621788271|34:41:5d:cb:c5:14|89
1621788272|c8:02:10:bc:d8:df|56
1621788274|0c:8c:24:bf:0f:65|73
1621788274|0c:8c:24:bf:0f:65|73
1621788275|94:94:26:5d:ac:89|87
1621788278|d4:b7:61:a0:6f:13|90
1621788279|0c:8c:24:bf:07:4f|71
1621788279|0c:8c:24:bf:07:4f|72
1621788280|0c:8c:24:bf:12:72|63
1621788282|c8:02:10:bd:08:72|74
1621788283|20:f4:78:fb:75:f3|77
1621788287|20:f4:78:fb:75:f3|73
1621788291|d4:6d:6d:e0:3e:d1|69
1621788293|98:54:1b:a2:7e:66|66
1621788293|98:54:1b:a2:7e:66|66
1621788295|c8:02:10:bc:d8:df|62
1621788295|c8:02:10:bc:d8:df|57
1621788298|60:23:a4:df:d8:d0|66
1621788298|60:23:a4:df:d8:d0|68
1621788303|0c:8c:24:bf:0f:65|76
1621788305|c8:02:10:bd:08:72|70
1621788306|0c:8c:24:bf:0c:c2|60
1621788306|0c:8c:24:bf:0c:c2|61
1621788307|c8:02:10:bc:d8:df|66
1621788307|60:23:a4:df:d8:d0|71
1621788307|60:23:a4:df:d8:d0|71
1621788307|24:77:03:25:42:f4|72
1621788312|d4:6d:6d:e0:e8:c2|72
1621788313|d4:6d:6d:e0:e8:c2|74
1621788314|8c:79:f5:10:16:e8|66
1621788314|8c:79:f5:10:16:e8|67
1621788314|74:c6:3b:7f:c8:45|73
1621788314|74:c6:3b:7f:c8:45|71
1621788314|30:d1:6b:99:9e:d9|74
1621788314|30:d1:6b:99:9e:d9|74
1621788315|c0:17:4d:c7:46:e7|70
1621788315|c0:17:4d:c7:46:e7|72
1621788315|c0:17:4d:c7:46:e7|72
1621788315|c0:17:4d:c7:46:e7|70
1621788315|c0:17:4d:c7:46:e7|69
1621788315|c0:17:4d:c7:46:e7|70
1621788318|c8:02:10:bc:d8:df|53
1621788319|c0:17:4d:c7:46:e7|69
1621788319|c0:17:4d:c7:46:e7|69
1621788325|28:39:5e:db:af:91|87
1621788327|d4:b7:61:a0:6f:13|95
1621788330|c8:02:10:bc:d8:df|54
1621788331|d4:b7:61:87:81:5b|88
1621788337|78:dd:d9:83:94:9f|91
1621788339|78:dd:d9:83:98:7d|76
1621788342|ec:1f:72:e6:bd:78|75
1621788346|d4:b7:61:87:81:5b|91
1621788351|c8:02:10:bd:08:72|76
1621788351|c8:02:10:bd:08:72|75
1621788353|c8:02:10:bc:d8:df|69
1621788355|0c:8c:24:bf:07:4f|79
1621788355|0c:8c:24:bf:07:4f|80
1621788360|98:54:1b:a2:7e:66|69
1621788360|98:54:1b:a2:7e:66|69
1621788360|98:54:1b:a2:7e:66|68
1621788360|f4:8c:50:fa:70:17|84
1621788366|20:f4:78:fb:75:f3|77
1621788369|0c:8c:24:bf:07:4f|73
1621788371|0c:8c:24:bf:12:72|62
1621788371|0c:8c:24:bf:12:72|59
1621788371|d4:6d:6d:e0:36:f7|73
1621788372|d4:6d:6d:e0:36:f7|73
1621788374|30:d1:6b:99:9e:d9|81
1621788374|30:d1:6b:99:9e:d9|81
1621788374|74:c6:3b:7f:c8:45|82
1621788374|74:c6:3b:7f:c8:45|84
1621788374|74:c6:3b:7f:c8:45|81
1621788375|c8:02:10:bc:d8:df|63
1621788375|d4:6d:6d:e0:e8:c2|65
1621788376|8c:79:f5:10:16:e8|72
1621788376|8c:79:f5:10:16:e8|73
1621788377|d4:6d:6d:e0:c1:9e|61
1621788380|1c:dd:ea:c1:18:51|89
1621788380|80:b0:3d:a5:57:b5|86
1621788385|c8:02:10:bd:08:72|74
1621788385|0c:8c:24:bf:12:72|63
1621788385|0c:8c:24:bf:12:72|61
1621788385|0c:8c:24:bf:12:72|61
1621788388|7c:67:a2:8e:07:97|84
1621788389|80:b0:3d:a5:57:b5|89
1621788389|80:b0:3d:a5:57:b5|89
1621788389|80:b0:3d:a5:57:b5|89
1621788389|78:dd:d9:83:98:7d|77
1621788391|34:41:5d:cb:be:b1|69
1621788394|98:54:1b:be:fb:b3|61
1621788394|98:54:1b:be:fb:b3|61
1621788394|0c:8c:24:bf:0f:65|66
1621788394|0c:8c:24:bf:0f:65|65
1621788395|1c:dd:ea:c1:18:51|93
1621788396|48:a4:72:4d:bd:e0|70
1621788397|1c:1e:e3:be:22:93|57
1621788398|c8:02:10:bc:d8:df|62
1621788405|a4:6b:b6:35:40:8a|68
1621788405|c0:17:4d:c7:46:e7|78
1621788405|c0:17:4d:c7:46:e7|79
1621788405|c0:17:4d:c7:46:e7|79
1621788407|24:18:1d:1b:9c:35|80
1621788408|0c:8c:24:bf:0f:65|40
1621788408|0c:8c:24:bf:0f:65|42
1621788408|0c:8c:24:bf:0f:65|43
1621788408|0c:8c:24:bf:0f:65|44
1621788409|c0:17:4d:c7:46:e7|79
1621788409|c0:17:4d:c7:46:e7|79
1621788409|c0:17:4d:c7:46:e7|77
1621788410|c8:02:10:bc:d8:df|68
1621788411|30:d1:6b:9a:3d:95|81
1621788412|d4:6d:6d:e0:3e:d1|71
1621788413|20:f4:78:fb:75:f3|72
1621788413|78:dd:d9:83:94:9f|86
1621788421|c8:02:10:bc:d8:df|68
1621788423|0c:8c:24:bf:0f:65|42
1621788423|0c:8c:24:bf:0f:65|42
1621788423|0c:8c:24:bf:0f:65|41
1621788423|0c:8c:24:bf:0f:65|45
1621788423|0c:8c:24:bf:0f:65|46
1621788426|98:54:1b:a2:7e:66|69
1621788426|98:54:1b:a2:7e:66|66
1621788427|24:18:1d:1b:9c:35|78
1621788427|08:25:25:a4:c1:7e|72
1621788427|24:18:1d:1b:9c:35|76
1621788430|20:f4:78:fb:75:f3|65
1621788430|0c:8c:24:bf:07:4f|76
1621788430|0c:8c:24:bf:07:4f|76
1621788433|48:ba:4e:d5:d1:40|86
1621788433|c8:02:10:bc:d8:df|69
1621788433|c8:02:10:bc:d8:df|71
1621788434|60:23:a4:df:d8:d0|67
1621788434|60:23:a4:df:d8:d0|68
1621788434|60:23:a4:df:d8:d0|68
1621788436|d4:6d:6d:e0:e8:c2|68
1621788437|84:c0:ef:61:93:5d|69
1621788437|84:c0:ef:61:93:5d|70
1621788444|c8:02:10:bc:d8:df|77
1621788444|48:ba:4e:d5:d1:40|90
1621788446|e4:5d:75:08:3f:dd|84
1621788448|60:23:a4:df:d8:f4|59
1621788448|60:23:a4:df:d8:f4|59
1621788449|7c:67:a2:8e:07:97|79
1621788456|c8:02:10:bd:08:72|73
1621788456|c8:02:10:bc:d8:df|69
1621788457|0c:8c:24:bf:0c:c2|80
1621788457|0c:8c:24:bf:0c:c2|81
1621788460|0c:8c:24:bf:07:4f|72
1621788460|0c:8c:24:bf:07:4f|71
1621788461|0c:8c:24:bf:12:72|58
1621788461|0c:8c:24:bf:12:72|59
1621788461|20:f4:78:fb:75:f3|81
1621788464|48:ba:4e:d5:d1:40|89
1621788465|a4:6b:b6:35:40:8a|74
1621788466|c8:02:10:bd:08:72|72
1621788469|0c:8c:24:bf:0f:65|50
1621788469|0c:8c:24:bf:0f:65|51
1621788477|78:dd:d9:83:98:7d|70
1621788478|2c:fd:ab:58:48:45|77
1621788479|dc:8b:28:79:1f:71|76
1621788479|c8:02:10:bd:08:72|75
1621788479|c8:02:10:bc:d8:df|72
1621788479|c8:02:10:bc:d8:df|69
1621788484|9c:28:f7:b1:d0:8b|68
1621788484|9c:28:f7:b1:d0:8b|68
1621788485|d0:28:ba:57:4f:b3|80
1621788489|0c:8c:24:bf:07:4f|67
1621788489|0c:8c:24:bf:07:4f|67
1621788489|c8:02:10:bd:08:72|66
1621788490|b8:27:eb:65:e6:62|74
1621788490|b8:27:eb:65:e6:62|73
1621788490|0c:8c:24:bf:12:72|66
1621788490|0c:8c:24:bf:12:72|66
1621788490|0c:8c:24:bf:12:72|63
1621788492|d4:b7:61:87:81:5b|91
1621788492|d4:6d:6d:e0:36:f7|68
1621788493|98:54:1b:a2:7e:66|69
1621788493|48:5f:99:98:c6:5f|93
1621788495|c0:17:4d:c7:46:e7|73
1621788495|c0:17:4d:c7:46:e7|74
1621788495|c0:17:4d:c7:46:e7|74
1621788495|c0:17:4d:c7:46:e7|74
1621788495|c0:17:4d:c7:46:e7|74
1621788495|c0:17:4d:c7:46:e7|74
1621788498|d4:6d:6d:e0:e8:c2|71
1621788498|0c:8c:24:bf:0f:65|47
1621788498|0c:8c:24:bf:0f:65|48
1621788499|84:c0:ef:61:93:5d|68
1621788499|84:c0:ef:61:93:5d|70
1621788499|0c:8c:24:bf:0f:65|51
1621788499|c0:17:4d:c7:46:e7|73
1621788499|c0:17:4d:c7:46:e7|74
1621788499|c0:17:4d:c7:46:e7|73
1621788499|c0:17:4d:c7:46:e7|73
1621788499|c0:17:4d:c7:46:e7|73
1621788500|d8:32:e3:50:2a:2a|73
1621788501|d4:b7:61:87:81:5b|87
1621788501|d4:b7:61:87:81:5b|88
1621788501|0c:8c:24:bf:0c:c2|64
1621788501|08:25:25:a4:c1:7e|69
1621788502|c8:02:10:bd:08:72|77
1621788502|c8:02:10:bd:08:72|76
1621788502|c8:02:10:bc:d8:df|72
1621788504|78:dd:d9:83:94:9f|87
1621788504|d4:6d:6d:e0:e8:d1|70
1621788504|a4:4b:d5:ae:8f:e3|83
1621788504|a4:4b:d5:ae:8f:e3|83
1621788505|0c:8c:24:bf:12:72|64
1621788505|0c:8c:24:bf:12:72|65
1621788505|0c:8c:24:bf:12:72|65
1621788505|48:ba:4e:d5:d1:40|92
1621788507|24:77:03:25:42:f4|79
1621788508|00:0c:e7:27:b3:04|83
1621788508|7c:76:68:47:86:b9|77
1621788508|7c:76:68:47:86:b9|78
1621788508|7c:76:68:47:86:b9|76
1621788513|c8:02:10:bc:d8:df|63
1621788513|34:41:5d:cb:be:b1|73
1621788515|48:ba:4e:d5:d1:40|85
1621788517|70:5e:55:e6:4d:d9|70
1621788517|70:5e:55:e6:4d:d9|70
1621788517|70:5e:55:e6:4d:d9|69
1621788524|c8:02:10:bc:d8:df|70
1621788525|c8:02:10:bd:08:72|80
1621788528|0c:8c:24:bf:0f:65|44
1621788531|d4:6d:6d:e0:3e:d1|71
1621788533|78:dd:d9:83:94:9f|84
1621788535|20:f4:78:fb:75:f3|81
1621788536|cc:25:ef:8c:d1:98|85
1621788536|cc:25:ef:8c:d1:98|85
1621788544|6c:c7:ec:13:a2:7c|86
1621788546|c8:02:10:bd:08:72|74
1621788547|c8:02:10:bc:d8:df|69
1621788548|0c:8c:24:bf:0c:c2|78
1621788548|78:dd:d9:83:97:b9|84
1621788550|0c:8c:24:bf:07:4f|70
1621788550|0c:8c:24:bf:07:4f|71
1621788550|0c:8c:24:bf:07:4f|70
1621788550|0c:8c:24:bf:07:4f|70
1621788550|0c:8c:24:bf:07:4f|74
1621788551|d4:6d:6d:e0:36:f7|72
1621788551|0c:8c:24:bf:12:72|64
1621788556|d4:b7:61:87:81:5b|91
1621788558|d4:6d:6d:e0:c1:9e|69
1621788558|98:54:1b:a2:7e:66|69
1621788558|98:54:1b:a2:7e:66|66
1621788558|98:54:1b:a2:7e:66|66
1621788559|c8:02:10:bd:08:72|72
1621788560|84:c0:ef:61:93:5d|73
1621788562|20:f4:78:fb:75:f3|78
1621788564|d4:6d:6d:e0:e8:d1|71
1621788564|d4:6d:6d:e0:e8:d1|64
1621788564|88:07:4b:e7:cf:33|69
1621788564|88:07:4b:e7:cf:33|73
1621788564|88:07:4b:e7:cf:33|67
1621788564|88:07:4b:e7:cf:33|66
1621788564|0c:8c:24:bf:07:4f|70
1621788564|0c:8c:24:bf:07:4f|68
1621788565|0c:8c:24:bf:07:4f|66
1621788565|0c:8c:24:bf:07:4f|66
1621788566|0c:8c:24:bf:12:72|57
1621788566|0c:8c:24:bf:12:72|57
1621788566|0c:8c:24:bf:12:72|60
1621788566|0c:8c:24:bf:12:72|60
1621788569|20:f4:78:fb:75:f3|69
1621788569|f4:d1:08:4e:22:df|63
1621788569|f4:d1:08:4e:22:df|64
1621788570|88:07:4b:e7:cf:33|87
1621788570|88:07:4b:e7:cf:33|85
1621788573|48:89:e7:fd:05:48|85
1621788574|0c:8c:24:bf:0f:65|51
1621788575|d4:b7:61:a0:6f:0d|88
1621788577|0c:8c:24:bf:0c:c2|67
1621788582|c8:02:10:bd:08:72|83
1621788582|c8:02:10:bc:d8:df|73
1621788584|00:0c:e7:51:25:27|75
1621788588|88:07:4b:e7:cf:33|67
1621788588|88:07:4b:e7:cf:33|65
1621788589|0c:8c:24:bf:0f:65|49
1621788589|0c:8c:24:bf:0f:65|49
1621788589|0c:8c:24:bf:0f:65|51
1621788589|0c:8c:24:bf:0f:65|52
1621788589|0c:8c:24:bf:0f:65|52
1621788589|0c:8c:24:bf:0f:65|54
1621788589|0c:8c:24:bf:0f:65|51
1621788589|0c:8c:24:bf:0f:65|51
1621788590|20:f4:78:fb:75:f3|80
1621788591|d4:6d:6d:e0:3e:d1|67
1621788591|90:e7:c4:df:7f:14|88
1621788591|90:e7:c4:df:7f:14|88
1621788591|30:d1:6b:9a:3d:95|78
1621788592|c8:02:10:bd:08:72|74
1621788595|0c:8c:24:bf:12:72|64
1621788595|0c:8c:24:bf:12:72|65
1621788595|0c:8c:24:bf:12:72|65
1621788595|0c:8c:24:bf:12:72|65
1621788595|0c:8c:24:bf:12:72|68
1621788596|28:39:5e:db:af:91|92
1621788598|d0:28:ba:57:4f:b3|83
1621788599|dc:8b:28:79:1f:71|70
1621788599|00:0c:e7:e8:7f:78|66
1621788599|00:0c:e7:e8:7f:78|67
1621788599|d0:28:ba:57:4f:b3|78
1621788599|dc:8b:28:79:1f:71|71
1621788603|b0:fc:36:a9:6a:2f|90
1621788604|0c:8c:24:bf:0f:65|48
1621788604|0c:8c:24:bf:0f:65|48
1621788605|c8:02:10:bd:08:72|81
1621788610|70:5e:55:e6:4d:d9|78
1621788611|d4:6d:6d:e0:36:f7|70
1621788614|b0:fc:36:aa:71:6d|87
1621788614|74:c6:3b:7f:c8:45|74
1621788614|74:c6:3b:7f:c8:45|74
1621788614|c0:17:4d:c7:46:e7|72
1621788614|c0:17:4d:c7:46:e7|72
1621788614|c0:17:4d:c7:46:e7|74
1621788614|c0:17:4d:c7:46:e7|75
1621788614|30:d1:6b:99:9e:d9|78
1621788614|74:c6:3b:7f:c8:45|71
1621788614|74:c6:3b:7f:c8:45|72
1621788614|30:d1:6b:99:9e:d9|75
1621788615|08:25:25:a4:c1:7e|73
1621788615|08:25:25:a4:c1:7e|72
1621788616|c8:02:10:bc:d8:df|68
1621788617|58:85:a2:1e:1a:3b|61
1621788617|58:85:a2:1e:1a:3b|63
1621788617|58:85:a2:1e:1a:3b|67
1621788617|58:85:a2:1e:1a:3b|67
1621788617|58:85:a2:1e:1a:3b|67
1621788617|58:85:a2:1e:1a:3b|67
1621788618|d4:6d:6d:e0:c1:9e|68
1621788619|d4:6d:6d:e0:e8:c2|71
1621788620|b0:fc:36:aa:55:5f|91
1621788620|d4:6d:6d:e0:e8:c2|67
1621788622|84:c0:ef:61:93:5d|74
1621788623|78:dd:d9:6c:36:4e|79
1621788624|78:dd:d9:83:97:b9|76
1621788626|1c:dd:ea:c1:18:51|91
1621788628|c8:02:10:bd:08:72|69
1621788629|f4:d1:08:4e:22:df|68
1621788631|08:25:25:a4:c1:7e|78
1621788635|a8:96:75:35:9a:40|70
1621788637|e4:f8:9c:34:dd:d4|83
1621788638|78:dd:d9:83:94:9f|86
1621788639|c8:02:10:bc:d8:df|69
1621788640|0c:8c:24:bf:07:4f|72
1621788640|0c:8c:24:bf:07:4f|73
1621788640|0c:8c:24:bf:07:4f|73
1621788640|0c:8c:24:bf:07:4f|73
1621788641|78:dd:d9:6c:36:4e|79
1621788645|a4:6b:b6:35:40:8a|69
1621788651|30:d1:6b:9a:3d:95|77
1621788651|30:d1:6b:9a:3d:95|76
1621788651|d4:6d:6d:e0:3e:d1|72
1621788652|c8:02:10:bc:d8:df|73
1621788652|30:d1:6b:9a:3d:95|84
1621788653|78:dd:d9:83:97:b9|81
1621788656|0c:8c:24:bf:12:72|59
1621788656|0c:8c:24:bf:12:72|58
1621788656|0c:8c:24:bf:12:72|62
1621788656|a8:96:75:35:9a:40|69
1621788656|a8:96:75:35:9a:40|68
1621788656|a8:96:75:35:9a:40|63
1621788656|a8:96:75:35:9a:40|64
1621788658|7c:67:a2:8e:07:60|84
1621788661|d4:b7:61:87:81:5b|86
1621788662|c8:02:10:bc:d8:df|67
1621788664|28:39:5e:d6:f7:7a|69
1621788667|0c:8c:24:bf:0c:c2|74
1621788667|0c:8c:24:bf:0c:c2|78
1621788672|d4:b7:61:87:81:5b|89
1621788674|74:c6:3b:7f:c8:45|79
1621788674|74:c6:3b:7f:c8:45|80
1621788677|d4:6d:6d:e0:c1:9e|62
1621788679|88:07:4b:e7:cf:33|74
1621788680|0c:8c:24:bf:0f:65|53
1621788680|0c:8c:24:bf:0f:65|53
1621788681|d4:6d:6d:e0:e8:c2|72
1621788682|0c:8c:24:bf:0c:c2|69
1621788682|0c:8c:24:bf:0c:c2|69
1621788682|0c:8c:24:bf:0c:c2|69
1621788685|c8:02:10:bd:08:72|75
1621788686|30:07:4d:09:93:ae|84
1621788687|9c:28:f7:b1:d0:8b|65
1621788687|9c:28:f7:b1:d0:8b|65
1621788688|7c:67:a2:8e:07:97|83
1621788689|f4:d1:08:4e:22:df|66
1621788693|98:54:1b:a2:7e:66|67
1621788693|98:54:1b:a2:7e:66|67
1621788694|0c:8c:24:bf:0f:65|49
1621788694|0c:8c:24:bf:0f:65|49
1621788694|0c:8c:24:bf:0f:65|49
1621788694|78:dd:d9:6c:36:4e|70
1621788694|78:dd:d9:6c:36:4e|72
1621788696|c8:02:10:bd:08:72|73
1621788696|34:41:5d:cb:be:b1|87
1621788697|0c:8c:24:bf:0c:c2|67
1621788697|24:77:03:25:42:f4|74
1621788697|24:77:03:25:42:f4|74
1621788697|24:77:03:25:42:f4|74
1621788698|34:41:5d:cb:be:b1|71
1621788698|34:41:5d:cb:be:b1|75
1621788699|78:dd:d9:83:94:9f|86
1621788699|78:dd:d9:83:94:9f|85
1621788701|18:e7:77:6f:68:97|88
1621788701|18:e7:77:6f:68:97|87
1621788701|18:e7:77:6f:68:97|90
1621788705|a4:6b:b6:35:40:8a|74
1621788708|c8:02:10:bd:08:72|68
1621788715|20:f4:78:fc:25:0d|70
1621788719|c8:02:10:bd:08:72|73
1621788719|2c:fd:ab:58:48:45|67
1621788721|20:f4:78:fc:25:0d|73
1621788722|d4:b7:61:87:81:5b|88
1621788722|d4:b7:61:87:81:5b|90
1621788726|20:f4:78:da:02:b1|89
1621788726|20:f4:78:da:02:b1|86
1621788729|18:e7:77:6f:68:97|86
1621788729|08:25:25:a4:c1:7e|85
1621788730|b8:27:eb:65:e6:62|74
1621788730|b8:27:eb:65:e6:62|79
1621788730|0c:8c:24:bf:07:4f|70
1621788731|0c:8c:24:bf:07:4f|63
1621788731|0c:8c:24:bf:07:4f|64
1621788733|20:f4:78:fb:75:f3|80
1621788734|74:c6:3b:7f:c8:45|75
1621788735|a8:96:75:35:9a:40|71
1621788735|a8:96:75:35:9a:40|72
1621788742|d4:b7:61:87:81:5b|91
1621788742|c8:02:10:bc:d8:df|63
1621788742|d4:b7:61:87:81:5b|90
1621788746|08:25:25:a4:c1:7e|70
1621788746|7c:76:68:47:86:b9|79
1621788746|7c:76:68:47:86:b9|77
1621788749|f4:d1:08:4e:22:df|72
1621788751|20:f4:78:fc:25:0d|81
1621788754|88:07:4b:e7:cf:33|77
1621788754|88:07:4b:e7:cf:33|77
1621788754|c8:02:10:bd:08:72|75
1621788756|a8:96:75:35:9a:40|66
1621788759|98:54:1b:a2:7e:66|66
1621788759|98:54:1b:a2:7e:66|65
1621788760|0c:8c:24:bf:07:4f|76
1621788760|0c:8c:24:bf:07:4f|72
1621788761|f4:8c:50:fa:70:17|85
1621788761|0c:8c:24:bf:12:72|63
1621788761|0c:8c:24:bf:12:72|61
1621788761|0c:8c:24:bf:12:72|63
1621788761|0c:8c:24:bf:12:72|62
1621788761|0c:8c:24:bf:12:72|62
1621788762|78:dd:d9:6c:36:4e|74
1621788763|90:e7:c4:df:7f:14|74
1621788763|90:e7:c4:df:7f:14|74
1621788765|a4:6b:b6:35:40:8a|74
1621788765|c8:02:10:bc:d8:df|68
1621788768|9c:28:f7:b1:d0:8b|64
1621788768|9c:28:f7:b1:d0:8b|64
1621788770|0c:8c:24:bf:0f:65|76
1621788771|d4:6d:6d:e0:3e:d1|74
1621788771|d4:b7:61:87:81:5b|86
1621788771|d4:b7:61:87:81:5b|85
1621788772|0c:8c:24:bf:0c:c2|72
1621788772|0c:8c:24:bf:0c:c2|70
1621788772|d4:6d:6d:e0:3e:d1|75
1621788773|7c:76:68:47:86:b9|77
1621788773|7c:76:68:47:86:b9|77
1621788774|0c:8c:24:bf:07:4f|68
1621788775|0c:8c:24:bf:07:4f|73
1621788776|0c:8c:24:bf:12:72|63
1621788776|0c:8c:24:bf:12:72|62
1621788776|0c:8c:24:bf:12:72|62
1621788776|a8:96:75:35:9a:40|66
1621788776|a8:96:75:35:9a:40|66
1621788776|a8:96:75:35:9a:40|65
1621788776|0c:8c:24:bf:12:72|60
1621788776|0c:8c:24:bf:12:72|60
1621788777|c8:02:10:bd:08:72|77
1621788778|c8:02:10:bc:d8:df|63
1621788779|dc:8b:28:79:1f:71|77
1621788782|00:0c:e7:5f:df:7d|80
1621788782|00:0c:e7:5f:df:7d|81
1621788784|0c:8c:24:bf:0f:65|70
1621788784|90:e7:c4:df:7f:14|83
1621788787|28:39:5e:d6:f7:7a|75
1621788789|78:dd:d9:83:94:9f|80
1621788790|0c:8c:24:bf:12:72|65
1621788791|7c:76:68:47:86:b9|79
1621788791|7c:76:68:47:86:b9|78
1621788792|d4:6d:6d:e0:36:f7|73
1621788793|20:f4:78:fb:75:f3|76
1621788794|30:d1:6b:99:9e:d9|72
1621788794|30:d1:6b:99:9e:d9|70
1621788794|74:c6:3b:7f:c8:45|73
1621788794|98:54:1b:be:fb:b3|67
1621788794|74:c6:3b:7f:c8:45|72
1621788794|98:54:1b:be:fb:b3|67
1621788795|78:dd:d9:6c:36:4e|76
1621788796|a8:96:75:35:9a:40|68
1621788796|a8:96:75:35:9a:40|70
1621788796|a8:96:75:35:9a:40|70
1621788796|a8:96:75:35:9a:40|72
1621788796|a8:96:75:35:9a:40|72
1621788796|a8:96:75:35:9a:40|71
1621788798|9c:28:f7:b1:d0:8b|65
1621788799|0c:8c:24:bf:0f:65|69
1621788799|0c:8c:24:bf:0f:65|70
1621788799|0c:8c:24:bf:0f:65|69
1621788799|20:f4:78:fb:75:f3|77
1621788800|b0:fc:36:aa:55:5f|85
1621788800|c8:02:10:bd:08:72|84
1621788801|c8:02:10:bc:d8:df|67
1621788804|78:dd:d9:83:94:9f|85
1621788804|d4:6d:6d:e0:e8:d1|75
1621788811|20:f4:78:fc:25:0d|71
1621788816|a8:96:75:35:9a:40|67
1621788817|a8:96:75:35:9a:40|69
1621788817|a8:96:75:35:9a:40|70
1621788819|ac:5f:3e:f4:e0:3f|75
1621788820|24:77:03:25:42:f4|75
1621788820|24:77:03:25:42:f4|74
1621788820|24:77:03:25:42:f4|75
1621788820|18:e7:77:6f:68:97|87
1621788820|18:e7:77:6f:68:97|84
1621788820|34:41:5d:cb:be:b1|75
1621788821|c8:02:10:bd:08:72|77
1621788821|c8:02:10:bc:d8:df|69
1621788823|a4:4b:d5:ae:8f:e3|70
1621788826|98:54:1b:a2:7e:66|65
1621788826|98:54:1b:a2:7e:66|65
1621788829|a8:be:27:c7:5a:e4|88
1621788829|a8:be:27:c7:5a:e4|88
1621788831|d4:6d:6d:e0:3e:d1|73
1621788832|48:ba:4e:d5:d1:40|89
1621788833|78:dd:d9:83:94:9f|83
1621788834|c8:02:10:bd:08:72|71
1621788834|c8:02:10:bc:d8:df|70
1621788837|d4:b7:61:a0:6f:13|91
1621788838|d4:b7:61:a0:6f:13|92
1621788845|c8:02:10:bc:d8:df|72
1621788845|78:dd:d9:6c:36:4e|75
1621788848|0c:8c:24:bf:0c:c2|75
1621788848|0c:8c:24:bf:0c:c2|75
1621788849|78:dd:d9:83:97:b9|80
1621788850|0c:8c:24:bf:07:4f|76
1621788851|d4:6d:6d:e0:36:f7|78
1621788854|30:d1:6b:99:9e:d9|74
1621788854|30:d1:6b:99:9e:d9|73
1621788855|b0:fc:36:aa:71:6d|81
1621788855|b0:fc:36:aa:71:6d|79
1621788855|b0:fc:36:aa:71:6d|75
1621788856|78:dd:d9:83:98:7d|75
1621788856|d4:b7:61:87:81:5b|81
1621788857|c8:02:10:bd:08:72|72
1621788857|c8:02:10:bc:d8:df|59
1621788857|c8:02:10:bc:d8:df|60
1621788857|d4:6d:6d:e0:c1:9e|74
1621788859|d4:6d:6d:e0:c1:9e|75
1621788859|d4:b7:61:87:81:46|90
1621788859|d4:b7:61:87:81:46|89
1621788859|d4:b7:61:87:81:46|89
1621788860|08:25:25:a4:c1:7e|78
1621788861|98:54:1b:be:fb:b3|73
1621788861|98:54:1b:be:fb:b3|73
1621788863|78:dd:d9:6c:36:4e|80
1621788864|d4:6d:6d:e0:e8:d1|77
1621788865|0c:8c:24:bf:07:4f|73
1621788865|0c:8c:24:bf:07:4f|73
1621788866|d4:6d:6d:e0:e8:c2|78
1621788866|d4:b7:61:a0:6f:0d|83
1621788868|c8:02:10:bc:d8:df|62
1621788869|f4:d1:08:4e:22:df|72
1621788869|f4:d1:08:4e:22:df|79
1621788875|d8:32:e3:50:2a:2a|75
1621788880|c8:02:10:bd:08:72|73
1621788880|c8:02:10:bd:08:72|70
1621788880|c8:02:10:bc:d8:df|59
1621788881|0c:8c:24:bf:12:72|64
1621788881|0c:8c:24:bf:12:72|63
1621788881|0c:8c:24:bf:12:72|65
1621788881|34:41:5d:cb:be:b1|76
1621788885|a4:6b:b6:35:40:8a|80
1621788887|d4:b7:61:a0:6f:0d|86
1621788889|0c:8c:24:bf:0f:65|71
1621788889|0c:8c:24:bf:0f:65|72
1621788891|c8:02:10:bd:08:72|70
1621788891|30:d1:6b:9a:3d:95|70
1621788891|30:d1:6b:9a:3d:95|67
1621788891|0c:8c:24:bf:0c:c2|71
1621788891|0c:8c:24:bf:0c:c2|71
1621788892|0c:8c:24:bf:0c:c2|71
1621788892|0c:8c:24:bf:0c:c2|70
1621788892|98:54:1b:a2:7e:66|67
1621788892|98:54:1b:a2:7e:66|68
1621788892|98:54:1b:a2:7e:66|67
1621788892|98:54:1b:a2:7e:66|67
1621788894|78:dd:d9:83:94:9f|83
1621788903|b0:fc:36:a9:6a:2f|84
1621788903|b0:fc:36:a9:6a:2f|83
1621788903|c8:02:10:bd:08:72|76
1621788903|c8:02:10:bc:d8:df|63
1621788903|c8:02:10:bc:d8:df|61
1621788904|0c:8c:24:bf:0f:65|67
1621788904|0c:8c:24:bf:0f:65|68
1621788906|78:dd:d9:83:98:7d|81
1621788910|78:dd:d9:83:97:b9|81
1621788911|d4:6d:6d:e0:36:f7|75
1621788913|78:dd:d9:6c:36:4e|71
1621788914|74:c6:3b:7f:c8:45|77
1621788918|30:07:4d:09:93:ae|90
1621788918|30:07:4d:09:93:ae|90
1621788919|0c:8c:24:bf:0f:65|69
1621788920|b0:fc:36:aa:55:5f|77
1621788920|b0:fc:36:aa:55:5f|77
1621788921|00:0c:e7:a3:d0:d5|57
1621788926|0c:8c:24:bf:07:4f|81
1621788926|0c:8c:24:bf:07:4f|82
1621788926|c8:02:10:bc:d8:df|62
1621788926|c8:02:10:bc:d8:df|65
1621788926|c8:02:10:bc:d8:df|68
1621788929|08:25:25:a4:c1:7e|81
1621788930|f4:d1:08:4e:22:df|79
1621788931|20:a6:0c:30:2f:19|77
1621788936|d4:b7:61:a0:6f:0d|90
1621788937|c8:02:10:bd:08:72|73
1621788937|c8:02:10:bc:d8:df|69
1621788937|c8:02:10:bc:d8:df|67
1621788938|78:dd:d9:83:94:9f|88
1621788938|d4:b7:61:87:81:46|89
1621788938|d4:b7:61:87:81:46|90
1621788941|34:41:5d:cb:be:b1|80
1621788942|08:25:25:a4:c1:7e|88
1621788944|a4:4b:d5:ae:8f:e3|70
1621788944|a4:4b:d5:ae:8f:e3|71
1621788946|78:dd:d9:6c:36:4e|81
1621788951|d4:6d:6d:e0:3e:d1|76
1621788953|0c:8c:24:bf:0c:c2|79
1621788953|0c:8c:24:bf:0c:c2|81
1621788953|e4:5d:75:08:3f:dd|84
1621788953|e4:5d:75:08:3f:dd|84
1621788953|e4:5d:75:08:3f:dd|84
1621788953|e4:5d:75:08:3f:dd|84
1621788953|e4:5d:75:08:3f:dd|84
1621788953|e4:5d:75:08:3f:dd|84
1621788953|e4:5d:75:08:3f:dd|82
1621788953|88:07:4b:e7:cf:33|82
1621788953|88:07:4b:e7:cf:33|81
1621788954|d0:28:ba:57:4f:b3|68
1621788954|d0:28:ba:57:4f:b3|66
1621788954|d0:28:ba:57:4f:b3|68
1621788954|d0:28:ba:57:4f:b3|69
1621788955|0c:8c:24:bf:07:4f|76
1621788955|0c:8c:24:bf:07:4f|75
1621788959|dc:8b:28:79:1f:71|80
1621788960|c8:02:10:bd:08:72|70
1621788960|c8:02:10:bd:08:72|75
1621788960|c8:02:10:bd:08:72|73
1621788960|c8:02:10:bc:d8:df|66
1621788961|98:54:1b:a2:7e:66|68
1621788961|98:54:1b:a2:7e:66|67
1621788963|b0:fc:36:a9:6a:2f|79
1621788963|b0:fc:36:a9:6a:2f|80
1621788965|90:e7:c4:df:7f:14|85
1621788967|0c:8c:24:bf:0c:c2|75
1621788971|c8:02:10:bc:d8:df|65
1621788971|c8:02:10:bc:d8:df|67
1621788971|0c:8c:24:bf:12:72|63
1621788971|0c:8c:24:bf:12:72|63
1621788971|0c:8c:24:bf:12:72|62
1621788971|0c:8c:24:bf:12:72|63
1621788972|d0:28:ba:57:4f:b3|67
1621788972|d0:28:ba:57:4f:b3|62
1621788973|28:39:5e:d6:f7:7a|73
1621788973|28:39:5e:d6:f7:7a|72
1621788975|74:c6:3b:7f:c8:45|74
1621788983|c8:02:10:bd:08:72|77
1621788983|c8:02:10:bc:d8:df|71
1621788985|0c:8c:24:bf:07:4f|69
1621788985|20:f4:78:fc:25:0d|73
1621788985|0c:8c:24:bf:12:72|69
1621788985|20:f4:78:fc:25:0d|85
1621788986|0c:8c:24:bf:12:72|66
1621788986|20:a6:0c:30:2f:19|75
1621788986|20:a6:0c:30:2f:19|82
1621788986|78:dd:d9:83:98:7d|84
1621788993|20:f4:78:da:02:b1|80
1621788993|20:f4:78:da:02:b1|77
1621788994|c8:02:10:bc:d8:df|61
1621788994|98:54:1b:be:fb:b3|66
1621788994|0c:8c:24:bf:0f:65|69
1621788994|0c:8c:24:bf:0f:65|68
1621788995|84:c0:ef:61:93:5d|70
1621788995|84:c0:ef:61:93:5d|70
1621788998|d4:b7:61:a0:6f:13|91
1621789000|0c:8c:24:bf:12:72|68
1621789002|d4:b7:61:87:81:5b|83
1621789002|d4:b7:61:87:81:5b|83
1621789004|34:41:5d:cb:be:b1|82
1621789005|a4:6b:b6:35:40:8a|74
1621789006|c8:02:10:bd:08:72|71
1621789006|c8:02:10:bc:d8:df|62
1621789006|c8:02:10:bc:d8:df|65
1621789006|d4:b7:61:a0:6f:0d|90
1621789006|d4:b7:61:a0:6f:0d|93
1621789011|d4:6d:6d:e0:3e:d1|72
1621789016|c8:02:10:bd:08:72|72
1621789016|c8:02:10:bd:08:72|69
1621789017|c8:02:10:bc:d8:df|66
1621789022|d4:b7:61:87:81:5b|90
1621789025|94:b8:6d:5b:30:a6|79
1621789025|88:07:4b:e7:cf:33|74
1621789027|98:54:1b:a2:7e:66|64
1621789029|c8:02:10:bd:08:72|65
1621789029|08:25:25:7c:ff:b5|88
1621789029|c8:02:10:bc:d8:df|50
1621789031|88:07:4b:e7:cf:33|84
1621789031|88:07:4b:e7:cf:33|85
1621789035|74:c6:3b:7f:c8:45|77
1621789035|e4:5d:75:08:3f:dd|73
1621789035|e4:5d:75:08:3f:dd|70
1621789035|e4:5d:75:08:3f:dd|71
1621789035|e4:5d:75:08:3f:dd|71
1621789035|e4:5d:75:08:3f:dd|72
1621789035|e4:5d:75:08:3f:dd|71
1621789035|e4:5d:75:08:3f:dd|71
1621789037|78:dd:d9:83:98:7d|83
1621789037|ec:1f:72:e6:bd:78|82
1621789038|88:07:4b:e7:cf:33|83
1621789039|b0:fc:36:aa:55:5f|90
1621789039|c8:02:10:bd:08:72|59
1621789040|c8:02:10:bc:d8:df|50
1621789043|0c:8c:24:bf:0c:c2|78
1621789043|40:25:c2:cb:3a:0c|85
1621789043|40:25:c2:cb:3a:0c|86
1621789044|a8:96:75:35:9a:40|82
1621789044|d4:6d:6d:e0:e8:d1|76
1621789046|0c:8c:24:bf:07:4f|83
1621789048|20:f4:78:fb:75:f3|59
1621789050|d4:6d:6d:e0:e8:c2|69
1621789052|c8:02:10:bd:08:72|66
1621789052|c8:02:10:bc:d8:df|56
1621789055|88:07:4b:e7:cf:33|78
1621789055|88:07:4b:e7:cf:33|78
1621789055|88:07:4b:e7:cf:33|79
1621789060|98:54:1b:be:fb:b3|71
1621789060|98:54:1b:be:fb:b3|71
1621789060|88:07:4b:e7:cf:33|81
1621789060|88:07:4b:e7:cf:33|81
1621789060|20:f4:78:fb:75:f3|64
1621789061|0c:8c:24:bf:12:72|61
1621789061|0c:8c:24:bf:12:72|61
1621789061|0c:8c:24:bf:12:72|60
1621789061|0c:8c:24:bf:12:72|63
1621789061|0c:8c:24:bf:12:72|62
1621789062|78:dd:d9:6c:36:4e|81
1621789062|a8:96:75:35:9a:40|81
1621789063|c8:02:10:bc:d8:df|55
1621789063|c8:02:10:bc:d8:df|61
1621789066|88:07:4b:e7:cf:33|77
1621789067|94:b8:6d:5b:30:a6|85
1621789072|d4:6d:6d:e0:3e:d1|70
1621789072|0c:8c:24:bf:0c:c2|76
1621789072|0c:8c:24:bf:0c:c2|76
1621789075|c8:02:10:bd:08:72|66
1621789075|c8:02:10:bc:d8:df|53
1621789078|30:07:4d:09:93:ae|89
1621789085|0c:8c:24:bf:0f:65|72
1621789085|0c:8c:24:bf:0f:65|72
1621789085|0c:8c:24:bf:0f:65|74
1621789086|94:94:26:5d:ac:89|89
1621789087|0c:8c:24:bf:0c:c2|69
1621789087|0c:8c:24:bf:0c:c2|68
1621789087|0c:8c:24:bf:0c:c2|68
1621789087|78:dd:d9:83:98:7d|80
1621789090|78:dd:d9:83:94:9f|88
1621789091|0c:8c:24:bf:12:72|62
1621789091|d4:6d:6d:e0:36:f7|76
1621789092|d4:6d:6d:e0:36:f7|73
1621789094|74:c6:3b:7f:c8:45|81
1621789098|c8:02:10:bd:08:72|62
1621789098|c8:02:10:bd:08:72|58
1621789098|c8:02:10:bd:08:72|56
1621789098|c8:02:10:bc:d8:df|54
1621789098|c8:02:10:bc:d8:df|54
1621789098|c8:02:10:bc:d8:df|56
1621789099|20:f4:78:fb:75:f3|68
1621789102|0c:8c:24:bf:0c:c2|71
1621789104|d4:6d:6d:e0:e8:d1|75
1621789109|c8:02:10:bd:08:72|64
1621789109|c8:02:10:bd:08:72|60
1621789111|34:41:5d:cb:c5:14|87
1621789114|0c:8c:24:bf:0f:65|71
1621789117|30:07:4d:09:93:ae|80
1621789119|20:a6:0c:30:2f:19|83
1621789120|c8:02:10:bc:d8:df|70
1621789126|88:07:4b:e7:cf:33|75
1621789128|70:5e:55:e6:4d:d9|78
1621789132|c8:02:10:bd:08:72|74
1621789132|c8:02:10:bc:d8:df|76
1621789142|24:77:03:25:42:f4|65
1621789142|24:77:03:25:42:f4|65
1621789142|24:77:03:25:42:f4|65
1621789142|c8:02:10:bd:08:72|65
1621789143|c8:02:10:bc:d8:df|68
1621789145|78:dd:d9:6c:36:4e|86
1621789150|0c:8c:24:bf:07:4f|87
1621789152|88:07:4b:e7:cf:33|85
1621789152|88:07:4b:e7:cf:33|87
1621789154|30:07:4d:09:93:ae|70
1621789154|7c:78:7e:de:2a:12|69
1621789154|74:c6:3b:7f:c8:45|73
1621789155|30:d1:6b:99:9e:d9|85
1621789155|30:d1:6b:99:9e:d9|79
1621789155|c8:02:10:bd:08:72|69
1621789156|88:07:4b:e7:cf:33|82
1621789157|c0:17:4d:c7:46:e7|62
1621789157|c0:17:4d:c7:46:e7|62
1621789157|c0:17:4d:c7:46:e7|63
1621789157|c0:17:4d:c7:46:e7|62
1621789157|c0:17:4d:c7:46:e7|65
1621789159|9c:28:f7:b1:d0:8b|78
1621789159|9c:28:f7:b1:d0:8b|71
1621789159|9c:28:f7:b1:d0:8b|70
1621789160|28:39:5e:d6:f7:7a|79
1621789161|c0:17:4d:c7:46:e7|65
1621789161|c0:17:4d:c7:46:e7|65
1621789161|c0:17:4d:c7:46:e7|63
1621789161|c0:17:4d:c7:46:e7|61
1621789161|c0:17:4d:c7:46:e7|60
1621789161|c0:17:4d:c7:46:e7|62
1621789161|c0:17:4d:c7:46:e7|61
1621789162|d4:b7:61:87:81:5b|90
1621789162|f4:8c:50:fa:70:17|77
1621789166|c8:02:10:bd:08:72|73
1621789166|0c:8c:24:bf:12:72|67
1621789166|0c:8c:24:bf:12:72|67
1621789166|0c:8c:24:bf:12:72|68
1621789166|0c:8c:24:bf:12:72|69
1621789167|70:5e:55:e6:4d:d9|78
1621789167|70:5e:55:e6:4d:d9|79
1621789168|7c:67:a2:8e:07:97|86
1621789169|7c:76:68:47:86:b9|83
1621789173|40:25:c2:cb:3a:0c|84
1621789173|d4:6d:6d:e0:e8:c2|76
1621789175|0c:8c:24:bf:0f:65|81
1621789175|0c:8c:24:bf:0f:65|81
1621789175|48:89:e7:fd:05:48|88
1621789177|0c:8c:24:bf:0c:c2|73
1621789177|0c:8c:24:bf:0c:c2|74
1621789177|0c:8c:24:bf:0c:c2|74
1621789178|c8:02:10:bd:08:72|66
1621789178|c8:02:10:bd:08:72|66
1621789181|84:c0:ef:61:93:5d|81
1621789181|0c:8c:24:bf:12:72|70
1621789181|0c:8c:24:bf:12:72|71
1621789182|d4:b7:61:87:81:5b|92
1621789187|d4:b7:61:87:81:5b|85
1621789189|c8:02:10:bd:08:72|70
1621789189|c8:02:10:bd:08:72|71
1621789189|c8:02:10:bc:d8:df|64
1621789189|c8:02:10:bc:d8:df|63
1621789192|0c:8c:24:bf:0c:c2|71
1621789192|0c:8c:24:bf:0c:c2|71
1621789192|0c:8c:24:bf:0c:c2|73
1621789192|0c:8c:24:bf:0c:c2|73
1621789198|90:e7:c4:df:7f:14|69
1621789198|90:e7:c4:df:7f:14|69
1621789201|c8:02:10:bd:08:72|67
1621789203|54:fc:f0:52:37:84|81
1621789203|54:fc:f0:52:37:84|80
1621789203|e4:5d:75:08:3f:dd|80
1621789204|7c:78:7e:de:2a:12|74
1621789205|e4:5d:75:08:3f:dd|78
1621789208|28:39:5e:db:af:91|90
1621789210|b8:27:eb:65:e6:62|75
1621789210|b8:27:eb:65:e6:62|76
1621789212|c8:02:10:bd:08:72|71
1621789214|30:d1:6b:99:9e:d9|82
1621789214|30:d1:6b:99:9e:d9|82
1621789217|d4:b7:61:87:81:5b|91
1621789217|d4:b7:61:87:81:5b|90
1621789218|d4:6d:6d:e0:c1:9e|78
1621789224|c8:02:10:bd:08:72|72
1621789224|c8:02:10:bd:08:72|75
1621789225|c8:02:10:bc:d8:df|66
1621789225|7c:78:7e:de:2a:12|74
1621789226|7c:78:7e:de:2a:12|72
1621789226|98:54:1b:a2:7e:66|72
1621789226|98:54:1b:a2:7e:66|73
1621789226|0c:8c:24:bf:07:4f|86
1621789232|fc:19:99:4d:8e:54|68
1621789232|fc:19:99:4d:8e:54|69
1621789235|c8:02:10:bc:d8:df|70
1621789242|88:07:4b:e7:cf:33|82
1621789242|88:07:4b:e7:cf:33|84
1621789245|a4:6b:b6:35:40:8a|83
1621789246|7c:78:7e:de:2a:12|62
1621789246|d8:32:e3:50:2a:2a|71
1621789247|c0:17:4d:c7:46:e7|70
1621789247|c0:17:4d:c7:46:e7|70
1621789247|c0:17:4d:c7:46:e7|65
1621789247|c8:02:10:bd:08:72|73
1621789251|c0:17:4d:c7:46:e7|66
1621789251|c0:17:4d:c7:46:e7|68
1621789251|c0:17:4d:c7:46:e7|69
1621789251|c0:17:4d:c7:46:e7|70
1621789251|c0:17:4d:c7:46:e7|70
1621789251|c0:17:4d:c7:46:e7|70
1621789251|c0:17:4d:c7:46:e7|70
1621789252|30:d1:6b:9a:3d:95|75
1621789254|b0:fc:36:aa:71:6b|86
1621789254|b0:fc:36:aa:71:6b|86
1621789257|0c:8c:24:bf:12:72|69
1621789257|0c:8c:24:bf:12:72|69
1621789258|c8:02:10:bc:d8:df|68
1621789260|c8:02:10:bd:08:72|76
1621789260|c8:02:10:bd:08:72|78
1621789268|0c:8c:24:bf:0c:c2|73
1621789268|0c:8c:24:bf:0c:c2|74
1621789269|c8:02:10:bc:d8:df|72
1621789271|0c:8c:24:bf:12:72|70
1621789271|0c:8c:24:bf:12:72|69
1621789275|08:25:25:a4:c1:7e|74
1621789277|d4:6d:6d:e0:c1:9e|79
1621789277|d4:6d:6d:e0:c1:9e|76
1621789278|d8:32:e3:50:2a:2a|62
1621789278|d8:32:e3:50:2a:2a|60
1621789278|90:e7:c4:df:7f:14|81
1621789278|90:e7:c4:df:7f:14|79
1621789278|d8:32:e3:50:2a:2a|72
1621789279|94:b8:6d:91:24:27|85
1621789282|0c:8c:24:bf:0c:c2|69
1621789282|0c:8c:24:bf:0c:c2|69
1621789283|c8:02:10:bd:08:72|76
1621789286|d4:b7:61:a0:6f:0d|95
1621789286|d4:b7:61:a0:6f:0d|91
1621789287|1c:cc:d6:40:cf:99|92
1621789287|1c:cc:d6:40:cf:99|91
1621789289|f4:d1:08:4e:22:df|80
1621789292|34:41:5d:cb:c5:14|85
1621789292|6c:c7:ec:13:a2:7c|86
1621789294|0c:8c:24:bf:0f:65|79
1621789296|d4:6d:6d:e0:e8:c2|74
1621789297|0c:8c:24:bf:0c:c2|69
1621789297|0c:8c:24:bf:0c:c2|69
1621789301|40:25:c2:cb:3a:0c|89
1621789302|48:a4:72:4d:bd:e0|63
1621789302|48:a4:72:4d:bd:e0|67
1621789304|90:e7:c4:df:7f:14|64
1621789304|90:e7:c4:df:7f:14|64
1621789304|90:e7:c4:df:7f:14|70
1621789310|ec:1f:72:e6:bd:78|76
1621789310|ec:1f:72:e6:bd:78|83
1621789310|ec:1f:72:e6:bd:78|83
1621789311|90:e7:c4:df:7f:14|71
1621789311|90:e7:c4:df:7f:14|71
1621789315|c8:02:10:bc:d8:df|69
1621789316|c8:02:10:bd:08:72|72
1621789317|7c:78:7e:de:2a:12|73
1621789319|90:e7:c4:df:7f:14|70
1621789320|20:f4:78:fb:75:f3|70
1621789322|d4:b7:61:87:81:5b|90
1621789324|0c:8c:24:bf:0f:65|69
1621789326|20:f4:78:fb:75:f3|67
1621789327|98:54:1b:be:fb:b3|68
1621789328|50:5b:c2:93:17:09|70
1621789329|c8:02:10:bd:08:72|66
1621789330|78:dd:d9:83:97:b9|87
1621789331|0c:8c:24:bf:07:4f|86
1621789331|0c:8c:24:bf:07:4f|85
1621789331|d4:6d:6d:e0:36:f7|79
1621789335|30:d1:6b:99:9e:d9|79
1621789337|88:07:4b:e7:cf:33|75
1621789337|88:07:4b:e7:cf:33|76
1621789337|c0:17:4d:c7:46:e7|70
1621789337|c0:17:4d:c7:46:e7|68
1621789337|c0:17:4d:c7:46:e7|69
1621789337|c0:17:4d:c7:46:e7|69
1621789337|c0:17:4d:c7:46:e7|68
1621789337|c0:17:4d:c7:46:e7|68
1621789337|7c:78:7e:de:2a:12|77
1621789338|c8:02:10:bc:d8:df|61
1621789338|c8:02:10:bc:d8:df|64
1621789338|28:39:5e:db:af:91|88
1621789341|c0:17:4d:c7:46:e7|65
1621789341|c0:17:4d:c7:46:e7|66
1621789341|c0:17:4d:c7:46:e7|64
1621789341|c0:17:4d:c7:46:e7|64
1621789342|24:77:03:25:42:f4|60
1621789342|24:77:03:25:42:f4|60
1621789343|0c:8c:24:bf:0c:c2|75
1621789344|28:39:5e:db:af:91|88
1621789346|90:e7:c4:df:7f:14|74
1621789346|90:e7:c4:df:7f:14|74
1621789347|88:07:4b:e7:cf:33|83
1621789347|88:07:4b:e7:cf:33|84
1621789347|d4:b7:61:a0:6f:0d|92
1621789351|c8:02:10:bc:d8:df|64
1621789351|c8:02:10:bc:d8:df|64
1621789351|d4:b7:61:87:81:5b|92
1621789360|0c:8c:24:bf:07:4f|72
1621789361|c8:02:10:bc:d8:df|60
1621789362|0c:8c:24:bf:12:72|68
1621789362|0c:8c:24:bf:12:72|69
1621789363|7c:78:7e:de:2a:12|72
1621789366|40:25:c2:cb:3a:0c|90
1621789371|30:d1:6b:9a:3d:95|72
1621789372|30:d1:6b:9a:3d:95|70
1621789372|30:d1:6b:9a:3d:95|70
1621789372|0c:8c:24:bf:0c:c2|69
1621789372|0c:8c:24:bf:0c:c2|71
1621789374|c8:02:10:bc:d8:df|60
1621789374|c8:02:10:bc:d8:df|60
1621789374|c8:02:10:bc:d8:df|61
1621789375|c8:02:10:bd:08:72|67
1621789376|88:07:4b:e7:cf:33|83
1621789383|b0:fc:36:a9:6a:2f|83
1621789383|b0:fc:36:a9:6a:2f|81
1621789385|0c:8c:24:bf:0f:65|75
1621789385|0c:8c:24:bf:0f:65|76
1621789385|0c:8c:24:bf:0f:65|76
1621789386|c8:02:10:bd:08:72|72
1621789390|e4:5d:75:08:3f:dd|72
1621789391|0c:8c:24:bf:12:72|66
1621789391|0c:8c:24:bf:12:72|65
1621789391|0c:8c:24:bf:12:72|62
1621789394|7c:78:7e:de:2a:12|75
1621789394|00:0c:e7:90:de:36|82
1621789396|c8:02:10:bd:08:72|65
1621789397|c8:02:10:bd:08:72|67
1621789397|c8:02:10:bc:d8:df|65
1621789397|d4:b7:61:87:81:5b|92
1621789400|b0:fc:36:aa:55:5f|89
1621789402|88:07:4b:e7:cf:33|83
1621789402|88:07:4b:e7:cf:33|82
1621789404|d4:6d:6d:e0:e8:d1|81
1621789407|28:39:5e:d6:f7:7a|74
1621789407|28:39:5e:d6:f7:7a|74
1621789408|7c:78:7e:de:2a:12|77
1621789409|24:77:03:25:42:f4|59
1621789409|24:77:03:25:42:f4|58
1621789409|f0:25:b7:7b:ad:04|82
1621789409|c8:02:10:bd:08:72|73
1621789410|20:f4:78:fb:75:f3|71
1621789413|28:39:5e:db:af:91|87
1621789414|0c:8c:24:bf:0f:65|67
1621789414|0c:8c:24:bf:0f:65|67
1621789414|0c:8c:24:bf:0f:65|67
1621789414|0c:8c:24:bf:0f:65|67
1621789417|d4:6d:6d:e0:e8:c2|70
1621789421|0c:8c:24:bf:07:4f|87
1621789425|78:dd:d9:83:98:7d|79
1621789427|c0:17:4d:c7:46:e7|66
1621789427|c0:17:4d:c7:46:e7|66
1621789427|c0:17:4d:c7:46:e7|67
1621789427|c0:17:4d:c7:46:e7|66
1621789427|c0:17:4d:c7:46:e7|66
1621789427|c0:17:4d:c7:46:e7|63
1621789427|c0:17:4d:c7:46:e7|64
1621789427|c0:17:4d:c7:46:e7|62
1621789427|c0:17:4d:c7:46:e7|65
1621789429|84:c0:ef:61:93:5d|77
1621789429|84:c0:ef:61:93:5d|77
1621789430|c8:02:10:bc:d8:df|60
1621789430|c8:02:10:bc:d8:df|62
1621789431|30:d1:6b:9a:3d:95|78
1621789431|c0:17:4d:c7:46:e7|61
1621789431|c0:17:4d:c7:46:e7|63
1621789431|c0:17:4d:c7:46:e7|61
1621789431|c0:17:4d:c7:46:e7|61
1621789433|78:dd:d9:83:94:9f|91
1621789439|a8:96:75:35:9a:40|75
1621789439|a8:96:75:35:9a:40|75
1621789439|dc:8b:28:79:1f:71|85
1621789443|b0:fc:36:a9:6a:2f|91
1621789451|0c:8c:24:bf:07:4f|80
1621789451|0c:8c:24:bf:07:4f|78
1621789452|0c:8c:24:bf:12:72|67
1621789452|20:f4:78:fc:25:0d|82
1621789452|20:f4:78:fb:75:f3|69
1621789452|0c:8c:24:bf:12:72|66
1621789452|0c:8c:24:bf:12:72|66
1621789453|d4:b7:61:87:81:5b|90
1621789453|c8:02:10:bc:d8:df|62
1621789454|fc:19:99:4d:8e:54|74
1621789454|fc:19:99:4d:8e:54|72
1621789454|74:c6:3b:7f:c8:45|77
1621789454|74:c6:3b:7f:c8:45|75
1621789455|74:c6:3b:7f:c8:45|73
1621789455|c8:02:10:bd:08:72|64
1621789456|7c:78:7e:de:2a:12|80
1621789459|d4:6d:6d:e0:c1:9e|73
1621789463|0c:8c:24:bf:0c:c2|71
1621789465|0c:8c:24:bf:07:4f|75
1621789465|0c:8c:24:bf:07:4f|71
1621789468|7c:67:a2:8e:07:97|84
1621789470|d8:32:e3:50:2a:2a|77
1621789475|0c:8c:24:bf:0f:65|78
1621789475|0c:8c:24:bf:0f:65|77
1621789476|30:07:4d:09:93:ae|87
1621789476|30:07:4d:09:93:ae|88
1621789476|c8:02:10:bc:d8:df|60
1621789477|0c:8c:24:bf:0c:c2|70
1621789478|e4:5d:75:08:3f:dd|69
1621789478|e4:5d:75:08:3f:dd|75
1621789478|c8:02:10:bd:08:72|64
1621789480|d4:6d:6d:e0:e8:c2|76
1621789485|a4:6b:b6:35:40:8a|80
1621789487|d4:b7:61:a0:6f:0d|93
1621789487|c8:02:10:bc:d8:df|66
1621789487|d4:b7:61:a0:6f:0d|91
1621789491|30:d1:6b:9a:3d:95|74
1621789491|30:d1:6b:9a:3d:95|76
1621789491|84:c0:ef:61:93:5d|77
1621789492|0c:8c:24:bf:0c:c2|66
1621789492|d4:6d:6d:e0:3e:d1|74
1621789499|30:07:4d:09:93:ae|84
1621789499|d8:32:e3:50:2a:2a|84
1621789499|d8:32:e3:50:2a:2a|87
1621789501|20:f4:78:fc:25:0d|80
1621789501|c8:02:10:bd:08:72|71
1621789502|d4:b7:61:87:81:5b|91
1621789502|d4:b7:61:87:81:5b|89
1621789507|94:94:26:5d:ac:89|87
1621789508|94:94:26:5d:ac:89|84
1621789508|78:dd:d9:83:98:7d|86
1621789510|c8:02:10:bc:d8:df|64
1621789510|c8:02:10:bc:d8:df|63
1621789511|7c:78:7e:de:2a:12|81
1621789512|c8:02:10:bd:08:72|72
1621789514|74:c6:3b:7f:c8:45|80
1621789514|74:c6:3b:7f:c8:45|78
1621789517|c0:17:4d:c7:46:e7|65
1621789517|c0:17:4d:c7:46:e7|63
1621789517|c0:17:4d:c7:46:e7|64
1621789517|c0:17:4d:c7:46:e7|64
1621789517|c0:17:4d:c7:46:e7|64
1621789517|c0:17:4d:c7:46:e7|63
1621789517|c0:17:4d:c7:46:e7|64
1621789517|c0:17:4d:c7:46:e7|63
1621789517|c0:17:4d:c7:46:e7|65
1621789517|c0:17:4d:c7:46:e7|66
1621789517|c0:17:4d:c7:46:e7|64
1621789517|c0:17:4d:c7:46:e7|68
1621789517|c0:17:4d:c7:46:e7|67
1621789517|c0:17:4d:c7:46:e7|73
1621789518|d4:6d:6d:e0:c1:9e|76
1621789520|b0:fc:36:aa:55:5f|90
1621789520|b0:fc:36:aa:55:5f|89
1621789522|c0:17:4d:c7:46:e7|66
1621789522|c0:17:4d:c7:46:e7|66
1621789522|c0:17:4d:c7:46:e7|70
1621789522|20:f4:78:da:02:b1|79
1621789522|20:f4:78:da:02:b1|76
1621789522|c0:17:4d:c7:46:e7|71
1621789522|c0:17:4d:c7:46:e7|72
1621789523|c8:02:10:bd:08:72|71
1621789523|88:07:4b:e7:cf:33|82
1621789523|88:07:4b:e7:cf:33|83
1621789527|98:54:1b:be:fb:b3|74
1621789527|98:54:1b:be:fb:b3|74
1621789528|20:f4:78:da:02:b1|73
1621789528|d4:b7:61:a0:6f:13|89
1621789530|a8:96:75:35:9a:40|83
1621789530|a8:96:75:35:9a:40|84
1621789531|28:39:5e:d6:f7:7a|74
1621789532|30:07:4d:09:93:ae|83
1621789532|30:07:4d:09:93:ae|85
1621789533|e4:5d:75:08:3f:dd|74
1621789533|e4:5d:75:08:3f:dd|74
1621789533|e4:5d:75:08:3f:dd|75
1621789533|e4:5d:75:08:3f:dd|72
1621789533|e4:5d:75:08:3f:dd|76
1621789533|e4:5d:75:08:3f:dd|76
1621789533|e4:5d:75:08:3f:dd|76
1621789533|e4:5d:75:08:3f:dd|76
1621789533|e4:5d:75:08:3f:dd|76
1621789533|e4:5d:75:08:3f:dd|76
1621789533|e4:5d:75:08:3f:dd|73
1621789533|e4:5d:75:08:3f:dd|73
1621789533|e4:5d:75:08:3f:dd|76
1621789533|e4:5d:75:08:3f:dd|73
1621789533|e4:5d:75:08:3f:dd|73
1621789533|c8:02:10:bc:d8:df|62
1621789535|c8:02:10:bd:08:72|68
1621789541|08:25:25:a4:c1:7e|73
1621789546|c8:02:10:bc:d8:df|62
1621789549|28:39:5e:db:af:91|87
1621789551|d4:6d:6d:e0:3e:d1|75
1621789553|84:c0:ef:61:93:5d|78
1621789553|0c:8c:24:bf:0c:c2|76
1621789553|0c:8c:24:bf:0c:c2|75
1621789553|78:dd:d9:83:98:7d|84
1621789556|0c:8c:24:bf:07:4f|83
1621789556|c8:02:10:bc:d8:df|70
1621789556|c8:02:10:bc:d8:df|60
1621789560|40:25:c2:cb:3a:0c|89
1621789561|fc:19:99:4d:8e:54|76
1621789562|7c:78:7e:de:2a:12|78
1621789562|7c:78:7e:de:2a:12|76
1621789563|e4:5d:75:08:3f:dd|78
1621789565|0c:8c:24:bf:0f:65|83
1621789566|30:07:4d:09:93:ae|84
1621789566|d4:b7:61:a0:6f:0d|90
1621789566|d4:b7:61:a0:6f:0d|91
1621789568|0c:8c:24:bf:0c:c2|75
1621789570|0c:8c:24:bf:07:4f|75
1621789570|0c:8c:24:bf:07:4f|76
1621789570|0c:8c:24:bf:07:4f|77
1621789571|d4:6d:6d:e0:36:f7|81
1621789572|d4:b7:61:87:81:5b|94
1621789574|a8:96:75:35:9a:40|87
1621789574|a8:96:75:35:9a:40|85
1621789574|b0:fc:36:aa:71:6d|83
1621789575|74:c6:3b:7f:c8:45|74
1621789575|74:c6:3b:7f:c8:45|71
1621789575|74:c6:3b:7f:c8:45|71
1621789575|74:c6:3b:7f:c8:45|74
1621789575|fc:19:99:4d:8e:54|75
1621789575|fc:19:99:4d:8e:54|75
1621789577|d4:b7:61:a0:6f:0d|90
1621789579|c8:02:10:bc:d8:df|62
1621789581|78:dd:d9:6c:36:4e|79
1621789586|0c:8c:24:bf:12:72|68
1621789586|0c:8c:24:bf:12:72|65
1621789586|0c:8c:24:bf:12:72|67
1621789589|7c:67:a2:8e:07:97|90
1621789590|c8:02:10:bc:d8:df|57
1621789592|c8:02:10:bd:08:72|75
1621789593|28:39:5e:d6:f7:7a|74
1621789593|08:25:25:a4:c1:7e|77
1621789593|98:54:1b:be:fb:b3|78
1621789593|98:54:1b:be:fb:b3|78
1621789593|08:25:25:a4:c1:7e|83
1621789593|98:54:1b:be:fb:b3|72
1621789593|98:54:1b:be:fb:b3|71
1621789597|0c:8c:24:bf:0c:c2|63
1621789597|0c:8c:24:bf:0c:c2|63
1621789598|20:f4:78:fb:75:f3|62
1621789600|78:dd:d9:83:94:9f|89
1621789602|d4:b7:61:87:81:5b|89
1621789602|d4:6d:6d:e0:e8:c2|79
1621789602|c8:02:10:bc:d8:df|64
1621789602|c8:02:10:bc:d8:df|64
1621789604|78:dd:d9:83:98:7d|80
1621789604|c8:02:10:bd:08:72|68
1621789605|a4:6b:b6:35:40:8a|79
1621789607|d4:b7:61:a0:6f:0d|88
1621789607|c0:17:4d:c7:46:e7|78
1621789608|c0:17:4d:c7:46:e7|72
1621789608|c0:17:4d:c7:46:e7|71
1621789608|c0:17:4d:c7:46:e7|72
1621789608|c0:17:4d:c7:46:e7|71
1621789608|c0:17:4d:c7:46:e7|72
1621789608|c0:17:4d:c7:46:e7|72
1621789608|c0:17:4d:c7:46:e7|71
1621789609|0c:8c:24:bf:0f:65|68
1621789609|0c:8c:24:bf:0f:65|68
1621789612|7c:78:7e:de:2a:12|79
1621789612|c0:17:4d:c7:46:e7|75
1621789612|c0:17:4d:c7:46:e7|73
1621789612|c0:17:4d:c7:46:e7|72
1621789612|30:d1:6b:9a:3d:95|77
1621789612|30:d1:6b:9a:3d:95|78
1621789614|78:dd:d9:83:94:9f|93
1621789615|84:c0:ef:61:93:5d|75
1621789615|88:07:4b:e7:cf:33|89
1621789618|7c:67:a2:8e:07:60|88
1621789622|20:f4:78:fb:75:f3|67
1621789624|30:07:4d:09:93:ae|91
1621789625|00:0c:e7:bf:19:4e|60
1621789625|00:0c:e7:bf:19:4e|61
1621789625|c8:02:10:bc:d8:df|69
1621789625|c8:02:10:bc:d8:df|70
1621789626|98:54:1b:a2:7e:66|68
1621789629|78:dd:d9:83:94:9f|88
1621789635|b0:fc:36:aa:71:6d|84
1621789635|b0:fc:36:aa:71:6d|86
1621789635|b0:fc:36:aa:71:6d|85
1621789635|74:c6:3b:7f:c8:45|83
1621789636|70:5e:55:e6:4d:d9|77
1621789636|70:5e:55:e6:4d:d9|80
1621789638|c8:02:10:bd:08:72|71
1621789643|04:b4:29:e2:5d:23|53
1621789643|04:b4:29:e2:5d:23|53
1621789644|00:0c:e7:ff:c6:27|57
1621789644|00:0c:e7:ff:c6:27|57
1621789648|d4:b7:61:a0:6f:13|94
1621789648|c8:02:10:bc:d8:df|52
1621789649|7c:67:a2:8e:07:97|83
1621789650|f4:d1:08:4e:22:df|82
1621789654|78:dd:d9:83:98:7d|77
1621789657|d8:32:e3:50:2a:2a|78
1621789660|98:54:1b:be:fb:b3|73
1621789660|98:54:1b:be:fb:b3|72
1621789661|0c:8c:24:bf:07:4f|80
1621789661|0c:8c:24:bf:07:4f|80
1621789662|0c:8c:24:bf:12:72|69
1621789662|0c:8c:24:bf:12:72|70
1621789663|7c:78:7e:de:2a:12|85
1621789670|a8:96:75:35:9a:40|83
1621789671|c8:02:10:bd:08:72|68
1621789672|30:d1:6b:9a:3d:95|76
1621789673|0c:8c:24:bf:0c:c2|67
1621789673|0c:8c:24:bf:0c:c2|68
1621789673|0c:8c:24:bf:0c:c2|69
1621789676|0c:8c:24:bf:12:72|69
1621789680|34:41:5d:cb:be:b1|76
1621789682|c8:02:10:bc:d8:df|64
1621789682|c8:02:10:bc:d8:df|62
1621789684|c8:02:10:bd:08:72|66
1621789684|7c:78:7e:de:2a:12|79
1621789685|0c:8c:24:bf:0f:65|76
1621789689|94:94:26:5d:ac:89|85
1621789690|54:fc:f0:52:37:84|82
1621789692|d4:6d:6d:e0:36:f7|77
1621789693|98:54:1b:a2:7e:66|67
1621789693|98:54:1b:a2:7e:66|67
1621789693|04:b4:29:e2:5d:23|64
1621789694|c8:02:10:bc:d8:df|60
1621789695|90:e7:c4:df:7f:14|83
1621789695|90:e7:c4:df:7f:14|83
1621789697|88:07:4b:e7:cf:33|81
1621789697|88:07:4b:e7:cf:33|82
1621789698|c0:17:4d:c7:46:e7|71
1621789698|c0:17:4d:c7:46:e7|70
1621789698|c0:17:4d:c7:46:e7|72
1621789698|c0:17:4d:c7:46:e7|71
1621789698|c0:17:4d:c7:46:e7|71
1621789698|c0:17:4d:c7:46:e7|70
1621789698|c0:17:4d:c7:46:e7|71
1621789699|a8:96:75:35:9a:40|76
1621789699|a8:96:75:35:9a:40|75
1621789699|0c:8c:24:bf:0f:65|72
1621789699|0c:8c:24:bf:0f:65|70
1621789702|c0:17:4d:c7:46:e7|70
1621789702|c0:17:4d:c7:46:e7|70
1621789702|c0:17:4d:c7:46:e7|68
1621789702|c0:17:4d:c7:46:e7|71
1621789702|c0:17:4d:c7:46:e7|70
1621789702|c0:17:4d:c7:46:e7|70
1621789702|c0:17:4d:c7:46:e7|65
1621789702|c0:17:4d:c7:46:e7|63
1621789702|c0:17:4d:c7:46:e7|65
1621789702|c0:17:4d:c7:46:e7|66
1621789702|c0:17:4d:c7:46:e7|66
1621789704|d4:6d:6d:e0:e8:d1|82
1621789704|78:dd:d9:83:98:7d|80
1621789707|c8:02:10:bd:08:72|74
1621789710|54:fc:f0:52:37:84|78
1621789712|88:07:4b:e7:cf:33|83
1621789712|88:07:4b:e7:cf:33|85
1621789718|7c:78:7e:de:2a:12|86
1621789722|0c:8c:24:bf:07:4f|85
1621789726|d4:6d:6d:e0:e8:c2|71
1621789726|d4:b7:61:a0:6f:0d|89
1621789727|20:f4:78:fb:75:f3|65
1621789729|00:0c:e7:fb:37:d2|74
1621789729|00:0c:e7:fb:37:d2|74
1621789731|24:77:03:25:42:f4|70
1621789731|24:77:03:25:42:f4|70
1621789731|24:77:03:25:42:f4|73
1621789731|24:77:03:25:42:f4|64
1621789732|30:d1:6b:9a:3d:95|72
1621789732|30:d1:6b:9a:3d:95|70
1621789732|00:0c:e7:69:6a:a4|64
1621789732|00:0c:e7:69:6a:a4|63
1621789733|00:0c:e7:69:6a:a4|71
1621789733|00:0c:e7:69:6a:a4|71
1621789734|78:dd:d9:83:94:9f|91
1621789734|78:dd:d9:83:97:b9|90
1621789734|b0:fc:36:aa:71:6b|89
1621789738|7c:67:a2:8e:07:60|88
1621789739|84:c0:ef:61:93:5d|73
1621789739|c8:02:10:bc:d8:df|62
1621789741|c8:02:10:bd:08:72|76
1621789741|c8:02:10:bd:08:72|70
1621789744|88:07:4b:e7:cf:33|79
1621789744|88:07:4b:e7:cf:33|84
1621789745|0c:54:15:a8:3c:07|87
1621789747|88:07:4b:e7:cf:33|87
1621789748|0c:8c:24:bf:0c:c2|77
1621789748|0c:8c:24:bf:0c:c2|79
1621789751|0c:8c:24:bf:07:4f|76
1621789751|0c:8c:24:bf:07:4f|78
1621789751|c8:02:10:bc:d8:df|61
1621789752|0c:8c:24:bf:12:72|66
1621789753|c8:02:10:bd:08:72|67
1621789754|88:07:4b:e7:cf:33|83
1621789754|88:07:4b:e7:cf:33|82
1621789754|88:07:4b:e7:cf:33|80
1621789754|88:07:4b:e7:cf:33|79
1621789755|78:dd:d9:83:98:7d|84
1621789759|98:54:1b:a2:7e:66|65
1621789759|98:54:1b:a2:7e:66|65
1621789761|0c:8c:24:bf:0f:65|78
1621789762|c8:02:10:bc:d8:df|63
1621789762|d4:b7:61:87:81:5b|91
1621789764|c8:02:10:bd:08:72|71
1621789765|0c:8c:24:bf:07:4f|79
1621789766|00:0c:e7:a3:8d:53|71
1621789766|00:0c:e7:a3:8d:53|73
1621789766|00:0c:e7:a3:8d:53|72
1621789767|0c:8c:24:bf:12:72|67
1621789767|0c:8c:24:bf:12:72|67
1621789767|0c:8c:24:bf:12:72|63
1621789767|0c:8c:24:bf:12:72|63
1621789771|f4:d1:08:4e:22:df|75
1621789773|9c:28:f7:b1:d0:8b|86
1621789774|2c:fd:ab:58:48:45|82
1621789774|c8:02:10:bc:d8:df|63
1621789774|c8:02:10:bc:d8:df|66
1621789778|0c:8c:24:bf:0c:c2|72
1621789780|78:dd:d9:6c:36:4e|87
1621789780|28:39:5e:d6:f7:7a|72
1621789780|0c:8c:24:bf:07:4f|77
1621789781|0c:8c:24:bf:12:72|76
1621789781|90:e7:c4:df:7f:14|81
1621789781|90:e7:c4:df:7f:14|83
1621789787|c8:02:10:bd:08:72|73
1621789787|d4:b7:61:a0:6f:0d|89
1621789788|c0:17:4d:c7:46:e7|65
1621789788|c0:17:4d:c7:46:e7|66
1621789788|c0:17:4d:c7:46:e7|67
1621789788|c0:17:4d:c7:46:e7|67
1621789788|c0:17:4d:c7:46:e7|66
1621789788|c0:17:4d:c7:46:e7|65
1621789788|c0:17:4d:c7:46:e7|65
1621789789|90:e7:c4:df:7f:14|88
1621789790|0c:8c:24:bf:0f:65|78
1621789790|0c:8c:24:bf:0f:65|82
1621789792|0c:8c:24:bf:0c:c2|66
1621789792|0c:8c:24:bf:0c:c2|67
1621789792|2c:fd:ab:58:48:45|84
1621789792|0c:8c:24:bf:0c:c2|70
1621789792|0c:8c:24:bf:0c:c2|70
1621789797|c8:02:10:bc:d8:df|69
1621789798|24:77:03:25:42:f4|67
1621789798|24:77:03:25:42:f4|67
1621789798|24:77:03:25:42:f4|67
1621789799|dc:8b:28:79:1f:71|92
1621789800|c8:02:10:bd:08:72|83
1621789808|c8:02:10:bc:d8:df|63
1621789808|c8:02:10:bc:d8:df|63
1621789808|d4:b7:61:a0:6f:13|93
1621789808|d4:b7:61:a0:6f:13|89
1621789815|74:c6:3b:7f:c8:45|74
1621789815|74:c6:3b:7f:c8:45|75
1621789818|40:25:c2:cb:3a:0c|92
1621789818|40:25:c2:cb:3a:0c|93
1621789819|d4:b7:61:a0:6f:13|87
1621789819|0c:8c:24:bf:0f:65|70
1621789819|0c:8c:24:bf:0f:65|70
1621789819|b0:fc:36:aa:55:5f|90
1621789825|30:07:4d:09:93:ae|81
1621789825|98:54:1b:a2:7e:66|72