1621934940|00:00:30:29:1c:b1|89
1622029555|00:01:2f:f4:ad:00|68
1622018207|00:0a:f5:49:a3:90|77
1621930645|00:0a:f5:49:a3:90|80
1621932698|00:0c:e7:00:16:5f|75
1621841894|00:0c:e7:00:82:19|75
1621927940|00:0c:e7:00:a4:4b|81
1622012695|00:0c:e7:00:bf:83|85
1621856554|00:0c:e7:01:76:dd|64
1621855066|00:0c:e7:01:cf:b7|64
1621925904|00:0c:e7:02:3f:2e|79
1621923067|00:0c:e7:02:4c:9f|75
1622016419|00:0c:e7:02:59:85|81
1621846099|00:0c:e7:02:64:8f|85
1621944624|00:0c:e7:02:65:4a|69
1621845159|00:0c:e7:02:66:62|78
1621836813|00:0c:e7:02:8c:21|73
1621841191|00:0c:e7:03:05:23|77
1621941556|00:0c:e7:03:70:c8|74
1622028653|00:0c:e7:03:cb:eb|81
1621836699|00:0c:e7:03:e0:80|81
1621932199|00:0c:e7:04:25:79|84
1622015655|00:0c:e7:04:6b:b5|81
1621932633|00:0c:e7:04:6e:36|82
1621846419|00:0c:e7:05:bb:d4|79
1622011053|00:0c:e7:06:07:bd|68
1621927285|00:0c:e7:06:82:5d|72
1622030885|00:0c:e7:06:91:13|71
1621845863|00:0c:e7:07:9e:d4|81
1621854388|00:0c:e7:07:9f:fd|74
1621849808|00:0c:e7:08:33:60|73
1621854235|00:0c:e7:08:d1:0d|80
1621949554|00:0c:e7:08:db:b7|69
1621860253|00:0c:e7:09:82:07|71
1621851406|00:0c:e7:09:82:d1|74
1622021482|00:0c:e7:09:9f:8e|71
1621944795|00:0c:e7:0a:19:2f|70
1621864362|00:0c:e7:0a:9b:31|66
1621856530|00:0c:e7:0a:b9:08|66
1621859842|00:0c:e7:0c:23:4d|73
1621927812|00:0c:e7:0c:76:07|70
1621945223|00:0c:e7:0c:7a:9c|74
1621943474|00:0c:e7:0d:1e:20|76
1621944456|00:0c:e7:0d:81:95|78
1622010367|00:0c:e7:0f:18:f3|73
1621940933|00:0c:e7:0f:5f:95|76
1621945601|00:0c:e7:0f:b9:59|75
1622031712|00:0c:e7:0f:f5:d4|68
1621849201|00:0c:e7:10:44:35|74
1621843413|00:0c:e7:11:45:1e|70
1621922655|00:0c:e7:12:2f:b4|74
1621858113|00:0c:e7:12:94:00|74
1621850232|00:0c:e7:12:9e:21|73
1621930662|00:0c:e7:13:08:25|74
1621943224|00:0c:e7:13:15:38|63
1621837807|00:0c:e7:13:2b:94|76
1621855161|00:0c:e7:15:0b:61|75
1621939917|00:0c:e7:15:57:14|63
1621855531|00:0c:e7:15:a6:f2|73
1621948116|00:0c:e7:16:3c:66|74
1621836431|00:0c:e7:16:9d:c8|84
1621943440|00:0c:e7:17:1e:84|81
1621836563|00:0c:e7:17:7d:87|77
1621842625|00:0c:e7:17:b1:4a|73
1621842461|00:0c:e7:17:e8:a8|74
1622030108|00:0c:e7:17:fb:eb|68
1621928493|00:0c:e7:18:07:8f|73
1622011542|00:0c:e7:18:1a:0f|67
1621950277|00:0c:e7:18:37:51|83
1621947510|00:0c:e7:18:3c:88|67
1622025185|00:0c:e7:18:48:dc|88
1621922733|00:0c:e7:19:2d:8d|76
1621928722|00:0c:e7:19:68:10|73
1621856395|00:0c:e7:19:74:99|73
1622022717|00:0c:e7:19:95:1b|78
1622015274|00:0c:e7:19:fb:b3|79
1621942710|00:0c:e7:1a:23:61|76
1622028671|00:0c:e7:1a:29:47|76
1621934251|00:0c:e7:1a:33:5f|67
1622020954|00:0c:e7:1a:4c:2b|78
1621922632|00:0c:e7:1a:55:0c|71
1621859230|00:0c:e7:1b:0f:d4|68
1621860028|00:0c:e7:1b:13:1d|64
1621923676|00:0c:e7:1c:0d:9a|80
1622028387|00:0c:e7:1c:69:09|76
1622030221|00:0c:e7:1d:2f:34|70
1621934493|00:0c:e7:1d:75:79|66
1621931462|00:0c:e7:1e:bf:a1|73
1622028108|00:0c:e7:1e:f0:a4|73
1621859234|00:0c:e7:1f:cb:26|70
1622030100|00:0c:e7:1f:e9:5e|69
1621944435|00:0c:e7:1f:f5:09|75
1621861643|00:0c:e7:20:49:54|81
1622025546|00:0c:e7:20:7f:46|76
1621929580|00:0c:e7:20:f0:d1|72
1621949571|00:0c:e7:20:f1:fb|78
1622026081|00:0c:e7:21:54:42|86
1621840345|00:0c:e7:22:5c:41|69
1622022935|00:0c:e7:22:c2:7a|78
1622017912|00:0c:e7:22:c8:9a|69
1621948239|00:0c:e7:22:f5:ff|86
1621848559|00:0c:e7:23:71:24|72
1621861954|00:0c:e7:23:7c:c4|88
1621842699|00:0c:e7:23:86:fe|77
1621922755|00:0c:e7:23:d3:d1|71
1621855645|00:0c:e7:25:79:45|74
1621922795|00:0c:e7:26:10:6f|83
1621851846|00:0c:e7:26:7d:0d|74
1621923461|00:0c:e7:27:16:63|78
1621942729|00:0c:e7:27:3a:88|84
1621857118|00:0c:e7:27:91:9c|73
1621924612|00:0c:e7:27:ba:35|77
1621853171|00:0c:e7:27:ef:ef|80
1621927612|00:0c:e7:28:03:60|73
1621936880|00:0c:e7:28:0b:78|83
1621941532|00:0c:e7:29:ea:2f|75
1621931447|00:0c:e7:29:fa:d0|79
1621928773|00:0c:e7:2b:1e:82|71
1621856209|00:0c:e7:2b:42:4e|69
1621949089|00:0c:e7:2b:96:cb|74
1621942198|00:0c:e7:2b:a7:a6|65
1622022988|00:0c:e7:2c:0f:94|60
1621839712|00:0c:e7:2c:e3:db|81
1621923283|00:0c:e7:2d:04:39|86
1622027126|00:0c:e7:2d:6e:7d|73
1621926592|00:0c:e7:2d:94:1b|76
1621948353|00:0c:e7:2d:fb:47|76
1621855147|00:0c:e7:2d:fd:62|84
1622030016|00:0c:e7:2e:30:7c|76
1621935604|00:0c:e7:2e:9b:00|71
1622020283|00:0c:e7:2f:4c:7b|68
1621937084|00:0c:e7:2f:9a:91|73
1621840778|00:0c:e7:30:a9:1a|78
1621937705|00:0c:e7:30:f5:89|72
1621839345|00:0c:e7:31:0e:67|68
1621845829|00:0c:e7:31:40:d2|83
1621944695|00:0c:e7:31:60:f4|75
1622009134|00:0c:e7:32:75:ec|74
1622016326|00:0c:e7:32:b5:bc|79
1621935903|00:0c:e7:32:b9:94|74
1621923370|00:0c:e7:32:fa:8e|77
1622027452|00:0c:e7:32:fb:81|78
1621935484|00:0c:e7:33:6f:19|72
1621849060|00:0c:e7:33:93:58|74
1621946818|00:0c:e7:33:bd:1d|76
1622027277|00:0c:e7:34:83:9f|71
1621929445|00:0c:e7:35:30:03|75
1621854800|00:0c:e7:35:4d:c6|70
1621933124|00:0c:e7:35:9d:84|77
1621948364|00:0c:e7:35:d9:72|79
1621849250|00:0c:e7:36:6c:a6|81
1621937420|00:0c:e7:36:98:97|71
1621923355|00:0c:e7:36:ae:54|86
1621928814|00:0c:e7:36:c7:b7|71
1622029711|00:0c:e7:36:fc:9e|60
1621848450|00:0c:e7:37:8c:93|89
1621846951|00:0c:e7:37:e0:1c|85
1621838552|00:0c:e7:37:f1:f1|77
1621858851|00:0c:e7:38:63:69|76
1621946844|00:0c:e7:38:b8:ca|70
1621930074|00:0c:e7:38:ca:ae|72
1622013141|00:0c:e7:38:d1:25|83
1621837415|00:0c:e7:38:e5:25|63
1622032163|00:0c:e7:38:fd:71|78
1621933404|00:0c:e7:39:d1:04|82
1621862325|00:0c:e7:3b:2f:67|77
1621945849|00:0c:e7:3b:89:2d|75
1621932178|00:0c:e7:3c:45:62|72
1622011973|00:0c:e7:3c:a9:23|74
1621927371|00:0c:e7:3e:46:1e|79
1622016022|00:0c:e7:3e:98:9a|83
1621923454|00:0c:e7:3e:a5:bf|72
1621928097|00:0c:e7:3f:6c:3a|82
1621923751|00:0c:e7:3f:ce:5e|77
1621923459|00:0c:e7:3f:db:2b|73
1621924228|00:0c:e7:3f:fb:e8|80
1621943725|00:0c:e7:40:4d:90|75
1621857862|00:0c:e7:40:9d:04|79
1622010168|00:0c:e7:41:4e:34|70
1621838843|00:0c:e7:41:ba:57|78
1621930491|00:0c:e7:41:e8:64|71
1621948128|00:0c:e7:42:08:8d|74
1622028263|00:0c:e7:43:19:46|74
1621935884|00:0c:e7:43:3a:4d|82
1621850065|00:0c:e7:43:8d:fb|85
1622020842|00:0c:e7:43:a1:fd|73
1621926935|00:0c:e7:43:e3:03|70
1621925011|00:0c:e7:43:e9:f9|76
1621852359|00:0c:e7:43:fa:cc|63
1621837237|00:0c:e7:44:14:03|70
1621849263|00:0c:e7:45:1a:e3|81
1621847323|00:0c:e7:45:31:81|82
1621840823|00:0c:e7:45:84:f3|78
1621925381|00:0c:e7:46:1d:38|77
1621948957|00:0c:e7:46:54:43|66
1621929955|00:0c:e7:46:55:30|66
1622018610|00:0c:e7:46:c5:42|70
1621923617|00:0c:e7:46:d8:87|71
1621942551|00:0c:e7:48:60:01|71
1622029834|00:0c:e7:48:96:34|70
1621863609|00:0c:e7:48:e0:98|73
1621836540|00:0c:e7:48:e4:3e|77
1622025363|00:0c:e7:49:1a:5f|79
1621856480|00:0c:e7:49:b9:56|69
1621849540|00:0c:e7:49:e2:01|77
1621858287|00:0c:e7:4a:1c:a3|76
1621862412|00:0c:e7:4a:98:6d|87
1621926232|00:0c:e7:4b:da:39|74
1622032683|00:0c:e7:4c:1d:5b|89
1621849223|00:0c:e7:4c:71:5e|73
1621854013|00:0c:e7:4c:b6:ad|71
1622015933|00:0c:e7:4c:c5:51|88
1621838548|00:0c:e7:4c:e8:58|77
1621848066|00:0c:e7:4d:64:82|72
1621927545|00:0c:e7:4d:78:69|70
1621942715|00:0c:e7:4d:c4:9e|78
1622020858|00:0c:e7:4f:27:31|72
1621950424|00:0c:e7:4f:5a:94|75
1621853649|00:0c:e7:50:07:b8|81
1622010213|00:0c:e7:50:16:c2|81
1621947830|00:0c:e7:50:36:e9|72
1621864637|00:0c:e7:50:3f:db|70
1621836557|00:0c:e7:50:c9:a5|67
1621849033|00:0c:e7:51:a5:df|71
1622030034|00:0c:e7:52:25:c0|71
1621943797|00:0c:e7:52:57:2e|74
1622019199|00:0c:e7:52:63:2d|67
1621950235|00:0c:e7:52:cd:d9|75
1621930459|00:0c:e7:54:53:90|69
1621930302|00:0c:e7:54:de:46|74
1621854287|00:0c:e7:54:f2:bd|78
1621859096|00:0c:e7:55:dc:5e|74
1621854084|00:0c:e7:56:01:2f|80
1621930926|00:0c:e7:56:cc:8a|81
1622028397|00:0c:e7:57:59:d7|70
1621925093|00:0c:e7:57:7d:a7|75
1622012815|00:0c:e7:57:fa:69|77
1621862369|00:0c:e7:58:13:30|74
1622026863|00:0c:e7:58:b3:87|73
1621854232|00:0c:e7:59:b0:1a|80
1622015314|00:0c:e7:59:b2:f9|82
1621949687|00:0c:e7:5a:27:2d|78
1621935577|00:0c:e7:5a:59:94|76
1621929460|00:0c:e7:5a:f2:1c|77
1621937477|00:0c:e7:5c:b4:45|83
1621836338|00:0c:e7:5d:2a:cc|72
1621860740|00:0c:e7:5d:44:59|74
1621856719|00:0c:e7:5d:58:c9|75
1621945735|00:0c:e7:5d:5f:f5|66
1622025539|00:0c:e7:5d:70:2f|69
1621838235|00:0c:e7:5d:b1:9a|68
1621861028|00:0c:e7:5e:8f:d4|76
1621860101|00:0c:e7:5f:4d:72|82
1621926059|00:0c:e7:5f:af:2f|78
1621844269|00:0c:e7:5f:b4:9d|67
1621838519|00:0c:e7:5f:b4:e9|75
1622026855|00:0c:e7:60:41:aa|72
1622013302|00:0c:e7:60:9d:31|81
1622018352|00:0c:e7:60:ed:d7|80
1621945122|00:0c:e7:61:11:ec|80
1622011178|00:0c:e7:61:5e:7a|76
1621930309|00:0c:e7:62:8f:32|73
1621863632|00:0c:e7:63:2d:a1|74
1621944864|00:0c:e7:64:09:eb|70
1621939811|00:0c:e7:65:2b:59|74
1621930429|00:0c:e7:65:88:d7|71
1621926313|00:0c:e7:65:f5:f6|69
1621849100|00:0c:e7:66:1e:10|73
1621949084|00:0c:e7:66:79:a4|76
1621932232|00:0c:e7:66:b3:41|70
1621928354|00:0c:e7:66:ea:c8|79
1621944024|00:0c:e7:67:f9:51|74
1622032804|00:0c:e7:68:19:f1|79
1621861298|00:0c:e7:68:95:e7|72
1621929583|00:0c:e7:68:c3:bd|87
1621947024|00:0c:e7:69:03:4e|72
1621838557|00:0c:e7:69:13:0f|81
1621859217|00:0c:e7:69:58:9a|61
1621860268|00:0c:e7:69:79:06|63
1622015515|00:0c:e7:6a:0b:bd|79
1622014545|00:0c:e7:6a:4c:ed|77
1621934359|00:0c:e7:6a:68:42|75
1621927040|00:0c:e7:6b:b1:4c|69
1622021584|00:0c:e7:6d:86:7f|79
1621859380|00:0c:e7:6d:bc:76|65
1622020968|00:0c:e7:6e:3d:ae|87
1621930153|00:0c:e7:6e:49:b8|67
1621937165|00:0c:e7:6e:9d:a8|78
1621932091|00:0c:e7:6e:c6:6b|89
1621925427|00:0c:e7:6f:93:7b|74
1621940262|00:0c:e7:6f:f9:da|76
1621846070|00:0c:e7:70:57:5a|90
1621857937|00:0c:e7:71:08:9a|73
1621949879|00:0c:e7:71:5f:2f|72
1621844789|00:0c:e7:71:9d:f8|74
1622032175|00:0c:e7:73:48:f6|68
1621940332|00:0c:e7:73:dd:a2|73
1621929679|00:0c:e7:74:f2:d9|70
1622030031|00:0c:e7:75:ac:2c|67
1621854507|00:0c:e7:76:76:cc|70
1621948421|00:0c:e7:76:7d:a2|73
1621931951|00:0c:e7:77:17:30|73
1621946656|00:0c:e7:77:19:42|79
1622027645|00:0c:e7:79:28:08|73
1621946904|00:0c:e7:79:60:06|69
1621949422|00:0c:e7:79:75:c2|74
1621947631|00:0c:e7:7a:65:28|75
1621946270|00:0c:e7:7a:a3:0d|74
1621851285|00:0c:e7:7a:ab:69|69
1621934240|00:0c:e7:7a:b5:17|91
1621859431|00:0c:e7:7b:ae:14|70
1621923097|00:0c:e7:7c:f8:35|81
1621841118|00:0c:e7:7d:43:99|81
1621930444|00:0c:e7:7d:d3:02|80
1621925152|00:0c:e7:7e:a4:23|81
1622025278|00:0c:e7:7f:5f:7d|69
1621855872|00:0c:e7:7f:77:99|80
1622022746|00:0c:e7:7f:bc:3d|74
1621857133|00:0c:e7:7f:d0:27|75
1622014862|00:0c:e7:80:86:0c|85
1621931474|00:0c:e7:81:8f:ab|73
1621949386|00:0c:e7:81:91:73|65
1621944861|00:0c:e7:82:58:55|72
1621845874|00:0c:e7:82:c7:6b|74
1622021824|00:0c:e7:83:4c:da|73
1621923498|00:0c:e7:83:77:f8|73
1621861343|00:0c:e7:83:85:e8|71
1621857791|00:0c:e7:84:21:8e|79
1621945980|00:0c:e7:84:5f:cd|66
1621859824|00:0c:e7:85:79:48|70
1621837736|00:0c:e7:85:96:46|70
1621852902|00:0c:e7:85:a6:58|82
1621838374|00:0c:e7:85:f2:1b|69
1621855507|00:0c:e7:86:36:11|74
1621858125|00:0c:e7:86:51:9f|69
1621929744|00:0c:e7:86:85:8f|75
1621943789|00:0c:e7:86:a6:5b|76
1622021628|00:0c:e7:86:bb:5a|72
1622014507|00:0c:e7:86:c1:c5|77
1621854113|00:0c:e7:87:71:04|75
1621851720|00:0c:e7:87:fd:12|91
1621925534|00:0c:e7:88:1c:9a|72
1621941606|00:0c:e7:88:27:ae|66
1621850088|00:0c:e7:88:52:49|78
1621862398|00:0c:e7:88:9e:ab|77
1621837182|00:0c:e7:89:5f:cd|73
1622028626|00:0c:e7:8a:16:03|77
1621937836|00:0c:e7:8b:02:4f|78
1621859963|00:0c:e7:8b:0d:bf|72
1621860545|00:0c:e7:8b:1a:7e|76
1621943200|00:0c:e7:8b:2f:b8|75
1622015722|00:0c:e7:8b:60:6a|81
1621924829|00:0c:e7:8c:0b:c8|74
1622016359|00:0c:e7:8c:26:42|71
1621858891|00:0c:e7:8c:f1:4d|72
1621863429|00:0c:e7:8d:0e:9a|73
1622021631|00:0c:e7:8d:10:c4|75
1621848436|00:0c:e7:8d:55:7d|74
1621930477|00:0c:e7:8e:7c:b3|66
1621930445|00:0c:e7:8e:f2:83|71
1621945114|00:0c:e7:8f:16:e8|68
1621844108|00:0c:e7:8f:81:eb|73
1621940034|00:0c:e7:8f:d2:81|72
1621944081|00:0c:e7:8f:e3:6e|82
1621849006|00:0c:e7:90:4e:87|75
1621949959|00:0c:e7:90:b7:cd|73
1621934560|00:0c:e7:90:f8:0c|75
1622018513|00:0c:e7:90:fb:70|77
1622014601|00:0c:e7:91:5a:6d|84
1621861578|00:0c:e7:91:96:3f|82
1621859078|00:0c:e7:92:80:fe|75
1621848997|00:0c:e7:92:88:db|64
1621848299|00:0c:e7:92:c8:1f|69
1621858496|00:0c:e7:92:d6:17|80
1621929618|00:0c:e7:92:ec:58|73
1621848194|00:0c:e7:95:1c:41|70
1621843622|00:0c:e7:95:7a:2f|69
1621927054|00:0c:e7:95:98:2c|71
1622026566|00:0c:e7:96:0d:6c|74
1621924786|00:0c:e7:96:3d:bd|82
1622026229|00:0c:e7:96:7c:c0|70
1621846631|00:0c:e7:96:86:ac|80
1621948847|00:0c:e7:97:41:1a|79
1621860128|00:0c:e7:97:a0:2f|83
1621842770|00:0c:e7:97:d1:17|89
1621836953|00:0c:e7:98:4d:07|79
1621954258|00:0c:e7:99:4d:20|91
1622028995|00:0c:e7:99:80:b7|75
1622022621|00:0c:e7:99:ec:c6|82
1621926508|00:0c:e7:9a:3c:a2|76
1621837061|00:0c:e7:9a:68:b7|75
1621849024|00:0c:e7:9b:08:b9|63
1621943828|00:0c:e7:9b:ba:ba|74
1621856729|00:0c:e7:9c:0e:23|78
1621857375|00:0c:e7:9c:15:e2|76
1621846907|00:0c:e7:9c:24:e6|70
1622024333|00:0c:e7:9c:53:2d|87
1622029347|00:0c:e7:9c:88:5b|71
1621861439|00:0c:e7:9e:5b:6e|76
1622016484|00:0c:e7:9e:5c:12|71
1621933243|00:0c:e7:9f:1a:56|78
1621861574|00:0c:e7:9f:51:7f|79
1622010851|00:0c:e7:9f:b4:c8|74
1621852091|00:0c:e7:a1:50:79|76
1621942477|00:0c:e7:a1:d2:36|78
1621836239|00:0c:e7:a2:33:ad|75
1621934676|00:0c:e7:a2:58:0c|86
1621928194|00:0c:e7:a2:62:57|70
1622021063|00:0c:e7:a2:ba:0b|79
1621928742|00:0c:e7:a2:c0:cc|67
1621837909|00:0c:e7:a3:98:bf|73
1621844523|00:0c:e7:a3:a3:dc|78
1621846723|00:0c:e7:a3:d4:e4|65
1621928658|00:0c:e7:a3:f4:c4|73
1621862077|00:0c:e7:a4:01:e5|83
1621923634|00:0c:e7:a4:46:fd|72
1622022538|00:0c:e7:a4:95:0b|73
1621845907|00:0c:e7:a4:f0:a7|73
1621927100|00:0c:e7:a5:60:6a|76
1622032165|00:0c:e7:a5:72:6c|72
1621842142|00:0c:e7:a5:80:55|75
1621934200|00:0c:e7:a6:3e:36|76
1622009925|00:0c:e7:a6:8e:56|73
1621925028|00:0c:e7:a6:8e:6f|77
1621949293|00:0c:e7:a7:44:2d|73
1622028774|00:0c:e7:a7:81:df|70
1621847126|00:0c:e7:a8:3d:0c|76
1621950611|00:0c:e7:a8:9b:69|76
1622015659|00:0c:e7:a8:a5:90|78
1621859682|00:0c:e7:aa:40:11|62
1621843338|00:0c:e7:ab:60:4c|73
1621860068|00:0c:e7:ab:dd:0f|73
1621943300|00:0c:e7:ab:e1:62|71
1622017946|00:0c:e7:ac:05:fa|70
1622028580|00:0c:e7:ac:08:0d|79
1621931296|00:0c:e7:ac:33:b1|78
1621849237|00:0c:e7:ac:48:04|78
1621848867|00:0c:e7:ac:53:a6|73
1621932222|00:0c:e7:ac:bf:15|85
1621856891|00:0c:e7:ad:5d:82|75
1621856989|00:0c:e7:ad:d9:f1|70
1621928256|00:0c:e7:ae:0d:1c|77
1621944615|00:0c:e7:ae:36:64|70
1622030036|00:0c:e7:ae:4b:37|71
1621924216|00:0c:e7:ae:bb:31|81
1621855145|00:0c:e7:af:1a:03|70
1622024463|00:0c:e7:b0:09:8a|69
1622030833|00:0c:e7:b0:54:fd|80
1621863675|00:0c:e7:b0:60:cd|67
1621849941|00:0c:e7:b0:72:e1|79
1621842097|00:0c:e7:b0:a6:d9|71
1621842162|00:0c:e7:b0:f4:a2|81
1621930853|00:0c:e7:b1:42:4a|88
1622024510|00:0c:e7:b1:61:6b|80
1621948457|00:0c:e7:b1:a3:7b|69
1621836941|00:0c:e7:b1:e6:c8|70
1621929532|00:0c:e7:b2:17:11|75
1621925569|00:0c:e7:b2:66:96|74
1621842993|00:0c:e7:b4:21:7e|77
1621855113|00:0c:e7:b4:95:1e|66
1622018312|00:0c:e7:b4:99:af|85
1621930166|00:0c:e7:b4:a0:a3|71
1622028262|00:0c:e7:b5:60:6d|71
1621942640|00:0c:e7:b5:84:95|75
1622015711|00:0c:e7:b7:02:22|79
1621842130|00:0c:e7:b7:c1:d8|73
1621858374|00:0c:e7:b7:db:35|79
1621923218|00:0c:e7:b8:39:16|78
1621948378|00:0c:e7:b8:f6:8e|74
1621944525|00:0c:e7:b9:19:8d|77
1621948074|00:0c:e7:b9:47:90|73
1621942755|00:0c:e7:b9:65:fd|70
1621945875|00:0c:e7:b9:e5:3c|69
1622033430|00:0c:e7:b9:f7:ef|65
1622020936|00:0c:e7:ba:0d:c9|76
1622011808|00:0c:e7:bb:14:0c|65
1621929116|00:0c:e7:bb:cb:49|67
1622021097|00:0c:e7:bc:95:2b|77
1621924399|00:0c:e7:bd:16:2c|72
1621848514|00:0c:e7:bd:51:f8|77
1621941617|00:0c:e7:bd:7c:74|71
1621837252|00:0c:e7:bd:89:ea|70
1622016808|00:0c:e7:bd:e4:f2|66
1621836917|00:0c:e7:be:37:5d|68
1621934685|00:0c:e7:be:6a:5f|72
1621851111|00:0c:e7:be:7f:09|77
1621848421|00:0c:e7:be:7f:18|74
1622028632|00:0c:e7:bf:29:40|87
1621925897|00:0c:e7:bf:4f:f5|81
1621945038|00:0c:e7:bf:7f:e7|77
1621842195|00:0c:e7:bf:ff:db|81
1621924708|00:0c:e7:c0:14:bc|79
1622024216|00:0c:e7:c0:44:90|69
1622023970|00:0c:e7:c0:52:bd|67
1621865095|00:0c:e7:c0:73:57|73
1621860830|00:0c:e7:c0:a4:21|81
1621849147|00:0c:e7:c1:fd:79|89
1621843752|00:0c:e7:c2:1e:ee|79
1622027943|00:0c:e7:c2:df:30|85
1621844579|00:0c:e7:c2:f6:c5|73
1621860291|00:0c:e7:c3:78:12|67
1621839231|00:0c:e7:c4:02:12|73
1621935125|00:0c:e7:c4:15:ae|90
1622016261|00:0c:e7:c4:b5:65|70
1621950203|00:0c:e7:c4:bb:a4|80
1621849990|00:0c:e7:c4:fc:56|72
1621926492|00:0c:e7:c5:4d:37|72
1622011005|00:0c:e7:c5:6e:d7|80
1621943663|00:0c:e7:c5:6f:5b|73
1622027122|00:0c:e7:c5:db:0b|76
1621941550|00:0c:e7:c6:09:59|71
1621841860|00:0c:e7:c6:1d:70|66
1621930881|00:0c:e7:c6:61:19|74
1622010144|00:0c:e7:c7:f3:23|67
1621842080|00:0c:e7:c7:fd:73|78
1622015030|00:0c:e7:c8:08:0f|73
1621932456|00:0c:e7:c8:2e:31|78
1621862248|00:0c:e7:c9:1a:05|73
1621856233|00:0c:e7:c9:66:27|66
1621857223|00:0c:e7:c9:89:d0|81
1621860364|00:0c:e7:c9:b5:14|75
1622014680|00:0c:e7:ca:ab:bd|77
1621943455|00:0c:e7:ca:d3:3b|81
1621836022|00:0c:e7:cb:27:37|67
1621858743|00:0c:e7:cb:71:d7|69
1621850119|00:0c:e7:cb:b1:ef|76
1621842014|00:0c:e7:cc:0b:6f|81
1621845265|00:0c:e7:cc:1f:54|83
1622012719|00:0c:e7:cc:3e:18|80
1622028585|00:0c:e7:cc:94:fa|86
1621926747|00:0c:e7:cd:26:c4|72
1621944567|00:0c:e7:cd:38:ba|73
1621941315|00:0c:e7:cd:73:2b|71
1621847227|00:0c:e7:ce:3f:02|79
1621925427|00:0c:e7:ce:63:ed|78
1622028401|00:0c:e7:ce:c0:93|72
1622011858|00:0c:e7:cf:37:4b|76
1622022082|00:0c:e7:cf:a0:5f|70
1621923162|00:0c:e7:cf:de:1a|76
1621933060|00:0c:e7:d0:11:fa|75
1621946468|00:0c:e7:d0:23:d3|72
1621937894|00:0c:e7:d0:87:1f|72
1621944856|00:0c:e7:d0:a3:b7|69
1621842221|00:0c:e7:d0:d9:25|81
1621950294|00:0c:e7:d1:29:01|79
1621934679|00:0c:e7:d1:3b:73|70
1621848918|00:0c:e7:d1:a0:3b|72
1622028651|00:0c:e7:d3:77:2c|73
1621836973|00:0c:e7:d4:17:74|67
1621849869|00:0c:e7:d5:08:0b|70
1621837391|00:0c:e7:d5:4d:39|66
1621923238|00:0c:e7:d7:37:69|78
1621929742|00:0c:e7:d7:5a:8a|68
1621854360|00:0c:e7:d9:48:04|70
1621849417|00:0c:e7:d9:be:7a|76
1622018382|00:0c:e7:da:6b:5b|69
1622016692|00:0c:e7:da:be:7c|74
1622025528|00:0c:e7:da:ea:09|73
1621942108|00:0c:e7:db:65:a5|71
1621859291|00:0c:e7:db:ba:78|79
1622030039|00:0c:e7:dc:13:ec|67
1622028922|00:0c:e7:dc:78:de|70
1621858861|00:0c:e7:dd:3d:61|78
1621931818|00:0c:e7:dd:61:3d|74
1622023601|00:0c:e7:dd:90:10|80
1622016192|00:0c:e7:dd:dd:e4|78
1621923056|00:0c:e7:dd:e9:51|80
1621928840|00:0c:e7:de:bf:1e|73
1621930311|00:0c:e7:de:c7:74|68
1621836544|00:0c:e7:df:2d:06|73
1621923070|00:0c:e7:df:ee:79|76
1621923198|00:0c:e7:df:f7:ea|79
1621863481|00:0c:e7:e0:15:30|70
1621846361|00:0c:e7:e1:2d:38|75
1622022020|00:0c:e7:e1:7a:d2|80
1622026712|00:0c:e7:e1:e2:32|69
1621934738|00:0c:e7:e2:9f:c1|62
1622025001|00:0c:e7:e2:b7:c5|73
1621932561|00:0c:e7:e2:d4:c3|68
1621944880|00:0c:e7:e2:df:18|75
1622033509|00:0c:e7:e3:8a:8e|74
1621931425|00:0c:e7:e3:8d:14|67
1621860493|00:0c:e7:e3:c4:cb|71
1622021623|00:0c:e7:e3:cf:f8|67
1621844056|00:0c:e7:e3:e7:76|77
1621926771|00:0c:e7:e4:16:c5|77
1621946708|00:0c:e7:e4:44:75|71
1622018027|00:0c:e7:e5:35:d6|84
1621862127|00:0c:e7:e5:49:59|68
1622015684|00:0c:e7:e5:64:8a|75
1622010762|00:0c:e7:e5:a7:2f|78
1621863508|00:0c:e7:e6:8a:41|73
1621845699|00:0c:e7:e7:7b:3b|82
1621845726|00:0c:e7:e7:d3:94|81
1621931226|00:0c:e7:e7:ff:32|73
1621853781|00:0c:e7:e8:fe:45|73
1621837382|00:0c:e7:e9:88:71|67
1622028194|00:0c:e7:e9:dc:22|78
1622014496|00:0c:e7:e9:f8:91|68
1621861099|00:0c:e7:ea:59:58|67
1621931341|00:0c:e7:ea:87:66|82
1621842125|00:0c:e7:ea:ca:25|77
1622018431|00:0c:e7:eb:21:20|70
1621923340|00:0c:e7:ec:0c:20|68
1621932809|00:0c:e7:ec:b2:9e|76
1622022803|00:0c:e7:ec:f5:31|80
1621945892|00:0c:e7:ed:17:5b|74
1622010269|00:0c:e7:ed:f0:2d|84
1621843295|00:0c:e7:ee:1c:1a|83
1621860386|00:0c:e7:ee:39:cb|72
1621845489|00:0c:e7:ee:54:2d|83
1621928178|00:0c:e7:ee:8a:c5|68
1621936509|00:0c:e7:ee:8b:1d|72
1621848989|00:0c:e7:ee:99:37|70
1621924366|00:0c:e7:ee:ce:0c|78
1621923479|00:0c:e7:ee:fb:82|76
1622022557|00:0c:e7:ef:6a:88|74
1621863525|00:0c:e7:ef:aa:7f|70
1621851369|00:0c:e7:ef:d5:11|82
1621842055|00:0c:e7:f0:17:e3|75
1621845942|00:0c:e7:f0:1a:6d|75
1621943734|00:0c:e7:f0:2e:27|71
1621944459|00:0c:e7:f0:6f:76|80
1621924224|00:0c:e7:f0:79:96|71
1621837629|00:0c:e7:f0:92:1f|72
1621932753|00:0c:e7:f1:33:4f|70
1622028957|00:0c:e7:f2:10:88|74
1621934720|00:0c:e7:f2:54:ad|63
1621941574|00:0c:e7:f2:75:98|77
1621851202|00:0c:e7:f2:94:42|86
1621837996|00:0c:e7:f2:df:24|71
1621930119|00:0c:e7:f3:5c:97|71
1621848073|00:0c:e7:f3:5f:5d|72
1621848994|00:0c:e7:f3:79:27|66
1621927103|00:0c:e7:f4:4c:91|79
1621857340|00:0c:e7:f4:bc:73|73
1621945657|00:0c:e7:f4:c1:7c|77
1622023726|00:0c:e7:f5:26:d2|80
1622024558|00:0c:e7:f6:13:b9|71
1621947296|00:0c:e7:f6:3e:98|81
1621942530|00:0c:e7:f6:68:77|77
1621841883|00:0c:e7:f6:a0:05|78
1622030877|00:0c:e7:f7:64:97|68
1621926303|00:0c:e7:f7:b1:1a|80
1621838539|00:0c:e7:f8:ba:83|74
1621936050|00:0c:e7:f8:d0:b7|85
1621838523|00:0c:e7:f9:de:f0|77
1622023722|00:0c:e7:fa:0c:ee|76
1621928184|00:0c:e7:fb:40:45|64
1621923205|00:0c:e7:fb:59:32|67
1621855329|00:0c:e7:fb:5d:e1|81
1621941982|00:0c:e7:fb:f2:f8|82
1621862749|00:0c:e7:fc:05:05|79
1621860057|00:0c:e7:fc:d7:1e|70
1621858752|00:0c:e7:fd:1a:f1|75
1621925419|00:0c:e7:fd:79:f5|70
1621923463|00:0c:e7:fd:80:8c|71
1622012106|00:0c:e7:fd:b6:1b|65
1621935621|00:0c:e7:fd:bf:84|73
1621843242|00:0c:e7:fd:bf:f2|79
1621927397|00:0c:e7:fe:13:42|74
1621855090|00:0c:e7:fe:1a:1d|71
1621844025|00:0c:e7:fe:1c:ff|81
1621838809|00:0c:e7:ff:37:d1|79
1621941540|00:0c:e7:ff:68:09|72
1622030186|00:21:07:fd:02:94|63
1622020386|00:23:0d:94:ba:45|75
1622022954|00:23:15:d1:c3:3d|84
1621936652|00:23:a7:48:a2:c8|79
1622013020|00:28:f8:2b:3a:45|80
1621923971|00:28:f8:2b:3a:45|74
1622013154|00:28:f8:2b:3a:46|75
1621923923|00:28:f8:2b:3a:46|73
1621933197|00:28:f8:71:23:48|83
1622010136|00:28:f8:a0:5f:cd|80
1622026561|00:71:cc:62:e8:8b|88
1621928796|00:7c:2d:ed:47:c4|69
1621924279|00:8a:fe:e6:ab:01|74
1621926241|00:9a:cd:41:fa:ff|77
1621928405|00:9b:5d:fd:ac:92|91
1621925734|00:9d:6b:37:5f:0d|87
1621927936|00:ab:4c:73:73:a5|70
1622013424|00:ae:fa:56:cc:3c|79
1621838772|00:ae:fa:56:cc:3c|76
1621934420|00:ae:fa:56:cc:3c|80
1622023095|00:b5:d0:43:ef:a1|76
1621846481|00:b5:d0:43:ef:a1|93
1621923276|00:b5:d0:43:ef:a1|87
1622020140|00:bb:60:b8:26:26|77
1621854622|00:cd:fe:cf:01:4f|72
1622009004|00:e1:8c:ba:cb:c9|88
1621837543|00:e1:8c:ba:cb:c9|91
1621922635|00:e1:8c:ba:cb:c9|91
1622009215|00:e1:8c:ba:cb:ca|90
1621923862|00:ec:0a:4a:48:36|66
1622027919|00:ec:0a:4a:48:36|72
1621925359|00:f4:8b:41:a0:c6|76
1621840727|01:52:32:69:df:7b|69
1621849358|01:5a:1e:9d:50:13|74
1621926845|01:60:64:78:0c:11|71
1621852428|01:78:02:7b:58:0d|66
1621948487|01:c9:3a:91:34:a2|80
1621850949|03:a6:d4:a4:be:7c|73
1621859197|03:c8:f4:fb:6f:90|77
1621837627|03:d7:86:70:93:f4|81
1622011672|04:8c:9a:b0:80:73|77
1621936357|04:8e:44:05:18:9b|69
1621953015|04:9a:c8:59:fa:52|82
1621850475|04:b4:29:e2:5d:23|81
1622018317|04:ba:8d:9d:e5:8b|79
1621937365|04:ba:8d:bd:77:f7|93
1621856792|04:c2:3e:97:7d:77|76
1622017039|04:c8:07:14:72:ac|76
1622019500|04:d3:b0:8f:79:fb|70
1622022246|04:d3:b0:91:05:19|81
1622018890|04:d6:aa:0e:68:12|69
1621841980|04:d6:aa:0f:30:00|81
1622026617|04:d6:aa:1f:68:71|71
1622015196|04:d6:aa:22:9d:01|76
1621862531|04:d6:aa:3b:68:ab|88
1621868025|04:d6:aa:41:21:f7|92
1622011347|04:d6:aa:53:53:0f|84
1622012963|04:d6:aa:57:50:a9|81
1621947436|04:d6:aa:58:3b:70|81
1622019762|04:d6:aa:68:2a:b1|90
1621838547|04:d6:aa:68:2a:b1|81
1621932310|04:d6:aa:6e:b9:2d|78
1621841844|04:d6:aa:9b:fd:43|83
1622025181|04:d6:aa:ac:07:a9|68
1621856492|04:d6:aa:b2:ac:f8|85
1622014879|04:d6:aa:c0:da:d8|80
1621922602|04:d6:aa:c0:da:d8|87
1621865203|04:d6:aa:e2:02:b3|92
1621836198|04:d6:aa:fa:aa:64|80
1622010505|04:e5:36:32:d3:38|70
1621845669|04:e5:36:32:d3:38|70
1621926806|04:ea:c4:3e:e2:99|71
1622009081|04:ed:33:b4:55:7d|75
1621942799|04:f1:28:60:01:fe|92
1621934477|05:76:42:42:8d:49|74
1621927523|05:b0:9c:d4:3f:61|71
1621838390|05:b8:12:10:af:cb|76
1621949591|05:ef:b5:9b:7c:f2|75
1622033740|07:73:b9:49:21:d0|64
1621839684|07:76:bf:3a:5a:68|70
1621840541|07:7f:43:10:9f:42|72
1621925014|08:25:25:2c:de:13|84
1621847090|08:25:25:a4:c1:7e|79
1622032087|08:39:ee:57:8f:03|86
1621938690|08:4d:44:43:2c:d0|70
1621853617|08:7f:98:90:11:b9|85
1621854501|08:9e:f1:14:42:bc|71
1622028966|08:a1:66:46:42:9f|76
1621845329|08:bf:a0:86:b3:c8|85
1622031998|08:c5:e1:0b:3c:74|81
1621922820|08:c5:e1:0c:ff:06|90
1622019644|08:c5:e1:19:81:72|70
1621929921|08:c5:e1:19:81:72|74
1622021466|08:c5:e1:25:31:82|79
1621843409|08:c5:e1:38:21:27|80
1621946607|08:c5:e1:45:b7:54|85
1621848189|08:c5:e1:71:bd:b1|86
1622029388|08:c5:e1:90:81:e1|80
1621949073|08:c5:e1:b2:ea:71|84
1621932936|08:c5:e1:b3:d4:86|82
1621926177|08:c5:e1:ee:9d:ac|89
1622015933|08:f6:9c:1e:79:d1|84
1621925308|09:1f:52:af:11:c0|71
1621852820|09:5d:d9:8e:58:9a|68
1621845903|09:8d:ce:ca:41:42|80
1622013028|0b:44:cb:f2:a9:98|81
1621927957|0b:67:f0:7e:00:2f|63
1622020883|0b:76:23:f7:5b:7b|78
1621928568|0b:8e:9c:17:15:af|76
1621841193|0b:9a:5e:8a:39:9c|72
1621853770|0b:c7:fb:76:0b:21|64
1621926910|0b:cf:5b:8d:08:39|75
1621854015|0c:18:97:04:5e:4a|68
1621923945|0c:2c:54:62:9b:fd|71
1621842772|0c:2c:54:62:9b:fd|74
1621933234|0c:60:7a:af:b1:00|85
1621842453|0c:70:4a:db:bf:d9|79
1621853949|0c:75:01:72:09:56|62
1622014629|0c:7a:15:8e:46:44|73
1621924460|0c:8c:24:bf:0f:65|62
1622030021|0c:8c:24:bf:12:72|56
1621938900|0c:8f:ff:17:4a:75|82
1621843765|0c:96:e6:76:6e:eb|85
1621929797|0c:96:e6:76:6e:eb|87
1621863909|0c:96:e6:76:6f:a7|89
1621849514|0c:a8:90:09:a6:d0|71
1621928546|0c:ab:47:49:07:69|71
1621930485|0c:db:68:31:a9:ef|68
1621850918|0c:e9:fb:b1:b0:ce|77
1621851200|0c:f0:ef:2d:99:fc|65
1621945220|0c:f3:46:ce:ad:6b|91
1622021184|0c:f3:46:f6:ca:79|85
1621842800|0c:f3:db:65:9e:79|73
1621842307|0d:03:ad:2c:a3:c3|77
1621851082|0d:04:ba:e6:6d:94|66
1621851099|0d:16:cb:c2:d6:01|69
1621940096|0d:4a:b7:47:c4:db|71
1621925385|0d:5a:d9:5b:03:ff|72
1621946197|0d:a3:a8:7f:61:71|84
1621836774|0d:b1:c0:88:15:ec|85
1621949433|0d:b9:e5:ff:ee:ee|70
1621946808|0d:f9:78:28:27:e1|81
1621854470|0f:52:3d:df:42:f7|68
1621849906|0f:53:d2:4e:85:d5|75
1622017225|10:02:b5:46:93:5d|65
1622014837|10:02:b5:50:2c:65|87
1622011282|10:02:b5:50:2c:66|82
1621838036|10:2e:57:d0:6d:ce|66
1622011513|10:3f:44:1a:3f:b3|81
1621838629|10:3f:44:1a:3f:b3|90
1621953409|10:3f:44:25:21:0b|82
1621859124|10:44:00:39:7b:c9|67
1621952863|10:4e:47:f8:d2:91|83
1621923550|10:63:c8:31:5c:ab|90
1621925286|10:87:06:ba:9b:cb|75
1621943964|10:8e:e0:67:f5:f0|90
1621845101|10:8e:e0:67:f5:f0|75
1621942590|10:e9:53:54:47:62|72
1621838812|10:e9:53:54:47:62|88
1621953123|10:f3:13:56:92:ce|94
1622014050|11:3e:6c:a1:98:0e|73
1621928098|11:3e:c8:e0:7e:b9|72
1621863969|11:77:89:27:17:04|77
1621850014|11:96:73:a9:c1:5a|58
1621850672|13:34:fe:a1:4c:8b|70
1621931614|14:1f:78:e1:97:31|81
1622016995|14:20:5e:e9:17:7a|75
1621840372|14:32:d1:72:61:5f|81
1622013013|14:4f:8a:c2:9b:92|86
1621854165|14:4f:8a:c2:9b:92|90
1621941634|14:56:8e:76:31:29|78
1621939836|14:7d:da:42:8b:32|78
1622016978|14:7d:da:42:8b:32|84
1621926475|14:a5:1a:df:ea:83|85
1621928154|14:ab:c5:3c:8d:fe|87
1621857361|14:ab:c5:e0:f6:55|73
1621938726|14:e3:62:4f:b9:8c|67
1621852315|14:ea:df:64:83:49|80
1621837366|14:ee:16:90:2c:3f|71
1621926848|15:42:e1:7c:13:8c|75
1621925312|15:78:9c:61:c6:cb|74
1622030270|15:7d:a3:d8:12:fb|78
1621837708|15:b7:6c:b1:c1:7d|65
1621846708|15:dc:c9:38:74:f8|72
1621842430|15:df:38:97:56:46|75
1621853248|17:24:f0:3b:dc:fb|66
1621926351|17:aa:bc:e4:ad:4c|71
1621923196|18:02:63:9c:6a:c3|86
1622020321|18:07:d0:3c:d2:76|79
1621853085|18:3e:ef:c0:6f:98|84
1621858711|18:3e:ef:c5:75:f3|74
1622012088|18:47:3d:e4:91:f7|82
1621935538|18:47:3d:e4:91:f7|82
1622029043|18:56:80:35:8b:ad|87
1621858548|18:56:80:35:8b:ad|86
1621928432|18:56:80:35:8b:ad|79
1621944247|18:56:80:35:8c:98|89
1621862768|18:56:80:35:8c:98|85
1622012785|18:56:80:35:8d:fb|91
1622017638|18:5e:0f:a2:9c:75|85
1621866903|18:70:3b:c9:10:33|87
1622029097|18:73:53:9c:86:f9|78
1622029226|18:7c:11:8f:46:5f|80
1621849266|18:7e:b9:30:20:00|75
1621861248|18:c2:8b:25:58:b5|78
1621851288|18:cc:18:9b:9e:2a|85
1621922496|18:cc:18:9b:9e:2b|78
1621851852|18:cc:18:9b:9e:2b|83
1621854295|18:cf:f0:16:0d:bc|77
1622026955|18:f6:43:1c:6b:4b|85
1621949470|19:0f:48:76:98:bf|80
1621854426|19:1f:c6:a7:5e:97|71
1621949446|19:70:87:ab:09:8e|73
1621948698|19:83:65:cf:b1:52|70
1621837757|19:89:6a:6f:12:ee|74
1622016060|19:8e:7d:8c:98:de|76
1621837160|19:bf:7c:92:7a:cd|76
1621841788|1b:1b:e4:e6:f9:e7|80
1621949596|1b:61:00:4e:b9:0b|66
1621853152|1b:bf:0a:de:86:91|71
1622014189|1c:15:1f:59:1c:27|83
1622014642|1c:15:1f:c3:1e:4a|73
1622030275|1c:1a:c0:21:43:e9|87
1621837755|1c:1f:7a:04:9b:a4|78
1622020453|1c:42:7d:90:43:fb|77
1622032649|1c:4d:70:23:62:6b|87
1621847453|1c:4d:70:23:62:6b|88
1621858230|1c:67:58:4a:ec:ad|84
1621928055|1c:7b:e7:e4:61:a4|78
1621857768|1c:ab:94:df:4c:7b|78
1621949879|1c:b7:96:f7:c1:2b|83
1621855459|1c:c5:5e:b9:f7:dd|71
1621935189|1c:cc:d6:2a:fa:04|89
1622016999|1c:cc:d6:ea:11:47|70
1622022984|1c:cc:d6:fa:18:ff|66
1621929120|1d:04:1c:9e:3d:ad|65
1621933813|1d:9e:12:82:8a:7a|69
1621928990|1d:ac:3e:d2:3b:df|66
1621854283|1d:bd:f0:92:18:25|75
1621947471|1d:c2:39:4a:a2:86|90
1621844610|1d:cf:76:aa:87:a9|78
1621853845|1d:d5:dc:4c:74:bb|69
1621926728|1d:e0:c7:a5:89:a9|72
1621922603|1d:e1:af:c3:fe:d6|76
1621842290|1f:03:ca:f9:76:23|82
1621923998|1f:d3:d8:11:e1:40|76
1622023209|20:37:26:5b:fc:86|79
1621929992|20:79:18:30:2d:75|85
1622020633|20:79:18:30:2d:75|84
1621861937|20:79:18:30:2d:75|89
1621852752|20:79:18:30:2d:76|86
1621850669|20:79:18:7f:09:90|92
1621836897|20:79:18:93:a3:2d|74
1621926822|20:79:18:fb:4f:9b|81
1621866239|20:a6:0c:30:2f:19|71
1622010243|20:a6:0c:da:96:7a|81
1621924051|20:ee:79:69:10:0d|66
1621852443|20:ef:94:9f:0c:52|72
1621839398|21:0b:c3:25:5e:7e|71
1621838187|21:1f:e8:82:29:b9|75
1621839809|21:34:18:aa:22:de|73
1621837919|21:34:26:d2:6c:91|80
1621850636|21:a7:77:7c:f1:5c|76
1621854549|21:d3:02:39:7e:53|68
1621855658|23:3d:fa:ea:17:01|73
1621849982|23:ba:b3:12:42:c4|74
1622018483|23:d4:30:8f:a4:56|74
1621840854|23:f5:3b:a3:17:b4|89
1621854476|24:0a:92:c2:c3:e7|63
1622026414|24:18:1d:03:68:e4|74
1622024285|24:18:1d:09:da:56|80
1622018900|24:18:1d:0a:05:13|68
1621930696|24:18:1d:1d:c0:95|84
1622019649|24:18:1d:1e:70:bd|90
1621938631|24:18:1d:1e:70:bd|89
1622026418|24:18:1d:37:6e:b5|70
1621924823|24:18:1d:88:84:3d|77
1621922550|24:18:1d:8c:86:db|83
1622019171|24:18:1d:8c:86:db|90
1621852414|24:18:1d:8c:86:db|85
1622033483|24:18:1d:8d:bb:f2|88
1621941884|24:18:1d:92:2c:71|83
1621846606|24:18:1d:9d:83:fb|83
1622024887|24:18:1d:aa:40:de|81
1621845696|24:18:1d:aa:40:de|88
1621925231|24:18:1d:aa:40:de|83
1622013228|24:18:1d:fc:01:80|81
1621929010|24:59:3e:2d:11:45|67
1621837967|24:5a:b5:a7:ac:36|74
1621925638|24:77:03:25:42:f4|80
1621838634|24:77:c8:b5:a4:88|87
1622030880|24:81:fd:95:13:a0|85
1622027510|24:d7:d5:3d:aa:fb|77
1621866955|24:db:ed:f6:7d:f2|88
1621948772|24:dd:97:f2:28:9c|66
1622020379|24:e1:30:dc:37:06|89
1622022710|24:e3:14:49:87:16|86
1621854253|24:ee:27:cd:97:53|61
1622020907|24:ee:9a:06:ae:05|86
1621837143|24:ee:9a:53:b0:1a|75
1622015489|24:ee:9a:7a:a1:66|85
1621854111|25:0a:d6:59:b3:37|69
1621852603|25:0e:41:46:65:60|71
1621841432|25:20:7e:b0:63:10|75
1621925257|25:7e:f1:6a:c5:da|73
1622022481|25:8c:2d:6a:55:d4|81
1621838024|25:95:d4:25:cf:ec|74
1621851236|25:a8:87:8e:e3:ee|65
1621854998|25:b5:84:fc:ce:5b|68
1621946167|25:c0:b3:98:03:bf|71
1621927933|25:cb:6d:cc:d4:66|66
1621928597|25:d9:7e:16:af:84|74
1621923334|27:06:c7:60:a6:14|83
1621926617|27:10:dd:cb:b6:2e|70
1621926332|27:19:23:eb:24:9e|80
1621839656|27:1d:55:46:cb:18|78
1621927104|27:43:ec:40:04:44|63
1621861571|27:47:8b:df:38:33|84
1621841115|27:51:07:97:e2:9e|75
1621849874|27:86:ae:75:a0:20|66
1621942435|27:93:48:7c:b1:64|85
1621850622|27:d2:1d:98:d7:d0|66
1621927935|28:0f:61:ed:5e:48|81
1621937366|28:16:a8:71:f7:46|89
1621950222|28:24:e7:74:9d:73|85
1622022205|28:24:ff:35:7f:1f|89
1621944376|28:24:ff:35:7f:1f|89
1621864543|28:24:ff:35:7f:1f|92
1621949541|28:2b:cf:ce:83:87|73
1621837195|28:33:34:e8:78:45|77
1621847058|28:39:5e:d7:66:99|86
1621842190|28:56:66:02:3a:cc|84
1621840560|28:56:c9:bf:26:0d|75
1621922886|28:6a:ba:d3:9b:29|83
1621838712|28:7f:cf:de:a4:d1|75
1621839938|28:a0:39:42:69:69|76
1621944082|28:c6:3f:04:e3:0e|77
1621840478|28:d5:cc:39:71:aa|74
1622029186|28:da:ee:35:47:79|83
1622029129|28:f9:fe:b8:3d:86|68
1622009006|28:fb:d3:fa:8e:7f|88
1621943429|28:fb:d3:fa:8e:7f|92
1622016083|28:fb:d3:fa:8e:a1|92
1621943493|28:fb:d3:fa:8e:a1|87
1621836223|28:fb:d3:fa:8e:c1|88
1621837170|29:d7:eb:38:a1:b7|86
1621946017|29:e5:29:38:89:09|75
1621863952|2b:66:c9:ef:8a:e6|71
1621940145|2b:dd:37:84:b9:d9|77
1621946137|2c:05:99:7a:af:b2|72
1621928357|2c:0a:9e:11:2e:f5|63
1621840341|2c:15:f5:dc:55:ec|71
1621850514|2c:1a:bc:6c:fb:ba|64
1621924094|2c:4c:c6:b7:b9:e7|83
1622022205|2c:a9:f0:4d:bb:4b|83
1621936552|2c:a9:f0:4d:bb:4b|90
1621928207|2c:d1:08:53:ff:0c|67
1621933542|2c:f5:40:6d:0f:c2|70
1621838503|2c:fb:15:82:7e:f3|70
1621851121|2d:0a:14:2f:9e:71|77
1622028956|2d:0e:13:f3:d7:47|72
1621925266|2d:1b:94:67:55:8a|68
1621839395|2d:3b:49:7d:b3:94|70
1621849752|2d:46:e0:c5:b0:84|73
1621854621|2d:4e:d7:83:03:82|64
1621928788|2d:a2:23:af:6c:08|67
1621841455|2d:b7:ed:67:3f:0d|88
1621842849|2d:b9:00:11:55:9f|75
1621851151|2d:cc:64:bd:63:56|66
1621854371|2d:f2:f0:38:71:ce|65
1621927698|2f:75:d8:f6:7c:d1|67
1621848684|30:00:32:97:c0:27|86
1621851249|30:04:98:ad:41:eb|71
1622014878|30:07:4d:0d:9e:da|80
1622013887|30:07:4d:44:ce:2b|87
1621945603|30:07:4d:4d:3e:bd|85
1622013932|30:07:4d:54:65:25|85
1621837622|30:07:4d:54:65:25|84
1621930585|30:07:4d:6a:3f:82|83
1621941535|30:07:4d:80:01:1b|80
1621925721|30:07:4d:8f:de:25|74
1621867647|30:07:4d:a6:4c:de|92
1622030783|30:07:4d:ab:fc:07|87
1621842352|30:07:4d:bd:c3:37|81
1621839658|30:36:07:3a:70:82|84
1621840425|30:45:96:13:af:68|86
1622033284|30:45:96:91:00:4d|86
1621925561|30:95:e3:3d:c3:80|69
1621857188|30:95:e3:3d:c3:80|70
1622022298|30:a9:de:95:d5:98|69
1621936186|30:a9:de:da:03:94|89
1621846419|30:a9:de:da:03:94|89
1622012646|30:a9:de:da:6f:6e|84
1621938721|30:a9:de:da:6f:6e|89
1621861522|30:a9:de:da:6f:6e|86
1622031543|30:a9:de:da:6f:70|89
1621934486|30:a9:de:da:6f:70|85
1621851360|30:cc:d3:6f:73:99|72
1622026878|30:d1:6b:99:9e:d9|88
1622029140|30:dc:c4:2f:d0:c3|65
1621946490|31:55:92:56:d5:2d|80
1621925193|31:55:cf:8a:04:f0|73
1621853897|31:6f:36:b9:2e:f9|67
1621847254|31:af:e4:26:db:f4|68
1621928796|33:48:4a:ea:b9:e5|71
1621856496|33:86:11:e6:4b:4f|81
1621847443|34:12:98:46:f8:60|78
1622018405|34:12:f9:4e:a2:8a|85
1621848188|34:12:f9:4e:a2:8a|73
1621934834|34:12:f9:4e:a2:8a|75
1622029799|34:12:f9:70:a4:23|83
1621840720|34:12:f9:70:a4:23|75
1622018561|34:12:f9:fd:68:af|80
1622024215|34:2e:b7:d8:05:ef|83
1621931128|34:2f:ca:e4:55:ee|68
1622020072|34:36:3b:85:1e:32|83
1621925355|34:36:3b:86:fc:56|81
1622009442|34:41:5d:a6:33:67|76
1621837794|34:41:5d:a6:33:67|72
1622011823|34:41:5d:bf:bd:e6|90
1621844117|34:41:5d:bf:bd:e6|84
1621923340|34:43:f7:0a:97:79|85
1621838279|34:8b:75:27:cf:d8|91
1622013866|34:8b:75:30:61:44|83
1622020165|34:8b:75:38:6d:a0|87
1621943158|34:8b:75:59:f7:90|91
1622023216|34:8b:75:ec:bd:d7|74
1621946305|34:8b:75:ec:bd:d7|90
1621949664|34:8e:01:94:a5:a2|80
1621837464|34:a3:95:b2:3b:55|82
1621851058|34:b0:2a:24:75:00|71
1621851326|34:b2:0a:f1:08:04|76
1621934483|34:b7:df:9a:08:de|87
1621923814|34:bb:1f:ce:36:a8|87
1621864397|34:e0:da:8e:76:c7|77
1621922415|34:e1:2d:6a:a5:09|69
1622008803|34:e1:2d:6a:a5:09|70
1621863024|34:e1:2d:6a:a5:09|80
1622012102|34:f3:9a:02:63:bd|75
1622030874|34:f3:9a:2a:8d:de|80
1622010991|34:f3:9a:6e:9e:f2|81
1621850892|34:f3:9a:6e:9e:f2|74
1621927345|34:f3:9a:6e:9e:f2|71
1621842637|35:0c:59:9c:c7:2f|79
1621853406|35:27:87:17:df:8a|75
1621926982|35:3a:94:66:80:11|73
1621848192|35:4d:c2:ca:65:32|78
1622029117|35:ab:8f:74:88:76|87
1621941065|35:b2:a6:17:b5:8c|69
1621933090|35:c2:86:df:df:05|70
1621927618|35:d9:3a:d2:ed:b6|69
1621854228|37:0d:c1:98:4d:e6|73
1621929117|37:12:be:64:94:86|62
1621837374|37:a0:2c:b8:65:8c|72
1621846160|37:db:e9:33:04:49|82
1621837640|38:2d:e8:20:69:7d|80
1621934217|38:53:9c:8e:25:c3|86
1622020105|38:68:a4:ec:83:15|73
1621945890|38:73:ee:24:b4:5d|76
1621845623|38:78:62:6b:0a:e2|74
1621854245|38:8b:7b:c2:77:ba|71
1621836916|38:f9:d3:50:82:2e|69
1622009670|38:fb:14:b5:65:67|89
1621934985|39:3b:75:74:ba:02|85
1621924304|39:a4:6c:a6:1d:41|70
1621850940|39:fd:ad:6a:e9:34|72
1621853067|3b:0a:54:4e:bd:82|67
1621856544|3b:23:30:de:53:f8|73
1621846760|3b:29:97:cf:a5:99|81
1621854352|3b:53:8c:64:11:33|66
1621841936|3b:7e:4f:74:ea:dd|87
1621854024|3b:87:4c:61:11:50|61
1621854743|3b:8c:6e:f8:d6:18|72
1621863098|3b:b6:b3:37:9e:c0|63
1621927156|3b:bd:6a:ce:19:6b|74
1621851200|3b:c7:b2:52:32:d9|69
1621939906|3c:05:18:a9:cf:83|73
1621940470|3c:20:f6:db:c2:50|80
1622021357|3c:22:fb:30:93:b2|85
1621940712|3c:45:8a:9f:34:ae|69
1622031948|3c:57:6c:30:98:25|83
1622016023|3c:57:6c:3a:82:58|94
1621836195|3c:57:6c:b9:fe:44|79
1621837899|3c:57:6c:c7:6e:20|71
1622009961|3c:57:6c:c7:9d:04|81
1621854445|3c:57:6c:d8:b6:d5|94
1622026519|3c:58:c2:d4:c6:91|83
1622026319|3c:58:c2:d4:c6:92|84
1621840047|3c:80:53:85:1b:36|83
1621851117|3c:81:b9:2e:f4:26|75
1622008812|3c:91:80:02:54:2d|70
1621836530|3c:9c:0f:65:12:38|83
1621840557|3c:ac:1f:0d:d4:d6|71
1621934852|3c:dc:bc:05:29:a6|92
1621947574|3c:f5:91:f0:6b:7b|91
1622025848|3c:f7:a4:25:44:2f|88
1622017649|3c:f8:62:34:95:fe|87
1621927534|3c:fb:e2:fa:a9:93|86
1621927130|3d:35:a2:90:0c:2f|71
1621840545|3d:81:ae:12:7f:74|78
1621850383|3d:91:10:d0:17:9b|71
1621926740|3f:39:e0:f6:67:2f|81
1621842237|3f:53:fc:32:f0:fe|75
1621849933|3f:c6:ee:4d:38:71|69
1621952262|40:25:c2:cb:3a:0c|94
1621866813|40:25:c2:cb:3a:0c|92
1621929155|40:6c:30:bf:ee:29|71
1621931448|40:72:db:f5:b9:a9|85
1621952672|40:9b:cd:9c:d9:ad|92
1621941022|40:a1:08:a0:c9:a3|86
1621953455|40:a1:08:e0:0e:c0|90
1621943754|40:a1:08:e0:1b:dd|81
1621953187|40:a1:08:e0:54:81|89
1621949334|40:d3:ae:e7:c5:66|90
1621865475|40:d3:ae:fc:3d:e0|91
1621940137|40:d7:af:0b:89:56|58
1621924080|40:dd:41:82:2b:f5|73
1621862257|40:f3:08:72:89:2d|88
1621946979|40:f3:08:72:89:2d|71
1621924848|40:f5:20:44:c4:48|92
1621836367|40:f5:20:44:c4:48|86
1622013235|40:f5:20:44:c5:24|91
1621925108|40:f5:20:44:c5:24|92
1621923487|40:f5:20:44:c6:44|83
1622030052|40:f5:20:44:c6:44|88
1621836060|40:f5:20:44:c6:44|86
1621924673|40:f5:20:44:c7:98|89
1621842738|40:f5:20:44:c7:98|90
1621840016|40:f5:20:44:c8:08|74
1622011523|40:f5:20:44:c8:9c|77
1621924618|40:f5:20:44:c8:9c|81
1621836084|40:f5:20:44:c8:9c|77
1622016411|40:f5:20:44:c8:e4|84
1621836301|40:f5:20:44:c8:e4|81
1621836312|40:f5:20:44:c9:0c|75
1621836382|40:f5:20:44:c9:90|89
1622014688|40:f5:20:44:c9:e4|75
1621836692|40:f5:20:44:c9:e4|76
1621922967|40:f5:20:44:ca:1c|88
1621923275|40:f5:20:44:ca:70|85
1621841242|40:f5:20:44:ca:7c|76
1621928939|40:f5:20:44:cb:80|69
1621839721|40:f5:20:44:cb:80|67
1622009157|40:f5:20:44:cb:a4|80
1621836269|40:f5:20:44:cb:a4|84
1621840185|40:f5:20:44:cb:ac|80
1622015140|40:f5:20:46:c2:f8|80
1622013798|40:f5:20:46:c4:08|84
1621840169|40:f5:20:46:c4:5c|76
1621836092|40:f5:20:46:c4:c0|81
1621924990|40:f5:20:46:c4:d0|84
1621836306|40:f5:20:46:c4:d0|84
1622012874|40:f5:20:46:c5:c0|75
1621839732|40:f5:20:46:c5:c0|71
1622014702|40:f5:20:46:c8:38|75
1621836352|40:f5:20:46:c8:38|72
1621924628|40:f5:20:48:8c:e0|84
1621836128|40:f5:20:48:8c:e0|85
1621925072|40:f5:20:48:8c:e8|66
1621836439|40:f5:20:48:8c:e8|72
1621925638|40:f5:20:48:8d:34|94
1621836325|40:f5:20:48:8d:34|90
1621839956|40:f5:20:48:8e:54|70
1622012640|40:f5:20:48:8f:00|81
1621836437|40:f5:20:48:8f:00|75
1621948637|41:5f:cf:15:a4:f4|73
1621850024|41:92:44:8f:9d:02|80
1621924054|41:b3:24:fb:10:34|69
1621841564|41:ef:be:27:a7:67|87
1621926144|41:ff:db:ce:2f:b5|73
1621923330|43:13:fa:d8:83:8b|84
1622013284|43:1d:dd:9e:91:12|71
1622030112|43:30:7f:7c:f4:c1|69
1621923530|43:48:39:2d:51:85|67
1621849293|43:6d:96:74:db:5a|64
1622033697|43:92:64:d0:30:3b|80
1622021772|43:e0:04:67:0f:b5|86
1621938524|43:e0:2f:c5:75:94|64
1621857541|44:02:51:a7:dd:0f|66
1621837407|44:10:24:6e:1f:f7|84
1621926916|44:33:e6:7b:ff:44|88
1621953124|44:3d:c7:99:07:04|89
1621843090|44:4a:db:60:cc:2b|69
1621929071|44:5c:e9:b1:ba:ac|82
1622010319|44:6d:6c:b9:1a:fe|86
1621941854|44:82:81:53:55:65|73
1621836864|44:85:00:18:d4:ae|80
1621863444|44:85:00:71:9c:56|84
1621951278|44:91:60:63:68:95|90
1621837738|44:f3:1c:4d:32:c0|82
1621928362|45:2a:a4:9a:9b:30|71
1621940735|45:9a:32:60:57:9b|71
1621926895|45:b1:56:09:3d:b0|64
1621926486|45:fb:11:4e:fd:c8|80
1621853756|47:70:e8:a9:97:13|67
1621842742|47:7d:13:8c:37:a5|73
1621852545|47:fb:20:c7:07:ca|84
1621930732|48:5a:3f:8c:45:8b|79
1622011292|48:5f:99:98:c6:5f|92
1621865300|48:5f:99:98:c6:5f|92
1621924901|48:60:5f:2d:d1:3d|73
1622029326|48:89:e7:62:ab:79|81
1621926783|48:89:e7:62:ab:79|82
1621862380|48:89:e7:fd:05:84|91
1621946794|48:9d:24:7b:8d:28|87
1621923511|48:9d:24:84:5e:fd|87
1622010337|48:9d:24:84:5e:fd|81
1621845204|48:9d:24:84:5e:fd|85
1621934485|48:9d:d1:28:e9:c9|86
1622014714|48:9d:d1:28:e9:c9|81
1621848501|48:a4:72:08:65:ec|83
1621836098|48:a4:72:4d:bd:e0|68
1622009402|48:a4:72:9d:22:81|88
1621845629|48:a4:72:9d:22:81|93
1622020173|48:a4:72:b2:c6:04|78
1621923381|48:a4:72:b2:c6:04|77
1621842238|48:bd:3c:49:6a:06|84
1622030308|48:fc:b6:ef:1b:8b|77
1621867576|48:fc:b6:ef:1b:8b|73
1621858624|48:fd:a3:ef:d1:a1|91
1621852777|48:fd:a3:f0:59:19|80
1621851539|49:6f:e7:9b:c8:57|67
1621838379|49:8e:cb:09:27:a3|76
1622022435|4b:08:31:58:4e:66|87
1621928845|4b:39:a3:76:b1:58|71
1621929233|4b:a6:a3:cf:dd:d8|63
1621930305|4b:ba:7e:db:0a:94|75
1621838055|4c:18:9a:42:e8:07|88
1622015993|4c:1d:96:13:48:86|65
1621924675|4c:1d:96:13:48:86|71
1622021923|4c:1d:96:ab:7a:98|89
1621923135|4c:1d:96:e6:e2:4f|73
1621841559|4c:1d:96:e6:e2:4f|85
1622018096|4c:34:88:40:8c:1a|78
1622018951|4c:34:88:68:ce:64|75
1621926025|4c:34:88:69:ba:b3|75
1621950557|4c:66:41:0e:2d:a3|91
1622020801|4c:66:41:52:30:3f|75
1622009312|4c:66:41:d5:bc:16|84
1621942113|4c:74:bf:77:fc:32|83
1621845470|4c:74:bf:77:fc:32|81
1622018335|4c:dd:31:f3:32:57|69
1621933245|4c:dd:31:f3:32:57|76
1621850082|4c:dd:31:f3:32:57|90
1621865336|4d:20:cc:dc:54:d3|69
1621947926|4d:31:b0:3d:df:12|88
1621840012|4d:38:f3:60:c1:85|73
1621854030|4d:70:36:be:af:2a|66
1621852607|4d:a1:2d:5e:69:4a|73
1621929363|4f:5a:5d:c2:68:4f|76
1622010559|50:2f:9b:79:b6:5c|82
1621866918|50:3c:ea:67:7d:d5|90
1621950059|50:3d:c6:c1:6f:9a|78
1621863815|50:3d:c6:c1:6f:9a|79
1621928740|50:53:10:7b:b6:96|64
1621951949|50:7a:55:6a:4c:08|87
1621851356|50:8e:dd:a8:37:a3|84
1621853718|50:8f:42:64:cb:bc|67
1621949243|50:a4:63:e1:e8:ee|73
1621856583|50:d4:f7:fb:78:0e|66
1621837347|50:d7:8b:02:4d:5c|74
1622022626|50:eb:71:1f:71:01|69
1621922469|50:eb:71:1f:71:01|70
1622024214|50:eb:71:9b:04:dd|80
1621942264|50:eb:71:9b:04:dd|73
1622021616|50:ed:3c:2c:57:cc|75
1621861781|50:ed:3c:2c:57:cc|85
1621922436|50:ed:3c:2c:57:cc|77
1622017217|50:ed:3c:48:74:1d|75
1621924260|50:ed:3c:48:74:1d|79
1621928673|51:10:f6:cd:59:73|65
1621949151|51:92:61:47:5c:1b|72
1621941812|53:0c:8a:ac:ab:ee|84
1621846162|53:0d:35:35:b1:db|81
1621851452|53:4e:a6:83:55:53|75
1621836880|53:50:0f:70:14:34|77
1621851593|53:d3:98:72:1b:eb|74
1622028505|53:e9:36:ff:c6:58|81
1621928653|54:09:10:b6:a8:39|78
1621838828|54:2c:d2:34:46:e0|73
1621849832|54:51:97:78:92:03|86
1622012651|54:8d:5a:0d:02:fa|73
1621937127|54:8d:5a:c5:96:d5|79
1621937160|54:8d:5a:c5:96:d6|85
1622014864|54:8d:5a:cb:de:2d|78
1621856429|54:8d:5a:cb:de:2d|69
1622014873|54:8d:5a:cb:de:2e|77
1621856414|54:8d:5a:cb:de:2e|68
1621841280|54:92:e1:03:9e:bb|73
1621841240|54:ae:27:2a:72:0c|86
1622012654|54:b8:02:02:df:ea|73
1622028760|54:b8:02:48:6e:df|81
1622018475|54:ba:d6:20:03:fa|60
1621949538|54:d8:e6:d2:30:c7|68
1621928579|54:fc:f0:9b:2d:2f|65
1621927950|55:1d:6e:80:07:6b|67
1621850626|55:46:72:f3:2d:02|66
1621927953|55:49:f3:5e:4d:8d|69
1622029170|55:4b:0f:9d:15:4e|66
1621836930|55:72:ce:e4:da:b0|86
1622027809|55:d6:89:dc:7d:6b|61
1622030110|55:f9:e2:25:71:57|69
1622030129|57:40:b5:62:9c:4e|71
1621925571|57:8e:98:72:b3:88|77
1621851136|57:f1:46:02:a4:9a|74
1621838199|58:00:e3:ef:c0:a1|72
1621928585|58:1d:be:0e:7f:00|63
1621953038|58:31:be:7b:96:0b|78
1621859638|58:85:e9:ae:82:a3|82
1621944515|58:85:e9:ce:48:97|82
1621862252|58:a0:23:ed:af:94|76
1621932134|58:a0:23:ed:af:fd|77
1621860040|58:a0:23:ed:af:fd|69
1621852231|58:a2:5b:e3:47:7b|82
1621854066|58:ce:94:60:f7:a2|69
1621945327|58:fb:84:02:5b:84|72
1622029154|59:1e:41:a2:d9:f7|67
1622017486|59:28:2d:1f:5e:2c|68
1621933372|59:2d:86:b1:4b:d2|80
1621850346|59:6a:e3:92:c9:16|64
1621854086|59:ae:ff:2d:c4:57|70
1622016236|59:c2:89:b1:97:d9|81
1622023324|59:ce:41:ff:05:dd|86
1621852940|59:df:3a:6f:86:e4|72
1621850137|59:fd:f9:05:cd:f3|70
1621839698|5b:0d:9f:a4:16:43|76
1621849985|5b:10:b1:fc:a3:1d|71
1621855313|5b:75:ae:0d:d3:bb|87
1621925333|5b:b2:e3:16:42:af|61
1621836943|5b:bc:93:2f:b2:0d|83
1621843792|5c:2e:59:cd:eb:27|87
1621846631|5c:5f:67:89:19:67|87
1621943317|5c:5f:67:d0:66:fa|79
1621928090|5c:8b:52:eb:91:c1|69
1621845429|5c:91:d8:0b:a3:65|88
1621943163|5c:96:8a:63:9e:87|87
1621853862|5c:a1:0e:2f:a7:1a|66
1621926846|5c:a3:32:f9:44:ec|73
1621838296|5c:ba:ef:f6:8b:49|84
1621922726|5c:c5:d4:e0:7a:95|80
1621946320|5c:e5:3d:c2:e4:1f|78
1621934622|5c:ea:1d:15:9a:b1|84
1622014062|5c:ea:1d:90:12:d5|85
1621853903|5d:03:73:4f:03:b1|70
1621924104|5d:19:f3:54:c6:14|81
1621837842|5d:5a:35:1b:52:c6|77
1621849998|5d:5f:ed:18:6a:18|71
1621856926|5d:be:76:1b:8d:53|80
1621851266|5d:de:5d:8e:a9:a8|71
1622028651|5d:f8:4d:32:9b:8b|70
1621845517|5f:2a:b4:e6:c9:78|87
1621928264|5f:35:d2:57:f6:08|76
1621840461|5f:6e:b5:67:fd:a4|75
1621851060|5f:73:b7:cb:c7:dc|67
1621840318|5f:a7:5d:41:f5:59|78
1621924093|5f:e5:b4:45:ee:93|70
1621927011|5f:fb:94:38:ca:28|69
1622017480|60:03:08:8a:14:8c|87
1621836319|60:03:08:8a:14:8c|87
1621934776|60:21:01:8e:5e:c1|74
1622024339|60:23:a4:df:d8:d0|68
1621842731|60:23:a4:df:d8:d0|69
1622024339|60:23:a4:df:d8:f4|64
1621928476|60:3c:3d:50:01:7a|68
1621843952|60:67:20:31:6a:94|80
1621943814|60:86:74:02:6f:58|71
1622017419|60:af:6d:bd:f9:85|75
1622015313|60:f1:89:47:1a:46|75
1621849412|60:f1:89:7b:53:56|84
1621842007|60:f2:62:1c:af:a2|86
1621848528|60:f2:62:1c:af:a3|78
1622025255|60:f2:62:dc:93:e9|80
1621924860|60:f2:62:dc:93:e9|82
1622028851|60:f2:62:dc:9d:30|79
1622011034|60:f6:77:ce:29:a8|85
1621841920|60:f6:77:ce:29:a8|81
1621924482|60:f6:77:ce:29:a8|83
1621925596|61:7b:d1:8f:fe:2a|76
1621926535|61:a7:54:8f:e2:15|75
1621948430|61:c2:6c:ca:80:9e|74
1621933305|63:10:63:a6:54:7b|80
1622022385|63:19:34:d2:1e:86|80
1621933222|63:71:68:1a:5a:77|69
1621860934|63:e6:b2:f4:0f:2a|83
1622027613|64:03:7f:d2:b9:4b|76
1621925069|64:19:7f:b8:16:2d|90
1621852240|64:2a:58:44:84:d3|86
1622013227|64:5d:86:ac:f5:da|83
1621935975|64:5d:86:ac:f5:da|87
1621926936|65:0e:c0:52:95:5b|65
1621925197|65:88:6e:8d:05:8c|69
1621932467|65:a4:62:f0:19:57|81
1621925269|65:dd:10:e7:c5:10|71
1621854357|65:e4:6a:2d:bb:77|74
1621838076|67:05:3c:ad:1a:ac|77
1622020020|67:38:14:d3:8c:6a|75
1621929205|67:46:26:cc:cb:5e|72
1621927351|67:85:2f:3d:5f:9a|82
1621936778|67:d2:16:99:b2:db|81
1621948769|67:d7:1f:0c:e1:49|73
1621854602|68:0c:13:8b:42:95|62
1621853782|68:17:29:0d:95:e4|89
1621946702|68:22:49:1e:d9:60|79
1621851161|68:2c:84:b9:25:74|62
1622011398|68:54:5a:6e:b0:db|70
1621930916|68:54:5a:6e:b0:dc|78
1622017587|68:54:5a:6e:b0:dc|78
1621838008|68:54:5a:6e:b0:dc|79
1621853920|68:66:a5:f1:42:0e|72
1621935747|68:70:45:0e:71:64|80
1622023630|68:db:f5:d4:61:f3|74
1621836532|68:e7:c2:cd:f9:1d|69
1621935204|68:ec:c5:55:ea:47|84
1622029508|69:47:35:35:92:c4|70
1621841184|6b:86:af:a8:64:7c|76
1621930139|6b:96:3c:e3:f5:e5|60
1621944495|6b:f1:cc:8e:99:cf|86
1621924283|6c:1d:a2:27:58:31|72
1621862179|6c:2a:bc:42:07:6f|81
1622022325|6c:4d:73:a6:bc:3e|89
1621950422|6c:5c:14:20:fd:92|94
1621854337|6c:b0:0e:72:d7:fe|69
1621853073|6c:b4:ed:91:92:9c|75
1621840016|6c:b7:49:cf:bb:bf|85
1621836680|6c:c7:ec:13:a2:7c|85
1622019418|6c:c7:ec:2a:5f:70|82
1622021505|6c:c7:ec:47:f7:6f|87
1621929001|6c:c7:ec:6a:7c:e3|76
1621838091|6c:c7:ec:6a:7c:e3|78
1622022400|6c:c7:ec:7b:fb:b1|88
1621837240|6c:c7:ec:7b:fb:b1|88
1621923319|6c:c7:ec:95:56:a5|84
1622010329|6c:c7:ec:9c:24:73|65
1622016784|6c:c7:ec:ad:e6:65|80
1622020024|6c:c7:ec:d0:dd:39|85
1622019173|6c:c7:ec:d9:eb:c7|78
1621924105|6c:c7:ec:d9:eb:c7|78
1621853210|6c:c7:ec:d9:eb:c7|79
1621945564|6c:c7:ec:fd:9c:40|70
1621837954|6d:44:78:7f:ae:d1|76
1621836559|6d:56:c2:cf:b7:b6|66
1621854327|6d:87:d3:8c:5b:cc|67
1621926346|6d:f7:96:8c:1b:a0|76
1621924145|6f:17:e1:87:02:c1|69
1621931310|6f:29:f3:45:a8:17|85
1621850371|6f:5a:6f:32:a6:e0|71
1621841407|6f:6b:a1:7a:3f:82|77
1621934075|6f:bb:cb:32:83:2f|69
1621841516|6f:c8:ae:8c:7d:bb|69
1621935773|6f:cd:5b:e0:52:60|88
1622008816|70:03:9f:01:40:fe|89
1621925627|70:3a:51:31:43:10|76
1621928923|70:5a:ac:20:df:c7|71
1621949008|70:5a:ac:ef:24:ad|90
1621925619|70:5a:ac:f0:f6:28|78
1621841246|70:5a:ac:f0:f6:28|76
1622031842|70:87:5e:e2:d7:97|85
1622032020|70:9e:7f:49:ad:a8|77
1621937149|70:9f:a9:eb:a6:d8|80
1621948710|70:b9:d3:2a:e9:f8|66
1622013582|70:bb:e9:cd:22:99|75
1622030246|70:bc:10:73:00:91|84
1621935183|70:bc:10:73:00:91|82
1621864379|70:c9:4e:6e:e5:71|91
1621853562|71:0a:56:fc:16:78|70
1621850794|71:c3:87:89:d5:6e|77
1621849208|73:3f:83:09:b6:43|71
1621861428|73:88:09:b8:16:34|78
1621928816|73:ab:3a:fa:93:47|69
1621923510|73:dd:e9:78:ea:50|77
1621866836|74:04:2b:a1:2f:29|87
1621924255|74:53:ec:52:5c:90|75
1621927248|74:59:ee:a1:f9:6e|68
1621949540|74:69:0e:75:f4:91|70
1621860668|74:70:fd:a6:ca:ed|80
1622013338|74:70:fd:a6:d8:3a|90
1621923512|74:82:f3:4e:65:ba|65
1621928064|74:ac:b3:4d:e8:c5|69
1621857230|74:c1:4f:25:13:8b|87
1622011567|74:d8:3e:9e:5b:d8|76
1621922566|74:d8:3e:9e:5b:d8|75
1621850187|74:d8:3e:9e:5b:d8|83
1622022864|74:d8:3e:fe:c1:21|84
1622014216|74:d8:3e:ff:41:a5|87
1621837071|74:d8:3e:ff:41:a5|84
1621945605|74:df:bf:48:3b:01|92
1622032943|74:e5:f9:84:e9:aa|89
1621860448|74:e5:f9:84:e9:aa|93
1621932829|74:eb:80:c8:60:bc|90
1621926543|74:eb:80:f8:50:48|77
1621840959|75:71:80:01:50:3b|69
1621940699|75:7a:2a:30:51:3b|75
1622010949|75:a2:44:89:c9:e3|65
1621837774|75:b8:20:34:01:d5|70
1621853015|77:5b:5e:bd:9c:f2|72
1621928144|77:7d:2d:5a:fa:b9|78
1621925603|77:c9:67:cb:b9:fb|74
1621950028|78:11:dd:09:17:15|85
1622031392|78:36:cc:3c:ce:3f|89
1621922478|78:4b:87:da:53:bb|88
1622021677|78:4b:87:da:53:bb|73
1621838493|78:4b:87:da:53:bb|89
1621849949|78:4f:43:38:11:e5|67
1622016478|78:4f:43:85:e8:b3|83
1621851048|78:5c:7e:82:13:f6|78
1622023740|78:64:c0:d7:8f:dd|74
1621950970|78:7e:61:93:2f:29|90
1621861107|78:7e:61:93:2f:29|85
1621941937|78:8e:1f:85:34:96|78
1622014135|78:c3:e9:59:e2:18|77
1622024565|78:c3:e9:7d:72:d4|90
1621940154|78:c3:e9:7d:72:d4|92
1621853889|78:f5:78:e9:41:bb|68
1621850145|79:08:8d:fa:9e:05|70
1621850922|79:2c:5e:ca:d3:a6|75
1621925284|79:46:6b:3b:a2:53|69
1622026901|79:8c:67:33:94:c2|84
1621949444|79:e4:6d:66:a8:25|80
1621860900|7b:07:1e:56:46:9f|78
1621841305|7b:3a:f7:2e:9b:7d|70
1621862101|7b:58:d7:b9:18:41|78
1621838574|7b:7b:b3:06:b3:7a|73
1621852944|7b:7d:98:ec:1b:4b|69
1621841172|7c:23:02:38:90:f2|85
1621924352|7c:46:85:5d:a8:7a|78
1621940002|7c:67:a2:8c:fe:92|86
1622016809|7c:67:a2:8c:fe:92|93
1621852695|7c:67:a2:8c:fe:92|92
1622019493|7c:67:a2:8e:06:ca|89
1621941426|7c:67:a2:8e:06:ca|92
1621864739|7c:67:a2:8e:06:ca|92
1621838563|7c:72:57:2c:29:7a|73
1621924957|7c:76:35:7c:a9:07|66
1622018232|7c:76:35:7c:b3:2a|80
1621842366|7c:76:68:79:8c:a5|87
1621837733|7c:76:68:f0:4d:f7|78
1621932322|7c:88:84:80:72:69|82
1621840971|7c:89:56:bd:61:08|86
1621845424|7c:89:56:cd:4f:1c|81
1622014845|7c:a1:77:29:f7:9c|81
1621845400|7c:a1:77:29:f7:9c|68
1621923002|7c:a1:77:29:f7:9c|80
1621928633|7d:0c:a7:08:eb:3e|70
1621942748|7d:3b:12:c7:1a:54|82
1621930058|7d:3b:bb:28:69:5e|71
1621926892|7d:3d:f9:4e:97:5a|70
1622025930|7d:5d:fd:4c:c9:19|68
1621850712|7d:eb:9f:24:64:da|67
1621927166|7f:6d:d5:e3:d3:9a|76
1621841636|7f:c2:c1:02:c8:9f|87
1621845883|7f:de:81:9a:a4:18|79
1621855092|80:32:53:75:0e:95|81
1621925523|80:42:cb:ce:be:67|80
1621952234|80:4e:70:6c:6f:ea|68
1622011897|80:4e:70:fd:17:d8|79
1621927514|80:4e:70:fd:17:d8|77
1621929446|80:65:6d:75:b5:3a|83
1622030126|80:66:25:d7:34:3e|68
1621946225|80:a4:75:4d:fa:c2|77
1621927024|80:b0:3d:a5:57:b5|78
1622021951|80:b0:3d:a5:57:b5|72
1621925705|80:be:05:5e:ca:8c|70
1621854621|80:be:05:5e:ca:8c|81
1622016043|80:ce:b9:bc:5f:93|77
1621926460|80:ce:b9:c3:b8:65|79
1622016210|80:ce:b9:c3:b8:65|64
1621837630|80:ce:b9:c3:b8:65|80
1621951706|80:ce:b9:d5:f7:95|88
1621862811|80:ce:b9:d5:f7:95|95
1621946473|80:e0:d3:d5:ce:d3|76
1621949217|81:6b:06:d8:be:29|70
1621852821|81:b6:50:74:0a:25|73
1621849824|81:bc:0f:13:19:9b|70
1621942417|81:db:b9:58:f1:cd|92
1621838478|83:44:df:06:98:9c|77
1621947930|83:53:08:ee:28:7b|85
1621850003|83:87:71:c4:82:78|72
1621923053|83:a0:c5:9a:1c:db|74
1621857499|83:c1:68:8c:77:3f|73
1621838117|83:f8:40:ce:28:42|75
1621927916|84:06:0f:a8:e2:66|74
1621851113|84:0c:d6:18:3b:15|69
1621949493|84:0e:50:00:e2:ba|73
1622012259|84:1b:77:f4:e8:31|77
1621923327|84:1b:77:fd:b2:95|74
1621935691|84:2b:99:da:49:85|89
1622023439|84:2e:27:37:89:04|79
1621945701|84:2e:27:37:89:04|75
1622020115|84:33:34:ad:61:d2|81
1621841752|84:66:5d:c1:1c:f5|79
1621845941|84:67:1a:80:9d:09|79
1621850574|84:a8:94:ca:7d:b0|76
1621948946|84:ab:1a:b3:bb:92|76
1622015515|84:ab:1a:c8:d5:38|78
1622019310|84:c5:a6:fb:2b:f6|89
1621936736|84:c5:a6:fb:2b:f6|75
1621932454|84:e4:a0:da:9a:d0|71
1621926164|84:f8:f6:53:31:b7|72
1621851109|85:82:80:fd:a0:b0|72
1621842747|85:b4:96:2f:18:46|78
1621853077|85:e1:90:88:bd:08|69
1621950092|87:6a:d1:bb:85:76|78
1621923006|87:74:a2:db:ea:6b|80
1621837677|87:7d:63:38:90:12|77
1621839412|87:95:51:db:0b:e5|68
1622029509|87:a6:6a:ca:89:ec|71
1621837961|87:bc:23:2f:36:73|73
1621926732|87:f4:98:04:c5:14|71
1622033062|88:07:4b:e7:cf:33|93
1622020044|88:0a:01:0a:a8:82|81
1621953593|88:10:8f:97:53:63|88
1622017835|88:10:8f:97:53:63|79
1621928307|88:11:18:3d:27:1e|68
1621861605|88:19:d5:99:41:c6|81
1621841654|88:46:ae:ea:74:6d|82
1622011788|88:53:95:0f:37:0f|80
1621942425|88:5f:e8:71:02:5b|66
1621946454|88:66:a5:d8:5e:8f|80
1621931884|88:7e:18:c9:2b:f0|80
1621923700|88:83:22:2d:7d:2f|88
1622014816|88:83:22:2d:7d:2f|85
1621844857|88:83:22:2d:7d:2f|75
1621861496|88:86:07:3c:3d:dc|86
1621854297|88:9e:f0:22:44:e7|62
1621938342|88:9f:6f:85:f1:10|74
1622011374|88:9f:6f:8a:4f:1e|87
1622023119|88:a4:79:14:6c:e5|79
1621841372|88:ae:07:96:5e:ac|74
1621842700|88:b1:11:2a:a0:54|75
1622013113|88:b4:a6:01:32:e6|81
1621842706|88:b4:a6:06:11:c5|75
1621932831|88:b4:a6:07:12:c6|79
1621838576|88:b4:a6:09:b9:6d|80
1621836650|88:b4:a6:0a:72:26|78
1621932772|88:b4:a6:0c:4e:02|79
1621839693|88:b4:a6:0f:51:05|79
1621837217|88:b4:a6:13:e7:9b|80
1622013264|88:b4:a6:1d:5f:dc|85
1621842829|88:b4:a6:1f:be:3b|78
1621842707|88:b4:a6:21:f5:a9|79
1621838624|88:b4:a6:23:2e:ab|76
1621843950|88:b4:a6:23:65:19|82
1621842330|88:b4:a6:2c:37:eb|82
1622013284|88:b4:a6:2c:cb:7f|82
1621836114|88:b4:a6:32:9a:4e|81
1621933082|88:b4:a6:38:21:d5|84
1621933100|88:b4:a6:3a:ec:a0|80
1621839018|88:b4:a6:3f:4a:fe|78
1621836567|88:b4:a6:42:05:b9|83
1621840768|88:b4:a6:44:4f:03|83
1621837359|88:b4:a6:4a:55:09|81
1622012867|88:b4:a6:4c:a1:55|83
1621841232|88:b4:a6:4f:5a:0e|78
1621837960|88:b4:a6:4f:91:45|84
1621932763|88:b4:a6:52:83:37|81
1622012867|88:b4:a6:53:ce:82|87
1621840940|88:b4:a6:55:97:4b|75
1621842144|88:b4:a6:59:2d:e1|83
1621840026|88:b4:a6:5c:c4:78|77
1621843902|88:b4:a6:5f:c7:7b|83
1621932344|88:b4:a6:65:a7:5b|81
1621843561|88:b4:a6:67:85:39|79
1622013314|88:b4:a6:68:05:b9|88
1621924728|88:b4:a6:6d:78:2c|75
1621933225|88:b4:a6:6e:8c:40|72
1621932887|88:b4:a6:71:7c:30|83
1621842541|88:b4:a6:73:7e:32|86
1622012246|88:b4:a6:7d:ae:62|88
1621840643|88:b4:a6:81:55:09|85
1621838270|88:b4:a6:81:8c:40|80
1621836649|88:b4:a6:82:8d:41|79
1621838576|88:b4:a6:84:6b:1f|79
1621839948|88:b4:a6:85:c7:7b|83
1621837565|88:b4:a6:86:91:0e|82
1621837612|88:b4:a6:8a:5e:12|81
1621839306|88:b4:a6:8f:52:06|84
1622012316|88:b4:a6:92:c1:75|80
1621844000|88:b4:a6:99:ca:7e|78
1621843950|88:b4:a6:a6:69:1d|80
1621933216|88:b4:a6:a7:b2:66|79
1621924737|88:b4:a6:ac:14:c8|79
1621924708|88:b4:a6:ac:ee:a2|78
1622012125|88:b4:a6:ad:39:b6|82
1621842754|88:b4:a6:ad:ef:6c|85
1621841258|88:b4:a6:bb:23:d7|75
1622013314|88:b4:a6:bb:c6:7a|84
1621932547|88:b4:a6:bd:c8:7c|78
1621841258|88:b4:a6:c0:28:a5|79
1621837612|88:b4:a6:c3:60:14|80
1622013373|88:b4:a6:c3:bf:73|82
1621924673|88:b4:a6:c4:50:04|76
1621837912|88:b4:a6:c7:2f:e3|88
1621839354|88:b4:a6:ca:d5:89|76
1621842417|88:b4:a6:cc:fd:b1|77
1621837818|88:b4:a6:ce:c8:7c|75
1621840369|88:b4:a6:ce:d9:8d|82
1621924728|88:b4:a6:cf:00:b4|74
1622012296|88:b4:a6:d2:cc:80|84
1622013102|88:b4:a6:d4:60:dd|83
1621843178|88:b4:a6:dd:10:c4|78
1621842951|88:b4:a6:dd:1f:d3|85
1622013047|88:b4:a6:e2:a7:5b|85
1621844000|88:b4:a6:e3:14:c8|77
1622012296|88:b4:a6:e6:28:dc|80
1621932396|88:b4:a6:e8:9a:17|77
1621838434|88:b4:a6:ea:f5:a9|81
1621839948|88:b4:a6:ee:30:ad|82
1621836697|88:b4:a6:ef:fa:ae|78
1621924758|88:b4:a6:f1:11:c5|81
1621843761|88:b4:a6:f6:5e:12|82
1621842659|88:b4:a6:f6:95:12|79
1621842782|88:b4:a6:fa:2b:df|85
1621932556|88:b4:a6:fa:75:29|78
1621843761|88:b4:a6:fb:63:17|84
1621842876|88:b4:a6:fc:07:bb|83
1621933186|88:b4:a6:ff:0a:be|80
1621940105|88:e6:02:6b:29:64|72
1621857366|88:f4:80:9d:0b:12|74
1621839735|89:1c:40:8d:7d:55|76
1621941250|89:4f:db:f5:81:e3|75
1621838167|89:76:f8:3b:34:b5|77
1621852955|89:d8:63:c3:53:fb|72
1621849517|89:e3:3a:6f:73:1f|73
1621849649|89:ff:98:c3:27:6c|64
1622018398|8b:3c:a9:87:16:97|71
1621840021|8b:5e:76:01:11:c9|77
1621928063|8b:79:23:fe:de:93|70
1621855688|8b:e3:61:b2:c7:26|82
1622016327|8c:28:42:7c:69:c8|81
1622021343|8c:3d:77:49:53:80|77
1621839553|8c:45:00:15:f4:b0|81
1622013232|8c:45:00:a6:14:bc|87
1621843971|8c:65:f7:b6:0c:d0|83
1621931051|8c:70:5a:15:3e:58|72
1621860745|8c:85:90:0f:e9:0e|79
1621923831|8c:85:90:75:1d:84|84
1621926571|8c:85:90:86:b9:e0|85
1621852867|8c:99:f5:28:04:49|71
1622021778|8c:b8:4a:06:98:1a|83
1621857897|8c:b8:4a:06:98:1a|79
1622026619|8c:b8:4a:2a:69:06|76
1621939932|8c:b8:4a:32:b9:fe|87
1621845485|8c:b8:4a:3b:5a:d2|76
1622014352|8c:b8:4a:4c:f7:ea|71
1621843706|8c:b8:4a:57:49:fa|81
1622029883|8c:b8:4a:67:46:02|92
1622016216|8c:b8:4a:8a:21:cd|86
1622030665|8c:b8:4a:95:5e:e6|71
1621836881|8c:c0:eb:64:3a:2e|68
1621846463|8c:c6:81:1a:f3:5b|86
1621848960|8c:c6:81:1d:d7:92|94
1621924534|8c:c6:81:1d:d7:92|87
1621944821|8c:eb:c6:b3:94:55|90
1622015416|8c:f5:a3:05:e2:47|74
1621850500|8c:f5:a3:05:e2:47|67
1621851265|8c:f5:a3:66:8f:b4|83
1621934234|8c:f5:a3:d7:cc:2d|81
1621943920|8c:f5:a3:dd:36:35|72
1621929044|8d:4e:da:53:db:20|75
1621928841|8d:ab:ec:bd:40:57|70
1621837603|8d:b2:5f:e5:f0:5c|74
1621924544|8f:0c:58:03:17:6f|90
1621849350|8f:64:e1:d0:8e:f5|70
1621943083|90:2b:d2:5d:e3:c7|84
1621925913|90:32:4b:78:24:79|82
1622017716|90:3c:92:8e:6e:a9|91
1621839483|90:43:e2:42:fe:c2|75
1622014511|90:61:ae:fc:b8:d1|80
1621925987|90:61:ae:fc:b8:d1|79
1622014695|90:61:ae:fc:b8:d2|75
1621926169|90:61:ae:fc:b8:d2|79
1621933934|90:78:41:9c:91:90|83
1622019441|90:81:58:df:08:1e|85
1622013795|90:9c:4a:b6:d5:f0|77
1621950307|90:a5:ea:ca:b2:28|79
1622033023|90:b2:1f:c1:c7:6c|91
1622031176|90:b6:86:fe:db:11|89
1621926670|90:bc:ee:09:c4:5f|73
1621862055|90:cc:df:c0:c1:9b|76
1621854547|90:e1:88:a4:4d:36|68
1622027270|91:70:fd:c2:bb:12|70
1621837147|91:f1:15:a0:c5:cc|76
1621851121|93:e3:f4:9b:9d:42|74
1621928879|94:25:6d:20:04:95|66
1621932921|94:2d:dc:7d:a3:40|88
1621836243|94:65:2d:d0:cc:ac|86
1622020115|94:65:2d:dc:ac:48|80
1621858432|94:65:2d:dc:ac:48|76
1622012919|94:65:9c:66:64:df|84
1622026425|94:76:b7:01:d4:81|71
1621946063|94:86:c9:02:e4:04|73
1621951317|94:94:26:5d:ac:89|89
1621928436|94:96:41:1d:16:2f|70
1621927173|94:9b:67:dc:6e:78|92
1621949336|94:aa:7d:db:e9:c3|76
1622029139|94:b1:0a:d0:e1:56|73
1621839549|94:b1:0a:d0:e1:56|75
1622022415|94:b8:6d:92:f1:99|82
1621952652|94:be:46:6f:74:fb|87
1622014955|94:bf:2d:d8:c3:d6|79
1622014390|94:bf:2d:d9:86:60|66
1621927056|94:bf:2d:d9:86:60|75
1621927591|94:e1:86:bb:6a:96|82
1621924508|94:e6:f7:60:ba:ee|85
1622018379|94:e7:0b:af:a6:68|89
1621925167|94:e7:0b:af:a6:68|90
1622009621|94:e9:6a:8a:4e:32|92
1621933493|94:e9:6a:8a:4e:32|87
1621940425|94:e9:6a:9b:a7:98|89
1621928779|95:03:e7:e2:a0:2e|76
1621854821|95:27:d2:15:0b:d8|75
1622012661|95:4c:c3:89:ff:25|72
1621941836|95:7c:35:64:26:96|83
1621839466|95:88:06:34:c3:d4|73
1621950363|97:15:5d:bb:52:49|87
1621842698|97:44:1b:d7:27:a9|73
1621836846|97:a0:ff:f3:02:f1|82
1621849982|97:e5:b8:68:f6:c7|73
1621853937|97:fe:39:b9:d7:ae|64
1622015763|98:09:cf:64:f4:d2|84
1621838588|98:0b:84:ad:38:19|75
1622014029|98:0d:51:52:c1:f2|58
1621852882|98:0d:51:52:c1:f2|60
1621836856|98:22:ef:b9:ba:91|68
1622023302|98:2c:bc:01:ea:8c|83
1622009453|98:2c:bc:2f:53:a0|80
1621932567|98:2c:bc:2f:53:a0|86
1621926349|98:2c:bc:60:15:5d|86
1621927142|98:37:e5:cc:29:a0|71
1622012729|98:3b:8f:0d:da:4a|85
1622025347|98:3b:8f:0d:da:4b|82
1621931532|98:3b:8f:b5:ad:15|75
1621927274|98:46:0a:9b:6f:48|84
1621836910|98:54:1b:a2:7e:ed|79
1621836142|98:54:1b:a2:7e:ee|86
1622030167|98:54:1b:be:fb:b3|54
1621837123|98:5c:f2:6e:28:32|77
1621852218|98:6f:60:a6:1b:89|84
1621935299|98:74:da:bf:d8:a6|76
1622031888|98:74:da:ef:d2:9a|89
1622028635|98:af:65:33:9c:0d|78
1621840302|98:b6:99:6f:bb:69|70
1621837301|98:c6:b6:47:a5:14|78
1621950012|98:ca:33:db:07:c7|78
1621855708|98:ca:33:db:07:c7|75
1622009375|98:dd:ea:d5:7d:a7|77
1621840709|98:dd:ea:d5:7d:a7|78
1621927175|98:dd:ea:d5:7d:a7|94
1621837478|98:e0:d9:32:cb:b8|75
1622014815|98:f1:70:1b:a8:59|72
1621922431|98:f1:70:1b:a8:59|75
1621864824|98:f6:21:2d:f6:26|91
1622030236|99:51:38:4a:d0:af|81
1621850312|99:5d:36:ad:6e:8e|73
1621855003|99:a4:bc:e6:97:ea|65
1621864004|9b:03:53:a7:55:d1|77
1622032385|9b:1a:c4:d3:00:c4|75
1622014412|9b:6f:cd:e2:e7:49|74
1621853186|9b:d8:64:92:c8:6e|77
1621949540|9b:f7:18:94:f0:b8|70
1621853920|9c:05:70:ee:53:93|69
1621949449|9c:12:66:91:1a:1b|85
1621924623|9c:29:76:e3:f8:50|79
1622013902|9c:29:76:e3:f8:51|75
1621927665|9c:29:76:e3:f8:51|83
1621843988|9c:2b:d2:83:d2:89|84
1622032201|9c:30:5b:6b:fa:a5|74
1621838219|9c:3e:71:ac:32:c9|73
1621863946|9c:56:81:fa:b5:07|70
1621861684|9c:5f:5a:14:21:03|83
1621865823|9c:5f:b0:df:6f:7c|90
1621940106|9c:a5:13:54:fc:35|88
1621926823|9c:e0:03:64:d5:ce|73
1621851139|9c:f3:87:c7:31:92|83
1621840930|9c:fe:ca:0d:08:24|76
1621863167|9d:49:80:c5:58:44|76
1621840646|9d:8f:c8:81:56:f9|75
1621933386|9d:ba:79:37:06:91|75
1621930843|9d:d5:42:31:ff:3f|75
1621926761|9d:e7:30:18:c3:a0|72
1621925589|9f:4c:48:74:eb:dd|78
1621949831|9f:51:08:87:26:43|81
1621852834|9f:54:fb:f3:32:2c|75
1621840936|9f:58:68:32:dd:aa|75
1621852790|9f:5b:72:7f:71:59|76
1621950342|9f:65:d1:f2:66:d0|84
1621839815|9f:b0:28:cb:a2:be|79
1621840920|9f:e0:39:4f:7c:a9|81
1621851889|9f:e3:d4:a3:fb:fb|69
1621854080|a0:1b:0b:7e:11:a3|86
1622029147|a0:30:9a:c7:58:0b|82
1621926498|a0:33:53:e8:3c:f0|86
1622022264|a0:4e:a7:21:11:91|72
1621928472|a0:90:56:67:b0:b9|67
1621938796|a0:a4:38:88:e1:8b|72
1621925871|a0:a4:c5:b1:fc:ba|86
1621857379|a0:a4:c5:b1:fc:ba|83
1621849428|a0:c9:a0:b6:a2:46|79
1621842765|a0:c9:a0:c6:aa:1b|87
1622010127|a0:cc:2b:07:93:fa|79
1621848017|a0:cc:2b:c8:75:21|82
1621850225|a0:f8:34:79:c9:51|82
1621837701|a1:2a:d6:c4:d7:af|69
1621939175|a1:51:2b:08:7a:5d|82
1621845505|a1:f6:0e:3f:73:a2|76
1621838134|a3:36:c7:ff:01:5e|75
1622021731|a3:90:fe:b3:56:14|71
1621926119|a3:a1:61:22:8b:01|75
1621938334|a3:b8:59:b1:48:1e|67
1621949922|a3:d3:05:e7:e6:0b|67
1621851189|a4:21:98:a1:1a:e2|72
1621939196|a4:28:e3:12:2a:7a|85
1622024345|a4:45:19:54:b8:10|92
1621857024|a4:45:19:54:b8:10|89
1622021489|a4:50:46:10:7a:b7|87
1621846352|a4:50:46:10:7a:b7|87
1622029126|a4:59:f5:00:cc:db|69
1621863200|a4:5e:60:e7:40:15|90
1621854189|a4:60:db:19:05:ca|69
1621926309|a4:83:e7:3c:42:b3|82
1621949735|a4:83:e7:a4:7e:33|92
1622026273|a4:8d:60:be:1b:e7|82
1621939069|a4:9b:4f:e3:b2:98|80
1621939161|a4:b1:c1:d6:51:cd|72
1622024346|a4:b1:c1:d6:51:cd|68
1621860885|a4:b1:c1:d6:51:cd|69
1621858875|a4:c3:f0:c9:2c:cd|83
1622024940|a4:c4:94:45:e4:58|69
1621942594|a4:c4:94:45:e4:58|75
1621953886|a4:c9:39:77:cb:2b|90
1621855000|a4:d9:31:d8:79:11|87
1621837696|a4:d9:90:ac:2d:7f|85
1622029403|a4:e4:b8:80:55:71|79
1621937133|a4:e4:b8:80:55:71|67
1621855832|a4:e4:b8:80:55:71|84
1622020614|a4:e4:b8:94:90:67|84
1621847800|a4:e4:b8:94:90:67|88
1621924908|a4:e4:b8:ae:6e:b8|87
1621954560|a4:f0:5e:d2:cc:77|88
1621859433|a4:f0:5e:d2:cc:77|82
1621928468|a5:07:be:10:ae:fa|66
1621841639|a5:25:8d:5a:ba:a5|82
1621949687|a5:3e:82:57:72:c3|70
1621843007|a5:62:06:72:95:13|80
1621926631|a5:74:38:8a:c0:09|68
1621860348|a5:c6:34:55:a6:ba|78
1621949687|a5:e5:7e:b6:06:0d|75
1621864037|a7:1b:1b:09:3d:ad|69
1621857207|a7:21:65:4b:0d:3e|79
1622019547|a7:2b:35:a7:66:cb|73
1621949085|a7:6a:71:c6:6c:60|68
1621863408|a7:d1:00:b6:30:31|83
1621934456|a8:32:4d:b2:e1:e4|77
1621839395|a8:66:7f:64:04:08|78
1622009950|a8:6d:aa:0c:8a:69|69
1621846754|a8:6d:aa:0c:8a:69|74
1621923067|a8:6d:aa:c8:e6:41|87
1621845112|a8:6d:aa:c8:e6:41|87
1621839957|a8:81:7e:89:8b:2f|75
1621930079|a8:81:7e:8f:3c:21|84
1621839446|a8:81:7e:8f:3c:21|81
1621922414|a8:87:b3:95:91:bb|88
1621853047|a8:8e:83:26:da:29|76
1621953549|a8:96:75:35:9a:40|77
1621851075|a8:96:75:63:da:d8|65
1621934690|a8:9c:ed:6d:c8:bd|83
1622031909|a8:9c:ed:6d:c8:bd|78
1621853303|a8:9c:ed:6d:c8:bd|84
1621945961|a8:b1:cc:5c:f1:78|76
1621867546|a8:be:27:c7:5a:e4|91
1622010773|a8:db:03:54:b1:1d|80
1621927080|a8:ea:a9:dc:96:fc|65
1621853947|a9:0a:0a:4a:d0:5d|74
1621840496|a9:5c:f5:b8:9f:f5|74
1621837293|a9:76:c6:cf:63:92|86
1621850495|a9:7a:82:b2:50:aa|66
1621926940|a9:96:d2:e7:7b:bb|69
1621853450|a9:b8:77:a1:0d:75|79
1621864329|a9:c2:c9:fe:f2:9f|75
1621840575|ab:50:ee:a8:77:38|75
1621943346|ab:7f:72:d0:04:51|84
1622016035|ac:07:5f:2a:c1:44|79
1621923045|ac:07:5f:2a:c1:44|66
1621943678|ac:5f:3e:f4:e0:3f|88
1621856340|ac:78:91:dc:11:41|68
1621837741|ac:d5:64:02:f7:bf|89
1621861607|ac:dd:6e:c1:80:a5|83
1622023215|ac:fd:ce:37:75:12|86
1621856936|ac:fd:ce:37:75:12|76
1621928660|ad:1e:d6:ef:bb:74|64
1621927978|ad:6f:a3:37:f4:e5|67
1621841248|ad:ba:cc:63:92:f9|75
1621850756|af:35:62:77:c2:95|61
1621837325|af:59:7f:ff:6e:d6|79
1621924063|af:a9:c5:8a:53:f6|69
1621928465|af:e2:bf:17:cf:a0|71
1621841425|b0:12:bd:8a:e4:73|85
1621846133|b0:28:3d:ee:97:e5|83
1621943863|b0:35:9f:9d:d0:e1|76
1621922802|b0:35:b5:e5:7c:80|80
1621845599|b0:35:b5:e5:7c:80|81
1622012655|b0:48:1a:97:d1:c9|75
1621932482|b0:66:3e:93:20:bb|80
1621847237|b0:6f:e0:1e:1e:e8|76
1621840771|b0:6f:e0:b0:41:f2|80
1622011397|b0:70:2d:bc:e2:2a|75
1621951022|b0:72:bf:42:e9:d6|81
1622011281|b0:9e:fa:9c:e3:8f|68
1621950214|b0:a2:e7:cf:24:4c|86
1621854403|b0:a2:e7:cf:24:4c|90
1621923366|b0:a4:60:93:b5:52|76
1621842137|b0:a4:60:93:b5:52|86
1621925585|b0:a4:60:9d:d8:bb|81
1621854401|b0:c7:6f:c1:32:d1|67
1621940941|b0:d4:a5:c2:f7:57|75
1621925496|b0:e1:7e:a6:4b:f5|72
1621853107|b0:e1:7e:a6:4b:f5|80
1622014812|b0:e2:35:27:28:ef|76
1622009478|b0:e2:35:c0:c3:11|73
1621842343|b0:e2:35:c0:db:b6|71
1621865393|b0:e2:35:c1:1d:86|92
1622013838|b0:e2:35:c1:26:0e|72
1621836081|b0:e2:35:c1:26:0e|78
1621928311|b0:e2:35:c1:27:b1|74
1622020139|b0:e2:35:c1:2f:22|72
1621929227|b0:e2:35:c1:2f:22|79
1621851095|b0:e6:db:85:69:11|72
1621922834|b0:fc:36:a9:6a:2f|92
1621863143|b0:fc:36:aa:55:5f|91
1621948800|b0:fc:36:aa:71:6b|94
1621847079|b0:fc:36:aa:71:6d|90
1621836123|b0:fc:36:b1:07:25|84
1621948490|b0:fe:04:31:ad:69|86
1621926604|b1:17:60:3d:0a:e8|69
1621932958|b1:27:37:fd:87:c6|73
1621854262|b1:35:84:f6:6f:cb|69
1621864332|b3:17:66:1c:07:df|82
1621946055|b3:32:02:49:e7:aa|75
1621840670|b3:79:7f:18:5a:2f|85
1621848023|b3:7b:f2:3d:29:b9|82
1621935204|b3:82:c0:ed:d3:d6|87
1621852532|b3:91:e1:d4:6f:e6|76
1621846799|b3:c5:2f:ba:63:a0|71
1621950018|b4:42:e9:97:7a:3d|66
1622025795|b4:61:d9:8d:f6:71|70
1621841589|b4:64:17:b3:a9:80|81
1621837217|b4:6b:fc:d3:24:03|76
1622015387|b4:74:43:65:6d:79|73
1622031889|b4:8a:ce:fc:25:c5|85
1621847817|b4:8b:19:75:a2:1c|86
1621929756|b4:8b:19:da:a2:ef|71
1621844550|b4:ad:42:63:70:b7|68
1622009721|b4:ae:2b:e1:d7:d5|73
1621850378|b4:cc:02:98:e8:13|72
1621866203|b4:cd:27:15:6d:dd|81
1621929470|b4:db:fa:d4:e4:40|82
1621836207|b4:e6:2a:94:c8:7c|81
1622020153|b4:f1:37:33:91:b8|82
1621859226|b4:f1:da:b9:1b:67|80
1621941127|b4:f7:a1:85:44:84|79
1621858985|b5:a2:9e:69:19:b6|85
1621926358|b5:a7:db:bc:97:85|76
1621856164|b5:c1:42:33:44:89|73
1621837113|b5:ff:92:8f:96:36|72
1621934784|b7:2a:79:42:69:ac|88
1621840340|b7:3d:6d:ae:8e:ed|75
1621926098|b8:53:ac:c7:31:1b|86
1621843576|b8:53:ac:c7:31:1b|89
1621932617|b8:57:d8:a1:22:3a|74
1622031979|b8:8a:60:ed:5d:50|74
1622009428|b8:9a:2a:af:32:ff|68
1621931784|b8:af:b1:d3:8c:45|84
1621837951|b8:d6:e1:16:b5:bc|80
1621950898|b8:d7:af:02:86:de|88
1621862238|b8:d7:af:02:86:de|92
1622030941|b8:d7:af:b6:77:f7|77
1621940690|b8:d7:af:b6:77:f7|75
1622008911|b8:ee:65:67:04:86|82
1621840820|b8:f6:b1:d7:72:ad|73
1621926778|b9:5d:f1:da:67:9a|68
1621928585|b9:72:de:42:d5:c0|67
1621860918|b9:ac:ab:9c:52:fd|85
1621929114|b9:bf:d6:e1:b5:5e|67
1621839835|b9:c2:c1:27:df:c4|71
1621856161|bb:49:e9:4e:fc:a0|71
1621838641|bb:87:7f:da:fa:ac|75
1621850151|bb:a3:b4:ee:99:22|69
1622030179|bb:cd:0d:53:cb:ed|69
1621841301|bb:e6:b5:b1:81:1c|85
1622023217|bb:e9:21:7a:93:4f|85
1621846885|bc:09:63:1d:0b:b5|84
1622016360|bc:17:b8:3f:bb:e6|69
1621939066|bc:2e:f6:68:9a:c7|73
1622021117|bc:2f:3d:e3:70:cf|80
1621844370|bc:2f:3d:e3:70:cf|74
1621837681|bc:35:8d:52:0c:41|78
1621836271|bc:3a:ea:bc:1f:8c|84
1621859472|bc:3d:85:c0:5c:7b|87
1622028650|bc:60:6a:99:86:d2|71
1621923906|bc:83:85:0f:41:06|74
1622021273|bc:83:85:12:f8:91|67
1621934245|bc:83:85:ef:10:d6|73
1621836675|bc:83:85:ef:10:d6|75
1621850623|bc:c8:a3:23:37:bf|70
1621932251|bc:ff:eb:b9:b9:35|83
1621924057|bd:2b:62:d9:e8:58|71
1621839562|bd:44:09:d5:8d:5e|70
1621924951|bd:9f:9b:78:be:d9|81
1621851205|bd:a2:60:b2:61:49|74
1621927910|bf:4a:72:23:ad:78|66
1621926916|bf:4d:b3:67:5d:1f|75
1621939727|bf:6e:18:0f:49:47|68
1622015888|bf:96:04:46:08:2c|73
1621837963|bf:f6:cf:d8:f4:ff|73
1621839414|c0:05:fe:5e:12:30|73
1621862944|c0:17:4d:13:3f:73|88
1621927459|c0:17:4d:13:3f:73|91
1622033320|c0:17:4d:14:52:71|75
1621836110|c0:17:4d:14:52:71|78
1621854811|c0:17:4d:2f:18:3f|72
1621837695|c0:17:4d:38:2f:34|75
1622020184|c0:1b:bf:e6:a8:50|83
1621851049|c0:22:2b:1d:3b:5a|74
1621842265|c0:60:e3:fb:dc:46|87
1621850348|c0:b5:d7:d9:00:6d|86
1621929868|c0:b6:58:52:15:74|79
1621943993|c0:b6:f9:3d:5a:8b|81
1622014839|c0:b6:f9:3d:5a:8b|80
1621860856|c0:b6:f9:3d:5a:8b|83
1621922986|c0:b8:83:7c:e7:4b|78
1622016142|c0:b8:83:7c:e7:4b|76
1621852303|c0:b8:83:7c:e7:4b|68
1621838156|c0:b8:83:c9:f2:c5|77
1622017816|c0:bd:c8:fb:69:ef|80
1622023223|c0:d2:dd:66:05:c5|80
1621836421|c0:d2:dd:66:05:c5|86
1621924666|c0:d2:dd:66:05:c5|79
1622031979|c0:d2:f3:84:bf:02|73
1621842729|c0:d2:f3:84:bf:02|77
1622022283|c0:f2:fb:aa:1e:21|78
1621928783|c0:fd:0b:f6:19:38|66
1621837450|c1:1e:97:3c:d8:04|84
1621925223|c1:76:ae:ac:73:f1|71
1621949528|c1:93:5e:41:53:64|73
1621846213|c3:0d:57:4f:e7:c6|85
1621926751|c3:cd:42:2a:de:dc|75
1621849617|c3:d6:3e:72:72:37|66
1621927013|c3:ec:24:30:76:ec|81
1621838631|c4:06:83:25:f3:02|69
1622029092|c4:42:94:37:6c:29|83
1622015702|c4:57:6e:4e:d2:b7|83
1621844744|c4:57:6e:4e:d2:b7|82
1621926519|c4:57:6e:4e:d2:b7|80
1621849386|c4:8c:2b:74:c3:3c|80
1622013874|c4:8e:8f:f3:80:bd|78
1621853555|c4:9b:db:8e:9b:ca|76
1621934653|c4:9d:ed:1e:a5:b5|78
1621836021|c4:9d:ed:1e:a5:b5|71
1622016355|c4:9f:4c:84:93:da|91
1621923504|c4:9f:4c:84:b2:8b|58
1621950097|c4:a9:98:b7:94:c4|80
1621929398|c4:b3:0d:87:40:1d|75
1621924458|c4:bf:60:df:06:89|88
1621856303|c4:c0:9e:82:0a:9c|80
1621949743|c4:d2:50:75:e1:9e|66
1621865654|c4:d9:87:c8:3a:57|94
1621950149|c4:d9:87:c8:3a:57|92
1621840551|c5:13:14:da:8c:d8|72
1621945899|c5:34:a4:4d:74:b7|75
1621840675|c5:86:0b:44:37:e7|77
1621948994|c5:a0:b9:9a:20:92|71
1621844917|c7:04:cc:0b:e7:7a|69
1621844550|c7:16:65:88:17:09|85
1621929192|c7:17:df:99:3c:bf|73
1622023914|c7:55:2a:b5:45:75|73
1621928272|c7:58:8f:5a:d0:3a|68
1621837729|c7:64:d9:6a:1e:4a|82
1621928698|c7:7a:2b:07:2b:87|78
1621850490|c7:c1:c0:ea:a7:5e|72
1621841107|c7:e9:21:a2:a0:20|72
1621923612|c8:02:10:bf:67:e0|75
1621847324|c8:02:10:bf:67:e0|77
1621838936|c8:1d:56:30:d0:21|88
1621949849|c8:64:f1:b5:d1:ce|78
1621949482|c8:6c:cf:46:e7:62|68
1621928757|c8:8b:a7:aa:29:29|72
1622013855|c8:d0:83:0f:25:c6|86
1621927913|c8:d6:a2:19:c1:bf|71
1622010641|c8:e1:a7:09:48:a2|70
1621923419|c8:e1:a7:09:48:a2|73
1621941090|c8:f7:33:db:5a:83|85
1622020828|c9:16:67:11:98:50|85
1621849562|c9:4f:7f:a5:84:68|71
1621941532|c9:5d:da:32:42:18|79
1621855667|c9:73:ee:93:08:4e|69
1621946463|c9:97:b8:04:ac:32|80
1622030182|c9:9e:7f:c8:6e:2d|67
1621924415|c9:cd:d6:d9:01:19|80
1622029010|c9:f2:17:4c:20:4e|74
1621838464|cb:3b:a4:1f:c0:5b|80
1621944940|cb:5a:7e:05:ef:88|65
1621851001|cb:62:86:79:cd:6e|82
1621947463|cb:6a:b4:87:df:c1|87
1621853036|cb:98:2e:a8:03:14|72
1621851398|cb:df:b5:4f:d5:5b|81
1621949676|cc:0f:62:32:5a:b8|79
1621852125|cc:20:e8:9f:f7:61|82
1621860193|cc:21:19:89:75:37|81
1621848184|cc:3a:61:90:fb:13|76
1621840973|cc:3d:82:4f:21:7b|79
1621836039|cc:46:4e:cf:02:6e|75
1621930781|cc:46:4e:eb:40:3a|79
1621841185|cc:b0:62:db:00:ca|72
1621937931|cc:c0:79:fa:30:3d|71
1622028654|cc:db:14:ab:d3:3b|74
1621837889|cd:9c:e7:31:5a:57|79
1621853056|cd:a7:54:1d:f0:0b|70
1621845258|cd:bb:42:f5:9e:c8|77
1621840377|cd:c5:80:9c:2f:ff|75
1622017907|cd:fc:68:0d:9b:5f|73
1621926606|cf:23:44:2d:01:b0|74
1621926537|cf:57:d0:88:d9:06|80
1621852293|cf:a4:dc:1e:a4:3b|68
1621848933|d0:25:98:a4:d0:04|71
1621938631|d0:31:69:52:b0:7c|85
1622025875|d0:53:49:df:f2:fd|75
1622029152|d0:65:1e:ed:8f:ed|79
1622033471|d0:7f:a0:a7:0e:8f|92
1621846259|d0:af:0e:da:ce:9e|83
1622010929|d0:c6:37:12:3b:3f|81
1621836947|d0:c6:37:12:3b:3f|73
1621846612|d0:c6:37:d6:fa:fb|78
1621864806|d0:d0:03:0a:93:28|75
1621851231|d1:06:a9:c6:f3:ef|69
1621928082|d1:0d:33:d6:4c:58|81
1621846499|d1:1f:13:84:13:14|81
1621853959|d1:9c:f5:b2:06:6e|75
1621849095|d3:04:db:6b:86:d2|79
1622033589|d3:88:4e:92:f7:85|68
1621837852|d4:3b:04:79:25:8e|74
1621927684|d4:3b:04:a0:aa:55|75
1622018496|d4:3b:04:a0:aa:55|68
1621841577|d4:3b:04:a0:aa:55|80
1621942135|d4:4d:a4:fb:89:da|76
1621944762|d4:62:ea:38:0c:a1|79
1622012770|d4:6d:6d:e0:36:39|83
1621836052|d4:6d:6d:e0:e8:c2|71
1621953029|d4:75:cb:51:76:8f|84
1622010485|d4:90:9c:71:ca:12|80
1621837641|d4:90:9c:95:53:5d|71
1621848603|d4:9d:c0:44:86:26|72
1622020198|d4:a3:3d:b6:d7:24|74
1621842062|d4:ae:05:39:ce:27|85
1621950772|d4:b7:61:87:81:5b|93
1621865410|d4:b7:61:87:81:5b|93
1621946904|d4:b7:61:a0:6f:0d|93
1621863396|d4:b7:61:a0:6f:0d|93
1621922611|d4:d2:52:b8:18:70|86
1621949883|d4:fa:d8:ce:a2:04|64
1621849910|d5:1c:8e:1f:b7:73|74
1621841946|d5:48:56:54:72:82|70
1621929578|d5:df:a7:9f:98:ae|64
1621929146|d5:f1:6a:dc:ab:a8|75
1621950220|d7:0d:d4:9d:2d:a9|86
1621839953|d7:38:58:ad:9f:0f|78
1621849784|d7:d0:0c:84:44:4b|90
1621858742|d7:d5:0a:ad:26:7a|87
1621851695|d7:f6:94:43:55:0e|69
1621935695|d7:fe:12:27:b1:60|72
1621948384|d8:03:e7:36:84:43|74
1622026054|d8:1e:dd:b0:55:af|62
1621866504|d8:1e:dd:b0:68:df|90
1621952792|d8:32:e3:50:2a:2a|86
1621853502|d8:44:ce:f5:25:33|73
1621861239|d8:4c:90:b3:ff:30|72
1621930917|d8:68:c3:8c:38:c1|78
1621927149|d8:9c:67:92:75:77|88
1621836558|d8:9c:67:92:75:77|85
1621930529|d8:9e:61:e8:92:59|67
1621842431|d8:9e:61:e8:92:59|79
1621836198|d8:bb:2c:46:1a:fe|79
1621842858|d8:bb:2c:f3:51:ac|79
1622026253|d8:d6:a6:ca:5d:45|88
1621853543|d8:ee:fe:8a:ab:72|68
1622031404|d8:f2:ca:11:cb:b4|77
1621861610|d8:f2:ca:11:cb:b4|81
1621854972|d8:f2:ca:28:54:c9|84
1622009808|d8:f2:ca:b4:e4:9d|78
1621838120|d8:f2:ca:b4:e4:9d|85
1621931834|d8:f2:ca:b4:e4:9d|88
1621844568|d8:f5:6e:13:73:3f|68
1621927047|d9:30:72:89:e7:28|73
1621840457|d9:5a:2a:9f:df:fb|67
1621837953|d9:77:c9:89:83:2d|79
1621925284|d9:84:02:8c:b8:4c|75
1621854257|d9:8e:07:f8:77:61|64
1621860900|d9:bb:36:e1:74:13|61
1621853499|d9:cc:18:d4:a9:06|73
1621841145|db:07:42:20:f5:76|80
1621838003|db:10:01:6b:e0:86|71
1622029518|db:11:3b:16:f8:1a|70
1621925143|db:a9:0b:2e:dd:7c|76
1621836819|db:c8:fa:ba:07:18|75
1621928468|db:dc:07:b3:60:e3|71
1621855456|dc:16:b2:53:78:d6|79
1621927439|dc:16:b2:89:23:f3|67
1621928617|dc:2d:bf:07:65:2f|72
1621930129|dc:66:72:c8:54:03|79
1621850728|dc:74:a8:ac:ca:b2|82
1621836563|dc:85:de:c0:4c:df|85
1621855475|dc:89:83:a7:d9:2d|80
1622032506|dc:8b:28:41:99:fc|77
1621944553|dc:8b:28:65:9c:35|86
1622030231|dc:8b:28:77:df:e4|87
1622022367|dc:a9:04:8b:73:d0|90
1622029850|dc:ef:ca:39:fb:f1|85
1622009028|dc:f0:90:bf:1e:84|84
1621922828|dc:f0:90:bf:1e:84|67
1621844169|dc:f0:90:bf:1e:84|86
1621841392|dc:f7:56:07:94:c8|90
1621849961|dc:fb:48:8a:de:c8|71
1621837977|dd:35:43:64:d4:e4|75
1621851217|dd:36:c1:9c:8b:8e|61
1621931505|dd:6b:ca:06:ed:24|81
1621854230|dd:7f:82:18:fc:b7|68
1621925198|dd:80:eb:a8:f2:bb|67
1621837751|dd:a0:b9:0d:cf:11|83
1621839544|dd:cb:70:c9:5d:e8|77
1621927091|dd:ce:71:9a:1e:b2|71
1621948434|df:45:ee:d8:c4:ad|72
1621946682|df:66:10:39:7c:fb|66
1622009537|df:75:f4:c9:05:5f|79
1621851650|df:7d:13:64:54:d1|84
1622022625|df:98:10:a0:05:cb|81
1621928524|df:dc:42:cf:41:bb|62
1621854011|df:e1:5d:50:7c:25|78
1621850700|e0:0e:cd:51:03:0f|71
1621852507|e0:37:bf:d8:dc:b2|83
1621945396|e0:5f:45:bc:fa:7e|81
1621952635|e0:76:d0:be:91:c2|90
1621838128|e0:89:7e:16:7b:fc|74
1621846867|e0:aa:96:0b:f7:ce|85
1621856406|e0:b5:2d:0b:9b:1b|74
1621923859|e0:ca:94:84:33:6f|83
1621837759|e1:eb:e1:8f:c3:b8|68
1621852406|e3:ab:cd:58:15:3b|71
1622029241|e4:0d:64:d3:b0:01|83
1622022661|e4:0e:ee:7e:92:40|75
1621941812|e4:0e:ee:7e:92:40|83
1621934428|e4:0e:ee:e4:dd:b8|69
1621938801|e4:2a:ff:f4:08:36|67
1621849444|e4:2b:34:e5:1f:49|86
1622013597|e4:70:b8:0d:b2:7c|86
1621927255|e4:9b:4c:93:75:1b|67
1621922440|e4:a4:71:ae:bb:90|86
1622012399|e4:aa:ea:cd:96:f3|85
1622015843|e4:b2:db:39:37:cc|73
1621923935|e4:b3:18:9c:52:34|82
1621929996|e4:b3:18:c7:54:bb|92
1621839428|e4:b3:18:c7:54:bb|88
1622009019|e4:b3:18:e9:1f:15|85
1621843610|e4:b3:18:e9:1f:15|75
1621839823|e4:f3:82:17:c3:92|78
1621928483|e5:2b:6e:a0:4d:bf|75
1621925258|e5:4d:bb:3b:be:d7|70
1621925636|e5:b7:b7:91:63:72|70
1621851491|e7:13:4a:25:d8:7f|77
1622011729|e7:46:da:ed:73:68|80
1621848955|e8:2a:ea:19:b9:2d|78
1622029227|e8:49:48:63:99:2c|82
1622012151|e8:5a:8b:62:63:17|66
1621842203|e8:5a:8b:62:63:17|83
1622011177|e8:5a:8b:80:d1:1f|85
1621836831|e8:61:31:dc:eb:ba|81
1622020158|e8:90:1e:da:9e:53|85
1622010821|e8:93:09:2e:01:ee|80
1621843422|e8:93:09:2e:01:ee|71
1621935333|e8:d0:fc:f6:9c:2f|91
1621948558|e9:30:2a:31:7b:cd|81
1621852466|e9:43:8e:2b:eb:0a|64
1621838473|e9:98:60:19:3c:21|73
1621851435|e9:de:70:30:3a:7a|76
1621930401|e9:e5:4d:85:36:86|74
1621864166|eb:18:0d:78:ad:81|80
1621836815|eb:4f:55:0b:04:25|72
1621842457|eb:53:b8:f1:97:d8|79
1621926690|eb:8d:cf:75:11:79|80
1621864035|eb:9d:40:c1:e6:b7|75
1621948848|eb:fe:a7:c3:30:8b|62
1622029821|ec:10:7b:5e:84:75|82
1621945472|ec:1f:72:11:3b:8d|83
1622028905|ec:1f:72:11:3b:8d|87
1621843990|ec:1f:72:11:3b:8d|78
1622031965|ec:1f:72:2b:f8:b6|67
1621935669|ec:1f:72:2b:f8:b6|81
1622021911|ec:1f:72:7b:e0:80|72
1621922936|ec:1f:72:7b:e0:80|84
1622012528|ec:1f:72:80:10:d2|83
1621954275|ec:1f:72:83:3b:dd|88
1621866896|ec:1f:72:83:3b:dd|80
1621836327|ec:1f:72:83:9f:04|81
1621851230|ec:1f:72:b7:fe:85|68
1621853162|ec:28:c5:e7:c6:39|77
1621850739|ec:4b:c7:d8:1a:ca|69
1621842205|ec:65:e4:d6:b5:a7|85
1621946067|ec:77:57:14:6f:ee|77
1621946313|ec:83:25:6c:70:15|82
1621839258|ec:93:df:7d:b0:48|79
1621922430|ec:9b:f3:ab:a6:5a|71
1621838394|ec:9b:f3:ab:a6:5a|72
1621836442|ec:9b:f3:d1:58:e4|91
1622029006|ec:e1:8e:be:1d:1e|78
1621923994|ed:0f:b6:6b:07:6f|68
1621930766|ed:1a:10:30:49:ff|81
1621854463|ed:42:1d:97:b1:9e|67
1621924108|ed:e0:dd:46:76:39|77
1621946658|ef:16:78:5b:a6:c7|76
1621853791|ef:49:29:08:67:4c|71
1621937252|ef:b5:d9:2b:87:25|86
1621840351|ef:ba:eb:44:14:db|76
1621851162|f0:18:98:6a:15:28|73
1621854139|f0:25:74:20:e1:2f|70
1622032483|f0:28:34:b2:1c:5f|69
1621843993|f0:51:c7:b8:30:0c|81
1621853986|f0:67:28:c0:6d:ab|80
1621837440|f0:6d:78:5a:ad:4d|74
1621839022|f0:6e:0b:e3:c3:f7|81
1621855082|f0:79:60:24:57:02|87
1621840383|f0:8a:76:4f:76:2c|86
1621844632|f0:98:9d:9e:ea:42|70
1621838761|f0:98:9d:ae:7a:e1|67
1621929433|f0:98:9d:e7:9a:9a|68
1621934736|f0:99:b6:d1:3c:7b|80
1621842676|f0:99:b6:d1:3c:7b|80
1621954558|f0:a3:5a:8d:fe:5d|91
1621842425|f0:bd:6d:23:7e:40|76
1622020140|f0:d5:bf:29:6a:bd|89
1621855100|f0:d5:bf:9a:60:2d|86
1622013517|f0:d5:bf:bb:9e:41|86
1622013340|f0:d5:bf:bb:9e:42|83
1621924667|f0:d5:bf:bb:9e:42|84
1622021427|f0:e0:98:29:ac:36|75
1621945895|f0:f5:5e:db:f0:3a|80
1622020097|f0:f6:1c:6a:8b:f2|85
1621861309|f0:f6:1c:6a:8b:f2|89
1621837950|f1:2b:76:39:58:e0|74
1621858326|f1:53:77:96:0e:d2|85
1621853465|f1:7a:83:dc:81:2b|70
1621837971|f1:95:c9:b4:c3:9d|75
1621844530|f1:cb:57:a1:de:03|70
1621944651|f3:3f:8e:df:35:fd|91
1622033544|f3:45:c8:de:46:cd|69
1621936822|f3:9b:a0:bf:d2:90|81
1621943226|f3:c3:a0:90:71:4e|89
1621931339|f3:eb:43:39:c1:23|66
1621948580|f4:02:4a:7f:5c:f0|82
1622016436|f4:06:69:66:c2:22|82
1621839179|f4:06:69:66:c2:22|77
1621931205|f4:0f:24:1f:fc:8b|85
1621927725|f4:3c:f6:26:4b:c6|70
1621945808|f4:5c:89:a9:4f:db|90
1621854224|f4:74:3e:bb:4f:f0|72
1621854279|f4:7f:e2:8e:dd:a7|76
1621850348|f4:8c:50:d5:79:e7|75
1621924406|f4:8c:50:fa:70:17|89
1621838774|f4:8d:8f:02:9b:f9|77
1621854100|f4:93:bc:0f:a9:d8|70
1622011004|f4:96:34:99:a8:36|89
1621931508|f4:96:34:99:a8:36|87
1621850241|f4:b2:b3:fe:17:af|66
1621927404|f4:c2:48:1c:39:41|73
1621842846|f4:c2:48:1c:39:41|72
1621836770|f4:c2:48:73:ec:87|73
1622027320|f4:c2:48:8a:0b:85|87
1622017529|f4:ef:35:48:63:a8|74
1621933498|f4:f4:2d:f6:92:e2|68
1621926753|f4:f9:b9:a0:0c:9f|72
1621852853|f5:05:2a:ff:30:ae|67
1621851129|f5:11:a8:99:fa:ee|68
1621949396|f5:34:9a:b1:bb:ec|73
1622028743|f5:67:25:c4:11:d5|72
1621852462|f5:7b:84:58:dc:38|67
1621850953|f5:89:9e:c9:5e:bb|73
1621925341|f5:a5:63:73:83:38|61
1621850893|f7:3a:d8:7d:cd:53|81
1621938816|f7:8c:35:6d:6c:1b|67
1621839710|f8:0a:87:26:08:34|72
1621922626|f8:59:71:32:6d:e3|83
1622014034|f8:5e:a0:2c:5f:24|75
1621848450|f8:87:f1:43:7e:38|79
1621841819|f8:94:c2:02:03:5f|71
1622015123|f8:94:c2:09:20:f9|84
1621938557|f8:94:c2:09:21:30|84
1621934383|f8:9a:78:8a:5b:ae|69
1621922483|f8:a2:d6:e3:d6:4d|91
1621836269|f8:a2:d6:e3:d6:4d|79
1621940615|f8:ac:65:80:24:5b|76
1621836031|f8:c3:9e:bd:24:a8|75
1621933196|f8:c9:0c:f2:f0:42|79
1621852206|f8:d9:43:b1:5c:aa|74
1622014299|f8:da:0c:4e:06:cb|86
1621845970|f8:e4:e3:67:29:6f|82
1621933201|f8:e4:e3:91:ee:c0|87
1621860059|f8:e4:e3:91:ee:c0|88
1621923146|f8:e4:e3:e4:6a:06|65
1621836101|f8:e4:e3:e4:6a:06|66
1621942513|f8:e7:a0:21:57:77|76
1621836914|f8:e9:4e:b0:58:77|90
1621934881|f8:ff:c2:03:88:ee|91
1621844525|f8:ff:c2:03:88:ee|89
1622015988|f8:ff:c2:53:af:bc|78
1621925287|f8:ff:c2:53:af:bc|75
1622028376|f8:ff:c2:55:88:41|83
1621927499|f9:1f:16:8e:34:48|72
1621849075|f9:63:a3:f1:41:e7|80
1622026195|fb:45:7b:16:b0:81|72
1621927240|fb:71:d5:05:8d:c7|67
1621848593|fb:df:3c:da:8b:bc|88
1622016626|fb:e6:61:ad:52:1a|68
1621926516|fb:ed:5a:bd:a3:5d|74
1621845947|fc:19:99:4d:8e:54|84
1621839351|fc:1f:5f:bd:12:19|65
1622029671|fc:32:3d:42:08:b1|69
1621929197|fc:3f:02:52:8f:26|69
1621928059|fc:40:63:8c:01:5b|68
1621844635|fc:42:03:bf:e2:94|84
1622009829|fc:66:cf:e1:47:39|75
1621854756|fc:77:74:f2:8e:65|79
1622016662|fc:77:74:f2:c7:db|82
1621923436|fc:77:74:f2:c7:db|85
1621945209|fc:aa:b6:64:33:e0|84
1621949904|fc:b1:fd:5e:37:bf|73
1621930761|fc:ce:b3:f7:5b:7f|72
1622011754|fc:db:b3:1b:cb:72|75
1621925219|fc:db:de:c5:d3:9d|71
1622013417|fd:6b:aa:8e:40:a5|73
1621861115|fd:85:a6:88:fd:74|76
1621927741|fd:b3:28:36:a1:06|70
1622028996|fd:e5:8a:31:81:d2|68
1621841134|ff:03:b1:de:26:87|82
1621948640|ff:06:1a:c4:82:eb|66
1621949043|ff:2b:da:c0:7e:7a|70
1621854378|ff:32:09:03:d3:1b|76
1622028960|ff:9f:c2:1f:ae:36|70
1621930446|ff:c9:b8:bf:c7:81|86
1622013249|ff:e2:17:88:1a:67|81
1621928545|ff:f2:bd:05:e0:9b|74