1616400827|00:d0:c9:f3:00:70|86
1616400827|24:46:c8:d3:ef:e4|91
1616400842|8c:45:00:15:fe:7e|87
1616400842|00:d0:c9:f3:00:70|84
1616400857|24:46:c8:d3:1a:76|92
1616400857|40:f5:20:46:c1:e4|61
1616400857|00:d0:c9:f3:00:70|91
1616400857|7c:b2:32:6f:8e:50|87
1616400857|8c:45:00:15:fe:7e|87
1616400872|48:9d:d1:a7:7e:a7|94
1616400872|24:46:c8:d3:42:a2|92
1616400872|00:d0:c9:f3:00:70|91
1616400872|24:46:c8:d3:1a:76|92
1616400887|0c:9d:92:09:83:f9|91
1616400887|74:bf:c0:32:82:9f|94
1616400887|00:d0:c9:f3:00:70|91
1616400887|60:f8:1d:b7:0a:86|91
1616400887|24:46:c8:d3:42:a2|91
1616400887|28:f0:76:14:84:f2|86
1616400887|48:9d:d1:a7:7e:a7|94
1616400902|00:d0:c9:f3:00:70|90
1616400917|c0:8c:71:8e:ba:be|92
1616400917|40:f5:20:46:c5:40|69
1616400917|00:d0:c9:f3:00:70|90
1616400947|40:f5:20:46:c5:40|70
1616400947|28:f0:76:14:84:f2|86
1616400947|00:d0:c9:f3:00:70|90
1616400962|40:f5:20:46:c5:40|73
1616400977|fc:aa:b6:14:77:05|92
1616400977|7c:b2:32:6f:8e:50|86
1616400977|00:02:36:f0:05:57|89
1616400992|fc:aa:b6:14:77:05|87
1616400992|c0:8c:71:8d:90:92|89
1616400992|54:b8:02:47:9a:68|93
1616401007|7c:b2:32:6f:8e:50|91
1616401007|00:d0:c9:f3:00:70|89
1616401007|28:f0:76:14:84:f2|84
1616401007|fc:aa:b6:14:77:05|87
1616401022|d4:c9:4b:6f:e4:0b|94
1616401022|00:d0:c9:f3:00:70|90
1616401022|7c:b2:32:6f:8e:50|88
1616401037|d4:c9:4b:6f:e4:0b|90
1616401052|9c:28:bf:88:e3:16|91
1616401052|fc:aa:b6:14:77:05|91
1616401067|28:f0:76:14:84:f2|82
1616401067|9c:28:bf:88:e3:16|91
1616401097|ac:ae:19:32:61:c0|94
1616401127|28:f0:76:14:84:f2|84
1616401127|7c:b2:32:6f:8e:50|88
1616401157|00:d0:c9:f3:00:70|91
1616401187|28:f0:76:14:84:f2|84
1616401187|00:d0:c9:f3:00:70|92
1616401217|ec:10:7b:d4:39:31|91
1616401217|00:d0:c9:f3:00:70|90
1616401232|7c:b2:32:6f:8e:50|88
1616401232|d4:c9:4b:6f:bb:9d|94
1616401232|00:d0:c9:f3:00:70|89
1616401247|28:f0:76:14:84:f2|81
1616401247|3c:57:6c:8d:cf:63|92
1616401247|7c:b2:32:6f:8e:50|88
1616401262|00:d0:c9:f3:00:70|92
1616401277|f8:e1:a2:dc:78:55|89
1616401292|c0:8c:71:8d:b4:50|91
1616401292|24:46:c8:d3:94:ec|92
1616401292|00:d0:c9:f3:00:70|92
1616401307|24:46:c8:d3:e6:27|92
1616401307|c0:8c:71:8d:b4:50|87
1616401307|28:f0:76:14:84:f2|91
1616401307|7c:b2:32:6f:8e:50|87
1616401322|c0:8c:71:8d:b4:50|93
1616401322|24:46:c8:d3:e6:27|92
1616401337|d8:68:c3:b5:45:67|90
1616401352|ac:5f:3e:f4:e0:3f|73
1616401352|d4:53:83:bb:07:d8|92
1616401352|d8:68:c3:b5:45:67|90
1616401367|28:f0:76:14:84:f2|86
1616401367|00:d0:c9:f3:00:70|91
1616401382|28:f0:76:14:84:f2|86
1616401397|7c:b2:32:6f:8e:50|92
1616401397|60:1d:91:92:72:4e|91
1616401397|00:d0:c9:f3:00:70|92
1616401412|7c:b2:32:6f:8e:50|89
1616401427|04:f0:21:40:a2:7e|87
1616401427|28:f0:76:14:84:f2|85
1616401427|a0:2c:33:25:d8:e2|92
1616401427|7c:b2:32:6f:8e:50|89
1616401442|9c:28:f7:a8:0f:92|85
1616401442|04:f0:21:40:a2:7e|87
1616401457|00:0c:e7:80:e2:99|92
1616401457|74:c1:4f:7a:63:d0|90
1616401457|00:d0:c9:f3:00:70|89
1616401472|ac:5f:3e:f4:e0:3f|65
1616401472|7c:b2:32:6f:8e:50|91
1616401472|60:1d:91:92:ba:e7|92
1616401472|d4:c9:4b:6b:ed:43|89
1616401472|00:0c:e7:80:e2:99|92
1616401487|28:a1:83:99:86:4f|93
1616401487|7c:b2:32:6f:8e:50|86
1616401487|60:1d:91:91:d3:47|94
1616401487|60:1d:91:91:d6:d4|93
1616401487|ac:5f:3e:f4:e0:3f|65
1616401502|a4:b1:c1:3d:9d:43|88
1616401502|28:a1:83:99:86:4f|93
1616401517|a4:e4:b8:af:f1:1b|87
1616401532|7c:b2:32:6f:8e:50|86
1616401547|28:f0:76:14:84:f2|85
1616401562|c0:17:4d:14:1a:89|91
1616401577|ac:5f:3e:f4:e0:3f|71
1616401577|90:cc:df:be:3a:84|87
1616401577|c0:17:4d:14:1a:89|91
1616401592|70:5a:ac:b7:1c:63|90
1616401592|84:ab:1a:e2:90:18|91
1616401592|ac:5f:3e:f4:e0:3f|71
1616401607|28:f0:76:14:84:f2|86
1616401607|70:5a:ac:b7:1c:63|90
1616401622|7c:b2:32:6f:8e:50|91
1616401637|7c:b2:32:6f:8e:50|88
1616401652|00:d0:c9:f3:00:70|90
1616401652|7c:b2:32:6f:8e:50|88
1616401667|28:f0:76:14:84:f2|89
1616401667|00:d0:c9:f3:00:70|88
1616401682|00:d0:c9:f3:00:70|92
1616401682|28:f0:76:14:84:f2|89
1616401697|ac:5f:3e:f4:e0:3f|67
1616401697|60:1d:91:1a:1f:9d|92
1616401697|00:d0:c9:f3:00:70|92
1616401712|ac:5f:3e:f4:e0:3f|67
1616401727|24:46:c8:d3:1b:5a|90
1616401742|c0:8c:71:8e:ee:7d|88
1616401742|8c:f1:12:d2:9c:46|92
1616401742|7c:b2:32:6f:8e:50|89
1616401757|c0:8c:71:8e:ee:7d|88
1616401787|44:91:60:74:9d:8f|91
1616401787|7c:b2:32:6f:8e:50|92
1616401787|28:f0:76:14:84:f2|85
1616401787|00:d0:c9:f3:00:70|91
1616401802|24:46:c8:d3:0e:ff|91
1616401802|00:d0:c9:f3:00:70|92
1616401802|44:91:60:74:9d:8f|91
1616401817|00:d0:c9:f3:00:70|90
1616401832|04:b4:29:e2:5d:23|63
1616401832|ec:51:bc:e4:4d:23|91
1616401832|00:d0:c9:f3:00:70|91
1616401847|00:d0:c9:f3:00:70|88
1616401847|ac:5f:3e:f4:e0:3f|78
1616401847|04:b4:29:e2:5d:23|63
1616401877|00:d0:c9:f3:00:70|89
1616401877|60:1d:91:92:c1:70|93
1616401892|00:d0:c9:f3:00:70|89
1616401907|7c:b2:32:6f:8e:50|91
1616401907|00:d0:c9:f3:00:70|89
1616401922|7c:b2:32:6f:8e:50|89
1616401937|ac:b5:7d:f3:13:ed|90
1616401937|00:d0:c9:f3:00:70|90
1616401937|7c:b2:32:6f:8e:50|89
1616401967|28:f0:76:14:84:f2|89
1616401967|7c:b2:32:6f:8e:50|91
1616401967|00:d0:c9:f3:00:70|91
1616401982|7c:b2:32:6f:8e:50|86
1616401982|00:d0:c9:f3:00:70|90
1616401982|28:f0:76:14:84:f2|89
1616401997|94:fb:29:61:af:19|90
1616401997|d0:57:7b:04:e7:46|92
1616401997|00:d0:c9:f3:00:70|89
1616401997|74:95:ec:36:72:43|93
1616401997|7c:b2:32:6f:8e:50|86
1616402012|60:1d:91:92:21:71|91
1616402012|94:fb:29:61:af:19|90
1616402027|28:f0:76:14:84:f2|88
1616402027|00:d0:c9:f3:00:70|90
1616402027|7c:b2:32:6f:8e:50|89
1616402042|00:d0:c9:f3:00:70|92
1616402042|04:f0:21:40:a2:1c|86
1616402042|28:f0:76:14:84:f2|88
1616402057|8c:f1:12:d2:9a:c6|92
1616402057|00:d0:c9:f3:00:70|88
1616402057|00:0c:e7:b3:17:06|89
1616402057|00:0e:8e:8f:33:39|89
1616402072|8c:f1:12:d2:9a:c6|92
1616402087|28:f0:76:14:84:f2|85
1616402087|00:d0:c9:f3:00:70|89
1616402087|8c:f1:12:d2:9a:c6|92
1616402102|00:d0:c9:f3:00:70|91
1616402102|28:f0:76:14:84:f2|85
1616402117|00:d0:c9:f3:00:70|90
1616402117|00:02:36:f0:03:f8|87
1616402132|00:d0:c9:f3:00:70|90
1616402147|7c:b2:32:6f:8e:50|87
1616402177|00:d0:c9:f3:00:70|91
1616402192|7c:b2:32:6f:8e:50|90
1616402192|00:d0:c9:f3:00:70|90
1616402207|28:f0:76:14:84:f2|83
1616402207|7c:b2:32:6f:8e:50|88
1616402222|00:d0:c9:f3:00:70|86
1616402222|28:f0:76:14:84:f2|83
1616402252|00:d0:c9:f3:00:70|89
1616402267|28:f0:76:14:84:f2|83
1616402267|00:d0:c9:f3:00:70|89
1616402282|00:d0:c9:f3:00:70|90
1616402282|28:f0:76:14:84:f2|83
1616402297|00:d0:c9:f3:00:70|91
1616402312|7c:b2:32:6f:8e:50|86
1616402312|00:d0:c9:f3:00:70|91
1616402327|cc:c0:79:71:f4:f2|94
1616402327|28:f0:76:14:84:f2|82
1616402327|00:d0:c9:f3:00:70|91
1616402327|7c:b2:32:6f:8e:50|86
1616402342|cc:c0:79:71:f4:f2|94
1616402357|04:b4:29:e2:5d:23|76
1616402357|7c:b2:32:6f:8e:50|89
1616402357|60:1d:91:91:d7:79|94
1616402372|7c:b2:32:6f:8e:50|84
1616402372|58:b1:0f:03:12:9c|93
1616402372|00:d0:c9:f3:00:70|91
1616402372|04:b4:29:e2:5d:23|76
1616402387|28:f0:76:14:84:f2|88
1616402387|00:d0:c9:f3:00:70|90
1616402387|7c:b2:32:6f:8e:50|84
1616402402|e0:13:b5:81:80:85|86
1616402402|28:f0:76:14:84:f2|88
1616402417|00:d0:c9:f3:00:70|91
1616402417|24:18:1d:c5:7e:a0|90
1616402432|00:d0:c9:f3:00:70|91
1616402447|28:f0:76:14:84:f2|86
1616402447|00:d0:c9:f3:00:70|89
1616402462|24:18:1d:c5:7e:a0|89
1616402462|00:d0:c9:f3:00:70|89
1616402462|28:f0:76:14:84:f2|86
1616402477|c0:8c:71:8e:ad:cb|92
1616402492|24:18:1d:c5:7e:a0|93
1616402507|28:f0:76:14:84:f2|88
1616402507|00:0c:e7:1e:3d:1d|86
1616402507|24:18:1d:c5:7e:a0|91
1616402522|7c:b2:32:6f:8e:50|88
1616402522|10:e9:53:82:0a:bb|93
1616402522|28:f0:76:14:84:f2|88
1616402537|7c:b2:32:6f:8e:50|86
1616402552|10:a5:d0:4a:5b:e1|93
1616402567|10:a5:d0:4a:5b:e1|93
1616402597|00:0c:e7:f7:63:be|90
1616402597|7c:b2:32:6f:8e:50|87
1616402612|00:0c:e7:f7:63:be|90
1616402627|28:f0:76:14:84:f2|87
1616402642|b0:55:08:4a:1f:cd|90
1616402642|80:ce:b9:20:4b:e4|85
1616402642|d4:c9:4b:6f:ea:f8|87
1616402642|00:d0:c9:f3:00:70|91
1616402672|ec:f3:42:23:05:65|88
1616402672|00:d0:c9:f3:00:70|90
1616402687|28:f0:76:14:84:f2|85
1616402687|60:1d:91:92:b2:40|93
1616402687|00:d0:c9:f3:00:70|90
1616402687|ec:f3:42:23:05:65|88
1616402702|28:f0:76:14:84:f2|85
1616402717|00:d0:c9:f3:00:70|91
1616402732|00:d0:c9:f3:00:70|91
1616402747|00:02:36:f0:04:f6|89
1616402747|28:f0:76:14:84:f2|90
1616402747|00:d0:c9:f3:00:70|90
1616402747|24:46:c8:d3:91:c2|94
1616402762|d4:c9:4b:71:33:4e|91
1616402762|04:4e:af:b1:23:d8|91
1616402762|7c:b2:32:6f:8e:50|88
1616402762|00:02:36:f0:04:f6|89
1616402777|00:d0:c9:f3:00:70|90
1616402777|7c:b2:32:6f:8e:50|85
1616402777|d4:c9:4b:71:33:4e|91
1616402792|00:0c:e7:05:d0:32|86
1616402792|24:46:c8:d3:76:89|88
1616402807|ac:b5:7d:f3:13:ed|93
1616402807|28:f0:76:14:84:f2|88
1616402807|7c:b2:32:6f:8e:50|92
1616402807|24:46:c8:d2:e2:31|90
1616402807|00:d0:c9:f3:00:70|90
1616402822|7c:b2:32:6f:8e:50|87
1616402822|60:1d:91:92:b2:40|93
1616402822|ac:b5:7d:f3:13:ed|93
1616402837|00:d0:c9:f3:00:70|90
1616402837|7c:b2:32:6f:8e:50|87
1616402852|60:1d:91:92:b2:40|93
1616402852|00:d0:c9:f3:00:70|89
1616402867|28:f0:76:14:84:f2|85
1616402867|60:1d:91:92:b2:40|93
1616402882|28:f0:76:14:84:f2|85
1616402927|28:f0:76:14:84:f2|82
1616402927|a0:2c:33:26:ae:6d|88
1616402927|00:d0:c9:f3:00:70|90
1616402972|d4:c9:4b:6e:1a:b3|91
1616402972|00:d0:c9:f3:00:70|90
1616402987|00:02:36:f0:05:2e|87
1616402987|28:f0:76:14:84:f2|82
1616402987|00:d0:c9:f3:00:70|92
1616402987|d4:c9:4b:6e:1a:b3|91
1616403002|0c:70:4a:a3:7f:2a|86
1616403002|00:d0:c9:f3:00:70|91
1616403002|00:02:36:f0:05:2e|87
1616403017|7c:b2:32:6f:8e:50|91
1616403017|00:d0:c9:f3:00:70|93
1616403017|10:8e:e0:21:92:94|89
1616403017|0c:70:4a:a3:7f:2a|86
1616403032|7c:b2:32:6f:8e:50|87
1616403047|04:b4:29:e2:5d:23|69
1616403047|3c:57:6c:62:7a:1d|93
1616403047|7c:b2:32:6f:8e:50|87
1616403062|04:b4:29:e2:5d:23|69
1616403077|00:d0:c9:f3:00:70|91
1616403092|00:d0:c9:f3:00:70|90
1616403107|28:f0:76:14:84:f2|88
1616403107|04:d6:aa:ca:db:62|93
1616403122|28:f0:76:14:84:f2|88
1616403137|b0:e2:35:c1:0b:3d|63
1616403137|00:02:36:f0:05:07|89
1616403137|00:d0:c9:f3:00:70|89
1616403152|b0:e2:35:c1:0b:3d|66
1616403167|28:f0:76:14:84:f2|84
1616403167|00:d0:c9:f3:00:70|91
1616403182|60:1d:91:92:9f:c4|90
1616403182|28:f0:76:14:84:f2|84
1616403197|7c:b2:32:6f:8e:50|89
1616403197|00:d0:c9:f3:00:70|89
1616403212|00:d0:c9:f3:00:70|90
1616403212|7c:b2:32:6f:8e:50|86
1616403227|00:1e:64:fa:1a:22|92
1616403227|3c:57:6c:bf:ca:46|89
1616403227|00:d0:c9:f3:00:70|88
1616403227|98:49:14:cc:3a:20|86
1616403227|44:6e:e5:72:e3:55|93
1616403257|34:8b:75:2d:45:76|88
1616403257|3c:57:6c:bf:ca:46|90
1616403257|00:be:3b:df:5a:7e|93
1616403272|00:d0:c9:f3:00:70|90
1616403272|80:01:84:5e:10:82|92
1616403272|34:8b:75:2d:45:76|88
1616403287|28:f0:76:14:84:f2|88
1616403287|ac:af:b9:dd:90:9a|90
1616403287|00:d0:c9:f3:00:70|91
1616403302|2c:33:7a:85:23:5d|90
1616403302|28:f0:76:14:84:f2|88
1616403317|00:d0:c9:f3:00:70|89
1616403332|7c:b2:32:6f:8e:50|87
1616403332|d4:c9:4b:6f:9f:0e|88
1616403347|28:f0:76:14:84:f2|85
1616403347|7c:b2:32:6f:8e:50|87
1616403362|34:8b:75:68:52:22|88
1616403362|74:eb:80:59:9a:7c|92
1616403362|3c:57:6c:bf:ca:46|86
1616403362|28:f0:76:14:84:f2|85
1616403377|00:d0:c9:f3:00:70|90
1616403392|94:fb:29:61:b0:13|94
1616403392|80:01:84:5e:10:82|91
1616403392|7c:b2:32:6f:8e:50|86
1616403392|00:d0:c9:f3:00:70|90
1616403407|28:f0:76:14:84:f2|89
1616403407|3c:57:6c:bf:ca:46|89
1616403407|00:d0:c9:f3:00:70|91
1616403407|94:fb:29:61:b0:13|94
1616403422|34:8b:75:68:52:22|90
1616403422|ac:b5:7d:f3:13:ed|90
1616403422|28:f0:76:14:84:f2|89
1616403452|3c:57:6c:bf:ca:46|91
1616403452|00:d0:c9:f3:00:70|90
1616403467|28:f0:76:14:84:f2|86
1616403467|3c:57:6c:bf:ca:46|91
1616403482|d4:c9:4b:6f:f2:d2|89
1616403482|00:d0:c9:f3:00:70|92
1616403482|7c:b2:32:6f:8e:50|90
1616403482|28:f0:76:14:84:f2|86
1616403497|d4:c9:4b:6f:f2:d2|89
1616403512|7c:b2:32:6f:8e:50|89
1616403527|28:f0:76:14:84:f2|83
1616403527|00:d0:c9:f3:00:70|91
1616403542|9c:8d:7c:8a:9b:b8|92
1616403542|f0:6d:78:d6:93:23|91
1616403542|00:d0:c9:f3:00:70|89
1616403542|7c:b2:32:6f:8e:50|90
1616403557|00:d0:c9:f3:00:70|88
1616403557|9c:8d:7c:8a:9b:b8|92
1616403572|3c:57:6c:bf:ca:46|93
1616403572|60:f8:1d:b7:0a:86|92
1616403572|04:b4:29:e2:5d:23|70
1616403572|00:d0:c9:f3:00:70|89
1616403587|00:d0:c9:f3:00:70|88
1616403587|3c:57:6c:bf:ca:46|93
1616403602|00:d0:c9:f3:00:70|90
1616403602|7c:b2:32:6f:8e:50|86
1616403632|00:d0:c9:f3:00:70|90
1616403647|7c:b2:32:6f:8e:50|93
1616403662|00:d0:c9:f3:00:70|90
1616403692|00:08:22:7a:81:44|93
1616403707|7c:b2:32:6f:8e:50|89
1616403707|00:d0:c9:f3:00:70|89
1616403707|00:08:22:7a:81:44|93
1616403722|00:d0:c9:f3:00:70|91
1616403722|7c:b2:32:6f:8e:50|89
1616403737|60:1d:91:92:72:4e|91
1616403737|00:d0:c9:f3:00:70|91
1616403752|00:d0:c9:f3:00:70|90
1616403752|60:1d:91:92:72:4e|91
1616403767|00:d0:c9:f3:00:70|90
1616403782|28:f0:76:14:84:f2|89
1616403797|00:d0:c9:f3:00:70|88
1616403797|00:02:36:f0:03:e6|91
1616403812|1c:42:7d:8e:59:3f|92
1616403812|7c:b2:32:6f:8e:50|90
1616403827|7c:b2:32:6f:8e:50|85
1616403827|08:c5:e1:dc:5f:3f|93
1616403827|00:02:36:f0:03:e6|91
1616403827|1c:42:7d:8e:59:3f|92
1616403842|7c:b2:32:6f:8e:50|85
1616403857|00:d0:c9:f3:00:70|92
1616403857|00:0e:8e:8f:2f:5a|87
1616403857|60:1d:91:92:53:79|92
1616403872|00:d0:c9:f3:00:70|89
1616403887|00:d0:c9:f3:00:70|90
1616403887|7c:b2:32:6f:8e:50|89
1616403887|c0:d3:c0:c6:41:af|87
1616403902|d0:5f:b8:ae:0c:4c|91
1616403902|00:d0:c9:f3:00:70|88
1616403902|28:f0:76:14:84:f2|91
1616403932|d4:c9:4b:6e:3a:87|87
1616403932|00:d0:c9:f3:00:70|90
1616403947|3c:57:6c:59:7a:3d|92
1616403962|00:d0:c9:f3:00:70|90
1616403962|28:f0:76:14:84:f2|86
1616403977|00:d0:c9:f3:00:70|89
1616403992|00:d0:c9:f3:00:70|89
1616403992|c0:d3:c0:c6:41:af|92
1616404007|7c:b2:32:6f:8e:50|85
1616404007|00:d0:c9:f3:00:70|89
1616404007|c0:d3:c0:c6:41:af|93
1616404022|00:d0:c9:f3:00:70|91
1616404022|7c:b2:32:6f:8e:50|85
1616404037|7c:b2:32:6f:8e:50|92
1616404052|7c:b2:32:6f:8e:50|90
