1621934943|00:00:30:29:1c:b1|85
1622029560|00:01:2f:f4:ad:00|78
1621931214|00:0a:f5:49:a3:90|75
1622032202|00:0c:e7:00:23:77|71
1621838481|00:0c:e7:00:6c:76|73
1621927979|00:0c:e7:00:7a:f1|74
1621861835|00:0c:e7:00:8f:c2|74
1621936748|00:0c:e7:00:bd:b5|70
1622012699|00:0c:e7:00:bf:83|70
1621931362|00:0c:e7:01:37:33|81
1621946640|00:0c:e7:01:e2:41|71
1621933270|00:0c:e7:02:0b:50|73
1622030349|00:0c:e7:02:57:e5|70
1622016423|00:0c:e7:02:59:85|76
1621950510|00:0c:e7:02:8d:e5|74
1621931841|00:0c:e7:02:e9:8f|64
1621950389|00:0c:e7:03:27:ba|82
1622017217|00:0c:e7:03:db:4e|74
1621853294|00:0c:e7:04:05:b2|70
1622014468|00:0c:e7:04:92:2a|84
1622033392|00:0c:e7:04:bc:70|67
1622011842|00:0c:e7:04:d5:2e|72
1621927949|00:0c:e7:05:0a:d1|78
1621861713|00:0c:e7:05:2a:89|69
1621923952|00:0c:e7:05:62:1a|74
1621840648|00:0c:e7:05:83:2f|74
1621849040|00:0c:e7:05:c0:c3|63
1622011057|00:0c:e7:06:07:bd|65
1622030890|00:0c:e7:06:91:13|70
1622012224|00:0c:e7:06:c3:89|78
1621930244|00:0c:e7:07:47:7f|77
1621845865|00:0c:e7:07:9e:d4|72
1622034817|00:0c:e7:08:28:a9|68
1621930850|00:0c:e7:08:3a:e3|74
1621838589|00:0c:e7:08:43:7e|73
1621859798|00:0c:e7:08:a6:71|71
1621840949|00:0c:e7:09:87:36|79
1621864728|00:0c:e7:09:8b:ee|78
1622026669|00:0c:e7:0a:17:f2|78
1621858943|00:0c:e7:0a:22:2f|76
1621847591|00:0c:e7:0a:a0:5b|76
1622028634|00:0c:e7:0b:53:25|80
1621837556|00:0c:e7:0b:59:27|67
1621859843|00:0c:e7:0c:23:4d|76
1622018596|00:0c:e7:0c:23:84|71
1622021335|00:0c:e7:0c:a6:aa|69
1621848978|00:0c:e7:0d:6d:48|69
1621864054|00:0c:e7:0d:6e:48|72
1621944459|00:0c:e7:0d:81:95|73
1621841945|00:0c:e7:0d:fa:72|86
1621841729|00:0c:e7:0e:5e:61|72
1622028651|00:0c:e7:0e:de:d2|73
1621943468|00:0c:e7:0f:4c:3f|66
1621942863|00:0c:e7:10:a5:68|77
1621928717|00:0c:e7:11:d9:a3|72
1621859291|00:0c:e7:12:6c:7e|75
1621858115|00:0c:e7:12:94:00|70
1621946294|00:0c:e7:12:ef:3d|77
1621941570|00:0c:e7:12:f2:fb|68
1621841168|00:0c:e7:13:30:6f|87
1621937921|00:0c:e7:13:a8:c7|68
1621838598|00:0c:e7:13:f0:fa|80
1621938382|00:0c:e7:14:1c:55|67
1621843105|00:0c:e7:14:4b:05|75
1622021988|00:0c:e7:14:68:fb|79
1622027355|00:0c:e7:14:c6:73|74
1621944449|00:0c:e7:15:a0:b3|80
1621926986|00:0c:e7:15:ae:e2|66
1622022862|00:0c:e7:15:dc:a4|69
1622032819|00:0c:e7:16:21:5b|79
1622036534|00:0c:e7:16:8b:d3|91
1621931767|00:0c:e7:16:96:3e|69
1622030716|00:0c:e7:16:9b:34|72
1621925254|00:0c:e7:16:ed:34|76
1621842463|00:0c:e7:17:e8:a8|75
1621942475|00:0c:e7:18:18:10|65
1621836614|00:0c:e7:18:4f:d9|68
1621858620|00:0c:e7:18:da:6f|84
1622034742|00:0c:e7:19:3e:cc|72
1621838317|00:0c:e7:19:79:e5|72
1622015278|00:0c:e7:19:fb:b3|73
1621858959|00:0c:e7:1a:3a:fd|59
1621846770|00:0c:e7:1a:4d:94|68
1622035712|00:0c:e7:1a:5a:66|59
1622028606|00:0c:e7:1a:f7:2c|79
1621860030|00:0c:e7:1b:13:1d|66
1621946374|00:0c:e7:1b:ab:d6|81
1621930146|00:0c:e7:1d:12:6a|78
1622027319|00:0c:e7:1d:75:bf|74
1622024180|00:0c:e7:1e:2d:19|75
1622028220|00:0c:e7:1e:41:09|75
1621845755|00:0c:e7:1e:48:72|68
1621864038|00:0c:e7:1e:65:b5|70
1621925923|00:0c:e7:1e:6b:0b|70
1621941742|00:0c:e7:1e:88:b6|75
1621922653|00:0c:e7:1e:c7:9e|74
1621945617|00:0c:e7:1e:cd:92|72
1622028113|00:0c:e7:1e:f0:a4|77
1621928311|00:0c:e7:20:70:d3|74
1622015437|00:0c:e7:20:bf:95|64
1621929585|00:0c:e7:20:f0:d1|75
1622021153|00:0c:e7:21:76:0c|78
1621846242|00:0c:e7:22:63:94|66
1621930115|00:0c:e7:22:e4:34|74
1621937197|00:0c:e7:23:01:ba|64
1621945654|00:0c:e7:23:56:82|80
1622034788|00:0c:e7:23:5f:7d|66
1621924884|00:0c:e7:23:6a:a7|68
1621849049|00:0c:e7:23:ad:c5|62
1621935583|00:0c:e7:23:b1:95|78
1621937598|00:0c:e7:24:9e:54|66
1621946631|00:0c:e7:26:05:e7|72
1621850258|00:0c:e7:26:5e:eb|73
1621851848|00:0c:e7:26:7d:0d|63
1621861956|00:0c:e7:27:7f:b8|85
1621857232|00:0c:e7:27:b8:97|69
1621859443|00:0c:e7:27:c1:4f|74
1621935642|00:0c:e7:28:1e:7b|69
1621929659|00:0c:e7:28:48:68|73
1622028680|00:0c:e7:2a:50:8f|75
1621929501|00:0c:e7:2b:0f:a3|74
1622022496|00:0c:e7:2b:62:18|83
1621938566|00:0c:e7:2b:de:ce|72
1621843891|00:0c:e7:2b:ff:b9|74
1622022993|00:0c:e7:2c:0f:94|60
1621849075|00:0c:e7:2c:25:12|69
1621936363|00:0c:e7:2c:a5:81|72
1621931946|00:0c:e7:2c:bd:85|71
1621946792|00:0c:e7:2c:c2:7b|68
1621847423|00:0c:e7:2d:12:36|76
1621865091|00:0c:e7:2d:42:28|73
1621845303|00:0c:e7:2d:6e:a1|68
1622030021|00:0c:e7:2e:30:7c|73
1621937539|00:0c:e7:2e:3d:d7|72
1621855640|00:0c:e7:2e:f1:b9|69
1621937087|00:0c:e7:2f:9a:91|67
1621862493|00:0c:e7:2f:a5:08|70
1621924774|00:0c:e7:2f:bc:e2|74
1622015807|00:0c:e7:2f:c2:4c|69
1621927418|00:0c:e7:2f:fe:7f|69
1621839347|00:0c:e7:31:0e:67|68
1621845830|00:0c:e7:31:40:d2|69
1621849006|00:0c:e7:31:45:00|58
1622026369|00:0c:e7:31:56:76|72
1621843750|00:0c:e7:31:67:f2|82
1621930665|00:0c:e7:31:8a:09|74
1621859407|00:0c:e7:32:4b:38|75
1622024403|00:0c:e7:32:72:7d|71
1622032159|00:0c:e7:33:47:c5|73
1621930578|00:0c:e7:34:5b:7b|70
1622012347|00:0c:e7:34:72:3f|77
1621931059|00:0c:e7:35:1a:94|73
1621929449|00:0c:e7:35:30:03|73
1621860981|00:0c:e7:35:b4:23|80
1622016812|00:0c:e7:36:56:9a|84
1621944499|00:0c:e7:36:a8:df|72
1621853884|00:0c:e7:36:ca:83|66
1622021711|00:0c:e7:38:7c:b9|72
1622032167|00:0c:e7:38:fd:71|65
1621937028|00:0c:e7:39:10:1c|69
1622014792|00:0c:e7:39:52:b1|85
1621930649|00:0c:e7:39:a3:ac|70
1621942932|00:0c:e7:39:e3:13|74
1621933025|00:0c:e7:3b:32:fd|73
1622033388|00:0c:e7:3b:8a:f5|76
1621856113|00:0c:e7:3b:aa:fa|75
1621845640|00:0c:e7:3c:e8:22|86
1621931225|00:0c:e7:3c:fc:fe|79
1621948472|00:0c:e7:3d:1e:ac|67
1622028861|00:0c:e7:3d:95:f0|80
1622009050|00:0c:e7:3d:b1:40|77
1621927252|00:0c:e7:3e:13:a8|76
1621950403|00:0c:e7:3e:f3:3c|77
1621926479|00:0c:e7:3f:13:f2|62
1622036017|00:0c:e7:3f:34:37|92
1621853648|00:0c:e7:3f:57:7a|67
1621856773|00:0c:e7:3f:a1:08|68
1621923462|00:0c:e7:3f:db:2b|71
1621923364|00:0c:e7:41:c4:c4|75
1621855649|00:0c:e7:42:44:b3|63
1622034526|00:0c:e7:42:60:73|69
1621857724|00:0c:e7:42:93:9f|65
1621845634|00:0c:e7:42:e6:34|64
1621930439|00:0c:e7:42:f2:a0|68
1621926644|00:0c:e7:43:9e:4f|80
1621938618|00:0c:e7:43:fa:38|78
1621944877|00:0c:e7:43:fe:bc|84
1622034719|00:0c:e7:44:42:b6|65
1622011011|00:0c:e7:44:f7:ef|79
1621923595|00:0c:e7:45:ea:7e|82
1621859970|00:0c:e7:45:ed:a8|67
1622025690|00:0c:e7:47:70:0b|74
1622015397|00:0c:e7:47:81:ad|69
1621942692|00:0c:e7:47:e7:8a|71
1621930777|00:0c:e7:48:40:77|75
1621861163|00:0c:e7:48:53:45|51
1621942554|00:0c:e7:48:60:01|71
1622030187|00:0c:e7:48:64:58|69
1621858154|00:0c:e7:48:7a:ca|72
1622029838|00:0c:e7:48:96:34|64
1622021088|00:0c:e7:48:a3:ac|79
1622008957|00:0c:e7:48:a9:16|69
1621863611|00:0c:e7:48:e0:98|69
1621836542|00:0c:e7:48:e4:3e|66
1621931812|00:0c:e7:49:07:40|62
1622025367|00:0c:e7:49:1a:5f|68
1622012471|00:0c:e7:49:94:a5|86
1621927179|00:0c:e7:49:c7:55|73
1621849543|00:0c:e7:49:e2:01|71
1621938025|00:0c:e7:4a:8e:ba|70
1621927130|00:0c:e7:4b:41:3b|73
1621931871|00:0c:e7:4b:a9:a0|73
1621849018|00:0c:e7:4c:13:79|56
1621927298|00:0c:e7:4c:20:12|72
1621853975|00:0c:e7:4c:6c:e2|75
1621950361|00:0c:e7:4c:78:bd|73
1622015937|00:0c:e7:4c:c5:51|71
1622011242|00:0c:e7:4c:e6:11|77
1621850453|00:0c:e7:4d:20:6a|72
1622033665|00:0c:e7:4d:5a:51|84
1621848068|00:0c:e7:4d:64:82|71
1621849013|00:0c:e7:4d:ad:ea|56
1622021215|00:0c:e7:4d:cd:f3|80
1621944679|00:0c:e7:4e:2d:cf|76
1621926409|00:0c:e7:4e:cc:4e|69
1621845761|00:0c:e7:4f:03:30|78
1621923608|00:0c:e7:4f:40:37|72
1621932339|00:0c:e7:4f:b6:ca|69
1621859379|00:0c:e7:4f:cb:0a|81
1621924494|00:0c:e7:50:04:b2|75
1622010217|00:0c:e7:50:16:c2|79
1621932299|00:0c:e7:50:79:0a|83
1621862079|00:0c:e7:51:04:5e|68
1621946416|00:0c:e7:51:5d:44|70
1621931661|00:0c:e7:51:81:6a|68
1621849035|00:0c:e7:51:a5:df|56
1622027242|00:0c:e7:52:12:85|91
1621950238|00:0c:e7:52:cd:d9|73
1622026949|00:0c:e7:53:23:82|81
1622030472|00:0c:e7:53:46:a0|72
1621846824|00:0c:e7:54:63:ba|68
1622026330|00:0c:e7:54:7f:3e|73
1622014063|00:0c:e7:55:22:17|81
1622020073|00:0c:e7:55:51:44|72
1621929870|00:0c:e7:55:c3:7d|69
1621846120|00:0c:e7:55:d5:bb|64
1621854086|00:0c:e7:56:01:2f|71
1621947327|00:0c:e7:56:da:47|84
1622022555|00:0c:e7:56:e8:fa|69
1621947701|00:0c:e7:57:27:22|83
1622028782|00:0c:e7:57:48:8e|75
1621925097|00:0c:e7:57:7d:a7|75
1621845060|00:0c:e7:57:9f:a4|75
1621862371|00:0c:e7:58:13:30|67
1621948485|00:0c:e7:58:3d:f0|76
1621860252|00:0c:e7:58:7c:60|75
1621945279|00:0c:e7:59:10:0d|67
1622030862|00:0c:e7:59:3b:3b|74
1621854234|00:0c:e7:59:b0:1a|71
1621923176|00:0c:e7:59:b4:ee|71
1621936714|00:0c:e7:5a:46:0b|69
1622024218|00:0c:e7:5a:c0:f7|65
1621931578|00:0c:e7:5a:fb:be|70
1621844037|00:0c:e7:5b:4d:79|64
1622026649|00:0c:e7:5c:98:39|69
1621860618|00:0c:e7:5c:b2:19|74
1622015049|00:0c:e7:5d:52:23|69
1621938480|00:0c:e7:5d:6c:92|69
1621933669|00:0c:e7:5d:75:c1|66
1622009639|00:0c:e7:5e:35:e6|75
1621946185|00:0c:e7:5e:86:c2|67
1622028965|00:0c:e7:5e:e0:d0|60
1621842215|00:0c:e7:5f:5d:aa|69
1621926063|00:0c:e7:5f:af:2f|71
1621844271|00:0c:e7:5f:b4:9d|70
1622015872|00:0c:e7:60:e9:b2|67
1621934619|00:0c:e7:61:27:fd|63
1622011182|00:0c:e7:61:5e:7a|62
1621848078|00:0c:e7:61:fc:ea|71
1621932514|00:0c:e7:62:4e:eb|71
1621928465|00:0c:e7:63:ed:25|76
1621944867|00:0c:e7:64:09:eb|72
1621935368|00:0c:e7:64:48:da|71
1621931856|00:0c:e7:64:9e:bd|66
1621846640|00:0c:e7:64:b6:7c|84
1622030545|00:0c:e7:64:cc:0a|77
1622032710|00:0c:e7:65:26:ac|86
1621845744|00:0c:e7:65:64:dc|74
1621858742|00:0c:e7:65:78:0c|77
1621863117|00:0c:e7:65:94:43|75
1621923600|00:0c:e7:66:65:e7|75
1621855546|00:0c:e7:67:26:72|72
1621839590|00:0c:e7:67:38:ea|74
1621931735|00:0c:e7:67:a5:82|63
1621853573|00:0c:e7:67:af:cd|80
1622032809|00:0c:e7:68:19:f1|71
1621836031|00:0c:e7:68:6f:96|68
1621854939|00:0c:e7:68:9c:0c|72
1621935469|00:0c:e7:68:a8:70|70
1621934582|00:0c:e7:68:cd:e9|72
1621859219|00:0c:e7:69:58:9a|57
1622031836|00:0c:e7:69:e7:df|81
1621859635|00:0c:e7:6a:6d:1a|65
1622021683|00:0c:e7:6a:86:30|72
1621935981|00:0c:e7:6a:ba:6f|71
1621860558|00:0c:e7:6b:95:e6|75
1621854517|00:0c:e7:6c:05:79|75
1621843370|00:0c:e7:6c:3a:ae|83
1621843807|00:0c:e7:6c:61:58|80
1622028671|00:0c:e7:6d:bd:53|77
1621838512|00:0c:e7:6d:e6:dd|76
1621944986|00:0c:e7:6e:84:d4|72
1621943684|00:0c:e7:6e:b4:8c|76
1621864122|00:0c:e7:6e:dd:7c|73
1621849217|00:0c:e7:6f:8a:82|74
1621846762|00:0c:e7:6f:cb:68|68
1621945361|00:0c:e7:70:1b:2b|68
1621943820|00:0c:e7:70:53:8e|81
1621849531|00:0c:e7:71:25:4f|80
1621946391|00:0c:e7:71:87:5f|75
1621858885|00:0c:e7:71:be:99|66
1622034687|00:0c:e7:72:86:ed|75
1621923257|00:0c:e7:73:06:60|70
1621853679|00:0c:e7:73:6f:9f|81
1621924059|00:0c:e7:74:83:2f|75
1622032764|00:0c:e7:75:2a:97|76
1622022705|00:0c:e7:75:36:99|71
1621839673|00:0c:e7:75:d3:b8|71
1621948424|00:0c:e7:76:7d:a2|69
1621847586|00:0c:e7:76:cb:0b|71
1622017929|00:0c:e7:76:d9:d4|66
1621950237|00:0c:e7:77:a1:5e|75
1622033396|00:0c:e7:78:35:12|67
1622016800|00:0c:e7:78:52:81|71
1621863240|00:0c:e7:78:7a:d0|80
1621946907|00:0c:e7:79:60:06|77
1621858951|00:0c:e7:79:6f:d1|72
1622021469|00:0c:e7:79:86:1f|72
1621858870|00:0c:e7:7b:8b:48|75
1621848088|00:0c:e7:7b:c7:b0|75
1622022686|00:0c:e7:7b:fb:3f|78
1621936840|00:0c:e7:7c:88:9a|83
1621863624|00:0c:e7:7d:bd:77|69
1622021059|00:0c:e7:7d:f4:06|70
1622034768|00:0c:e7:7e:40:cf|68
1621938557|00:0c:e7:7e:51:fa|75
1622010863|00:0c:e7:7e:99:18|65
1621843696|00:0c:e7:7e:bc:43|76
1621928871|00:0c:e7:7f:0d:3a|71
1621942377|00:0c:e7:7f:44:ad|74
1622022750|00:0c:e7:7f:bc:3d|75
1622026177|00:0c:e7:80:25:38|78
1622027347|00:0c:e7:80:53:d5|75
1621925501|00:0c:e7:80:84:33|64
1621922920|00:0c:e7:80:ab:03|75
1622029192|00:0c:e7:81:33:ba|75
1621847702|00:0c:e7:81:4a:6a|74
1622022372|00:0c:e7:81:c9:b9|74
1621944864|00:0c:e7:82:58:55|71
1621849054|00:0c:e7:82:89:67|69
1622016238|00:0c:e7:83:18:49|74
1621923500|00:0c:e7:83:77:f8|68
1621861345|00:0c:e7:83:85:e8|67
1621945983|00:0c:e7:84:5f:cd|70
1621945489|00:0c:e7:84:bc:4f|73
1621849682|00:0c:e7:85:1a:76|75
1622018689|00:0c:e7:86:3e:af|74
1621858126|00:0c:e7:86:51:9f|63
1622021761|00:0c:e7:86:59:2a|74
1621930122|00:0c:e7:86:b2:c1|73
1621924068|00:0c:e7:87:07:9b|74
1621851722|00:0c:e7:87:fd:12|86
1622029228|00:0c:e7:88:06:63|71
1621925537|00:0c:e7:88:1c:9a|76
1622024443|00:0c:e7:88:39:44|65
1621857878|00:0c:e7:88:4d:51|69
1622027560|00:0c:e7:88:92:4a|75
1621849199|00:0c:e7:89:33:44|70
1621930442|00:0c:e7:89:af:76|77
1621847714|00:0c:e7:89:ec:3c|73
1621855525|00:0c:e7:8b:12:47|74
1621935012|00:0c:e7:8b:79:05|70
1621937901|00:0c:e7:8b:ab:c6|66
1621924832|00:0c:e7:8c:0b:c8|73
1621858893|00:0c:e7:8c:f1:4d|67
1621863431|00:0c:e7:8d:0e:9a|73
1621860739|00:0c:e7:8d:5d:c9|72
1621922615|00:0c:e7:8e:44:c5|70
1621857110|00:0c:e7:8e:ed:5b|81
1621945117|00:0c:e7:8f:16:e8|74
1622034727|00:0c:e7:8f:2d:9b|71
1622018362|00:0c:e7:8f:31:2c|80
1621944084|00:0c:e7:8f:e3:6e|67
1621932217|00:0c:e7:90:3e:c2|74
1621849008|00:0c:e7:90:4e:87|52
1621860539|00:0c:e7:90:71:65|70
1621946422|00:0c:e7:90:94:d0|76
1621949962|00:0c:e7:90:b7:cd|72
1621942503|00:0c:e7:91:2b:d8|72
1621948220|00:0c:e7:91:6f:1a|66
1621944761|00:0c:e7:92:34:f4|61
1621846385|00:0c:e7:92:40:c1|78
1621931174|00:0c:e7:93:03:3d|78
1621858281|00:0c:e7:93:67:e3|70
1621932167|00:0c:e7:93:b2:d8|76
1621945258|00:0c:e7:94:09:ca|70
1622024216|00:0c:e7:94:6b:14|78
1621941252|00:0c:e7:94:74:b5|72
1621938150|00:0c:e7:94:e7:bc|65
1621859002|00:0c:e7:95:30:f8|73
1621934643|00:0c:e7:96:3b:3a|67
1622014191|00:0c:e7:96:53:5d|73
1621923722|00:0c:e7:96:d1:b2|75
1621930130|00:0c:e7:96:e4:aa|74
1621934623|00:0c:e7:97:08:95|65
1621924025|00:0c:e7:97:21:6b|78
1621849195|00:0c:e7:97:28:17|78
1621926358|00:0c:e7:97:46:ec|72
1621864046|00:0c:e7:97:7f:87|72
1621934341|00:0c:e7:97:fa:8a|68
1621836955|00:0c:e7:98:4d:07|82
1621840977|00:0c:e7:98:a5:58|74
1622028999|00:0c:e7:99:80:b7|69
1621929043|00:0c:e7:99:b5:90|70
1621861640|00:0c:e7:9a:19:65|76
1621936893|00:0c:e7:9a:bf:54|70
1621858572|00:0c:e7:9a:cc:ad|65
1621844114|00:0c:e7:9a:da:59|74
1621857873|00:0c:e7:9a:e5:74|73
1622016590|00:0c:e7:9b:1b:b6|72
1621836620|00:0c:e7:9b:3c:9d|79
1622021473|00:0c:e7:9b:99:5f|81
1622030489|00:0c:e7:9c:2f:3c|71
1621845113|00:0c:e7:9c:8b:92|87
1621838360|00:0c:e7:9d:54:b7|73
1621848570|00:0c:e7:9d:f1:a5|73
1621944156|00:0c:e7:9d:f1:c6|70
1621861441|00:0c:e7:9e:5b:6e|77
1621942373|00:0c:e7:9e:6d:c5|90
1622028541|00:0c:e7:9e:79:7a|73
1621945961|00:0c:e7:9e:98:35|79
1622027070|00:0c:e7:9f:34:f1|82
1621937567|00:0c:e7:9f:ba:62|61
1621947084|00:0c:e7:a0:16:10|83
1621927618|00:0c:e7:a0:45:9c|81
1622025627|00:0c:e7:a0:bd:fc|74
1621928192|00:0c:e7:a1:10:57|73
1622022680|00:0c:e7:a2:19:9f|71
1621933006|00:0c:e7:a2:8a:13|75
1621928747|00:0c:e7:a2:c0:cc|70
1621843399|00:0c:e7:a3:4a:a6|70
1621927539|00:0c:e7:a3:51:8a|69
1621862079|00:0c:e7:a4:01:e5|74
1621867787|00:0c:e7:a4:23:79|81
1621928000|00:0c:e7:a4:83:37|74
1621848180|00:0c:e7:a5:1b:cf|72
1621927105|00:0c:e7:a5:60:6a|76
1621932624|00:0c:e7:a5:8a:c0|73
1621925031|00:0c:e7:a6:8e:6f|72
1621854785|00:0c:e7:a6:d9:c5|75
1621924923|00:0c:e7:a6:f8:b5|76
1621847115|00:0c:e7:a7:af:bb|81
1622015664|00:0c:e7:a8:a5:90|69
1621859686|00:0c:e7:a8:cd:6c|71
1621836642|00:0c:e7:a8:e9:61|74
1621946387|00:0c:e7:aa:1b:15|70
1621943020|00:0c:e7:aa:5d:54|66
1621858846|00:0c:e7:ab:14:6d|67
1621853184|00:0c:e7:ab:44:e4|80
1621860070|00:0c:e7:ab:dd:0f|67
1622017951|00:0c:e7:ac:05:fa|70
1622028585|00:0c:e7:ac:08:0d|77
1621934838|00:0c:e7:ac:55:15|55
1621863445|00:0c:e7:ad:b7:81|74
1621856991|00:0c:e7:ad:d9:f1|63
1621842506|00:0c:e7:ad:fe:08|63
1622026626|00:0c:e7:ae:a8:69|71
1621855147|00:0c:e7:af:1a:03|62
1622021519|00:0c:e7:af:59:74|73
1622019066|00:0c:e7:b0:6f:8c|76
1621842099|00:0c:e7:b0:a6:d9|70
1621842164|00:0c:e7:b0:f4:a2|74
1621948461|00:0c:e7:b1:a3:7b|67
1621836943|00:0c:e7:b1:e6:c8|72
1621848057|00:0c:e7:b2:24:a5|66
1621849243|00:0c:e7:b5:44:a3|78
1622020918|00:0c:e7:b5:4f:9c|68
1621859479|00:0c:e7:b5:78:69|73
1621945244|00:0c:e7:b5:c0:f8|68
1621844744|00:0c:e7:b6:a4:e9|72
1621846448|00:0c:e7:b7:17:8a|74
1621943424|00:0c:e7:b7:c2:86|84
1621842157|00:0c:e7:b7:ee:11|75
1621948381|00:0c:e7:b8:f6:8e|67
1621941816|00:0c:e7:b9:1b:80|71
1622022105|00:0c:e7:b9:64:f3|84
1621942758|00:0c:e7:b9:65:fd|68
1621860325|00:0c:e7:b9:67:78|76
1621852833|00:0c:e7:b9:6f:39|80
1621929591|00:0c:e7:ba:3d:ca|76
1621854786|00:0c:e7:ba:e5:14|75
1621930675|00:0c:e7:bb:07:1d|69
1622018538|00:0c:e7:bb:34:0e|56
1621843848|00:0c:e7:bb:e3:11|74
1621936776|00:0c:e7:bb:e4:9e|70
1621948816|00:0c:e7:bc:9e:fc|69
1621925943|00:0c:e7:bc:b1:0e|71
1621924402|00:0c:e7:bd:16:2c|74
1621837254|00:0c:e7:bd:89:ea|67
1622021640|00:0c:e7:bd:d3:1e|84
1621836919|00:0c:e7:be:37:5d|76
1621848423|00:0c:e7:be:7f:18|68
1621861086|00:0c:e7:be:88:7d|70
1621859253|00:0c:e7:bf:3c:f4|68
1621936383|00:0c:e7:bf:b7:30|74
1621924711|00:0c:e7:c0:14:bc|74
1622024220|00:0c:e7:c0:44:90|69
1621930438|00:0c:e7:c0:4d:de|74
1621931926|00:0c:e7:c0:52:8f|66
1622023974|00:0c:e7:c0:52:bd|66
1621865097|00:0c:e7:c0:73:57|76
1621923249|00:0c:e7:c0:a7:57|72
1621839056|00:0c:e7:c1:14:76|75
1621838229|00:0c:e7:c1:1a:a2|79
1621848721|00:0c:e7:c1:b5:65|72
1621922645|00:0c:e7:c2:0e:4f|73
1621923590|00:0c:e7:c2:1d:0c|83
1621862684|00:0c:e7:c2:ab:1e|69
1621844581|00:0c:e7:c2:f6:c5|65
1621860293|00:0c:e7:c3:78:12|59
1622028415|00:0c:e7:c3:b3:62|73
1622012233|00:0c:e7:c3:f8:0f|82
1621839233|00:0c:e7:c4:02:12|70
1621950206|00:0c:e7:c4:bb:a4|71
1621941553|00:0c:e7:c6:09:59|76
1621861787|00:0c:e7:c6:4a:85|94
1621861450|00:0c:e7:c6:6c:d9|91
1621949951|00:0c:e7:c6:e1:b9|74
1621854655|00:0c:e7:c7:5b:67|85
1621854280|00:0c:e7:c9:0e:9f|72
1621862250|00:0c:e7:c9:1a:05|72
1622027661|00:0c:e7:c9:91:81|69
1621922930|00:0c:e7:c9:a2:91|70
1621931071|00:0c:e7:c9:bf:27|76
1622026781|00:0c:e7:ca:7c:4c|73
1621948648|00:0c:e7:ca:88:7a|71
1622014684|00:0c:e7:ca:ab:bd|75
1621836023|00:0c:e7:cb:27:37|71
1621928479|00:0c:e7:cb:56:05|72
1622034721|00:0c:e7:cb:aa:76|68
1621842016|00:0c:e7:cc:0b:6f|75
1621864607|00:0c:e7:cc:9d:88|76
1621841345|00:0c:e7:cc:a7:6c|72
1621946637|00:0c:e7:cd:6e:53|70
1622010016|00:0c:e7:cd:ca:50|74
1622028406|00:0c:e7:ce:c0:93|68
1621864103|00:0c:e7:cf:31:27|73
1621858964|00:0c:e7:cf:5b:a2|67
1621949328|00:0c:e7:cf:6b:23|74
1622019655|00:0c:e7:cf:c8:d9|57
1621946471|00:0c:e7:d0:23:d3|69
1621842222|00:0c:e7:d0:d9:25|71
1621934684|00:0c:e7:d1:3b:73|62
1621845512|00:0c:e7:d1:74:61|78
1621860232|00:0c:e7:d1:88:63|78
1621847835|00:0c:e7:d2:3b:32|80
1621935112|00:0c:e7:d2:9c:02|76
1621836976|00:0c:e7:d4:17:74|74
1621930146|00:0c:e7:d4:b8:56|73
1621930366|00:0c:e7:d5:0d:11|69
1622035714|00:0c:e7:d5:1e:4d|64
1622008856|00:0c:e7:d5:65:b4|66
1622025155|00:0c:e7:d5:d2:64|75
1621837572|00:0c:e7:d6:6e:26|67
1621853124|00:0c:e7:d7:06:d8|78
1621849231|00:0c:e7:d7:07:af|82
1621928122|00:0c:e7:d7:ac:75|81
1621925097|00:0c:e7:d7:df:9c|74
1621942193|00:0c:e7:d8:bf:e5|58
1621860543|00:0c:e7:da:63:c9|72
1622018386|00:0c:e7:da:6b:5b|73
1621926908|00:0c:e7:da:a4:7b|69
1621845648|00:0c:e7:db:8a:ab|81
1622018282|00:0c:e7:db:d7:63|91
1621854912|00:0c:e7:dc:2e:aa|83
1621859813|00:0c:e7:dc:97:53|70
1621933591|00:0c:e7:dd:0e:42|69
1622017847|00:0c:e7:dd:89:74|72
1621928019|00:0c:e7:dd:a6:f0|68
1622015041|00:0c:e7:dd:ef:aa|66
1621860104|00:0c:e7:de:3d:b4|73
1621928844|00:0c:e7:de:bf:1e|68
1621836546|00:0c:e7:df:2d:06|65
1622022831|00:0c:e7:df:c0:97|74
1621836816|00:0c:e7:df:f4:2f|76
1621863483|00:0c:e7:e0:15:30|81
1621938988|00:0c:e7:e0:80:3f|71
1622009375|00:0c:e7:e0:f7:8b|71
1622022024|00:0c:e7:e1:7a:d2|85
1621950210|00:0c:e7:e2:35:3a|72
1621846354|00:0c:e7:e2:b1:b5|85
1621944883|00:0c:e7:e2:df:18|75
1621931964|00:0c:e7:e2:fc:3e|77
1621837788|00:0c:e7:e3:0f:63|77
1622021627|00:0c:e7:e3:cf:f8|69
1621946712|00:0c:e7:e4:44:75|61
1621838029|00:0c:e7:e4:79:98|72
1621927114|00:0c:e7:e5:7a:e7|73
1621937609|00:0c:e7:e5:8f:e9|66
1621854217|00:0c:e7:e5:ca:8e|76
1621862896|00:0c:e7:e6:1e:fe|68
1621863510|00:0c:e7:e6:8a:41|72
1621941637|00:0c:e7:e7:61:ef|69
1621840969|00:0c:e7:e7:da:6b|77
1621857066|00:0c:e7:e8:5a:39|73
1621938390|00:0c:e7:e8:5f:44|63
1621839226|00:0c:e7:e8:bd:ab|71
1621927008|00:0c:e7:e8:c7:3e|72
1621837384|00:0c:e7:e9:88:71|64
1621925821|00:0c:e7:e9:99:b6|77
1621938005|00:0c:e7:e9:c4:d4|78
1621865088|00:0c:e7:e9:fb:73|66
1621932812|00:0c:e7:ec:b2:9e|69
1621945253|00:0c:e7:ed:9b:24|67
1622025488|00:0c:e7:ee:37:0a|68
1622034748|00:0c:e7:ee:40:42|68
1622010293|00:0c:e7:ef:41:0c|88
1621851371|00:0c:e7:ef:d5:11|70
1622024086|00:0c:e7:f0:1e:54|75
1621942350|00:0c:e7:f0:3b:fe|78
1621924226|00:0c:e7:f0:79:96|76
1621837631|00:0c:e7:f0:92:1f|63
1621941576|00:0c:e7:f2:75:98|76
1621848729|00:0c:e7:f3:06:10|77
1621930123|00:0c:e7:f3:5c:97|71
1621837825|00:0c:e7:f5:00:9a|70
1621928832|00:0c:e7:f5:a9:f5|84
1621858645|00:0c:e7:f5:c6:a4|65
1621848063|00:0c:e7:f5:e2:2c|66
1622017748|00:0c:e7:f6:09:ac|74
1621865024|00:0c:e7:f6:23:45|75
1621926818|00:0c:e7:f6:67:5c|77
1621853024|00:0c:e7:f6:9a:4c|76
1621858770|00:0c:e7:f7:dd:b3|64
1621843357|00:0c:e7:f8:67:f7|81
1621945266|00:0c:e7:f8:84:d2|74
1621841315|00:0c:e7:f8:9a:07|78
1621863552|00:0c:e7:f9:53:ce|79
1621852486|00:0c:e7:f9:6d:9f|84
1621862200|00:0c:e7:f9:7a:67|67
1621943638|00:0c:e7:fa:0d:14|75
1621847202|00:0c:e7:fb:a6:7a|65
1621851351|00:0c:e7:fb:ad:42|67
1622030537|00:0c:e7:fc:6e:ae|75
1621930114|00:0c:e7:fd:b3:df|70
1622012110|00:0c:e7:fd:b6:1b|61
1621855092|00:0c:e7:fe:1a:1d|71
1621937158|00:0c:e7:ff:cd:69|72
1622027979|00:1a:13:82:c2:15|92
1621863112|00:1a:13:82:c2:15|90
1621946093|00:1b:12:4b:fe:f2|70
1622030191|00:21:07:fd:02:94|67
1622023078|00:23:15:d1:c3:3d|74
1621860473|00:23:a7:48:a2:c8|73
1621944935|00:25:d3:8c:99:31|93
1621865547|00:25:d3:8c:99:31|94
1621927057|00:26:69:01:9e:90|89
1622012982|00:28:f8:2b:3a:45|65
1621923975|00:28:f8:2b:3a:45|68
1622012998|00:28:f8:2b:3a:46|65
1621923925|00:28:f8:2b:3a:46|62
1621933200|00:28:f8:71:23:48|75
1622010141|00:28:f8:a0:5f:cd|64
1621842707|00:34:fe:fe:9e:f2|64
1622026985|00:71:cc:62:e8:8b|84
1622008843|00:7c:2d:ed:47:c4|69
1621928799|00:7c:2d:ed:47:c4|62
1621926289|00:9a:cd:41:fa:ff|78
1621928607|00:9b:5d:fd:ac:92|84
1621924506|00:9d:6b:37:5f:0d|86
1621848831|00:ae:fa:56:cc:3c|84
1621922883|00:ae:fa:56:cc:3c|83
1621923233|00:b5:d0:43:ef:a1|84
1622023092|00:b5:d0:43:ef:a1|74
1621846448|00:b5:d0:43:ef:a1|85
1622020795|00:bb:60:b8:26:26|72
1621839772|00:bb:60:b8:26:26|74
1622008981|00:e1:8c:ba:cb:c9|86
1621922579|00:e1:8c:ba:cb:c9|88
1621836709|00:e1:8c:ba:cb:c9|87
1622009148|00:e1:8c:ba:cb:ca|86
1621854446|00:e1:8c:ba:cb:ca|85
1621838239|00:e1:8c:f2:db:1d|90
1621840373|00:ec:0a:4a:48:36|65
1621839478|01:02:6e:0b:3b:61|68
1621928079|01:36:92:bb:f5:ad|75
1621854843|01:4a:11:3e:43:89|76
1621926848|01:60:64:78:0c:11|74
1621856449|01:82:6d:57:a9:43|80
1621948490|01:c9:3a:91:34:a2|82
1621851561|01:ca:1e:c3:51:8a|68
1621948504|03:00:d3:ca:af:45|87
1621842322|03:31:7c:80:41:b3|82
1621854903|03:4a:3f:89:c1:30|78
1621859199|03:c8:f4:fb:6f:90|74
1621947538|04:28:1e:a7:e2:cd|92
1622025991|04:4a:6c:d3:02:e4|71
1621839437|04:7c:f4:20:a7:42|67
1621836646|04:b4:29:e2:5d:23|73
1622031897|04:b6:cb:e1:08:a2|81
1622018193|04:ba:8d:9d:e5:8b|86
1621937269|04:ba:8d:bd:77:f7|83
1621857060|04:c2:3e:97:7d:77|70
1622022980|04:d3:b0:8f:79:fb|65
1621938421|04:d3:b0:91:05:19|82
1621860519|04:d3:b0:91:05:19|81
1622018894|04:d6:aa:0e:68:12|79
1621841983|04:d6:aa:0f:30:00|79
1622024473|04:d6:aa:1f:68:71|85
1622015508|04:d6:aa:22:9d:01|80
1621856482|04:d6:aa:3b:68:ab|88
1621867846|04:d6:aa:41:21:f7|92
1622011856|04:d6:aa:53:53:0f|85
1622012536|04:d6:aa:57:50:a9|81
1621838724|04:d6:aa:68:2a:b1|68
1621932303|04:d6:aa:6e:b9:2d|89
1621840388|04:d6:aa:9b:fd:43|76
1622025207|04:d6:aa:ac:07:a9|79
1621856624|04:d6:aa:b2:ac:f8|86
1622022447|04:d6:aa:c0:da:d8|84
1621865300|04:d6:aa:e2:02:b3|90
1621926633|04:d6:aa:fa:aa:64|83
1621922979|04:e5:36:32:d3:38|71
1621845401|04:e5:36:32:d3:38|80
1622035175|04:e5:98:a8:f6:2f|84
1622008858|04:ed:33:b4:0c:99|70
1621840283|05:46:32:2a:03:de|74
1621927526|05:b0:9c:d4:3f:61|65
1621859596|05:fa:21:37:8b:f3|81
1622018568|07:27:3c:f9:12:5b|86
1621858901|07:3a:b1:5b:35:35|75
1622033745|07:73:b9:49:21:d0|73
1621839686|07:76:bf:3a:5a:68|72
1621948368|07:f2:1a:0b:9a:4e|73
1621848142|08:25:25:a4:c1:7e|90
1621948620|08:3f:78:26:fc:b5|75
1621838506|08:4a:ee:b8:d1:d6|67
1621858197|08:7f:98:90:11:b9|68
1621854503|08:9e:f1:14:42:bc|65
1622028970|08:a1:66:46:42:9f|66
1621949492|08:be:b4:67:d9:0e|75
1621838454|08:bf:a0:86:62:24|87
1621845338|08:bf:a0:86:b3:c8|82
1621863215|08:c5:e1:06:05:ab|91
1622032003|08:c5:e1:0b:3c:74|66
1621923728|08:c5:e1:0c:ff:06|77
1622025715|08:c5:e1:19:81:72|66
1621935575|08:c5:e1:25:31:82|66
1621843507|08:c5:e1:38:21:27|77
1621946611|08:c5:e1:45:b7:54|80
1621868210|08:c5:e1:71:bd:b1|89
1622028759|08:c5:e1:90:81:e1|75
1621849436|08:c5:e1:b2:ea:71|86
1621932988|08:c5:e1:b3:d4:86|71
1621925574|08:c5:e1:ee:9d:ac|79
1621923055|08:c5:e1:f5:a9:e4|67
1621837669|08:ce:9e:f9:d9:9f|75
1621838200|08:e7:ee:c9:6f:cc|75
1622014967|08:f6:9c:1e:79:d1|75
1621842194|09:6c:af:b7:8d:2c|75
1621853917|09:84:52:ea:63:1d|70
1621845905|09:8d:ce:ca:41:42|72
1622030628|09:a2:ed:34:62:cd|83
1621927960|0b:67:f0:7e:00:2f|65
1621950424|0b:7e:39:f8:ab:aa|69
1621846094|0b:ae:da:79:ad:c7|78
1621854017|0c:18:97:04:5e:4a|77
1621840964|0c:21:51:a9:e4:d0|76
1621860201|0c:59:73:71:0f:89|75
1621842416|0c:70:4a:db:bf:d9|76
1621853951|0c:75:01:72:09:56|62
1622012026|0c:7a:15:8e:46:44|74
1621934292|0c:7a:15:8e:46:44|76
1621927499|0c:7e:26:9e:19:1e|68
1621924525|0c:8c:24:bf:0f:65|69
1622030025|0c:8c:24:bf:12:72|55
1621862385|0c:8f:ff:17:4a:75|83
1621927874|0c:96:e6:76:6e:eb|86
1622009925|0c:96:e6:76:6f:a7|88
1621942311|0c:96:e6:76:6f:a7|84
1621849516|0c:a8:90:09:a6:d0|71
1621927683|0c:e4:6d:51:8f:dc|74
1621945533|0c:f3:46:ce:ad:6b|72
1622033128|0c:f3:46:f6:ca:79|86
1621842802|0c:f3:db:65:9e:79|71
1621842309|0d:03:ad:2c:a3:c3|74
1621851084|0d:04:ba:e6:6d:94|67
1621928675|0d:42:e4:a6:db:17|72
1621940100|0d:4a:b7:47:c4:db|72
1621846315|0d:53:82:a6:82:39|80
1621850769|0d:55:b2:18:17:92|83
1621925388|0d:5a:d9:5b:03:ff|64
1621926125|0d:81:9d:10:b8:56|72
1621837779|0f:27:69:a5:39:3c|70
1621855524|0f:52:3b:7c:ae:d4|81
1621849909|0f:53:d2:4e:85:d5|65
1622017227|10:02:b5:46:93:5d|73
1622009882|10:02:b5:50:2c:65|74
1622014367|10:02:b5:50:2c:66|78
1622021887|10:28:d5:a3:bc:0e|70
1621838038|10:2e:57:d0:6d:ce|73
1621856685|10:3a:1c:57:2f:26|71
1621859427|10:44:00:39:7b:c9|74
1621940185|10:44:00:db:24:32|70
1621923603|10:63:c8:31:5c:ab|84
1621925290|10:87:06:ba:9b:cb|67
1622029530|10:8a:b6:97:54:4f|69
1621862394|10:8e:e0:67:f5:f0|80
1622037191|10:bc:97:b6:c7:cd|80
1621864236|10:bc:97:b6:c7:cd|78
1621946314|10:e9:53:54:47:62|78
1622013515|10:e9:53:54:47:62|65
1621845316|10:e9:53:54:47:62|78
1622031589|11:76:7f:22:28:3a|65
1622029702|11:8f:66:b8:79:c9|74
1621850017|11:96:73:a9:c1:5a|69
1621855319|11:9a:9a:8b:d9:7e|79
1621861615|11:cb:a2:21:7a:1a|84
1621849919|13:54:23:ed:64:67|71
1621942866|13:88:c2:3e:72:2a|72
1621840329|13:8c:77:f3:a8:8d|70
1621949522|13:d6:fc:ae:66:3d|65
1621926937|14:0b:1c:a6:5e:62|89
1621931414|14:1f:78:e1:97:31|79
1622017149|14:20:5e:e9:17:7a|71
1621924812|14:32:d1:72:61:5f|74
1621927159|14:4f:8a:c2:9b:92|89
1621854330|14:4f:8a:c2:9b:92|88
1621847233|14:56:8e:60:01:14|88
1621942120|14:56:8e:76:31:29|81
1621954725|14:56:8e:77:c8:f1|88
1621927104|14:7d:da:42:8b:32|81
1621848711|14:7d:da:42:8b:32|81
1621849948|14:85:9d:af:d5:e9|73
1621928991|14:9d:09:ec:e3:91|79
1621948180|14:9f:3c:bd:42:71|88
1621928455|14:a5:1a:df:ea:83|56
1621928926|14:ab:c5:3c:8d:fe|81
1621857118|14:ab:c5:e0:f6:55|67
1621931692|14:bf:fd:0b:0d:a1|81
1621938729|14:e3:62:4f:b9:8c|69
1621948348|15:4d:fc:a5:92:c9|79
1621949237|15:66:68:6c:da:c3|77
1621944819|15:6e:dc:ff:56:e8|86
1621862490|15:85:a9:ee:94:33|79
1621945985|15:b8:70:9a:c2:67|75
1621841686|15:ef:35:cd:65:23|75
1621928653|17:3f:9e:57:5c:96|68
1621841983|17:51:d3:75:c6:7c|73
1621940295|17:6f:0d:79:94:06|79
1621926354|17:aa:bc:e4:ad:4c|65
1621929601|17:ab:49:54:71:d1|82
1621855519|17:d8:8e:ab:9a:d2|84
1621947464|17:fd:c3:fd:56:21|81
1622029102|18:20:5f:dd:cf:71|84
1622012678|18:3e:ef:c0:6f:98|76
1621856960|18:3e:ef:c0:6f:98|72
1621935872|18:47:3d:e4:91:f7|84
1622012151|18:47:3d:e4:91:f7|83
1621857491|18:47:3d:e4:91:f7|83
1621840654|18:49:85:52:4c:c8|74
1622026346|18:56:80:35:8b:ad|80
1621856388|18:56:80:35:8b:ad|82
1621940545|18:56:80:35:8b:ad|83
1621847661|18:56:80:35:8c:98|84
1622017440|18:56:80:35:8d:fb|84
1621850468|18:56:80:6e:ca:03|68
1621838564|18:57:f8:08:27:c2|88
1621954278|18:70:3b:c9:10:33|92
1621861250|18:c2:8b:25:58:b5|73
1621851732|18:cc:18:9b:9e:2a|81
1621940898|18:cc:18:9b:9e:2b|66
1621851900|18:cc:18:9b:9e:2b|80
1622024745|18:cc:18:b8:8d:8c|85
1621923514|18:df:b1:1a:c6:29|71
1622027188|18:f6:43:1c:6b:4b|74
1621838465|19:56:a0:96:f4:e3|80
1621949911|19:ef:76:07:dc:51|85
1621946113|1b:17:db:d6:a6:79|67
1621841789|1b:1b:e4:e6:f9:e7|82
1621852189|1b:ad:df:38:34:ef|67
1622022979|1c:13:86:03:3c:be|75
1622029489|1c:1a:c0:21:43:e9|79
1621944476|1c:1a:c0:21:43:e9|74
1621837757|1c:1f:7a:04:9b:a4|77
1621927669|1c:23:2c:11:d1:07|76
1621842420|1c:23:e2:6d:71:3a|61
1622020342|1c:42:7d:90:43:fb|76
1621848854|1c:4d:70:23:62:6b|84
1621944277|1c:4d:70:23:62:6b|87
1621949676|1c:5d:1a:a8:fb:0c|84
1621858226|1c:67:58:4a:ec:ad|78
1621928058|1c:7b:e7:e4:61:a4|75
1621952749|1c:b7:96:f7:c1:2b|76
1621948633|1c:c7:ab:bc:f5:81|85
1622031950|1c:ca:80:6c:d1:a5|84
1622037089|1c:cc:d6:2a:fa:04|87
1622022986|1c:cc:d6:fa:18:ff|71
1621929123|1d:04:1c:9e:3d:ad|66
1621943910|1d:21:85:52:ab:57|82
1621923387|1d:64:f8:a4:3a:df|81
1621854285|1d:bd:f0:92:18:25|68
1621842032|20:12:d2:85:85:e3|72
1622019574|20:15:79:8b:35:01|67
1621853895|20:79:18:30:2d:75|81
1621852609|20:79:18:30:2d:76|79
1621849784|20:79:18:7f:09:90|86
1621836899|20:79:18:93:a3:2d|68
1621927287|20:79:18:fb:4f:9b|74
1621849905|20:80:bc:86:3d:96|73
1621838072|20:86:64:2f:5a:16|70
1621853328|20:a1:c3:51:c3:02|65
1621866260|20:a6:0c:30:2f:19|64
1621840971|20:b9:e8:ca:88:d7|74
1622034551|20:f2:ab:0e:2f:0f|71
1621841909|21:3e:70:bf:0b:ef|86
1621950109|21:79:aa:82:ba:ef|72
1621850638|21:a7:77:7c:f1:5c|65
1621839578|23:8f:c6:80:6d:a1|80
1622026331|24:18:1d:03:68:e4|74
1622024537|24:18:1d:09:da:56|63
1622018540|24:18:1d:0a:05:13|74
1622023189|24:18:1d:17:3e:65|76
1621930820|24:18:1d:1d:c0:95|80
1622023618|24:18:1d:1e:70:bd|89
1622037220|24:18:1d:37:6e:b5|84
1621922577|24:18:1d:8c:86:db|80
1622018930|24:18:1d:8c:86:db|92
1621851684|24:18:1d:8c:86:db|78
1621942769|24:18:1d:92:2c:71|71
1622013021|24:18:1d:aa:40:de|67
1621837007|24:18:1d:aa:40:de|88
1622012089|24:18:1d:fc:01:80|68
1621854494|24:4a:e5:aa:1f:83|65
1621925202|24:77:03:25:42:f4|84
1621851081|24:a3:e0:2c:ea:82|72
1621953905|24:db:ed:f6:7d:f2|90
1621865095|24:db:ed:f6:7d:f2|91
1621948775|24:dd:97:f2:28:9c|69
1622022815|24:e3:14:49:87:16|76
1621854255|24:ee:27:cd:97:53|63
1621949763|24:ee:9a:06:ae:05|83
1622015299|24:ee:9a:06:ae:05|91
1621848519|24:ee:9a:06:ae:05|90
1622022630|24:ee:9a:06:ae:06|89
1622027414|24:ee:9a:3a:90:ad|85
1621837147|24:ee:9a:53:b0:1a|75
1621943831|24:ee:9a:65:e8:5c|80
1622016274|24:ee:9a:7a:a1:66|92
1622037227|24:fb:65:0e:93:d3|88
1621837554|25:2c:b8:ae:95:9a|85
1621851106|25:3a:1d:d5:19:5c|65
1621854598|25:7f:3e:a1:9f:9d|73
1621855313|25:af:51:6c:57:93|74
1621923338|27:06:c7:60:a6:14|81
1621851047|27:0b:71:c1:57:34|67
1621849877|27:86:ae:75:a0:20|74
1621850624|27:d2:1d:98:d7:d0|69
1621861217|27:f4:b7:35:03:d8|79
1621936410|28:16:a8:71:f7:46|86
1622034574|28:24:ff:35:7f:1f|93
1621938969|28:24:ff:35:7f:1f|90
1621861967|28:24:ff:35:7f:1f|94
1621949544|28:2b:cf:ce:83:87|74
1621843775|28:39:5e:d7:66:99|91
1621841483|28:5d:1f:27:30:79|73
1621838690|28:7f:cf:de:a4:d1|65
1622020313|28:7f:cf:de:a4:d2|72
1621927953|28:a5:7b:dd:27:96|64
1621944019|28:c6:3f:04:e3:0e|78
1622034752|28:c6:3f:c7:d3:46|81
1621922619|28:f3:66:a8:b9:9a|85
1622029134|28:f9:fe:b8:3d:86|56
1621843360|28:fb:d3:fa:8e:7f|88
1621855589|28:fb:d3:fa:8e:a1|91
1621836925|28:fb:d3:fa:8e:c1|82
1621930229|29:01:05:6b:3c:8f|84
1621837460|29:26:69:c7:37:0a|81
1621853051|29:ae:68:89:e6:53|73
1621863954|2b:66:c9:ef:8a:e6|60
1621947772|2b:bb:c2:26:06:7c|91
1621946141|2c:05:99:7a:af:b2|69
1621928361|2c:0a:9e:11:2e:f5|68
1621840343|2c:15:f5:dc:55:ec|69
1621923074|2c:4c:c6:b7:b9:e7|80
1621864659|2c:61:5b:66:f6:96|75
1621931132|2c:a9:f0:4d:bb:4b|81
1621939201|2c:db:07:d4:78:49|91
1621837136|2c:f7:fd:3d:b7:03|60
1621923322|2c:fd:ab:58:b4:35|92
1621863472|2c:fd:ab:a8:3d:21|93
1621851123|2d:0a:14:2f:9e:71|72
1622028961|2d:0e:13:f3:d7:47|68
1621948360|2d:35:bb:e2:d3:3f|71
1621839397|2d:3b:49:7d:b3:94|70
1621850751|2d:c0:9f:e2:07:9b|60
1621843133|2f:82:98:32:83:2d|66
1622014659|30:07:4d:0d:9e:da|85
1622012604|30:07:4d:44:ce:2b|83
1621949551|30:07:4d:4d:3e:bd|88
1622014550|30:07:4d:54:65:25|72
1621837361|30:07:4d:54:65:25|80
1622011387|30:07:4d:58:14:be|82
1621930498|30:07:4d:6a:3f:82|83
1621942979|30:07:4d:80:01:1b|73
1621925691|30:07:4d:8f:de:25|70
1622014503|30:07:4d:9e:b8:95|83
1622030635|30:07:4d:ab:fc:07|94
1621842479|30:07:4d:bd:c3:37|69
1621853456|30:25:ce:30:5a:57|72
1621843786|30:45:96:13:af:68|92
1621854566|30:47:aa:e4:ff:91|76
1621862001|30:89:d3:15:65:4a|68
1621926445|30:95:e3:3d:c3:80|65
1622030917|30:95:e3:3d:c3:80|71
1621845200|30:95:e3:3d:c3:80|72
1621947661|30:97:46:16:dd:2e|87
1621924093|30:a9:de:95:d5:98|78
1621856323|30:a9:de:da:03:94|84
1621939882|30:a9:de:da:6b:84|85
1622013424|30:a9:de:da:6b:84|80
1621935720|30:a9:de:da:6f:6e|85
1622021952|30:a9:de:da:6f:6e|90
1622016430|30:a9:de:da:6f:70|84
1621845120|30:a9:de:da:6f:70|91
1621851362|30:cc:d3:6f:73:99|69
1622029146|30:dc:c4:2f:d0:c3|58
1621928447|30:f3:1c:d9:f1:b6|67
1621945911|31:10:06:3f:86:d3|77
1621842011|31:1a:34:1f:8f:73|76
1621932728|31:39:e6:a4:f2:9d|75
1621925196|31:55:cf:8a:04:f0|67
1621853899|31:6f:36:b9:2e:f9|68
1621840231|31:73:e0:87:29:be|72
1621949235|31:87:84:8a:81:f1|81
1621928799|33:48:4a:ea:b9:e5|67
1621854503|33:48:58:de:84:5d|65
1621931268|33:d4:de:9b:a9:d3|74
1621837092|34:07:96:2b:a7:4a|78
1621845915|34:12:98:46:f8:60|70
1621933715|34:12:f9:4e:a2:8a|65
1622018531|34:12:f9:4e:a2:8a|86
1621848160|34:12:f9:4e:a2:8a|68
1622035951|34:12:f9:70:a4:23|75
1621852087|34:12:f9:70:a4:23|85
1622024399|34:12:f9:fd:68:af|82
1621845089|34:12:f9:fd:68:af|73
1621950873|34:12:f9:fd:68:af|82
1621952911|34:1b:c8:35:e9:45|88
1621938186|34:2e:b7:d8:05:ef|88
1622020150|34:36:3b:85:1e:32|86
1621925361|34:36:3b:86:fc:56|71
1622013260|34:41:5d:a6:33:67|60
1621837668|34:41:5d:a6:33:67|62
1622022507|34:41:5d:bf:bd:e6|86
1621844783|34:41:5d:bf:bd:e6|89
1621934849|34:73:37:8c:cd:aa|64
1622013628|34:8b:75:30:61:44|67
1621866301|34:8b:75:58:b6:38|86
1622015023|34:8b:75:ec:bd:d7|87
1621945090|34:8b:75:ec:bd:d7|85
1621838060|34:a3:95:b2:3b:55|85
1621851060|34:b0:2a:24:75:00|68
1621931441|34:b0:c1:fd:cd:66|81
1621923834|34:bb:1f:ce:36:a8|65
1621933304|34:c1:2c:2f:64:b0|77
1621922417|34:e1:2d:6a:a5:09|68
1622009158|34:e1:2d:6a:a5:09|65
1621863026|34:e1:2d:6a:a5:09|69
1622011982|34:f3:9a:02:63:bd|78
1621858866|34:f3:9a:02:63:bd|74
1622029920|34:f3:9a:2a:8d:de|73
1622011315|34:f3:9a:6e:9e:f2|71
1621927356|34:f3:9a:6e:9e:f2|71
1621859918|34:f3:9a:6e:9e:f2|75
1621842639|35:0c:59:9c:c7:2f|70
1622021105|35:3e:f1:ff:98:d3|69
1621945810|35:40:df:d2:c7:fa|70
1621941849|35:82:e1:4a:a3:e7|65
1621927622|35:d9:3a:d2:ed:b6|80
1621845383|35:e1:bb:8f:0a:36|77
1621924115|35:ff:7c:f5:80:65|75
1621854230|37:0d:c1:98:4d:e6|64
1621850699|37:d6:6c:cb:c1:89|69
1621846162|37:db:e9:33:04:49|81
1621862059|37:e5:44:46:37:ca|74
1621853405|37:f1:f2:1f:b1:e3|71
1621837649|38:2d:e8:20:69:7d|77
1621934730|38:53:9c:8e:25:c3|79
1621844639|38:53:9c:90:a8:16|77
1622020110|38:68:a4:ec:83:15|68
1621845625|38:78:62:6b:0a:e2|68
1621854247|38:8b:7b:c2:77:ba|65
1621849268|38:ee:c5:f1:58:81|77
1621836919|38:f9:d3:50:82:2e|70
1621941714|39:a5:fd:fc:ef:58|67
1621848954|39:a8:66:f9:21:a0|68
1621839730|39:d5:f9:30:c4:34|72
1621853069|3b:0a:54:4e:bd:82|66
1621854319|3b:0b:38:aa:d9:69|65
1621846150|3b:11:b7:f1:a1:3c|80
1621930419|3b:2f:73:dd:5c:24|84
1621940636|3b:56:74:4d:a0:58|88
1621841938|3b:7e:4f:74:ea:dd|78
1621927694|3b:8b:7e:5d:32:30|68
1621949547|3b:c0:8b:4c:3e:1b|64
1621851203|3b:c7:b2:52:32:d9|69
1621939735|3c:05:18:a9:cf:83|80
1622034826|3c:20:f6:90:32:15|82
1621940115|3c:20:f6:db:c2:50|73
1622021656|3c:22:fb:30:93:b2|83
1621837604|3c:22:fb:c1:52:89|90
1621940717|3c:45:8a:9f:34:ae|71
1622034598|3c:57:6c:3a:82:58|94
1621837902|3c:57:6c:c7:6e:20|70
1622009965|3c:57:6c:c7:9d:04|79
1621946097|3c:58:c2:bf:97:d5|87
1622008817|3c:58:c2:bf:97:d5|75
1621858398|3c:58:c2:bf:97:d5|87
1622025925|3c:58:c2:d4:c6:91|76
1621836617|3c:58:c2:d4:c6:92|82
1622008802|3c:91:80:02:54:2d|78
1621945946|3c:c0:b8:2d:44:ee|73
1621947577|3c:f5:91:f0:6b:7b|89
1621856607|3c:f7:a4:25:44:2f|83
1622036171|3c:f7:a4:a9:04:ab|92
1622009600|3c:fa:43:b8:27:dd|90
1621840547|3d:81:ae:12:7f:74|70
1621950688|3d:95:ff:81:ed:3f|83
1621949024|3d:c0:27:1e:08:a9|83
1621932769|3d:f2:0d:fe:e7:55|81
1622017060|3f:71:ce:80:39:50|76
1621849936|3f:c6:ee:4d:38:71|67
1621952994|40:09:89:9f:08:bb|83
1621867849|40:25:c2:cb:3a:0c|91
1622032722|40:3f:41:20:c3:87|86
1621947838|40:3f:8c:43:77:ac|84
1622036028|40:3f:8c:43:77:ac|70
1621836030|40:3f:8c:43:77:ac|71
1621948813|40:40:a7:53:24:c8|92
1622028494|40:4e:36:f8:3b:38|90
1621952890|40:7d:e5:85:ff:1d|80
1621941146|40:a1:08:a0:c9:a3|69
1621946794|40:a2:93:03:7a:07|77
1621942732|40:d3:ae:e7:c5:66|89
1621868047|40:d3:ae:e7:c5:66|94
1622034839|40:d3:ae:fc:3d:e0|78
1621865285|40:d3:ae:fc:3d:e0|86
1622023720|40:d5:c7:e8:a2:2f|70
1622031731|40:f3:08:72:89:2d|84
1621946982|40:f3:08:72:89:2d|72
1621862346|40:f3:08:72:89:2d|82
1621847271|40:f5:20:44:c4:48|87
1622013230|40:f5:20:44:c5:24|88
1621836191|40:f5:20:44:c5:24|85
1621925289|40:f5:20:44:c5:24|84
1621840998|40:f5:20:44:c6:2c|70
1621923462|40:f5:20:44:c6:44|79
1622017964|40:f5:20:44:c6:44|79
1621836249|40:f5:20:44:c6:44|80
1621836292|40:f5:20:44:c7:98|92
1621840017|40:f5:20:44:c8:08|74
1622011554|40:f5:20:44:c8:9c|80
1621924690|40:f5:20:44:c8:9c|78
1621836081|40:f5:20:44:c8:9c|76
1621836217|40:f5:20:44:c8:e4|81
1621924961|40:f5:20:44:c9:90|85
1621836273|40:f5:20:44:c9:90|90
1622014692|40:f5:20:44:c9:e4|67
1621836459|40:f5:20:44:c9:e4|65
1622010479|40:f5:20:44:ca:1c|81
1621922961|40:f5:20:44:ca:1c|76
1621923277|40:f5:20:44:ca:70|82
1621844337|40:f5:20:44:ca:7c|68
1621928940|40:f5:20:44:cb:80|70
1621839728|40:f5:20:44:cb:80|65
1622009166|40:f5:20:44:cb:a4|82
1621839889|40:f5:20:44:cb:ac|80
1621922637|40:f5:20:46:c2:74|85
1622014565|40:f5:20:46:c2:f8|83
1621836233|40:f5:20:46:c2:f8|82
1622015008|40:f5:20:46:c4:08|87
1621836075|40:f5:20:46:c4:c0|78
1621924966|40:f5:20:46:c4:d0|83
1621836537|40:f5:20:46:c4:d0|83
1622012878|40:f5:20:46:c5:c0|71
1621839735|40:f5:20:46:c5:c0|73
1622012891|40:f5:20:46:c7:04|75
1622014709|40:f5:20:46:c8:38|66
1621836351|40:f5:20:46:c8:38|68
1621925716|40:f5:20:48:8c:e0|92
1621843377|40:f5:20:48:8c:e0|89
1621925071|40:f5:20:48:8c:e8|64
1622037291|40:f5:20:48:8c:e8|58
1621836442|40:f5:20:48:8c:e8|62
1621924525|40:f5:20:48:8d:34|87
1621836222|40:f5:20:48:8d:34|89
1621839958|40:f5:20:48:8e:54|67
1622012652|40:f5:20:48:8f:00|65
1621836283|40:f5:20:48:8f:00|71
1621852279|41:56:2d:34:91:aa|71
1621931352|41:5c:8b:f5:48:98|64
1621949797|41:74:15:13:cb:28|75
1621850026|41:92:44:8f:9d:02|59
1621924058|41:b3:24:fb:10:34|71
1621927474|41:d0:29:c2:65:95|74
1621926147|41:ff:db:ce:2f:b5|69
1622030117|43:30:7f:7c:f4:c1|66
1621927252|43:52:27:fb:95:c4|65
1621850368|43:62:5e:76:d0:e3|61
1621948101|43:6c:6e:ae:2b:0a|77
1621849296|43:6d:96:74:db:5a|64
1621929147|43:71:0f:20:d0:3a|72
1621928085|43:f9:40:23:18:03|65
1621946249|43:fe:a4:ee:2e:13|79
1621843144|44:4a:db:60:cc:2b|83
1622009521|44:59:e3:7e:36:5c|85
1621937587|44:59:e3:7e:36:5c|86
1621929137|44:5c:e9:b1:ba:ac|80
1621923734|44:6d:6c:b9:1a:fe|87
1621941857|44:82:81:53:55:65|69
1621836262|44:85:00:18:d4:ae|75
1621863645|44:85:00:71:9c:56|75
1621860339|44:d7:91:d0:f5:9b|75
1621928264|44:db:2c:09:f2:30|79
1622021063|44:f1:15:5d:1f:97|70
1621928365|45:2a:a4:9a:9b:30|64
1622025476|45:61:2d:19:b0:94|85
1621926898|45:b1:56:09:3d:b0|70
1621924310|45:f9:10:ff:9e:f2|69
1621925280|47:16:87:01:d2:c0|73
1621863488|47:34:67:c6:cc:53|85
1621940327|47:60:71:f2:d2:23|73
1621854139|48:12:a6:0d:2e:e6|65
1621940119|48:5a:3f:8c:45:8b|77
1621939189|48:5f:2d:fb:51:6a|85
1622036003|48:79:4d:9d:c3:35|86
1622024902|48:89:e7:62:ab:79|79
1621847096|48:89:e7:62:ab:79|81
1621925527|48:89:e7:62:ab:79|81
1621949747|48:89:e7:fd:05:84|86
1622034161|48:9d:24:7b:8d:28|81
1621946798|48:9d:24:7b:8d:28|84
1621923514|48:9d:24:84:5e:fd|83
1622012186|48:9d:24:84:5e:fd|82
1621843559|48:9d:24:84:5e:fd|76
1621842833|48:9d:d1:28:e9:c9|69
1621836033|48:a4:72:4d:bd:e0|75
1622009409|48:a4:72:9d:22:81|93
1621923330|48:a4:72:9d:22:81|85
1621853780|48:a4:72:9d:22:81|83
1622012085|48:a4:72:b2:c6:04|79
1621953344|48:fc:b6:64:fc:c6|89
1622032109|48:fc:b6:ef:1b:8b|69
1621857767|48:fc:b6:ef:1b:8b|71
1621852788|48:fd:a3:f0:59:19|80
1621924167|49:3e:d5:f4:ba:2e|69
1621851542|49:6f:e7:9b:c8:57|68
1621946645|49:81:67:7c:85:eb|76
1622029261|49:b5:7d:f1:66:8f|66
1621925876|49:c4:d2:fb:b3:1f|64
1621936099|49:cc:2d:bf:fb:f5|68
1621839617|49:d3:3f:ee:77:25|78
1621854136|49:d7:53:88:60:50|71
1621852197|49:f7:a0:27:1a:ed|73
1622016356|4b:a8:2e:86:67:cf|85
1621845273|4b:f9:ee:7b:d9:a1|80
1621840388|4c:02:20:06:6c:03|74
1621837916|4c:18:9a:42:e8:07|83
1622016001|4c:1d:96:13:48:86|67
1621924677|4c:1d:96:13:48:86|74
1621923176|4c:1d:96:e6:e2:4f|76
1621842037|4c:1d:96:e6:e2:4f|72
1622018095|4c:34:88:40:8c:1a|72
1622018958|4c:34:88:68:ce:64|73
1621926060|4c:34:88:69:ba:b3|66
1621950560|4c:66:41:0e:2d:a3|90
1621844651|4c:6a:f6:c4:21:d3|86
1621838132|4c:6d:d1:f5:a5:b4|74
1621936730|4c:74:bf:77:fc:32|90
1621847473|4c:74:bf:77:fc:32|68
1622032573|4c:b4:6c:ad:cc:c4|79
1621947083|4c:dd:31:5f:ff:00|79
1621933321|4c:dd:31:f3:32:57|84
1622018307|4c:dd:31:f3:32:57|78
1621854245|4c:dd:31:f3:32:57|74
1621868222|4c:f2:02:0a:87:35|89
1621852609|4d:a1:2d:5e:69:4a|71
1621836919|4d:a8:b0:a8:a9:31|75
1621927138|4f:20:b4:8f:81:9f|67
1621852544|4f:8f:be:37:38:c4|71
1622010603|50:2f:9b:79:b6:5c|80
1622034326|50:3d:c6:c1:6f:9a|87
1621864049|50:3d:c6:c1:6f:9a|87
1621849746|50:5f:3a:ac:fe:c6|61
1621947927|50:75:4c:70:79:5b|86
1622023529|50:7a:55:6a:4c:08|84
1621867149|50:7a:55:6a:4c:08|90
1621951993|50:7a:55:6a:4c:08|76
1621836444|50:82:d5:78:f0:22|72
1621950559|50:c7:d0:7b:55:c0|62
1621837349|50:d7:8b:02:4d:5c|73
1622020212|50:dc:f9:37:ff:2c|80
1622022631|50:eb:71:1f:71:01|67
1622024099|50:eb:71:9b:04:dd|73
1621942268|50:eb:71:9b:04:dd|73
1621942806|50:ed:3c:09:23:26|79
1622030977|50:ed:3c:2c:57:cc|71
1621857208|50:ed:3c:2c:57:cc|64
1621937889|51:0f:99:25:b4:6a|80
1622028167|51:47:4e:be:3e:e3|62
1621924755|51:8a:c6:b5:8e:9c|75
1621949154|51:92:61:47:5c:1b|75
1621946062|51:ac:28:2d:07:50|67
1621924054|51:ca:16:bb:59:a2|74
1621840451|53:8d:ec:14:f1:23|73
1621839722|53:ca:ed:b4:b4:06|69
1621930007|53:fe:16:ae:5d:d1|65
1621928664|54:09:10:b6:a8:39|79
1621943597|54:3e:34:2a:ea:69|89
1621949132|54:7d:30:00:e7:c5|67
1622012655|54:8d:5a:0d:02:fa|69
1621942708|54:8d:5a:c5:96:d5|80
1621937156|54:8d:5a:c5:96:d6|79
1621856415|54:8d:5a:cb:de:2d|56
1622014881|54:8d:5a:cb:de:2e|62
1621856417|54:8d:5a:cb:de:2e|64
1621945923|54:9f:21:46:70:5d|80
1622036027|54:ae:27:2a:72:0c|81
1622012615|54:b8:02:02:df:ea|69
1622028746|54:b8:02:48:6e:df|89
1622017328|54:ba:d6:20:03:fa|75
1621841722|54:bb:55:2e:70:af|79
1621949541|54:d8:e6:d2:30:c7|69
1621928429|54:fc:f0:9b:2d:2f|81
1621850627|55:46:72:f3:2d:02|69
1622029175|55:4b:0f:9d:15:4e|60
1621854614|55:67:2a:3f:04:b1|74
1621840498|55:f8:3d:1e:39:e6|76
1621929018|57:2b:18:d9:08:a9|73
1621851061|57:3a:ad:33:56:ea|76
1622030134|57:40:b5:62:9c:4e|66
1622025553|57:8e:7b:a4:f1:94|83
1621925574|57:8e:98:72:b3:88|70
1622022685|57:92:cf:fc:7c:32|86
1621950931|57:a2:e9:9a:cf:15|85
1621838207|58:00:e3:ef:c0:a1|70
1621928588|58:1d:be:0e:7f:00|74
1621842045|58:1d:bf:09:da:a4|77
1621938317|58:82:63:ae:21:3e|68
1621860906|58:85:a2:1e:1a:3b|92
1621859490|58:85:e9:ae:82:a3|86
1621862413|58:a0:23:ed:af:94|74
1621932317|58:a0:23:ed:af:fd|72
1621860155|58:a0:23:ed:af:fd|73
1621856107|58:f7:62:46:90:6a|66
1621945869|58:fb:84:02:5b:84|69
1622029158|59:1e:41:a2:d9:f7|59
1622013217|59:59:7c:cc:18:5e|85
1621926171|59:88:22:bc:7b:5f|68
1621945478|59:93:3d:e6:91:ff|80
1621934823|59:cb:1b:62:5e:df|88
1621851517|59:fd:67:78:0a:c5|77
1621850454|5b:34:21:26:e1:12|73
1622029002|5b:46:c7:28:dc:e3|56
1622013563|5b:64:44:a5:2e:7b|89
1621853777|5b:cf:a7:64:4e:4a|68
1621925110|5b:e1:5e:ba:d0:06|67
1621931334|5c:0d:ca:4c:f5:20|76
1621838486|5c:1b:23:01:b0:94|68
1621949484|5c:23:d0:2c:52:97|77
1621844793|5c:2e:59:cd:eb:27|77
1621846470|5c:5f:67:89:19:67|83
1621943256|5c:5f:67:d0:66:fa|72
1621850401|5c:70:17:1e:5d:ef|93
1621854907|5c:86:d3:ac:c1:49|69
1621853864|5c:a1:0e:2f:a7:1a|66
1622036731|5c:c3:07:57:62:29|76
1621922676|5c:c5:d4:e0:7a:95|73
1621946323|5c:e5:3d:c2:e4:1f|73
1621934875|5c:ea:1d:15:9a:b1|84
1621940241|5c:ea:1d:90:12:d5|82
1621838048|5d:35:5a:76:2d:88|79
1621840264|5d:53:94:da:92:6c|74
1621842471|5d:54:f7:80:4c:5c|73
1621840782|5d:71:12:54:dc:f1|74
1621839568|5d:e0:f4:8e:92:84|75
1622028656|5d:f8:4d:32:9b:8b|70
1621855684|5f:50:99:7f:13:25|86
1621854732|5f:6c:6e:2c:a0:4f|78
1621840463|5f:6e:b5:67:fd:a4|72
1621843940|5f:71:64:3b:90:f3|76
1621840320|5f:a7:5d:41:f5:59|70
1621947410|5f:bc:a2:a1:d0:ee|78
1621836955|5f:eb:26:ff:66:80|75
1622014445|60:03:08:8a:14:8c|84
1621842854|60:03:08:8a:14:8c|82
1621845760|60:1e:a9:b7:36:06|82
1621934779|60:21:01:8e:5e:c1|73
1621836983|60:23:a4:df:d8:d0|69
1622024345|60:23:a4:df:d8:f4|68
1621928479|60:3c:3d:50:01:7a|64
1621836695|60:84:e8:b3:ce:ef|90
1622014175|60:f1:89:47:1a:46|72
1621951138|60:f1:89:47:1a:46|67
1621922446|60:f2:62:1c:af:a2|79
1622028227|60:f2:62:1c:af:a3|74
1621849294|60:f2:62:1c:af:a3|77
1622028385|60:f2:62:dc:93:e9|79
1621923919|60:f2:62:dc:93:e9|79
1622029158|60:f2:62:dc:9d:30|79
1621838532|60:f6:77:ce:29:a8|82
1621924668|60:f6:77:ce:29:a8|85
1621855220|61:2e:78:0c:46:6c|86
1621934169|61:51:e9:7c:12:5a|74
1621927710|61:54:03:36:85:15|65
1621925599|61:7b:d1:8f:fe:2a|76
1621854093|61:86:c7:d8:0a:e0|82
1621948433|61:c2:6c:ca:80:9e|69
1621841338|61:f7:8d:6d:19:f3|70
1621838063|61:fc:65:68:72:fa|76
1621853975|63:68:6c:77:ce:3d|77
1621938450|63:7a:ca:e4:00:f6|94
1621837420|63:9e:ce:07:98:94|70
1621846421|63:fb:c6:a9:11:90|76
1622027311|64:03:7f:d2:b9:4b|82
1621952915|64:1b:eb:dd:cd:0c|85
1622013230|64:5d:86:ac:f5:da|85
1621945907|64:b0:d6:87:99:18|74
1622008811|64:be:bb:98:f4:c0|72
1621932814|64:c8:90:ab:1b:51|87
1621849348|64:fc:03:2f:e0:df|72
1621926940|65:0e:c0:52:95:5b|69
1621845199|65:bb:9e:b1:39:21|69
1621925701|65:d1:bd:9c:d3:4f|69
1621838079|67:05:3c:ad:1a:ac|79
1621928792|67:53:97:4f:1a:0d|69
1621948772|67:d7:1f:0c:e1:49|71
1621854239|68:17:29:0d:95:e4|80
1621847073|68:27:37:8d:c9:21|86
1621933016|68:27:37:8d:c9:21|82
1622011345|68:54:5a:6e:b0:db|71
1621930921|68:54:5a:6e:b0:dc|77
1622017592|68:54:5a:6e:b0:dc|75
1621838011|68:54:5a:6e:b0:dc|73
1621853922|68:66:a5:f1:42:0e|70
1621930198|68:bc:75:19:38:b2|81
1621863635|68:c6:f2:af:69:d2|73
1622023677|68:db:f5:d4:61:f3|67
1621934907|68:ec:c5:55:ea:47|69
1622029177|69:10:36:4f:2e:ad|62
1622010652|69:36:c2:22:c4:b3|84
1622027542|69:3d:49:9c:14:f2|64
1621853553|69:60:a8:25:3d:1b|67
1621949247|69:6d:74:93:78:cc|65
1621854040|69:98:1e:53:1d:a4|59
1621843943|69:a6:fe:c2:0d:19|82
1621927981|69:df:98:74:75:f8|72
1621930810|6b:51:1f:4a:a4:a8|68
1621925488|6b:63:9a:ab:b1:41|78
1621928436|6b:65:7f:12:07:2b|65
1622034996|6b:93:45:00:39:cd|77
1621850850|6b:b5:85:1a:45:7f|64
1621837709|6b:c0:1a:31:11:c2|74
1621928519|6b:c5:82:03:90:3a|64
1621928057|6b:f6:2b:f7:11:19|75
1621952972|6c:02:74:45:4e:18|82
1621924286|6c:1d:a2:27:58:31|63
1622022347|6c:4d:73:a6:bc:3e|84
1621926958|6c:7f:a6:48:50:c4|73
1622034281|6c:90:53:23:69:04|66
1621854339|6c:b0:0e:72:d7:fe|66
1621853075|6c:b4:ed:91:92:9c|69
1621836649|6c:c7:ec:13:a2:7c|81
1621948005|6c:c7:ec:1b:25:39|86
1621934689|6c:c7:ec:2f:66:92|84
1622011022|6c:c7:ec:47:f7:6f|86
1621862630|6c:c7:ec:47:f7:6f|91
1621929156|6c:c7:ec:6a:7c:e3|82
1621838731|6c:c7:ec:6a:7c:e3|74
1621923079|6c:c7:ec:95:56:a5|83
1622010211|6c:c7:ec:9c:24:73|80
1622016789|6c:c7:ec:ad:e6:65|71
1621862512|6c:c7:ec:b7:6b:82|83
1622020833|6c:c7:ec:d0:dd:39|84
1621853212|6c:c7:ec:d9:eb:c7|76
1622013675|6c:c7:ec:fd:9c:40|80
1621851055|6d:4b:b4:8a:6c:5f|64
1621931054|6d:58:c7:f3:20:6c|87
1621839777|6d:ae:39:74:48:3b|73
1621926349|6d:f7:96:8c:1b:a0|68
1621924149|6f:17:e1:87:02:c1|65
1621850428|6f:34:ee:31:66:38|63
1621850373|6f:5a:6f:32:a6:e0|77
1621842292|6f:5d:bf:86:0d:81|70
1621946492|6f:88:23:df:3a:22|87
1621949014|6f:de:3b:ce:5d:2a|70
1622008805|70:03:9f:01:40:fe|86
1621925701|70:3a:51:31:43:10|68
1621927743|70:5a:ac:20:df:c7|65
1621945536|70:5a:ac:b9:15:88|88
1621861066|70:5a:ac:bd:da:18|90
1621949007|70:5a:ac:ef:24:ad|86
1621926075|70:5a:ac:f0:f6:28|66
1621842333|70:5a:ac:f0:f6:28|70
1621948559|70:76:20:a3:40:7e|87
1622012538|70:9c:d1:12:b5:e2|67
1622013719|70:bb:e9:cd:22:99|81
1622030249|70:bc:10:73:00:91|75
1621940244|70:bc:10:73:00:91|84
1621939509|70:bc:10:7c:10:e6|70
1621836521|70:c2:a1:59:74:69|85
1621864139|70:c9:4e:6e:e5:71|93
1621840333|71:da:7b:61:b3:3c|71
1621840700|73:79:b7:1c:be:fb|91
1621861430|73:88:09:b8:16:34|78
1621933242|73:bd:e5:c9:ac:ba|80
1621849541|73:c9:80:53:76:18|86
1621853741|73:c9:83:87:9f:ca|69
1621860671|74:70:fd:a6:ca:ed|68
1622014047|74:70:fd:a6:d8:3a|90
1621836110|74:70:fd:a6:d8:3a|67
1621923515|74:82:f3:4e:65:ba|67
1622021993|74:9e:af:6c:e8:7e|73
1621930241|74:b1:52:c1:11:b3|78
1621857022|74:c1:4f:25:13:8b|85
1621922754|74:d8:3e:9e:5b:d8|71
1622009318|74:d8:3e:9e:5b:d8|67
1621836549|74:d8:3e:9e:5b:d8|84
1622019329|74:d8:3e:fe:c1:21|83
1621936660|74:df:bf:48:3b:01|86
1621927367|74:e6:cf:d9:7e:5d|76
1621924544|74:eb:80:f8:50:48|78
1621841463|74:eb:80:f8:50:48|74
1621928667|75:3d:61:b6:1f:e0|64
1621840961|75:71:80:01:50:3b|71
1621854525|75:b2:2d:8c:9a:85|67
1621837394|77:0f:a0:06:e6:3d|73
1621853055|77:33:fa:2b:65:25|72
1621939240|77:40:c0:21:f5:5c|84
1621927246|77:e4:00:e6:8c:e3|64
1621840291|77:f4:df:fb:e5:3d|69
1621949866|78:3d:55:2c:ff:94|75
1621923666|78:4b:87:da:53:bb|73
1622009612|78:4b:87:da:53:bb|89
1621845821|78:4f:43:38:11:e5|79
1622016482|78:4f:43:85:e8:b3|79
1622023659|78:64:c0:d7:8f:dd|77
1621950982|78:7e:61:93:2f:29|89
1621864042|78:7e:61:93:2f:29|94
1621928063|78:94:04:0f:d5:31|68
1622036503|78:c3:e9:59:e2:18|63
1621853892|78:f5:78:e9:41:bb|83
1621926732|78:fb:a5:87:d5:cb|76
1621850924|79:2c:5e:ca:d3:a6|73
1621925287|79:46:6b:3b:a2:53|72
1622026907|79:8c:67:33:94:c2|83
1621949447|79:e4:6d:66:a8:25|74
1621838576|7b:7b:b3:06:b3:7a|72
1621854170|7b:8b:e1:48:87:77|72
1621854066|7c:19:92:c9:fb:0f|69
1621842490|7c:23:02:38:90:f2|70
1621929456|7c:23:02:e9:66:ce|76
1621857182|7c:3d:26:d7:c8:8f|66
1621947867|7c:67:a2:8c:fe:92|88
1622035235|7c:67:a2:8c:fe:92|91
1621863318|7c:67:a2:8c:fe:92|94
1621948157|7c:67:a2:8e:02:bf|93
1622034859|7c:67:a2:8e:06:ca|96
1621852287|7c:6f:b2:54:07:91|79
1621924960|7c:76:35:7c:a9:07|65
1622014822|7c:76:35:7c:b3:2a|71
1622015093|7c:76:35:7c:b3:2b|59
1621839108|7c:76:68:f0:4d:f7|75
1621937964|7c:7a:cc:35:36:38|73
1621845419|7c:89:56:cd:4f:1c|88
1622014811|7c:a1:77:29:f7:9c|72
1621845363|7c:a1:77:29:f7:9c|60
1621922486|7c:a1:77:29:f7:9c|78
1621947416|7c:f5:3d:62:49:5a|83
1621859141|7d:0e:db:7a:a7:9b|77
1621942752|7d:3b:12:c7:1a:54|81
1622025935|7d:5d:fd:4c:c9:19|66
1621933206|7d:60:63:c5:a8:4f|69
1621852831|7d:6b:40:b2:f6:bd|68
1621839389|7d:9a:ee:1b:ee:ff|62
1622027560|7d:b9:14:05:c1:82|72
1621850714|7d:eb:9f:24:64:da|71
1621840435|7d:fe:80:a4:5a:7c|76
1621932821|7f:f0:7c:b5:73:8e|71
1622010133|80:19:34:1c:f7:00|73
1621855094|80:32:53:75:0e:95|72
1621951602|80:4e:70:6c:6f:ea|89
1622012022|80:4e:70:fd:17:d8|77
1621927284|80:4e:70:fd:17:d8|84
1622030131|80:66:25:d7:34:3e|63
1622016883|80:67:53:0c:a1:0d|71
1622010822|80:81:fc:e1:5b:2b|74
1621926545|80:89:68:43:99:29|75
1622028747|80:a1:b5:36:e6:dc|57
1621927016|80:b0:3d:a5:57:b5|64
1622021956|80:b0:3d:a5:57:b5|76
1621925707|80:be:05:5e:ca:8c|72
1621854085|80:be:05:5e:ca:8c|62
1622012377|80:ce:b9:c3:b8:65|90
1621836508|80:ce:b9:c3:b8:65|74
1622023740|81:37:96:a1:9a:f1|79
1621926767|81:6e:61:cf:22:da|71
1621849827|81:bc:0f:13:19:9b|59
1621854659|83:21:81:ce:d4:c7|72
1621856457|83:35:b5:da:53:7b|84
1621852419|83:3e:68:65:1f:19|71
1621838480|83:44:df:06:98:9c|77
1621932916|83:5c:86:7c:04:35|77
1621837901|83:6b:07:14:98:32|69
1621850005|83:87:71:c4:82:78|63
1621948306|83:a0:c2:98:11:28|87
1621926792|83:ce:33:f1:6a:30|81
1621952865|84:06:f6:86:08:b3|85
1621923331|84:1b:77:fd:b2:95|71
1621928291|84:2d:b4:b2:af:69|84
1622023444|84:2e:27:37:89:04|62
1621945720|84:2e:27:37:89:04|72
1621841718|84:66:5d:c1:1c:f5|71
1621948839|84:ab:1a:b3:bb:92|74
1621867197|84:b8:b8:05:39:98|94
1622020250|84:c5:a6:fb:2b:f6|71
1622034476|84:f8:83:e4:de:4f|86
1621937777|85:2a:fd:57:6b:b1|86
1621839561|87:56:d1:91:46:a5|73
1621950097|87:6a:d1:bb:85:76|74
1621838108|87:73:9a:1f:a9:c4|74
1621851162|87:82:52:e5:60:08|74
1622029514|87:a6:6a:ca:89:ec|67
1621837963|87:bc:23:2f:36:73|75
1621923263|87:d3:e7:cf:03:31|84
1622033050|88:07:4b:e7:cf:33|90
1622011780|88:53:95:0f:37:0f|82
1621941890|88:5f:e8:71:02:5b|86
1621946452|88:66:a5:d8:5e:8f|69
1621856351|88:66:a5:d8:5e:8f|72
1622028229|88:83:22:2d:7d:2f|92
1621844470|88:83:22:2d:7d:2f|73
1621933869|88:83:22:83:fe:a6|74
1621938662|88:9f:6f:85:f1:10|67
1622017280|88:9f:6f:8a:4f:1e|78
1622022556|88:a4:79:14:6c:e5|67
1621846211|88:a4:79:14:6c:e5|70
1621856113|88:b1:11:2a:a0:54|57
1622013087|88:b4:a6:00:42:f6|79
1621932865|88:b4:a6:03:0e:c2|71
1622013268|88:b4:a6:11:79:2d|85
1621836934|88:b4:a6:14:e8:9c|74
1621841503|88:b4:a6:17:7f:33|76
1622012844|88:b4:a6:17:b6:33|85
1621841382|88:b4:a6:1a:4b:ff|76
1621843374|88:b4:a6:1b:4c:00|79
1622012221|88:b4:a6:1c:27:db|78
1621932786|88:b4:a6:1e:29:dd|73
1621842709|88:b4:a6:1f:2a:de|71
1621843181|88:b4:a6:21:0a:be|75
1621840518|88:b4:a6:29:25:d9|72
1621843951|88:b4:a6:2a:35:e9|75
1621842332|88:b4:a6:2c:37:eb|81
1622012196|88:b4:a6:2c:92:46|81
1621843516|88:b4:a6:2e:70:24|70
1622013462|88:b4:a6:2e:70:ed|81
1621837055|88:b4:a6:31:73:27|69
1621924761|88:b4:a6:34:e6:9a|71
1621933328|88:b4:a6:35:40:f4|76
1621932874|88:b4:a6:35:77:2b|70
1621839261|88:b4:a6:36:78:2c|72
1621836652|88:b4:a6:37:42:f6|73
1621841851|88:b4:a6:38:7a:2e|76
1621933383|88:b4:a6:3a:7c:ba|80
1622012880|88:b4:a6:3d:0d:8a|78
1621836449|88:b4:a6:40:82:ff|73
1621837820|88:b4:a6:46:1a:ce|79
1621932693|88:b4:a6:48:53:07|71
1622012937|88:b4:a6:48:79:2d|73
1621839559|88:b4:a6:48:e5:99|73
1621932969|88:b4:a6:4c:8e:0b|69
1621931907|88:b4:a6:4d:47:c4|76
1621842784|88:b4:a6:54:85:39|73
1621838389|88:b4:a6:5a:30:e4|73
1621841430|88:b4:a6:5c:9e:52|84
1621839449|88:b4:a6:5c:e8:9c|71
1621924712|88:b4:a6:5d:68:1c|69
1621840560|88:b4:a6:5e:69:1d|74
1622012186|88:b4:a6:5e:8f:43|73
1622013279|88:b4:a6:5e:a0:54|79
1621836570|88:b4:a6:5f:6a:1e|73
1621840581|88:b4:a6:5f:90:44|73
1621933200|88:b4:a6:61:6c:20|73
1621839648|88:b4:a6:64:03:80|81
1621836448|88:b4:a6:68:73:27|76
1621931907|88:b4:a6:68:aa:5e|78
1621924778|88:b4:a6:69:52:06|72
1622012320|88:b4:a6:6a:bf:73|81
1622013117|88:b4:a6:6b:76:2a|82
1621924667|88:b4:a6:72:7d:31|76
1622013087|88:b4:a6:75:b7:6b|79
1622012206|88:b4:a6:76:81:35|80
1621924771|88:b4:a6:77:73:27|76
1621836617|88:b4:a6:79:bb:6f|78
1621837567|88:b4:a6:7b:86:3a|79
1622013501|88:b4:a6:7f:e7:9b|79
1621838272|88:b4:a6:81:8c:40|71
1621842379|88:b4:a6:81:b2:66|78
1622012166|88:b4:a6:83:8e:42|82
1621932845|88:b4:a6:83:b4:31|70
1621839903|88:b4:a6:84:6d:21|75
1621842662|88:b4:a6:84:b5:69|83
1621838579|88:b4:a6:84:c6:7a|79
1621837425|88:b4:a6:85:59:0d|72
1621932786|88:b4:a6:86:91:45|71
1621840707|88:b4:a6:87:70:24|74
1621837520|88:b4:a6:88:25:d9|75
1622013210|88:b4:a6:90:9b:4f|86
1622012112|88:b4:a6:96:59:d6|82
1621931651|88:b4:a6:9b:a6:5a|77
1621841911|88:b4:a6:9b:dd:91|81
1621843712|88:b4:a6:a0:08:bc|73
1621932693|88:b4:a6:a0:74:28|76
1621839512|88:b4:a6:a1:ac:60|75
1621841307|88:b4:a6:a4:43:f7|77
1621843181|88:b4:a6:a6:c6:43|77
1621924741|88:b4:a6:a7:b2:66|70
1621933027|88:b4:a6:a8:91:0e|68
1621836070|88:b4:a6:a9:92:46|82
1621932541|88:b4:a6:a9:eb:9f|73
1621924827|88:b4:a6:ab:ed:a1|74
1621837219|88:b4:a6:ad:15:c9|77
1621923286|88:b4:a6:b2:3e:f2|70
1621932890|88:b4:a6:b2:88:3c|76
1621837425|88:b4:a6:b3:be:72|75
1621843421|88:b4:a6:ba:fc:79|80
1621932560|88:b4:a6:bc:fe:b2|68
1621836374|88:b4:a6:be:c9:7d|79
1621932901|88:b4:a6:c0:02:b6|76
1622012908|88:b4:a6:c2:cd:81|82
1621840581|88:b4:a6:c4:e4:98|71
1621836117|88:b4:a6:c7:09:bd|76
1621932498|88:b4:a6:cb:0d:c1|74
1621842419|88:b4:a6:cc:fd:b1|75
1622012147|88:b4:a6:cf:24:d8|77
1622012871|88:b4:a6:cf:a3:57|78
1621840504|88:b4:a6:d2:3a:ee|74
1621838531|88:b4:a6:d3:15:c9|72
1621843074|88:b4:a6:d5:17:cb|77
1621841382|88:b4:a6:d6:18:cc|80
1621839209|88:b4:a6:da:1c:99|68
1621839161|88:b4:a6:db:e6:9a|65
1621843611|88:b4:a6:dc:e7:9b|74
1621839606|88:b4:a6:e4:15:c9|80
1621838926|88:b4:a6:e8:08:bc|70
1621836192|88:b4:a6:ea:0a:be|78
1621843469|88:b4:a6:eb:2d:aa|79
1621840644|88:b4:a6:ec:2e:e2|75
1622013250|88:b4:a6:ef:a1:55|79
1621839209|88:b4:a6:ef:fa:ae|72
1622013077|88:b4:a6:f0:32:e6|81
1621924807|88:b4:a6:f2:34:e8|75
1621933094|88:b4:a6:f3:11:c5|76
1622013564|88:b4:a6:f8:3a:b7|74
1621839161|88:b4:a6:f8:3a:ee|67
1621857368|88:f4:80:9d:0b:12|70
1621844466|89:22:30:e7:92:bb|81
1621929230|89:2c:1d:b5:44:92|73
1621941253|89:4f:db:f5:81:e3|70
1621838169|89:76:f8:3b:34:b5|69
1621927707|89:ef:59:f1:53:3d|66
1621854053|8b:33:74:a2:97:2d|84
1621841423|8b:38:a3:1d:4b:1a|73
1621932146|8b:3d:95:89:3f:27|76
1622021348|8c:3d:77:49:53:80|81
1621839797|8c:45:00:15:f4:b0|76
1622031474|8c:45:00:81:6e:07|93
1622012953|8c:45:00:a6:14:bc|84
1621851508|8c:58:39:bb:ce:92|69
1621931055|8c:70:5a:15:3e:58|59
1621837796|8c:79:f5:0e:b8:f0|72
1621838765|8c:79:f5:0e:e2:82|71
1622009403|8c:79:f5:0e:e4:f6|65
1621923164|8c:79:f5:0e:e4:f6|68
1621845554|8c:79:f5:10:05:d8|68
1621859067|8c:85:90:0f:e9:0e|79
1621924469|8c:85:90:75:1d:84|72
1621926574|8c:85:90:86:b9:e0|75
1622022046|8c:b8:4a:06:98:1a|65
1621857958|8c:b8:4a:06:98:1a|80
1622016497|8c:b8:4a:1e:2f:28|68
1622010110|8c:b8:4a:32:b9:fe|79
1621845999|8c:b8:4a:57:49:fa|70
1622015369|8c:b8:4a:8a:21:cd|88
1621849354|8c:c6:81:1d:d7:92|91
1621944814|8c:eb:c6:b3:94:55|87
1621864331|8c:eb:c6:b3:94:55|80
1621931446|8c:f5:a3:05:e2:47|73
1621849501|8c:f5:a3:66:8f:b4|73
1621935018|8c:f5:a3:d7:cc:2d|69
1621943924|8c:f5:a3:dd:36:35|68
1621852808|8d:48:f8:78:d9:99|65
1621929047|8d:4e:da:53:db:20|70
1621854927|8d:72:e2:af:bd:59|69
1621853008|8d:7d:60:ba:f9:bb|68
1621852637|8d:96:7d:76:81:d2|74
1621946539|8d:fc:5b:5c:2d:4e|81
1621850492|8f:3d:4b:dd:25:9c|69
1621854110|8f:7c:2a:0d:e2:da|65
1622015167|8f:90:a8:63:84:37|70
1621850290|8f:c0:6a:1a:be:69|71
1622022472|8f:c0:fc:f5:34:1e|85
1621948685|90:0b:88:26:b3:5e|85
1622023137|90:19:25:49:3e:d4|87
1621942786|90:2b:d2:5d:e3:c7|81
1622030213|90:32:4b:78:24:79|77
1621854554|90:4b:22:6d:1c:a7|64
1622014511|90:61:ae:fc:b8:d1|80
1621925990|90:61:ae:fc:b8:d1|81
1622014693|90:61:ae:fc:b8:d2|76
1622034913|90:8d:6c:aa:80:03|91
1621937143|90:97:f3:92:c0:b6|77
1621842194|90:97:f3:b5:c5:ea|77
1621842974|90:a2:5b:3f:b6:b7|74
1621950310|90:a5:ea:ca:b2:28|82
1622030029|90:b2:1f:c1:c7:6c|84
1622023131|90:b6:86:fe:db:11|84
1621862692|90:cc:df:c0:c1:9b|72
1622023762|90:f4:8c:47:e2:f0|80
1621932174|90:fb:87:b7:1f:25|75
1622034704|91:14:a5:ad:0c:d9|67
1621937160|91:17:e3:37:c9:0d|87
1621846341|91:65:6e:fa:9d:53|75
1621848929|91:b5:c4:23:fc:71|81
1621853905|93:15:a7:ce:ac:ab|70
1621840439|93:bb:fd:57:fe:13|71
1621851087|94:0e:6b:f0:ee:7c|66
1621933359|94:2d:dc:7d:a3:40|80
1621836471|94:65:2d:d0:cc:ac|72
1621934892|94:65:2d:dc:ac:48|78
1622020120|94:65:2d:dc:ac:48|75
1621858375|94:65:2d:dc:ac:48|69
1622012838|94:65:9c:66:64:df|81
1622026408|94:76:b7:01:d4:81|84
1622010016|94:94:26:5d:ac:89|87
1621862674|94:94:26:5d:ac:89|95
1622029022|94:b1:0a:d0:e1:56|74
1621839744|94:b1:0a:d0:e1:56|82
1622022602|94:b8:6d:92:f1:99|76
1622036022|94:be:46:6f:74:fb|85
1622014936|94:bf:2d:d8:c3:d6|80
1622014906|94:bf:2d:d9:86:60|75
1621924478|94:e6:f7:60:ba:ee|73
1622018984|94:e7:0b:af:a6:68|86
1621946058|94:ec:4b:57:fb:35|70
1621931495|95:39:9f:b4:da:5d|75
1621851552|97:34:20:14:84:2f|69
1621859208|97:5e:34:bf:f7:37|69
1621949805|97:a1:58:67:fd:45|78
1621853939|97:fe:39:b9:d7:ae|66
1622015737|98:09:cf:64:f4:d2|85
1621836991|98:22:ef:b9:ba:91|62
1622016599|98:2c:bc:2f:53:a0|79
1621848429|98:2c:bc:2f:53:a0|80
1621925866|98:2c:bc:60:15:5d|80
1621927145|98:37:e5:cc:29:a0|71
1622012734|98:3b:8f:0d:da:4a|78
1622018692|98:3b:8f:0d:da:4b|81
1621931476|98:3b:8f:b5:ad:15|61
1621852890|98:3e:a0:be:ce:ee|72
1621847574|98:54:1b:a2:7e:ed|82
1621836207|98:54:1b:a2:7e:ee|82
1622030068|98:54:1b:be:fb:b3|64
1621837126|98:5c:f2:6e:28:32|67
1621864548|98:5f:d3:ef:60:c3|89
1621852245|98:6f:60:a6:1b:89|88
1621935213|98:74:da:bf:d8:a6|75
1622033841|98:74:da:c1:4d:d7|93
1622026498|98:74:da:ef:d2:9a|67
1621945225|98:74:da:ef:d2:9a|82
1621864310|98:7d:26:d7:42:c7|71
1621952237|98:9c:57:10:05:fd|80
1621928860|98:9c:57:8c:2f:d2|70
1621841516|98:9c:57:8c:2f:d2|70
1622028640|98:af:65:33:9c:0d|59
1621840304|98:b6:99:6f:bb:69|74
1621950428|98:ca:33:db:07:c7|72
1621855710|98:ca:33:db:07:c7|69
1622010162|98:dd:ea:d5:7d:a7|87
1621837278|98:dd:ea:d5:7d:a7|83
1621922809|98:dd:ea:d5:7d:a7|91
1622014828|98:f1:70:1b:a8:59|70
1621923433|98:f1:70:1b:a8:59|68
1621862777|98:f6:21:2d:f6:26|85
1621931506|99:5c:db:38:4e:c3|75
1621850314|99:5d:36:ad:6e:8e|72
1622013017|99:85:f6:6b:23:17|76
1621929265|99:a5:03:f6:5f:2f|87
1622032390|9b:1a:c4:d3:00:c4|76
1622014417|9b:6f:cd:e2:e7:49|78
1621849384|9b:c1:8f:64:94:a6|70
1621949544|9b:f7:18:94:f0:b8|74
1621924691|9c:29:76:e3:f8:50|74
1622013906|9c:29:76:e3:f8:51|81
1621927671|9c:29:76:e3:f8:51|79
1621939852|9c:2b:d2:83:d2:89|71
1621841704|9c:2b:d2:83:d2:89|75
1622032207|9c:30:5b:6b:fa:a5|78
1621939962|9c:30:5b:6b:fa:a5|79
1621841968|9c:37:a5:da:2a:a1|75
1621941856|9c:a5:13:54:fc:35|78
1621929612|9c:b6:d0:97:1b:9d|72
1621853944|9c:f3:87:c7:31:92|82
1621954608|9c:fc:28:8e:fc:f1|88
1621853911|9d:03:f0:48:30:63|65
1621841435|9d:18:57:e4:66:a5|82
1621863169|9d:49:80:c5:58:44|75
1621849743|9d:4a:35:b0:32:6e|63
1621837104|9d:73:bf:01:19:96|81
1622018681|9d:75:be:d4:39:64|72
1621840648|9d:8f:c8:81:56:f9|80
1621839831|9d:98:28:2a:65:ab|75
1621933390|9d:ba:79:37:06:91|69
1621927552|9f:01:f1:34:ac:b8|81
1621864328|9f:10:89:52:3b:f2|79
1621949834|9f:51:08:87:26:43|85
1622013662|9f:7e:2c:6b:7f:73|71
1621839817|9f:b0:28:cb:a2:be|68
1621850746|9f:b6:23:f1:a3:0d|62
1622020869|a0:4e:a7:21:11:91|71
1621940215|a0:88:b4:15:4b:ec|76
1621928475|a0:90:56:67:b0:b9|64
1621938799|a0:a4:38:88:e1:8b|63
1621941581|a0:a4:c5:b1:fc:ba|85
1621857111|a0:a4:c5:b1:fc:ba|86
1621837386|a0:af:4d:db:10:53|67
1621927748|a0:c9:a0:b6:a2:46|65
1621849431|a0:c9:a0:b6:a2:46|74
1621843251|a0:c9:a0:c6:aa:1b|79
1622024735|a0:cc:2b:07:93:fa|87
1621949900|a0:cc:2b:07:93:fa|79
1621837273|a0:cc:2b:c8:75:21|85
1622027191|a0:d8:07:47:10:e7|66
1621926932|a1:1e:ef:59:a2:5c|68
1621861740|a1:24:22:ae:63:83|82
1621854053|a1:e5:7e:d0:45:a7|63
1621936074|a1:fc:4f:fd:ac:49|84
1621938338|a3:b8:59:b1:48:1e|65
1621855610|a3:c3:a3:fa:c6:b5|86
1621842822|a3:cc:2e:85:62:c2|74
1621949926|a3:d3:05:e7:e6:0b|71
1621942270|a4:2b:5c:1c:51:9a|77
1621844282|a4:45:19:4d:3c:4e|86
1622024269|a4:45:19:54:b8:10|94
1621852697|a4:45:19:54:b8:10|89
1621922406|a4:4b:d5:56:46:b3|85
1622008949|a4:4e:31:94:82:4c|85
1622022048|a4:50:46:10:7a:b7|76
1621839814|a4:57:f3:d7:8e:19|67
1621854191|a4:60:db:19:05:ca|77
1621926313|a4:83:e7:3c:42:b3|82
1622011390|a4:83:e7:a4:7e:33|78
1621949709|a4:83:e7:a4:7e:33|85
1621939072|a4:9b:4f:e3:b2:98|70
1621939093|a4:b1:c1:d6:51:cd|68
1622024291|a4:b1:c1:d6:51:cd|67
1621861390|a4:b1:c1:d6:51:cd|65
1621924968|a4:c1:b3:6d:b0:7a|71
1621859107|a4:c3:f0:c9:2c:cd|75
1622024790|a4:c4:94:45:e4:58|70
1621942484|a4:c4:94:45:e4:58|72
1622022452|a4:cb:0f:21:03:3b|83
1621855024|a4:d9:31:d8:79:11|78
1621944326|a4:e4:b8:80:55:71|75
1622022061|a4:e4:b8:80:55:71|84
1621851917|a4:e4:b8:80:55:71|81
1622020505|a4:e4:b8:94:90:67|84
1621937218|a4:e4:b8:94:90:67|87
1621840260|a4:e8:f7:f8:8a:00|67
1621929458|a4:f2:3a:a0:00:34|72
1621837711|a5:00:3a:3e:cb:42|67
1621927854|a5:34:22:c2:7a:8b|62
1621949691|a5:3e:82:57:72:c3|72
1621852146|a5:bc:94:02:78:71|72
1621860350|a5:c6:34:55:a6:ba|76
1621923327|a7:26:2d:4e:e3:43|75
1621928308|a7:41:c7:d7:92:7a|71
1621927819|a7:5d:1c:a0:f0:77|77
1621837408|a7:7f:1d:48:8e:06|70
1621840771|a7:a3:15:e8:27:82|89
1621861003|a7:d9:83:9e:38:b7|79
1621926196|a8:18:84:a2:09:00|71
1621948551|a8:18:da:d5:3f:ad|84
1621934460|a8:32:4d:b2:e1:e4|85
1622015584|a8:60:d0:a4:8b:20|88
1621839487|a8:66:7f:64:04:08|68
1622009951|a8:6d:aa:0c:8a:69|66
1621846762|a8:6d:aa:0c:8a:69|67
1621929260|a8:6d:aa:c8:e6:41|81
1621845234|a8:6d:aa:c8:e6:41|85
1621839956|a8:81:7e:89:8b:2f|84
1621929943|a8:81:7e:8f:3c:21|83
1621840905|a8:81:7e:8f:3c:21|68
1621853049|a8:8e:83:26:da:29|67
1621953681|a8:96:75:35:9a:40|76
1621851448|a8:96:75:63:da:d8|81
1621938520|a8:9c:ed:6d:c8:bd|83
1622030151|a8:9c:ed:6d:c8:bd|79
1621945964|a8:b1:cc:5c:f1:78|67
1621942872|a8:c2:1d:0e:25:9f|78
1621924810|a8:db:03:54:b1:1d|73
1621864121|a8:db:03:54:b1:1d|52
1621864159|a9:28:07:2d:6c:45|86
1621840498|a9:5c:f5:b8:9f:f5|72
1622013883|a9:a8:67:c2:de:3e|82
1621855340|a9:c9:5a:0f:34:b1|91
1621933306|a9:e4:22:26:00:ad|75
1621839471|ab:2b:d0:d7:fe:62|67
1621838349|ab:67:e8:40:57:27|88
1621848773|ab:a9:0d:b2:59:11|74
1622016088|ac:07:5f:2a:c1:44|68
1621923048|ac:07:5f:2a:c1:44|84
1621852258|ac:27:c5:68:32:f5|69
1622015017|ac:64:cf:f4:01:6b|66
1621856341|ac:78:91:dc:11:41|62
1621942545|ac:92:32:f5:48:dd|85
1621947647|ac:d7:7b:56:f5:48|91
1622023975|ac:fd:ce:37:75:12|68
1621857354|ac:fd:ce:37:75:12|78
1621927405|ad:2d:10:9f:b2:3e|70
1621927982|ad:6f:a3:37:f4:e5|71
1621850698|af:1e:dc:ec:91:0e|73
1621850758|af:35:62:77:c2:95|68
1622023697|af:4e:36:3c:09:d9|83
1621929710|af:b5:aa:8f:a4:bb|71
1621928469|af:e2:bf:17:cf:a0|65
1621943866|b0:35:9f:9d:d0:e1|73
1621923072|b0:35:b5:e5:7c:80|75
1621850596|b0:35:b5:e5:7c:80|69
1622012660|b0:48:1a:97:d1:c9|72
1621847239|b0:6f:e0:1e:1e:e8|73
1621840773|b0:6f:e0:b0:41:f2|76
1622011413|b0:70:2d:bc:e2:2a|76
1621951029|b0:72:bf:42:e9:d6|82
1622033815|b0:72:bf:5e:83:fa|86
1621857046|b0:a2:e7:cf:24:4c|83
1621922883|b0:a4:60:93:b5:52|68
1621837038|b0:a4:60:93:b5:52|58
1621925469|b0:a4:60:9d:d8:bb|87
1621952866|b0:a8:e3:aa:9a:27|80
1621926966|b0:b6:f6:0e:01:80|68
1621854402|b0:c7:6f:c1:32:d1|71
1621940944|b0:d4:a5:c2:f7:57|72
1621925415|b0:e1:7e:a6:4b:f5|76
1621853164|b0:e1:7e:a6:4b:f5|75
1621934241|b0:e2:35:c0:db:b6|68
1621862848|b0:e2:35:c1:1c:05|74
1622014743|b0:e2:35:c1:26:0e|70
1621928304|b0:e2:35:c1:27:b1|74
1622016959|b0:e2:35:c1:2f:22|69
1621932231|b0:e5:ed:99:de:a8|77
1621922418|b0:fc:36:a9:6a:2f|94
1621948697|b0:fc:36:aa:71:6b|90
1621837569|b0:fc:36:b0:b2:ab|86
1621836551|b0:fc:36:b1:07:25|85
1621942149|b1:d8:60:8d:b0:f5|72
1621928718|b3:20:70:49:8b:f1|67
1621840671|b3:79:7f:18:5a:2f|73
1621851741|b3:ec:c0:6a:cf:f9|79
1621840957|b4:29:6e:5f:a0:40|75
1621950022|b4:42:e9:97:7a:3d|65
1621837220|b4:6b:fc:d3:24:03|67
1622015380|b4:74:43:65:6d:79|76
1621853692|b4:8b:19:75:a2:1c|81
1621929764|b4:8b:19:da:a2:ef|71
1622034719|b4:ae:2b:e1:d7:d5|67
1621866205|b4:cd:27:15:6d:dd|83
1621930450|b4:ce:40:fb:07:0d|89
1621953024|b4:eb:12:bd:54:96|82
1621929924|b4:ec:8c:40:33:9b|64
1621941147|b4:f7:a1:85:44:84|90
1621939624|b5:3c:03:46:39:83|92
1621926361|b5:a7:db:bc:97:85|71
1621856166|b5:c1:42:33:44:89|65
1621851070|b7:12:1c:77:64:06|76
1621851537|b7:9b:a0:ac:81:b0|73
1621845575|b8:31:b5:7f:12:31|70
1621929829|b8:53:ac:c7:31:1b|86
1621847589|b8:53:ac:c7:31:1b|84
1621932620|b8:57:d8:a1:22:3a|64
1621838412|b8:86:77:27:21:8a|74
1622031984|b8:8a:60:ed:5d:50|57
1621928385|b8:94:e1:fc:2c:2e|69
1622009433|b8:9a:2a:af:32:ff|62
1622030141|b8:9d:3e:a3:50:3c|71
1621853460|b8:a4:66:1f:80:be|77
1621849414|b8:ad:d2:ec:91:5e|81
1622037092|b8:c9:b5:ca:58:dd|86
1621845034|b8:d4:70:40:cb:c4|68
1621950417|b8:d7:af:02:86:de|82
1622036352|b8:d7:af:02:86:de|85
1621864330|b8:d7:af:02:86:de|93
1622030909|b8:d7:af:b6:77:f7|76
1621940721|b8:d7:af:b6:77:f7|73
1621927244|b8:e4:5a:69:cc:ad|68
1622008976|b8:ee:65:67:04:86|80
1621860920|b9:ac:ab:9c:52:fd|87
1621839837|b9:c2:c1:27:df:c4|76
1621850004|bb:c1:29:01:65:fd|67
1621841302|bb:e6:b5:b1:81:1c|69
1622023221|bb:e9:21:7a:93:4f|73
1622016365|bc:17:b8:3f:bb:e6|70
1621942265|bc:2e:f6:68:9a:c7|64
1622021113|bc:2f:3d:e3:70:cf|71
1621853891|bc:2f:3d:e3:70:cf|70
1621949320|bc:30:1d:39:f9:6c|79
1622020140|bc:32:d8:dc:3d:44|81
1621837683|bc:35:8d:52:0c:41|75
1621836233|bc:3a:ea:bc:1f:8c|80
1621929172|bc:44:34:12:cb:e5|69
1622023365|bc:4c:c4:8c:38:54|90
1621937427|bc:4c:c4:8c:38:54|94
1622034909|bc:4c:c4:b5:df:a6|83
1621951306|bc:4c:c4:b5:df:a6|89
1622022292|bc:54:51:9e:bb:86|83
1621923815|bc:83:85:0f:41:06|72
1622021277|bc:83:85:12:f8:91|59
1621934250|bc:83:85:ef:10:d6|70
1621836677|bc:83:85:ef:10:d6|76
1621937768|bc:a5:8b:28:66:9f|84
1621865575|bc:a5:8b:e0:f3:f2|91
1621856983|bc:e2:65:63:9a:89|90
1621850770|bc:e2:65:e0:6d:34|81
1621926229|bc:ff:75:26:9d:be|64
1621932254|bc:ff:eb:b9:b9:35|84
1622014098|bd:98:b1:c0:eb:02|68
1621850497|bd:db:f8:30:2b:7f|77
1621927913|bf:4a:72:23:ad:78|68
1621853063|bf:c5:3b:d6:77:1d|70
1621851445|bf:f8:67:a6:40:49|77
1621839416|c0:05:fe:5e:12:30|63
1621868078|c0:17:4d:13:3f:73|83
1622033319|c0:17:4d:14:52:71|69
1621836108|c0:17:4d:14:52:71|70
1621854816|c0:17:4d:2f:18:3f|77
1621841462|c0:17:4d:38:2f:34|78
1622031942|c0:17:4d:c7:46:e7|90
1621851051|c0:22:2b:1d:3b:5a|67
1622032762|c0:48:94:98:55:ae|66
1621942483|c0:77:53:13:68:a1|82
1621928094|c0:82:88:cc:e9:33|70
1621851404|c0:93:dc:f0:5e:cd|77
1621939484|c0:a6:00:6b:fc:e1|91
1621850351|c0:b5:d7:d9:00:6d|81
1621929093|c0:b6:58:52:15:74|74
1621944136|c0:b6:f9:3d:5a:8b|73
1622014843|c0:b6:f9:3d:5a:8b|67
1621859988|c0:b6:f9:3d:5a:8b|74
1621944230|c0:b6:f9:3d:5a:8c|80
1621860593|c0:b6:f9:3d:5a:8c|76
1621923063|c0:b8:83:7c:e7:4b|71
1622013178|c0:b8:83:7c:e7:4b|75
1621855034|c0:b8:83:7c:e7:4b|77
1621840240|c0:b8:83:c9:f2:c5|78
1622017820|c0:bd:c8:fb:69:ef|71
1621931329|c0:bd:d1:7f:41:e0|74
1621952972|c0:c5:6c:16:48:4f|81
1622023229|c0:d2:dd:66:05:c5|76
1621837250|c0:d2:dd:66:05:c5|80
1622031983|c0:d2:f3:84:bf:02|68
1621842221|c0:f0:99:c8:86:ae|76
1621945931|c0:f0:aa:45:15:96|73
1621946572|c1:0f:35:c2:35:5c|75
1621924137|c1:4d:87:c0:7a:cd|63
1621849509|c1:70:ca:06:06:a9|70
1622016241|c1:84:4a:a9:64:17|74
1621925498|c1:c4:94:b1:10:16|67
1621930333|c1:e3:cb:a1:92:ca|76
1621857388|c1:f2:c5:21:1d:23|70
1621842649|c3:1f:6f:77:3e:ca|65
1621925203|c3:3b:7a:56:78:49|70
1622015396|c3:3d:30:69:6e:48|70
1621845993|c3:40:13:da:13:6c|79
1621934364|c3:ca:f9:fc:01:db|82
1621849620|c3:d6:3e:72:72:37|63
1621865100|c3:f4:22:c1:b8:7e|85
1621838221|c4:06:83:25:f3:02|84
1621927609|c4:50:01:87:88:56|79
1622014679|c4:57:6e:4e:d2:b7|76
1621842628|c4:57:6e:4e:d2:b7|79
1621942291|c4:57:6e:4e:d2:b7|79
1621849389|c4:8c:2b:74:c3:3c|67
1622013462|c4:8e:8f:f3:80:bd|84
1621852036|c4:91:0c:b6:e6:85|80
1621933070|c4:9d:ed:1e:a5:b5|66
1621836083|c4:9d:ed:1e:a5:b5|71
1621923568|c4:9f:4c:84:b2:8b|73
1622010143|c4:e4:17:bb:a8:d0|63
1622036888|c4:fe:5b:af:e2:43|68
1622023832|c5:2e:3f:f5:61:49|89
1621945902|c5:34:a4:4d:74:b7|81
1621842249|c5:86:af:5f:0d:1c|79
1621948997|c5:a0:b9:9a:20:92|67
1621841685|c5:b7:0c:00:cb:a0|78
1621949275|c5:ef:d5:92:38:c7|74
1621924022|c7:09:e3:b5:46:2c|74
1622014013|c7:51:58:15:a9:c9|87
1621928701|c7:7a:2b:07:2b:87|74
1621838121|c7:90:cb:86:1b:55|73
1621927259|c7:ef:a2:99:30:6d|72
1621923227|c8:02:10:bf:67:e0|74
1621845631|c8:02:10:bf:67:e0|75
1622009432|c8:1e:e7:1b:15:83|88
1622020603|c8:34:8e:63:06:4e|89
1621949486|c8:6c:cf:46:e7:62|69
1621941231|c8:a9:88:f5:16:59|86
1621838241|c8:ca:ee:87:d8:b2|72
1621926414|c8:d0:83:0f:25:c6|90
1622019759|c8:d0:83:0f:25:c6|52
1622010646|c8:e1:a7:09:48:a2|61
1621923437|c8:e1:a7:09:48:a2|57
1621836044|c8:e1:a7:09:48:a2|66
1621941097|c8:f7:33:db:5a:83|84
1621850516|c8:f9:09:e0:b3:9b|68
1621846437|c9:35:ac:93:a2:09|74
1621948785|c9:3d:bf:f0:96:57|88
1621937145|c9:49:92:5a:40:90|82
1621849564|c9:4f:7f:a5:84:68|69
1621941536|c9:5d:da:32:42:18|73
1621855669|c9:73:ee:93:08:4e|70
1622029015|c9:f2:17:4c:20:4e|52
1621846373|cb:52:aa:ab:f8:46|79
1621947466|cb:6a:b4:87:df:c1|81
1621853039|cb:98:2e:a8:03:14|72
1621851400|cb:df:b5:4f:d5:5b|74
1621931430|cc:02:e2:9a:dc:e0|91
1621859302|cc:20:e8:9f:f7:61|89
1621951909|cc:21:19:4c:56:94|86
1621859501|cc:21:19:89:75:37|82
1621853158|cc:31:61:62:73:eb|71
1621848702|cc:3a:61:90:fb:13|66
1621855640|cc:3d:82:4f:04:39|66
1621840975|cc:3d:82:4f:21:7b|65
1621836042|cc:46:4e:cf:02:6e|79
1621930784|cc:46:4e:eb:40:3a|73
1621935206|cc:58:40:96:d2:74|71
1621842001|cc:92:7d:73:f2:90|80
1621841161|cc:c5:7d:30:b7:5c|68
1621927028|cd:39:92:2a:d1:50|79
1621854643|cd:4a:0f:f0:45:ea|69
1621850223|cd:a5:4d:11:07:ed|66
1621853058|cd:a7:54:1d:f0:0b|60
1621851005|cd:bd:fe:9e:a1:f1|77
1622020767|cd:c1:0b:9a:f9:05|66
1621840379|cd:c5:80:9c:2f:ff|68
1621846071|cd:e4:cb:2a:9b:17|70
1621950428|cf:7c:d7:52:0c:81|87
1621842078|cf:cb:ae:47:fa:3d|83
1621845840|cf:fe:58:ab:98:e4|71
1621838108|d0:06:42:79:82:49|76
1621936734|d0:25:98:6f:08:4c|86
1621848977|d0:25:98:a4:d0:04|70
1621947803|d0:4b:25:2a:51:44|86
1622025850|d0:53:49:df:f2:fd|71
1622037297|d0:81:7a:7b:23:d0|94
1621933263|d0:82:46:67:1f:ba|76
1622036264|d0:b1:28:fc:62:77|87
1622010931|d0:c6:37:12:3b:3f|77
1621836824|d0:c6:37:12:3b:3f|73
1621948313|d0:c6:37:c6:ff:58|89
1622017780|d0:c6:37:c7:0b:14|93
1621860637|d0:c6:37:c7:0b:14|94
1621931262|d0:c6:37:c7:0d:f8|74
1621846051|d0:c6:37:d6:fa:fb|67
1621864809|d0:d0:03:0a:93:28|67
1621850364|d0:d3:45:4d:5f:d5|68
1621952885|d0:da:ec:a2:83:e3|81
1621851233|d1:06:a9:c6:f3:ef|77
1621928676|d1:7e:1e:17:79:3f|71
1621851885|d1:d0:69:ec:1b:b6|70
1621929058|d3:2f:23:ef:f1:cd|70
1621838609|d3:72:b8:d9:9e:27|85
1621865540|d3:b1:a5:3b:a2:6f|66
1621840910|d3:ba:08:89:3a:3d|83
1621861312|d4:11:a3:1a:d0:6f|88
1621844012|d4:35:81:9c:7b:d9|80
1621837794|d4:3b:04:79:25:8e|77
1621927785|d4:3b:04:a0:aa:55|68
1622018501|d4:3b:04:a0:aa:55|70
1621841584|d4:3b:04:a0:aa:55|69
1621927741|d4:43:95:f5:9a:82|81
1621942138|d4:4d:a4:fb:89:da|72
1621927506|d4:5d:52:ef:15:2f|69
1621944763|d4:62:ea:38:0c:a1|72
1621836178|d4:6d:6d:e0:e8:c2|66
1622010714|d4:90:9c:71:ca:12|73
1621922975|d4:90:9c:71:ca:12|81
1621836541|d4:90:9c:95:53:5d|73
1622019424|d4:a3:3d:b6:d7:24|61
1621844000|d4:ae:05:39:ce:27|86
1621862580|d4:b7:61:87:81:46|94
1621953715|d4:b7:61:a0:6f:13|94
1621930913|d4:d2:52:b8:18:02|80
1621922434|d4:d2:52:b8:18:70|87
1621928506|d5:19:f0:53:ac:ac|67
1621840715|d5:54:aa:44:58:dc|72
1621926242|d5:81:e5:23:bf:a9|68
1621929150|d5:f1:6a:dc:ab:a8|67
1621855015|d7:29:fb:79:49:f9|79
1621839955|d7:38:58:ad:9f:0f|78
1621840310|d7:38:a1:68:66:0a|75
1621854251|d7:4e:a9:50:93:2c|72
1621930563|d7:9d:43:73:62:b5|79
1621851780|d7:d1:cf:6e:f2:39|78
1622025703|d8:1e:dd:b0:55:af|76
1621841446|d8:27:b8:19:9f:23|94
1621952577|d8:32:e3:50:2a:2a|89
1621837959|d8:44:49:84:96:98|66
1621940316|d8:4c:90:b3:ff:30|74
1622015820|d8:4c:90:b3:ff:30|93
1621861256|d8:4c:90:b3:ff:30|64
1621930920|d8:68:c3:8c:38:c1|70
1622015820|d8:9e:61:e8:92:59|74
1621840650|d8:9e:61:e8:92:59|80
1621841894|d8:bb:2c:f3:51:ac|79
1622011797|d8:d6:72:a4:f7:b3|77
1621853545|d8:ee:fe:8a:ab:72|65
1622030346|d8:f2:ca:11:cb:b4|76
1621861612|d8:f2:ca:11:cb:b4|72
1622019608|d8:f2:ca:b4:e4:9d|82
1621843785|d8:f2:ca:b4:e4:9d|82
1621838501|d9:2e:81:65:37:29|77
1621925287|d9:84:02:8c:b8:4c|70
1621946576|d9:b1:17:6f:ad:50|63
1621853501|d9:cc:18:d4:a9:06|72
1622030130|d9:d7:a5:5c:e2:23|68
1621929570|d9:e7:3f:d0:81:77|66
1621838005|db:10:01:6b:e0:86|68
1622029522|db:11:3b:16:f8:1a|64
1621925146|db:a9:0b:2e:dd:7c|73
1621928471|db:dc:07:b3:60:e3|68
1621855499|dc:16:b2:53:78:d6|77
1621927441|dc:16:b2:89:23:f3|64
1621848081|dc:16:b2:89:23:f3|68
1621929946|dc:66:72:c8:54:03|73
1621864379|dc:72:9b:05:a9:a4|91
1621853594|dc:76:e2:ce:56:a4|63
1621836751|dc:85:de:c0:4c:df|85
1622032451|dc:8b:28:41:99:fc|70
1621944538|dc:8b:28:65:9c:35|82
1622023342|dc:8b:28:77:df:e4|78
1621926200|dc:b1:3a:b7:71:59|77
1621844821|dc:b7:2e:b6:ae:7a|89
1621932186|dc:b7:2e:bb:2b:e4|82
1621927054|dc:d8:46:ff:0b:82|74
1622029076|dc:ef:ca:39:fb:f1|71
1621943352|dc:ef:ca:d0:b6:00|90
1621923073|dc:f0:90:bf:1e:84|67
1622013238|dc:f0:90:bf:1e:84|79
1621836065|dc:f0:90:bf:1e:84|81
1621940165|dc:f7:56:07:94:c8|85
1622030689|dc:fb:48:11:89:79|79
1621850026|dc:fb:48:8a:de:c8|76
1621838211|dd:03:d2:16:68:80|67
1622032668|dd:20:c7:da:af:f4|66
1621851219|dd:36:c1:9c:8b:8e|67
1621838212|dd:97:ef:1c:f9:55|72
1621854590|dd:d7:4e:20:e8:f0|83
1621854673|df:46:2c:75:81:2a|72
1621841744|df:a7:6a:2d:25:93|83
1621850703|df:b8:ef:74:b9:63|77
1621854013|df:e1:5d:50:7c:25|65
1621948595|df:ec:d6:21:00:aa|73
1621850702|e0:0e:cd:51:03:0f|65
1621944621|e0:5f:45:bc:fa:7e|69
1621854759|e0:85:50:30:53:ba|77
1621838130|e0:89:7e:16:7b:fc|72
1622028970|e0:9e:70:13:de:09|66
1621940681|e0:a2:ab:c2:81:e6|77
1622018303|e0:aa:96:0b:f7:ce|89
1621848090|e0:aa:96:0b:f7:ce|80
1621845247|e0:b5:2d:0b:9b:1b|82
1621929026|e0:c4:e1:da:ed:af|67
1621924467|e0:ca:94:84:33:6f|91
1621836992|e0:ca:94:84:33:6f|89
1621842789|e0:d5:80:de:0b:6a|74
1621931487|e1:53:e9:db:6d:b4|90
1621946158|e1:ce:8b:81:a5:ce|69
1621927065|e1:d6:8c:d8:2e:da|83
1621923032|e3:5d:a6:5d:d6:c6|80
1621852408|e3:ab:cd:58:15:3b|67
1621947792|e3:ff:14:42:e4:8f|83
1622023054|e4:0e:ee:7e:92:40|75
1621934061|e4:0e:ee:e4:dd:b8|86
1621938805|e4:2a:ff:f4:08:36|70
1622013486|e4:2b:34:e5:1f:49|78
1621847454|e4:2b:34:e5:1f:49|77
1621923393|e4:70:b8:0d:b2:7c|84
1621922447|e4:a4:71:ae:bb:90|81
1622008854|e4:b3:18:9c:52:34|71
1621922642|e4:b3:18:9c:52:34|77
1621924490|e4:b3:18:c7:54:bb|90
1622012155|e4:b3:18:c7:54:bb|89
1621844161|e4:b3:18:e9:1f:15|85
1622029231|e4:d7:c0:9d:0e:52|83
1621856410|e4:ec:f1:74:f7:d7|59
1621924132|e4:f8:9c:34:dd:d4|84
1621858399|e4:fd:a1:32:5a:ac|90
1621932160|e5:c6:70:fb:c5:4a|71
1621948524|e7:0e:6d:ce:6d:2c|84
1621855674|e7:2c:ec:b2:f1:3f|73
1622011734|e7:46:da:ed:73:68|75
1621931126|e7:55:20:23:b5:57|82
1622029811|e7:c0:c2:a6:5b:4e|64
1621848957|e8:2a:ea:19:b9:2d|74
1622020078|e8:43:86:b3:7c:71|83
1622034115|e8:50:8b:7a:0c:7c|82
1622012541|e8:5a:8b:62:63:17|71
1621837480|e8:5a:8b:62:63:17|71
1622016548|e8:93:09:2e:01:ee|69
1621843424|e8:93:09:2e:01:ee|53
1621861200|e8:a8:4b:da:97:7b|81
1622023544|e8:d0:fc:f6:9c:2f|87
1621935365|e8:d0:fc:f6:9c:2f|87
1621838460|e8:da:08:7a:25:23|73
1621855945|e8:e5:18:00:8c:63|66
1621928515|e9:0a:ef:eb:eb:f1|76
1621852467|e9:43:8e:2b:eb:0a|64
1621854217|e9:4b:ee:c6:6f:cd|90
1621853483|e9:6f:7a:4c:34:c8|82
1621929236|e9:ae:bf:4b:03:f7|67
1621852554|e9:bd:86:d8:08:64|68
1621949464|e9:ce:c3:d3:8e:aa|71
1621849994|e9:f3:b5:49:73:72|60
1621856362|eb:48:1e:2e:fd:f9|66
1621849636|eb:4f:ca:4e:f2:a3|66
1621842459|eb:53:b8:f1:97:d8|75
1621937246|eb:c4:5e:70:de:1c|81
1621839667|eb:e5:98:2a:23:13|72
1621948852|eb:fe:a7:c3:30:8b|66
1621836853|ec:01:ee:d0:10:6f|91
1622031445|ec:07:37:65:2e:5c|73
1622024454|ec:10:7b:f3:d2:5f|88
1621945049|ec:1f:72:11:3b:8d|78
1621843996|ec:1f:72:11:3b:8d|71
1622028696|ec:1f:72:2b:f8:b6|75
1621935692|ec:1f:72:2b:f8:b6|70
1622030100|ec:1f:72:66:0c:0a|77
1622021883|ec:1f:72:7b:e0:80|67
1621923074|ec:1f:72:7b:e0:80|76
1622012653|ec:1f:72:80:10:d2|79
1621866911|ec:1f:72:83:3b:dd|91
1621836024|ec:1f:72:83:9f:04|74
1621851289|ec:1f:72:b7:fe:85|70
1622034451|ec:1f:72:b9:5a:78|90
1621850742|ec:4b:c7:d8:1a:ca|67
1621842207|ec:65:e4:d6:b5:a7|76
1621837311|ec:8b:cc:98:e9:89|84
1621928645|ec:9b:f3:ab:a6:5a|78
1621838396|ec:9b:f3:ab:a6:5a|79
1622035552|ec:9b:f3:d1:58:e4|66
1621837554|ec:9b:f3:d1:58:e4|85
1621949621|ed:23:f3:5b:52:b1|75
1621854400|ed:44:f8:9f:e9:21|79
1621927841|ed:bf:b2:da:40:49|63
1621858767|ed:e4:64:d0:fe:85|82
1621946661|ef:16:78:5b:a6:c7|74
1621855220|ef:45:da:c9:e4:64|81
1621949989|ef:4c:d8:cb:8c:0b|68
1621950275|f0:05:34:da:5f:40|90
1622023701|f0:30:87:b8:0e:e7|69
1622033744|f0:6d:78:5a:ad:4d|74
1621838751|f0:6e:0b:e3:c3:f7|80
1621839273|f0:79:60:24:57:02|84
1621844100|f0:8a:76:4f:76:2c|70
1621928069|f0:98:9d:9e:ea:42|72
1621845398|f0:98:9d:9e:ea:42|67
1621929436|f0:98:9d:e7:9a:9a|72
1621934498|f0:99:b6:d1:3c:7b|81
1621842798|f0:99:b6:d1:3c:7b|66
1621949705|f0:a1:85:d9:57:ab|69
1622020845|f0:d5:bf:29:6a:bc|85
1622016617|f0:d5:bf:29:6a:bd|90
1622013472|f0:d5:bf:bb:9e:41|75
1622013594|f0:d5:bf:bb:9e:42|68
1621923684|f0:d5:bf:bb:9e:42|75
1622010721|f0:fa:2c:60:d8:29|78
1621941115|f1:94:29:d5:4f:8f|80
1621842143|f1:b3:d5:73:7f:05|83
1621948458|f1:e2:7c:60:f9:5c|70
1621854100|f3:30:54:bc:24:3a|68
1621948897|f3:3e:94:27:ef:54|69
1622033549|f3:45:c8:de:46:cd|69
1621853102|f3:6a:54:fb:ff:72|69
1622016464|f4:06:69:66:c2:22|85
1621839792|f4:06:69:66:c2:22|80
1621837338|f4:07:8d:b3:80:4b|77
1622014157|f4:0e:22:b7:7d:3f|68
1621930890|f4:0f:24:1f:fc:8b|74
1621842813|f4:0f:5d:35:bb:3d|73
1622015525|f4:26:21:70:e1:a5|83
1621945212|f4:5c:89:a9:4f:db|84
1621851533|f4:80:77:2d:9e:a4|67
1621945668|f4:8c:50:c8:a5:14|89
1622024654|f4:8c:50:d5:79:e7|87
1621850350|f4:8c:50:d5:79:e7|68
1621859374|f4:8c:50:fd:c6:c7|93
1622018240|f4:96:34:99:a8:36|83
1621853404|f4:96:34:99:a8:36|86
1621926378|f4:96:34:99:a8:36|88
1622012174|f4:96:34:99:a8:37|93
1621927522|f4:96:34:99:a8:37|90
1622018447|f4:a6:f2:f3:aa:0a|69
1621842849|f4:c2:48:1c:39:41|81
1621836696|f4:c2:48:73:ec:87|82
1622027296|f4:c2:48:8a:0b:85|89
1621923794|f4:c2:a0:cb:20:4c|91
1622015261|f4:c9:62:ed:f8:e2|68
1622017534|f4:ef:35:48:63:a8|71
1621926757|f4:f9:b9:a0:0c:9f|74
1621923300|f4:fc:e0:62:d8:f4|88
1621839751|f5:7f:99:86:f8:a8|69
1621842245|f5:cd:a5:7b:2b:cb|77
1621849991|f7:08:7d:b6:b1:1f|85
1621932830|f7:81:c1:a4:09:aa|80
1621938821|f7:8c:35:6d:6c:1b|71
1621927306|f7:d5:9b:a0:0e:e3|81
1621854320|f7:dd:8f:03:64:17|65
1622032347|f8:28:19:ee:7c:3b|71
1622035788|f8:59:71:32:6d:e3|77
1621922628|f8:59:71:32:6d:e3|84
1622016739|f8:5e:a0:2c:5f:24|77
1621934815|f8:63:3f:94:59:80|89
1621847100|f8:87:f1:43:7e:38|84
1621841804|f8:94:c2:02:03:5f|62
1622014445|f8:94:c2:09:20:f9|80
1622012293|f8:94:c2:09:21:30|76
1621938440|f8:94:c2:09:21:30|83
1621934393|f8:9a:78:8a:5b:ae|63
1621923379|f8:a2:d6:e3:d6:4d|78
1621940590|f8:ac:65:80:24:5b|64
1621836003|f8:c3:9e:bd:24:a8|67
1621949948|f8:d6:9f:33:25:a6|74
1621846102|f8:e4:e3:67:29:6f|73
1621931780|f8:e4:e3:91:ee:c0|72
1621854900|f8:e4:e3:91:ee:c0|91
1621836036|f8:e4:e3:e4:6a:06|51
1621942578|f8:e7:a0:21:57:77|86
1621837120|f8:e9:4e:b0:58:77|89
1621931539|f8:ff:c2:03:88:ee|85
1621848610|f8:ff:c2:03:88:ee|88
1622015261|f8:ff:c2:53:af:bc|68
1621926376|f8:ff:c2:53:af:bc|70
1621930885|f8:ff:c2:66:ad:4e|83
1621848457|f8:ff:c2:b6:37:d4|76
1621927503|f9:1f:16:8e:34:48|71
1621948427|f9:25:d8:5c:b1:be|78
1621929116|f9:59:e0:88:c6:6d|67
1621854315|f9:e5:20:92:b6:61|72
1621942372|fb:4e:53:ce:73:aa|69
1621849962|fb:b8:c3:87:78:85|69
1621852484|fb:bb:b8:7a:54:45|81
1621923346|fb:c4:97:2c:5d:a6|76
1621837105|fb:c8:95:dc:2f:d2|68
1621841998|fb:d0:2b:c0:24:69|76
1621840974|fc:08:a6:dc:14:b0|76
1621839353|fc:1f:5f:bd:12:19|71
1622029676|fc:32:3d:42:08:b1|74
1621941640|fc:42:03:10:1d:6d|77
1622030482|fc:42:03:1f:3c:72|88
1621844058|fc:42:03:bf:e2:94|76
1621854386|fc:53:41:12:d8:89|66
1621952911|fc:66:61:8c:64:a6|84
1622009832|fc:66:cf:e1:47:39|63
1622016460|fc:77:74:f2:c7:db|86
1621923448|fc:77:74:f2:c7:db|83
1621945330|fc:aa:b6:64:33:e0|68
1622019083|fc:db:b3:1b:cb:72|66
1621923461|fd:3a:de:4e:04:55|83
1621949048|ff:2b:da:c0:7e:7a|76
1621852938|ff:4e:e2:96:97:fc|64
1621853747|ff:6d:8b:41:08:89|68
1621851582|ff:f1:87:7f:25:27|71