1622015038|00:0a:f5:49:a3:90|78
1621861835|00:0c:e7:00:8f:c2|82
1621929796|00:0c:e7:00:95:2f|81
1621853128|00:0c:e7:00:e3:d1|57
1621946026|00:0c:e7:00:e5:cf|75
1621864968|00:0c:e7:01:f7:e3|85
1621852704|00:0c:e7:02:d4:0e|82
1622022237|00:0c:e7:03:e7:4e|81
1621931941|00:0c:e7:04:00:dd|67
1621847566|00:0c:e7:04:7d:e7|70
1621927947|00:0c:e7:05:0a:d1|73
1622030321|00:0c:e7:05:5d:f0|74
1622027437|00:0c:e7:06:38:cd|73
1621929085|00:0c:e7:06:b3:f5|82
1621849087|00:0c:e7:07:18:2e|84
1621854228|00:0c:e7:07:27:17|80
1621854389|00:0c:e7:07:9f:fd|81
1621843268|00:0c:e7:08:76:d1|64
1622011475|00:0c:e7:09:98:d0|69
1622021485|00:0c:e7:09:9f:8e|82
1621936608|00:0c:e7:09:a6:0e|69
1621933878|00:0c:e7:09:e4:1f|85
1621935847|00:0c:e7:0a:0b:ee|93
1621937324|00:0c:e7:0a:42:be|62
1621864364|00:0c:e7:0a:9b:31|76
1621848986|00:0c:e7:0a:9b:36|88
1621848576|00:0c:e7:0a:ea:55|87
1621947377|00:0c:e7:0b:51:2b|62
1621852458|00:0c:e7:0b:c5:01|57
1622020625|00:0c:e7:0c:30:d4|74
1621927814|00:0c:e7:0c:76:07|78
1622022627|00:0c:e7:0e:59:e0|77
1621841727|00:0c:e7:0e:5e:61|68
1622031274|00:0c:e7:0e:a1:ce|91
1622028649|00:0c:e7:0e:de:d2|73
1621839622|00:0c:e7:0e:e5:c9|84
1622031590|00:0c:e7:0f:3f:31|88
1621945603|00:0c:e7:0f:b9:59|78
1621855282|00:0c:e7:12:0c:bf|55
1621858114|00:0c:e7:12:94:00|84
1622012708|00:0c:e7:15:48:de|74
1621948119|00:0c:e7:16:3c:66|84
1621943443|00:0c:e7:17:1e:84|72
1621856539|00:0c:e7:17:24:84|78
1621836565|00:0c:e7:17:7d:87|81
1622030111|00:0c:e7:17:fb:eb|74
1622025188|00:0c:e7:18:48:dc|74
1621840820|00:0c:e7:18:7f:a4|71
1621849034|00:0c:e7:18:e5:7b|80
1621930792|00:0c:e7:1b:10:da|83
1622020360|00:0c:e7:1b:11:7a|85
1621932980|00:0c:e7:1b:18:d4|85
1621842284|00:0c:e7:1b:72:c1|89
1621923490|00:0c:e7:1b:d1:8c|90
1622028390|00:0c:e7:1c:69:09|78
1621844463|00:0c:e7:1c:91:97|73
1621839640|00:0c:e7:1d:06:a5|79
1621932497|00:0c:e7:1d:54:db|71
1621846780|00:0c:e7:1d:90:56|84
1621932281|00:0c:e7:1d:d5:d2|63
1622028665|00:0c:e7:1e:19:a4|82
1621859135|00:0c:e7:1e:c4:dc|85
1622018822|00:0c:e7:1f:3a:66|72
1621923706|00:0c:e7:1f:8c:72|83
1621924588|00:0c:e7:1f:ca:b5|90
1622022204|00:0c:e7:20:6a:21|80
1621848456|00:0c:e7:20:7d:f5|83
1622025549|00:0c:e7:20:7f:46|76
1621848597|00:0c:e7:20:b4:ad|74
1621855180|00:0c:e7:23:55:57|80
1621861956|00:0c:e7:23:7c:c4|89
1622030608|00:0c:e7:23:ad:5c|82
1621864485|00:0c:e7:25:0d:3a|77
1621938046|00:0c:e7:25:8c:70|75
1621952661|00:0c:e7:25:e6:99|92
1622014804|00:0c:e7:26:ac:e9|86
1622018584|00:0c:e7:26:e3:b1|80
1621854107|00:0c:e7:27:13:dd|80
1621942732|00:0c:e7:27:3a:88|80
1621934665|00:0c:e7:28:3b:d5|73
1621837060|00:0c:e7:28:d9:80|61
1622027040|00:0c:e7:29:3e:74|81
1621938610|00:0c:e7:29:62:8f|93
1621924243|00:0c:e7:29:a6:3f|87
1621937389|00:0c:e7:2a:26:e4|70
1621950368|00:0c:e7:2a:df:41|67
1621929500|00:0c:e7:2b:0f:a3|85
1621928776|00:0c:e7:2b:1e:82|82
1622027165|00:0c:e7:2b:3b:25|79
1621856210|00:0c:e7:2b:42:4e|75
1621928724|00:0c:e7:2b:a6:b3|81
1621923012|00:0c:e7:2c:78:1e|71
1621927494|00:0c:e7:2c:b9:81|70
1621943697|00:0c:e7:2d:17:8c|89
1621937537|00:0c:e7:2e:3d:d7|75
1621923298|00:0c:e7:2e:95:c2|72
1621946325|00:0c:e7:2f:6c:eb|75
1621931764|00:0c:e7:2f:ae:9a|81
1621924772|00:0c:e7:2f:bc:e2|87
1621845478|00:0c:e7:30:08:4f|86
1621938808|00:0c:e7:30:80:bb|79
1621932578|00:0c:e7:30:80:de|82
1621930510|00:0c:e7:31:b6:09|77
1621938489|00:0c:e7:32:33:96|80
1621931995|00:0c:e7:33:23:9f|72
1621838579|00:0c:e7:33:3e:4e|68
1622028655|00:0c:e7:33:47:5d|79
1621937324|00:0c:e7:34:11:13|63
1621930577|00:0c:e7:34:5b:7b|87
1622027280|00:0c:e7:34:83:9f|73
1622028527|00:0c:e7:34:8e:03|80
1621947196|00:0c:e7:35:53:fc|82
1621949024|00:0c:e7:35:6b:20|79
1621950220|00:0c:e7:35:9c:8a|69
1621860980|00:0c:e7:35:b4:23|86
1621842442|00:0c:e7:36:93:e1|87
1621923357|00:0c:e7:36:ae:54|75
1621850134|00:0c:e7:36:b0:c4|66
1621945606|00:0c:e7:36:d1:85|68
1621947568|00:0c:e7:36:dd:9f|76
1622029714|00:0c:e7:36:fc:9e|85
1621836962|00:0c:e7:36:fe:42|57
1621845631|00:0c:e7:37:f7:0f|75
1621932446|00:0c:e7:38:8c:a8|80
1621846343|00:0c:e7:3a:b6:6e|77
1621948729|00:0c:e7:3b:9b:3f|71
1621942821|00:0c:e7:3c:c4:5b|79
1621846327|00:0c:e7:3d:e7:98|68
1621927373|00:0c:e7:3e:46:1e|70
1621947017|00:0c:e7:3e:69:e4|85
1621950402|00:0c:e7:3e:f3:3c|77
1621846358|00:0c:e7:3f:5d:d4|75
1621856728|00:0c:e7:3f:b8:77|75
1621923752|00:0c:e7:3f:ce:5e|75
1621946828|00:0c:e7:3f:fa:45|86
1621948586|00:0c:e7:40:6e:58|84
1622015704|00:0c:e7:40:8d:a9|93
1622015902|00:0c:e7:40:a0:e2|88
1622020424|00:0c:e7:40:c0:d2|87
1621844955|00:0c:e7:40:e2:83|85
1622010171|00:0c:e7:41:4e:34|78
1621933635|00:0c:e7:41:50:c4|77
1622032182|00:0c:e7:41:5a:aa|79
1622031050|00:0c:e7:41:7c:c6|76
1621948130|00:0c:e7:42:08:8d|82
1622023314|00:0c:e7:42:a6:ef|70
1621850067|00:0c:e7:43:8d:fb|67
1621923571|00:0c:e7:43:b2:5a|66
1621926937|00:0c:e7:43:e3:03|83
1621923184|00:0c:e7:44:3e:b7|74
1621949026|00:0c:e7:44:d3:26|81
1621923569|00:0c:e7:44:dc:60|68
1622021650|00:0c:e7:44:e1:ff|78
1621925383|00:0c:e7:46:1d:38|84
1621839365|00:0c:e7:47:68:1c|75
1622018842|00:0c:e7:47:a4:7d|75
1621930775|00:0c:e7:48:40:77|81
1621846331|00:0c:e7:49:66:d7|77
1621938023|00:0c:e7:4a:8e:ba|74
1621838200|00:0c:e7:4a:9e:62|72
1621926171|00:0c:e7:4a:d4:d2|86
1621847028|00:0c:e7:4c:06:30|63
1622032686|00:0c:e7:4c:1d:5b|84
1621849225|00:0c:e7:4c:71:5e|88
1621945018|00:0c:e7:4d:15:8f|79
1621944919|00:0c:e7:4e:ea:3d|70
1622018783|00:0c:e7:4e:ee:cc|75
1621950426|00:0c:e7:4f:5a:94|84
1621947832|00:0c:e7:50:36:e9|89
1621864638|00:0c:e7:50:3f:db|80
1622020007|00:0c:e7:53:e6:6d|90
1621849997|00:0c:e7:54:32:21|69
1621838203|00:0c:e7:54:33:3f|74
1622026329|00:0c:e7:54:7f:3e|82
1621852400|00:0c:e7:55:0a:c8|71
1622014060|00:0c:e7:55:22:17|73
1621859097|00:0c:e7:55:dc:5e|85
1621934056|00:0c:e7:55:e9:73|64
1622021837|00:0c:e7:56:a9:43|79
1621846502|00:0c:e7:57:45:a4|74
1621940464|00:0c:e7:57:96:df|68
1621862370|00:0c:e7:58:13:30|77
1621846885|00:0c:e7:58:a1:75|76
1622028644|00:0c:e7:58:d5:7d|77
1621850119|00:0c:e7:59:2d:92|87
1622030859|00:0c:e7:59:3b:3b|86
1622021228|00:0c:e7:59:6e:c6|68
1621839610|00:0c:e7:5a:07:9f|82
1621945622|00:0c:e7:5a:6f:0e|72
1621864118|00:0c:e7:5a:bc:41|79
1622016511|00:0c:e7:5b:0e:78|81
1621947258|00:0c:e7:5b:d0:ec|78
1621927509|00:0c:e7:5d:09:8b|78
1621856720|00:0c:e7:5d:58:c9|73
1621933667|00:0c:e7:5d:75:c1|90
1621862442|00:0c:e7:5e:54:df|82
1622032077|00:0c:e7:5e:72:10|86
1622021654|00:0c:e7:5f:05:72|91
1622011867|00:0c:e7:5f:44:f3|84
1622027223|00:0c:e7:60:45:30|77
1622018354|00:0c:e7:60:ed:d7|71
1621935477|00:0c:e7:61:94:3f|63
1621937316|00:0c:e7:61:95:cd|74
1621846374|00:0c:e7:61:d3:d2|77
1621945498|00:0c:e7:61:f0:72|81
1621929875|00:0c:e7:61:fd:49|82
1622018371|00:0c:e7:62:32:9c|64
1621932511|00:0c:e7:62:4e:eb|75
1622026669|00:0c:e7:62:b4:50|78
1621846977|00:0c:e7:63:26:6c|72
1621949033|00:0c:e7:63:2c:f6|91
1622012977|00:0c:e7:63:31:3e|94
1621865688|00:0c:e7:63:58:a8|75
1621848937|00:0c:e7:63:b7:af|70
1621928463|00:0c:e7:63:ed:25|70
1621838545|00:0c:e7:64:b0:29|79
1621845631|00:0c:e7:65:23:dc|66
1621944565|00:0c:e7:65:7a:78|83
1621847020|00:0c:e7:65:86:59|58
1621950405|00:0c:e7:65:b1:e8|81
1622027680|00:0c:e7:65:b7:5c|72
1621930114|00:0c:e7:66:0e:d1|75
1621923172|00:0c:e7:66:65:6f|56
1621923599|00:0c:e7:66:65:e7|82
1621930745|00:0c:e7:67:45:9c|69
1621926921|00:0c:e7:67:8d:1d|79
1622032807|00:0c:e7:68:19:f1|89
1621855012|00:0c:e7:68:33:52|62
1621929584|00:0c:e7:68:c3:bd|62
1621950319|00:0c:e7:68:cc:59|72
1621926977|00:0c:e7:69:5d:85|80
1621855480|00:0c:e7:69:be:5e|82
1622026296|00:0c:e7:69:e5:a8|64
1621934354|00:0c:e7:6b:ee:a3|77
1621854516|00:0c:e7:6c:05:79|79
1622017887|00:0c:e7:6c:17:e9|74
1621843806|00:0c:e7:6c:61:58|80
1621950607|00:0c:e7:6c:bd:84|81
1621858094|00:0c:e7:6c:e3:b3|84
1621848312|00:0c:e7:6d:52:ea|77
1621844471|00:0c:e7:6d:74:3d|78
1621947445|00:0c:e7:6d:ec:33|67
1622016642|00:0c:e7:6d:f1:62|78
1621846362|00:0c:e7:6e:25:a2|77
1621922784|00:0c:e7:6e:a8:0d|67
1621864121|00:0c:e7:6e:dd:7c|79
1621853089|00:0c:e7:6f:05:b1|70
1622027315|00:0c:e7:6f:18:dc|73
1622016426|00:0c:e7:6f:33:e0|83
1622027285|00:0c:e7:6f:40:a6|75
1621925429|00:0c:e7:6f:93:7b|79
1621945359|00:0c:e7:70:1b:2b|83
1621943818|00:0c:e7:70:53:8e|81
1621843301|00:0c:e7:70:e6:8c|68
1621854847|00:0c:e7:71:25:79|82
1621929708|00:0c:e7:71:3c:a5|79
1622030972|00:0c:e7:71:4b:f6|78
1621930726|00:0c:e7:71:5f:91|70
1621929469|00:0c:e7:71:f4:0e|81
1622018240|00:0c:e7:72:2f:db|78
1622027247|00:0c:e7:72:c3:d4|69
1621930804|00:0c:e7:72:d9:23|83
1621847012|00:0c:e7:73:42:7d|66
1622032177|00:0c:e7:73:48:f6|81
1621924058|00:0c:e7:74:83:2f|80
1621863773|00:0c:e7:74:a0:91|81
1621853741|00:0c:e7:75:34:e2|65
1622027368|00:0c:e7:76:71:d5|75
1621926442|00:0c:e7:77:38:cd|83
1621864138|00:0c:e7:77:ef:5f|85
1621842525|00:0c:e7:78:6d:ad|80
1621849124|00:0c:e7:78:8e:10|74
1621948899|00:0c:e7:79:a3:05|86
1621842407|00:0c:e7:7a:37:53|78
1621928512|00:0c:e7:7a:88:41|82
1621923440|00:0c:e7:7a:fb:29|63
1622017797|00:0c:e7:7b:46:6c|76
1622021105|00:0c:e7:7b:d1:58|81
1622028574|00:0c:e7:7c:4f:bd|65
1621838605|00:0c:e7:7c:97:17|68
1622016621|00:0c:e7:7c:dd:d9|89
1621939127|00:0c:e7:7d:47:01|81
1621850111|00:0c:e7:7f:38:6a|85
1621846022|00:0c:e7:7f:3a:08|82
1621853266|00:0c:e7:7f:78:17|87
1622022749|00:0c:e7:7f:bc:3d|86
1622009320|00:0c:e7:7f:d1:83|78
1622014879|00:0c:e7:80:89:c1|85
1621922919|00:0c:e7:80:ab:03|61
1621858072|00:0c:e7:80:c4:39|79
1621854750|00:0c:e7:81:db:c8|84
1621925457|00:0c:e7:82:c0:46|76
1622018178|00:0c:e7:83:1d:b5|67
1621923499|00:0c:e7:83:77:f8|85
1621849533|00:0c:e7:84:54:cf|78
1621850443|00:0c:e7:84:c2:3b|69
1621850951|00:0c:e7:85:17:5b|83
1621950341|00:0c:e7:86:89:fa|70
1621929593|00:0c:e7:87:1c:40|83
1621860373|00:0c:e7:87:3e:44|86
1622027260|00:0c:e7:87:b8:13|68
1622029227|00:0c:e7:88:06:63|80
1622024676|00:0c:e7:88:29:2d|72
1621936591|00:0c:e7:88:2a:9a|71
1622024441|00:0c:e7:88:39:44|86
1621850091|00:0c:e7:88:b4:c1|70
1621931677|00:0c:e7:89:ab:b8|85
1622012741|00:0c:e7:8a:31:00|91
1621950391|00:0c:e7:8a:7c:46|70
1621938411|00:0c:e7:8a:f5:75|78
1621855524|00:0c:e7:8b:12:47|81
1621846606|00:0c:e7:8b:95:a6|73
1621924830|00:0c:e7:8c:0b:c8|85
1621860350|00:0c:e7:8c:d0:07|79
1621922614|00:0c:e7:8e:44:c5|75
1621842220|00:0c:e7:8e:6d:5c|77
1622028044|00:0c:e7:8f:66:e8|75
1621850362|00:0c:e7:8f:86:37|72
1622013880|00:0c:e7:8f:b3:82|89
1621848999|00:0c:e7:92:88:db|87
1621858497|00:0c:e7:92:d6:17|86
1621937958|00:0c:e7:93:4c:49|78
1621949908|00:0c:e7:93:66:10|85
1621864171|00:0c:e7:93:b0:da|80
1622025689|00:0c:e7:93:c0:66|81
1621938038|00:0c:e7:95:1c:39|78
1621934367|00:0c:e7:95:2d:d4|87
1621859001|00:0c:e7:95:30:f8|81
1621929251|00:0c:e7:95:67:27|81
1622020504|00:0c:e7:96:53:2d|73
1621930991|00:0c:e7:96:75:b9|91
1621924024|00:0c:e7:97:21:6b|83
1621850568|00:0c:e7:97:cc:40|66
1621934339|00:0c:e7:97:fa:8a|75
1621923585|00:0c:e7:98:8f:90|83
1621950262|00:0c:e7:98:9e:54|68
1622022624|00:0c:e7:99:ec:c6|85
1621848668|00:0c:e7:9a:6f:e4|83
1621849057|00:0c:e7:9a:aa:37|85
1621858571|00:0c:e7:9a:cc:ad|85
1621923168|00:0c:e7:9a:fc:1b|69
1622015289|00:0c:e7:9b:48:99|79
1621924081|00:0c:e7:9c:25:1d|85
1622024336|00:0c:e7:9c:53:2d|67
1621845112|00:0c:e7:9c:8b:92|67
1621946316|00:0c:e7:9d:7e:42|67
1621922809|00:0c:e7:9d:f3:97|87
1621936245|00:0c:e7:9e:47:86|74
1622028538|00:0c:e7:9e:79:7a|74
1621945959|00:0c:e7:9e:98:35|69
1621937565|00:0c:e7:9f:ba:62|75
1621849114|00:0c:e7:9f:ce:46|75
1621836207|00:0c:e7:9f:f6:a2|83
1621941586|00:0c:e7:a0:3c:1b|78
1621950355|00:0c:e7:a0:e8:50|75
1622027567|00:0c:e7:a1:cd:44|71
1622022679|00:0c:e7:a2:19:9f|83
1622028578|00:0c:e7:a2:1f:20|72
1621929616|00:0c:e7:a2:39:0a|71
1621928625|00:0c:e7:a2:47:30|82
1621948746|00:0c:e7:a2:77:26|76
1621844559|00:0c:e7:a2:a3:1c|65
1621928745|00:0c:e7:a2:c0:cc|83
1621862078|00:0c:e7:a4:01:e5|86
1621923636|00:0c:e7:a4:46:fd|85
1621850560|00:0c:e7:a4:55:94|67
1621927998|00:0c:e7:a4:83:37|76
1621853321|00:0c:e7:a4:fa:25|84
1621927102|00:0c:e7:a5:60:6a|74
1621932622|00:0c:e7:a5:8a:c0|74
1621923656|00:0c:e7:a5:fe:cd|80
1621844317|00:0c:e7:a7:c7:e4|76
1621950614|00:0c:e7:a8:9b:69|89
1621844575|00:0c:e7:a8:c1:d1|67
1622018676|00:0c:e7:aa:b7:56|76
1621853525|00:0c:e7:aa:e5:81|80
1621858845|00:0c:e7:ab:14:6d|79
1622028904|00:0c:e7:ab:35:09|80
1621945434|00:0c:e7:ac:05:b6|76
1622028583|00:0c:e7:ac:08:0d|72
1621836939|00:0c:e7:ac:d6:0a|57
1622025143|00:0c:e7:ad:7d:06|70
1621845104|00:0c:e7:ad:cd:cd|67
1622026625|00:0c:e7:ae:a8:69|82
1621931112|00:0c:e7:ae:bc:7d|83
1622028569|00:0c:e7:ae:f0:8c|72
1622030835|00:0c:e7:b0:54:fd|83
1621846959|00:0c:e7:b1:98:de|60
1621948459|00:0c:e7:b1:a3:7b|82
1621844625|00:0c:e7:b2:68:27|68
1622014925|00:0c:e7:b2:7d:df|90
1621848982|00:0c:e7:b2:a2:9d|75
1622028532|00:0c:e7:b2:e2:fe|82
1622018315|00:0c:e7:b4:99:af|77
1621844658|00:0c:e7:b4:d3:b0|59
1621849184|00:0c:e7:b5:0a:01|88
1621943577|00:0c:e7:b5:a5:aa|79
1621843031|00:0c:e7:b5:ec:81|71
1622027924|00:0c:e7:b6:71:c2|75
1621854269|00:0c:e7:b7:21:9b|83
1621837547|00:0c:e7:b7:39:47|82
1621950437|00:0c:e7:b7:ed:d2|77
1621923220|00:0c:e7:b8:39:16|77
1621926885|00:0c:e7:b8:d5:5a|71
1621946713|00:0c:e7:b8:f6:08|63
1622026547|00:0c:e7:ba:08:45|72
1621854785|00:0c:e7:ba:e5:14|74
1621930674|00:0c:e7:bb:07:1d|69
1622028627|00:0c:e7:bb:8e:b5|75
1621940877|00:0c:e7:bc:44:f1|80
1622015681|00:0c:e7:bc:5d:db|76
1621937717|00:0c:e7:bc:65:30|81
1622021099|00:0c:e7:bc:95:2b|83
1621852606|00:0c:e7:bd:0d:12|60
1621848516|00:0c:e7:bd:51:f8|83
1621926720|00:0c:e7:bd:e6:be|86
1621929463|00:0c:e7:be:18:73|79
1621851112|00:0c:e7:be:7f:09|83
1622024457|00:0c:e7:bf:0c:0f|71
1621847002|00:0c:e7:bf:57:b0|70
1621853402|00:0c:e7:bf:b5:0b|80
1622021719|00:0c:e7:c0:1e:55|82
1622024219|00:0c:e7:c0:44:90|83
1621930437|00:0c:e7:c0:4d:de|75
1622023972|00:0c:e7:c0:52:bd|84
1622008817|00:0c:e7:c0:6f:11|75
1621930994|00:0c:e7:c0:bc:03|69
1621838228|00:0c:e7:c1:1a:a2|88
1621924345|00:0c:e7:c1:60:cb|85
1621931825|00:0c:e7:c1:cd:8b|84
1621922643|00:0c:e7:c2:0e:4f|79
1622027946|00:0c:e7:c2:df:30|67
1622018300|00:0c:e7:c3:02:46|66
1621860292|00:0c:e7:c3:78:12|76
1621947437|00:0c:e7:c4:29:3a|87
1621925417|00:0c:e7:c4:3f:eb|76
1621950205|00:0c:e7:c4:bb:a4|73
1621926494|00:0c:e7:c5:4d:37|82
1621923448|00:0c:e7:c5:a3:6f|68
1622027125|00:0c:e7:c5:db:0b|81
1621948468|00:0c:e7:c6:94:fe|83
1621930835|00:0c:e7:c7:20:8a|84
1621854654|00:0c:e7:c7:5b:67|60
1621943091|00:0c:e7:c7:e0:72|79
1622010147|00:0c:e7:c7:f3:23|73
1622028557|00:0c:e7:c8:7d:a6|73
1621854787|00:0c:e7:c9:10:13|71
1621862249|00:0c:e7:c9:1a:05|80
1622028543|00:0c:e7:c9:50:54|76
1621942402|00:0c:e7:ca:6b:68|64
1621946971|00:0c:e7:cb:f9:f9|73
1621948039|00:0c:e7:cd:0d:eb|82
1621928507|00:0c:e7:cd:36:82|82
1621938974|00:0c:e7:ce:97:af|67
1621848999|00:0c:e7:ce:f4:ea|67
1622011860|00:0c:e7:cf:37:4b|76
1621847144|00:0c:e7:d0:69:55|64
1622012958|00:0c:e7:d0:6c:d5|72
1621863534|00:0c:e7:d1:3a:ab|72
1621934682|00:0c:e7:d1:3b:73|88
1622012990|00:0c:e7:d2:30:87|78
1622027161|00:0c:e7:d2:86:0c|73
1621930907|00:0c:e7:d2:93:ea|86
1621849167|00:0c:e7:d2:a8:7f|87
1621927969|00:0c:e7:d2:fa:9f|76
1622028654|00:0c:e7:d3:77:2c|72
1621855274|00:0c:e7:d3:77:61|57
1621848929|00:0c:e7:d3:87:d6|77
1621850434|00:0c:e7:d3:fa:8d|69
1621845620|00:0c:e7:d4:0c:2d|83
1621845282|00:0c:e7:d4:57:8b|78
1622016564|00:0c:e7:d4:83:e1|75
1622016781|00:0c:e7:d5:50:9f|89
1621945598|00:0c:e7:d5:be:eb|69
1621932517|00:0c:e7:d5:f0:c5|82
1621934649|00:0c:e7:d6:03:af|74
1621942690|00:0c:e7:d6:3c:91|77
1621850013|00:0c:e7:d6:c8:3e|69
1621945739|00:0c:e7:d6:f7:f3|72
1621923239|00:0c:e7:d7:37:69|83
1621928120|00:0c:e7:d7:ac:75|84
1621930535|00:0c:e7:d7:ae:a3|87
1621925095|00:0c:e7:d7:df:9c|84
1621930417|00:0c:e7:d7:ed:4b|84
1621925620|00:0c:e7:d8:f5:f6|84
1621936692|00:0c:e7:d9:ea:53|88
1621935679|00:0c:e7:da:9e:7d|85
1621930012|00:0c:e7:da:aa:ca|72
1621845647|00:0c:e7:db:8a:ab|82
1622030041|00:0c:e7:dc:13:ec|84
1621854911|00:0c:e7:dc:2e:aa|60
1621943905|00:0c:e7:dc:fd:a3|86
1621850851|00:0c:e7:de:7a:90|70
1621946392|00:0c:e7:de:cb:b5|77
1621923762|00:0c:e7:de:df:9f|82
1621854256|00:0c:e7:df:1b:b2|80
1622022830|00:0c:e7:df:c0:97|82
1621863482|00:0c:e7:e0:15:30|85
1622013382|00:0c:e7:e0:94:f0|83
1621853544|00:0c:e7:e0:95:20|68
1621838536|00:0c:e7:e0:b4:23|84
1621850331|00:0c:e7:e0:d6:c9|87
1622026372|00:0c:e7:e1:49:85|70
1621848070|00:0c:e7:e1:9e:ca|84
1622026715|00:0c:e7:e1:e2:32|78
1621846353|00:0c:e7:e2:b1:b5|68
1621931962|00:0c:e7:e2:fc:3e|75
1621837788|00:0c:e7:e3:0f:63|80
1621851346|00:0c:e7:e3:56:7f|91
1621948068|00:0c:e7:e3:5a:61|86
1622024007|00:0c:e7:e4:43:b9|67
1622025121|00:0c:e7:e4:73:0a|84
1621862128|00:0c:e7:e5:49:59|83
1621863791|00:0c:e7:e5:f6:f9|80
1621949397|00:0c:e7:e6:4e:9b|71
1621853790|00:0c:e7:e6:bf:23|80
1621944695|00:0c:e7:e7:8a:c3|83
1621838562|00:0c:e7:e8:20:39|70
1622013236|00:0c:e7:e8:3b:b8|69
1621852960|00:0c:e7:e8:8c:62|67
1621938003|00:0c:e7:e9:c4:d4|75
1622028197|00:0c:e7:e9:dc:22|81
1621849989|00:0c:e7:ea:6c:dc|68
1621928895|00:0c:e7:ea:83:23|83
1621931344|00:0c:e7:ea:87:66|81
1621946599|00:0c:e7:eb:0a:49|77
1621856289|00:0c:e7:eb:43:ac|69
1621934601|00:0c:e7:eb:61:8f|78
1622025311|00:0c:e7:eb:ad:62|84
1621948721|00:0c:e7:eb:c1:bb|69
1621846322|00:0c:e7:ec:25:dd|76
1621853786|00:0c:e7:ec:c5:37|74
1622018097|00:0c:e7:ed:25:f4|71
1621936512|00:0c:e7:ee:8b:1d|85
1621930572|00:0c:e7:ee:b1:67|67
1621950459|00:0c:e7:f0:74:a7|91
1621944003|00:0c:e7:f0:7c:d1|93
1621846892|00:0c:e7:f0:db:c3|76
1622023020|00:0c:e7:f1:0b:d1|85
1621924388|00:0c:e7:f1:41:87|81
1622022778|00:0c:e7:f1:6f:95|80
1622017866|00:0c:e7:f1:9f:cb|80
1621851203|00:0c:e7:f2:94:42|63
1621937632|00:0c:e7:f2:ce:aa|88
1622023729|00:0c:e7:f5:26:d2|82
1621860729|00:0c:e7:f5:7b:21|79
1621942532|00:0c:e7:f6:68:77|84
1622018726|00:0c:e7:f6:a2:8c|71
1621936581|00:0c:e7:f7:11:a4|74
1622028605|00:0c:e7:f7:25:41|72
1621855061|00:0c:e7:f7:e4:06|62
1621923337|00:0c:e7:f8:0f:b9|59
1621949914|00:0c:e7:f8:56:fa|70
1621855488|00:0c:e7:f8:5d:19|81
1621838541|00:0c:e7:f8:ba:83|75
1621863551|00:0c:e7:f9:53:ce|81
1622012794|00:0c:e7:f9:6e:70|73
1621838523|00:0c:e7:f9:de:f0|90
1622025519|00:0c:e7:f9:e4:39|72
1621935147|00:0c:e7:fa:31:b5|81
1621861522|00:0c:e7:fa:8e:11|77
1621844325|00:0c:e7:fa:ce:5a|80
1622028614|00:0c:e7:fb:41:2a|71
1622024810|00:0c:e7:fb:56:c1|65
1621862750|00:0c:e7:fc:05:05|82
1621933999|00:0c:e7:fc:b9:50|70
1622011129|00:0c:e7:fd:13:b7|85
1621942972|00:0c:e7:fd:22:2b|82
1621928120|00:0c:e7:fd:b4:31|75
1622018706|00:0c:e7:fd:c8:d0|73
1621927399|00:0c:e7:fe:13:42|80
1621844027|00:0c:e7:fe:1c:ff|75
1621846207|00:0c:e7:fe:a3:76|83
1621940376|00:0c:e7:ff:23:f0|88
1621938700|00:0c:e7:ff:85:3c|82
1621930118|00:0c:e7:ff:87:7b|82
1622020428|00:23:0d:94:ba:45|68
1621844591|00:23:15:d1:c3:3d|85
1622023196|00:23:15:d1:c3:3d|82
1621860471|00:23:a7:48:a2:c8|73
1621936654|00:23:a7:48:a2:c8|79
1621924983|00:26:69:01:9e:90|87
1622014741|00:28:f8:2b:3a:45|88
1622013216|00:28:f8:2b:3a:46|88
1621923929|00:28:f8:2b:3a:46|89
1621946784|00:28:f8:a0:5f:cd|92
1622013860|00:28:f8:a0:5f:cd|91
1621928683|00:32:aa:b7:bc:20|74
1621842136|00:34:fe:fe:9e:f2|73
1621923088|00:7c:2d:ed:47:c4|83
1621923971|00:9d:6b:37:5f:0d|78
1622016308|00:ae:fa:56:cc:3c|84
1621923263|00:ae:fa:56:cc:3c|74
1622014162|00:ae:fa:e3:80:96|92
1621930217|00:ae:fa:e3:80:96|80
1622023103|00:b5:d0:43:ef:a1|88
1621846462|00:b5:d0:43:ef:a1|84
1621923253|00:b5:d0:43:ef:a1|84
1621840018|00:bb:60:b8:26:26|86
1622022183|00:bb:60:b8:26:26|93
1622017821|00:bc:95:2f:6d:ba|89
1621948668|00:c3:e3:6c:a1:80|91
1622013513|00:d9:ca:81:63:07|72
1622008979|00:e1:8c:ba:cb:c9|78
1621922457|00:e1:8c:ba:cb:c9|71
1622009055|00:e1:8c:ba:cb:ca|84
1621855034|00:ec:0a:4a:48:36|78
1621937666|00:ec:0a:4a:48:36|88
1621839478|01:02:6e:0b:3b:61|80
1622026148|01:64:b5:52:ca:4e|78
1621852429|01:78:02:7b:58:0d|86
1621851224|01:81:6f:38:6f:f8|69
1621856448|01:82:6d:57:a9:43|71
1621838321|01:a4:60:28:33:10|71
1621853281|01:a7:43:8a:0b:d3|84
1621925916|01:b0:59:0b:81:23|75
1621947423|01:c3:1a:4a:ec:8d|82
1621948489|01:c9:3a:91:34:a2|70
1621857464|01:e7:f1:b6:9e:12|75
1621930779|03:10:84:97:c2:f3|89
1622017530|04:18:b8:be:33:0f|90
1622013880|04:22:8a:bb:70:1e|74
1621837494|04:32:5d:ae:eb:3a|72
1622028886|04:4a:6c:83:9b:ee|71
1622026002|04:4a:6c:d3:02:e4|79
1621929344|04:50:6c:9d:0b:6c|81
1621947715|04:79:91:fe:16:5f|79
1621848110|04:7c:2d:57:8c:35|73
1621925939|04:8c:9a:ba:b7:97|75
1621838602|04:8c:9a:ba:b7:97|76
1621936849|04:ba:8d:bd:77:f7|92
1621841507|04:bd:86:8c:00:ab|78
1621856842|04:c2:3e:97:7d:77|89
1621846153|04:ca:1f:cf:1c:3f|69
1622023695|04:d3:b0:8f:79:fb|86
1621842261|04:d6:aa:0f:30:00|81
1622023395|04:d6:aa:1f:68:71|80
1622021864|04:d6:aa:35:8e:52|87
1622010410|04:d6:aa:53:53:0f|82
1622013709|04:d6:aa:57:50:a9|69
1622017505|04:d6:aa:68:2a:b1|77
1621838470|04:d6:aa:68:2a:b1|84
1621932307|04:d6:aa:6e:b9:2d|90
1621928142|04:d6:aa:71:42:e1|85
1621952177|04:d6:aa:71:fd:36|93
1621843423|04:d6:aa:9b:fd:43|86
1621841282|04:d6:aa:9f:39:d1|79
1622025099|04:d6:aa:ac:07:a9|77
1621856396|04:d6:aa:b2:ac:f8|91
1621949918|04:d6:aa:e2:02:b3|94
1621926511|04:d6:aa:fa:aa:64|86
1621836926|04:d6:aa:fa:aa:64|78
1621922738|04:e5:36:32:d3:38|78
1622009640|04:e5:36:32:d3:38|81
1621847068|04:e5:36:32:d3:38|80
1622008922|04:ed:33:b4:0c:99|87
1621923446|04:ed:33:b4:0c:99|85
1621944767|04:ed:33:b4:55:7d|86
1622009992|04:ed:33:b4:55:7d|86
1622017977|04:f1:28:60:01:fe|82
1621942623|04:f1:28:60:01:fe|87
1621850801|05:0d:56:8b:a3:af|66
1621844390|05:0f:e0:0e:e6:6d|84
1622013011|05:5b:7d:5c:02:b9|79
1622027122|05:5f:fc:55:2c:ec|67
1621928470|05:6d:0d:53:69:da|72
1621934479|05:76:42:42:8d:49|78
1621850987|05:ef:8f:7d:8b:ec|59
1622018565|07:27:3c:f9:12:5b|77
1621837051|07:34:b5:6b:8e:24|85
1621854706|07:7f:f0:f3:94:61|78
1621855777|07:90:b3:f9:d8:02|75
1621931591|07:93:18:b2:1a:80|77
1621928124|07:99:cb:68:a1:56|71
1621929371|07:99:f4:72:45:bb|72
1622018689|07:e5:9e:6d:76:eb|81
1621925075|08:25:25:2c:de:13|83
1621954082|08:25:25:7c:ff:b5|90
1621929913|08:4f:7c:9e:74:e7|84
1621928562|08:53:82:a1:43:9d|74
1622012263|08:75:ed:c7:4e:80|71
1621854502|08:9e:f1:14:42:bc|79
1622028969|08:a1:66:46:42:9f|88
1622011925|08:b6:55:15:dc:1e|68
1622011487|08:c5:e1:07:65:ff|93
1622031825|08:c5:e1:0b:3c:74|91
1621922821|08:c5:e1:0c:ff:06|88
1622031623|08:c5:e1:19:81:72|89
1621842675|08:c5:e1:38:21:27|72
1621946592|08:c5:e1:45:b7:54|84
1622027307|08:c5:e1:90:81:e1|80
1621945189|08:c5:e1:ae:d0:c0|90
1621949075|08:c5:e1:b2:ea:71|86
1621849552|08:c5:e1:b2:ea:71|91
1621933241|08:c5:e1:b3:d4:86|82
1621925573|08:c5:e1:ee:9d:ac|79
1621923527|08:c5:e1:f5:a9:e4|84
1621949507|08:f3:c3:fb:67:cd|73
1622016909|08:f6:9c:1e:79:d1|90
1621931786|09:2a:2e:d6:28:3f|73
1621927043|09:49:7e:c5:4d:c2|79
1621850907|09:67:5f:c1:cb:de|69
1621942125|09:92:af:64:95:11|85
1621852928|09:a1:be:38:9f:ed|75
1621852279|09:e0:de:91:17:80|81
1621845442|0b:3d:69:70:db:a8|82
1622013031|0b:44:cb:f2:a9:98|68
1621854136|0b:59:66:a2:fb:bb|78
1622009386|0b:74:b7:6a:0e:85|76
1621841192|0b:9a:5e:8a:39:9c|81
1621851914|0b:ad:c1:09:38:4d|86
1621846093|0b:ae:da:79:ad:c7|83
1621853771|0b:c7:fb:76:0b:21|84
1621936041|0b:e4:e9:4b:52:5f|77
1621948578|0c:40:41:43:63:1b|78
1621846199|0c:54:15:a8:3c:07|91
1621952834|0c:54:15:a8:3c:07|92
1621842416|0c:70:4a:db:bf:d9|74
1621936048|0c:84:70:a7:0c:cc|75
1621924582|0c:8c:24:bf:0f:65|79
1622030083|0c:8c:24:bf:12:72|74
1622028751|0c:96:e6:76:6e:eb|93
1621844786|0c:96:e6:76:6e:eb|93
1621927858|0c:96:e6:76:6e:eb|88
1621936021|0c:96:e6:76:6f:a7|89
1621945775|0c:f3:46:ce:ad:6b|65
1621836020|0c:f3:46:da:25:9d|89
1621928184|0d:23:ac:32:91:c2|73
1621947054|0d:2b:77:42:b1:9e|75
1621850767|0d:55:b2:18:17:92|62
1621855756|0d:ea:62:1e:4b:56|74
1621940146|0d:f4:a7:2b:eb:50|76
1622024640|0d:fc:f2:09:93:b0|75
1621845536|0f:1f:5d:44:55:df|70
1621854471|0f:52:3d:df:42:f7|77
1621945600|0f:be:69:eb:60:00|80
1622017226|10:02:b5:46:93:5d|87
1622009278|10:02:b5:50:2c:65|66
1622011263|10:02:b5:50:2c:66|79
1621838037|10:2e:57:d0:6d:ce|86
1621923939|10:32:7e:c0:40:29|82
1621867349|10:32:7e:c0:40:29|63
1621953325|10:3f:44:25:21:0b|82
1621845507|10:3f:44:25:21:0b|85
1621954181|10:3f:44:d3:a3:b1|89
1622010652|10:3f:44:d5:fc:df|89
1621952782|10:3f:44:ea:54:fb|66
1621945206|10:41:7f:39:23:31|80
1621938363|10:41:7f:db:c7:9a|92
1621860292|10:44:00:39:7b:c9|78
1622032065|10:44:00:db:24:32|78
1621940307|10:44:00:db:24:32|70
1621923549|10:63:c8:31:5c:ab|72
1621930847|10:7f:43:32:89:59|74
1622029528|10:8a:b6:97:54:4f|80
1621950578|10:a3:76:9b:5a:03|81
1622009383|10:c0:7b:7f:39:c8|76
1621837400|10:c3:37:0b:d3:fa|74
1621837172|10:da:a4:d6:71:b6|79
1621924907|10:dc:30:09:a3:a0|74
1622018369|10:e9:53:54:47:62|74
1621846367|10:e9:53:54:47:62|66
1621933786|10:e9:53:54:47:62|76
1621838478|10:f0:05:ba:b3:41|92
1621849891|10:f2:17:ed:5e:3e|71
1621929650|10:f9:55:33:03:8a|79
1621935941|11:0e:12:b5:c3:4c|76
1621936045|11:57:a6:fb:69:60|81
1621857641|11:72:f0:c5:72:6e|71
1622030654|11:8a:da:05:9c:18|94
1621854411|11:90:f8:78:96:66|69
1622028459|11:96:77:73:9b:a1|79
1621935729|11:a9:d8:fa:de:39|70
1621934015|11:bc:61:07:57:06|78
1621854105|11:d5:62:1d:da:81|78
1621935655|11:e5:4f:8f:85:97|71
1621924547|11:ef:a4:c9:1f:0c|79
1621840199|11:f0:8f:87:31:d6|77
1621839552|11:fa:a1:13:a1:7a|80
1622018016|11:fd:7b:4e:00:0e|80
1621948037|11:fe:6a:e6:1c:52|82
1621927735|13:1c:c7:e2:46:ab|74
1621935192|13:38:4d:bd:71:ef|77
1621935304|13:3a:99:85:ea:4d|76
1622010829|13:55:30:a9:d8:a4|74
1621837690|13:82:7d:8c:a8:21|79
1622013853|13:8d:28:26:9e:b9|92
1621939635|13:99:47:c2:bc:d0|75
1621837490|13:d2:5d:e7:34:65|75
1621935433|13:ed:b3:9c:76:0a|77
1621929165|13:f9:11:09:bf:6a|80
1622009466|14:09:66:31:00:06|71
1621931405|14:1f:78:e1:97:31|74
1622017034|14:20:5e:e9:17:7a|81
1621925499|14:32:d1:72:61:5f|82
1622012474|14:4f:8a:c2:9b:92|85
1621854450|14:4f:8a:c2:9b:92|78
1621941245|14:56:8e:60:01:14|85
1621847232|14:56:8e:60:01:14|79
1621940193|14:56:8e:76:31:29|77
1621954790|14:56:8e:77:c8:f1|80
1621867211|14:56:8e:b3:ad:8c|83
1622025521|14:7d:da:42:8b:32|81
1621847038|14:7d:da:42:8b:32|77
1621939838|14:7d:da:42:8b:32|80
1622025722|14:7d:da:8d:59:80|78
1621935795|14:7d:da:8d:59:80|66
1621927860|14:9d:09:ec:e3:91|80
1621948156|14:9f:3c:bd:42:71|79
1621922695|14:a1:eb:77:8b:cf|74
1621928589|14:a5:1a:df:ea:83|75
1621928162|14:ab:c5:3c:8d:fe|75
1621857117|14:ab:c5:e0:f6:55|85
1621925918|14:bb:76:04:91:f4|75
1622022504|14:f6:d8:e8:64:c1|86
1621854956|14:f6:d8:ea:4c:73|93
1621843337|15:01:cc:ec:01:3f|93
1621931209|15:59:8e:d5:a2:6d|81
1621840967|15:70:ee:f8:31:94|85
1622030273|15:7d:a3:d8:12:fb|79
1621861987|15:85:6f:5c:51:d5|92
1622028529|15:fc:fc:0a:07:cf|72
1621859760|17:0d:ce:be:01:87|83
1621854566|17:0f:c2:d8:94:7a|90
1622018354|17:42:58:a5:e9:cb|78
1622021856|17:49:28:b7:88:5e|84
1621927227|17:6f:c3:df:ca:68|76
1621945461|17:8c:d5:39:37:e5|72
1621926352|17:aa:bc:e4:ad:4c|87
1621855518|17:d8:8e:ab:9a:d2|81
1622027949|17:f8:af:43:a8:c5|72
1621839076|18:1b:bc:16:0c:0a|74
1621936297|18:21:29:d3:f0:d6|83
1621947984|18:24:4c:de:d1:70|82
1621863403|18:3e:ef:c0:6f:98|79
1622029726|18:3e:ef:c5:75:f3|92
1622012104|18:47:3d:e4:91:f7|72
1621857417|18:47:3d:e4:91:f7|64
1621935417|18:47:3d:e4:91:f7|68
1621841518|18:48:0c:76:02:5a|81
1621840711|18:54:cf:45:cc:6a|79
1622025380|18:56:80:35:8b:ad|61
1621945941|18:56:80:35:8b:e9|91
1621852100|18:56:80:35:8d:fb|93
1621850465|18:56:80:6e:ca:03|90
1621942090|18:56:80:ff:35:66|88
1622012591|18:56:80:ff:35:66|89
1621859902|18:56:80:ff:35:66|88
1621838563|18:57:f8:08:27:c2|68
1621926865|18:b4:ea:4d:78:80|81
1621851229|18:cc:18:9b:9e:2a|77
1621927985|18:cc:18:9b:9e:2b|79
1621851959|18:cc:18:9b:9e:2b|86
1622013834|18:cc:18:b8:8d:8c|72
1621854296|18:cf:f0:16:0d:bc|89
1622017651|18:f6:43:1c:6b:4b|79
1621932112|19:1b:92:cd:d4:98|67
1621841752|19:7c:c3:e6:cf:e1|74
1621948701|19:83:65:cf:b1:52|76
1621949159|19:ab:17:fd:37:48|80
1621949910|19:ef:76:07:dc:51|85
1621836945|1b:84:84:2b:55:a2|76
1621837525|1b:ae:42:0d:05:a3|75
1622022987|1c:13:86:03:3c:be|80
1622014551|1c:15:1f:c3:1e:4a|60
1622013187|1c:15:2e:d4:8a:37|62
1621861047|1c:16:21:a0:80:9e|78
1622029487|1c:1a:c0:21:43:e9|90
1621856125|1c:1a:c0:21:43:e9|79
1621944282|1c:1a:c0:21:43:e9|86
1621856505|1c:33:2f:8f:82:5b|77
1621840810|1c:3b:91:c1:59:54|73
1622020492|1c:42:7d:90:43:fb|78
1621852980|1c:51:5c:b7:67:6f|77
1621949675|1c:5d:1a:a8:fb:0c|75
1621840493|1c:8b:bc:4f:ab:61|76
1622010377|1c:b7:96:f7:c1:2b|76
1621949812|1c:b7:96:f7:c1:2b|70
1621855460|1c:c5:5e:b9:f7:dd|84
1622024184|1c:cc:d6:fa:18:ff|75
1622014401|1d:86:95:ee:c1:21|66
1621927208|1d:b1:6a:f8:65:02|84
1621838119|1d:ce:75:b3:99:2a|92
1621946662|1d:d7:a6:df:db:c5|83
1621856597|1f:11:0f:da:86:21|79
1621840347|1f:12:bd:dd:fa:f7|87
1621923999|1f:d3:d8:11:e1:40|83
1621861643|1f:e2:a2:e9:63:62|70
1622011322|20:1c:79:89:d6:56|73
1622023212|20:37:26:5b:fc:86|68
1621852805|20:79:18:30:2d:75|84
1621852653|20:79:18:30:2d:76|84
1621840925|20:79:18:7f:09:90|77
1621866240|20:a6:0c:30:2f:19|85
1621838655|20:b2:5e:55:17:72|65
1621840970|20:b9:e8:ca:88:d7|77
1621841141|20:ed:31:c4:7c:87|69
1621851618|20:f4:78:5f:a7:3e|90
1621860624|20:f5:ca:32:a0:e8|92
1621836041|21:38:b4:52:e6:a3|79
1621928908|21:43:c1:b1:c3:a5|79
1622010661|21:4b:02:8a:5a:d2|71
1621864777|21:c5:cb:dc:5f:88|89
1621854550|21:d3:02:39:7e:53|86
1621838301|23:a7:6b:9e:49:14|69
1621931522|23:e3:e4:41:ce:3c|94
1621938008|23:e7:07:95:15:50|76
1621840203|23:f4:51:44:13:f3|83
1621929724|23:fc:d2:02:cd:ac|66
1621855364|24:11:45:4b:7a:64|92
1622024551|24:18:1d:09:da:56|81
1622019604|24:18:1d:0a:05:13|81
1621931230|24:18:1d:1d:c0:95|84
1621925229|24:18:1d:79:cf:55|91
1622016991|24:18:1d:83:a5:e4|92
1621924584|24:18:1d:88:84:3d|82
1622021079|24:18:1d:8c:86:db|91
1621845667|24:18:1d:8c:86:db|85
1621922624|24:18:1d:8c:86:db|84
1621942523|24:18:1d:92:2c:71|74
1622011919|24:18:1d:aa:40:de|84
1622012783|24:18:1d:fc:01:80|83
1621925640|24:77:03:25:42:f4|80
1621838374|24:ad:39:cb:03:0e|78
1622024100|24:ba:d6:31:64:b7|72
1621844287|24:ce:27:f4:c4:c2|80
1622022385|24:e3:14:49:87:16|81
1621838517|24:e3:14:49:87:16|79
1621940216|24:e3:14:49:87:16|89
1621842227|24:ee:9a:06:ae:05|75
1622026714|24:ee:9a:3a:90:ad|76
1621837380|24:ee:9a:53:b0:1a|82
1622015402|24:ee:9a:7a:a1:66|79
1621947850|24:fb:65:0e:93:d3|89
1621837553|25:2c:b8:ae:95:9a|76
1621837526|25:35:4a:47:b5:50|82
1621947545|25:6d:bd:72:79:ca|72
1621944621|25:8c:c5:25:b0:ec|69
1621934200|25:8f:e6:93:75:26|83
1621838024|25:95:d4:25:cf:ec|81
1622009989|25:9b:80:cb:2e:66|80
1621854453|25:9d:e3:b4:e9:ea|72
1622009687|25:a0:4c:51:4d:2e|75
1621947791|25:ac:ac:20:d7:b7|81
1622018347|25:e1:89:12:9a:54|81
1621941271|25:fd:10:c2:7c:46|80
1621932450|27:15:24:14:23:f2|79
1621927955|27:2d:78:bf:aa:27|79
1622031227|27:52:db:49:7e:d3|72
1621936900|28:13:1c:1e:3c:6b|77
1621938580|28:13:53:45:84:79|77
1621933768|28:16:a8:71:f7:46|86
1621938944|28:18:a5:0d:05:64|79
1621948876|28:19:06:54:45:e0|70
1621836059|28:33:34:e8:78:45|69
1621841046|28:39:5e:d7:66:99|73
1622027920|28:39:5e:db:af:91|92
1621952220|28:39:5e:db:af:91|93
1621868371|28:39:5e:db:af:91|94
1621943171|28:3a:34:a1:9b:0d|79
1621945508|28:3f:d7:aa:da:9b|75
1621922420|28:6a:ba:d3:9b:29|91
1621838681|28:7f:cf:de:a4:d1|69
1622020311|28:7f:cf:de:a4:d2|72
1621843862|28:80:81:3b:83:6b|84
1621850779|28:aa:f1:64:e5:ea|78
1621948760|28:b4:d0:b8:2d:25|79
1622029626|28:c6:3f:c7:d3:46|80
1621837275|28:fb:54:8d:f5:52|73
1621836024|28:fb:d3:fa:8e:c1|75
1622012656|28:fb:d3:fa:8e:eb|86
1621940635|29:09:fe:47:08:eb|66
1621927956|29:55:64:25:4f:bd|80
1621931222|29:97:f9:a3:df:0d|82
1621938526|29:b9:2a:05:cf:63|81
1621947809|29:d2:06:56:df:92|78
1621837171|29:d7:eb:38:a1:b7|83
1622021566|2b:03:e4:b3:6c:cb|84
1621938739|2b:1d:84:ed:02:7c|81
1621854799|2b:a8:d2:43:81:6e|77
1621855642|2c:0a:b9:e0:de:96|79
1621930913|2c:4a:d7:4e:a9:ac|83
1621923025|2c:4c:c6:b7:b9:e7|67
1622022075|2c:6e:4b:b6:0e:03|84
1621948760|2c:74:14:b6:d9:05|77
1621838835|2c:74:98:74:34:ed|57
1621940673|2c:7c:2a:00:db:80|80
1622030484|2c:a9:f0:4d:bb:4b|85
1621923201|2c:bc:03:6a:be:1d|64
1621850032|2c:d8:ee:2b:8f:e7|86
1622021498|2c:db:07:d4:78:49|91
1621934951|2c:db:07:d4:78:49|87
1621934817|2c:db:72:9a:4f:fd|68
1621839515|2c:ef:39:33:3a:41|75
1621943815|2c:f9:bb:4e:9b:b6|71
1622028959|2d:0e:13:f3:d7:47|82
1621854683|2d:25:42:64:20:e0|77
1621841025|2d:50:6f:a9:d8:e5|74
1621933175|2d:5e:05:20:00:1a|83
1621849786|2d:7f:cb:84:4f:fa|75
1621858334|2d:8b:e0:bc:20:87|73
1622017256|2d:a0:66:67:48:0c|79
1621949790|2f:9b:81:b7:32:20|81
1622027874|2f:b2:2a:3c:5a:32|77
1622014511|30:07:4d:0d:9e:da|83
1622012549|30:07:4d:44:ce:2b|94
1622017701|30:07:4d:4d:3e:bd|82
1622012808|30:07:4d:54:65:25|92
1621837624|30:07:4d:54:65:25|82
1621941505|30:07:4d:80:01:1b|79
1621925885|30:07:4d:8f:de:25|71
1622030774|30:07:4d:ab:fc:07|74
1621849167|30:07:4d:ab:fc:07|83
1621842510|30:07:4d:bd:c3:37|79
1622025420|30:23:50:a4:71:34|78
1621858400|30:24:32:d3:91:81|87
1621840426|30:45:96:13:af:68|75
1621932670|30:45:96:91:00:4d|87
1621837894|30:64:29:63:84:f2|71
1622030915|30:95:e3:3d:c3:80|81
1621857535|30:95:e3:3d:c3:80|81
1621947659|30:97:46:16:dd:2e|71
1621844939|30:a1:fa:08:3e:e2|79
1621855919|30:a8:62:f7:79:64|84
1621860276|30:a9:de:95:d5:98|91
1621849132|30:a9:de:da:03:a2|67
1621950156|30:a9:de:da:bb:de|68
1621864019|30:b4:9e:0d:24:68|82
1621923074|30:d1:6b:99:9e:d9|85
1622008930|30:d1:6b:99:9e:d9|80
1622029143|30:dc:c4:2f:d0:c3|79
1621925827|30:e6:af:3e:00:25|76
1621945908|31:10:06:3f:86:d3|82
1621842415|31:13:c7:1f:4d:d9|80
1621946493|31:55:92:56:d5:2d|90
1621840230|31:73:e0:87:29:be|81
1621949923|31:a5:98:c6:df:a6|76
1621937366|31:da:b1:1b:ec:ed|71
1621935148|31:ed:74:16:59:f2|85
1621837778|31:ee:23:34:25:46|78
1622026583|33:0c:02:32:0f:19|89
1621851268|33:10:24:b4:3a:96|66
1621948481|33:3f:e3:ee:04:d5|70
1621856497|33:86:11:e6:4b:4f|70
1621935756|33:8e:af:2b:56:ed|73
1621841793|33:e0:22:7e:6d:42|73
1621861617|34:0a:69:2e:37:91|62
1621845915|34:12:98:46:f8:60|85
1622018065|34:12:f9:4e:a2:8a|88
1621848189|34:12:f9:4e:a2:8a|69
1621933542|34:12:f9:4e:a2:8a|75
1622009391|34:12:f9:70:a4:23|71
1621930745|34:12:f9:70:a4:23|90
1622032883|34:12:f9:fd:68:af|73
1621922596|34:12:f9:fd:68:af|71
1621930894|34:1c:f0:1e:1d:11|89
1622013208|34:1c:f0:6f:ba:34|88
1622009129|34:2e:b7:d8:05:ef|77
1621937836|34:2e:b7:d8:05:ef|80
1622020148|34:36:3b:85:1e:32|69
1622011893|34:41:5d:bf:bd:e6|79
1621843931|34:41:5d:bf:bd:e6|74
1621951452|34:41:5d:cb:be:ac|90
1621860102|34:41:5d:cb:be:ac|94
1621859780|34:41:5d:cb:c5:14|94
1621951165|34:41:5d:cb:c5:14|90
1621934215|34:64:3e:fa:d2:f0|71
1622026927|34:69:1f:99:4b:ae|78
1622013364|34:79:16:22:40:61|74
1622031020|34:79:16:93:df:77|87
1621853771|34:83:06:b0:15:bd|83
1621858828|34:8b:75:0e:6a:79|70
1621837619|34:8b:75:30:61:44|82
1622012968|34:8b:75:30:61:44|73
1621944599|34:8b:75:58:b6:38|75
1621866283|34:8b:75:58:b6:38|87
1622021074|34:8b:75:ec:bd:d7|68
1621842139|34:8d:76:22:d9:b5|84
1621949666|34:8e:01:94:a5:a2|75
1622022101|34:a3:95:b2:3b:55|75
1621837472|34:a3:95:b2:3b:55|79
1621923850|34:bb:1f:ce:36:a8|91
1621836066|34:c9:3d:9f:50:34|76
1622009938|34:e1:2d:6a:a5:09|85
1621863020|34:e1:2d:6a:a5:09|85
1621922472|34:e1:2d:6a:a5:09|91
1621935619|34:e2:fd:63:27:23|81
1622033111|34:f3:9a:2a:8d:de|89
1622010994|34:f3:9a:6e:9e:f2|90
1621856302|34:f3:9a:6e:9e:f2|89
1621927443|34:f3:9a:6e:9e:f2|82
1621840112|34:f3:9a:9a:26:85|93
1621934905|34:f4:22:cb:fd:49|74
1622015767|34:f4:6b:72:66:2e|73
1621942427|35:2b:e5:c7:22:88|76
1621926983|35:3a:94:66:80:11|86
1622021103|35:3e:f1:ff:98:d3|86
1621923186|35:8c:fa:98:c3:b6|84
1621933091|35:c2:86:df:df:05|82
1621845382|35:e1:bb:8f:0a:36|69
1622027866|35:ea:87:2a:b3:fa|79
1621924113|35:ff:7c:f5:80:65|90
1621926942|37:1a:75:e3:65:41|82
1622025586|37:22:af:67:cd:31|77
1622016402|37:31:c3:14:87:41|68
1621855802|37:48:26:70:0d:62|83
1621855656|37:df:28:f3:1c:f2|80
1621949508|38:29:7a:b9:21:7d|80
1621837919|38:2d:e8:20:69:7d|83
1621934672|38:53:9c:8e:25:c3|74
1621943303|38:62:7e:27:8e:e2|81
1622020107|38:68:a4:ec:83:15|75
1622011528|38:d8:95:2d:af:c3|77
1622027824|38:f9:d3:2b:3c:dd|88
1622029671|38:fb:14:b5:65:67|75
1621929979|38:fb:14:b5:65:67|72
1621846839|38:fb:14:b5:65:67|83
1621845309|39:31:1f:3e:98:c2|81
1621934987|39:3b:75:74:ba:02|65
1621947788|39:49:72:b7:fe:61|78
1621853041|3b:9c:2c:09:6c:16|82
1621937386|3b:de:06:33:d8:49|68
1621837467|3c:03:64:4e:ed:36|71
1621939908|3c:05:18:a9:cf:83|87
1622028512|3c:06:3a:aa:ed:92|67
1622024130|3c:0f:24:33:c8:fa|81
1621946708|3c:18:f7:82:13:dc|89
1621940772|3c:20:f6:db:c2:50|79
1622021654|3c:22:fb:30:93:b2|72
1621837404|3c:22:fb:c1:52:89|74
1621928951|3c:38:e5:1f:1d:81|75
1621940715|3c:45:8a:9f:34:ae|82
1621946399|3c:57:6c:b9:fe:44|75
1622010708|3c:57:6c:c7:9d:04|79
1622013915|3c:58:c2:bf:97:d5|74
1621858400|3c:58:c2:bf:97:d5|62
1621930399|3c:58:c2:bf:97:d5|67
1622025505|3c:58:c2:d4:c6:91|72
1622026320|3c:58:c2:d4:c6:92|78
1621853489|3c:58:c2:d4:c6:92|79
1621840048|3c:80:53:85:1b:36|83
1622008807|3c:91:80:02:54:2d|66
1621836150|3c:9c:0f:65:12:38|82
1621942605|3c:d9:62:79:5d:7f|80
1621838271|3c:f6:62:46:86:a4|72
1621857201|3c:f7:a4:25:44:2f|75
1622016870|3c:f8:62:34:95:fe|72
1622010242|3c:fa:43:b8:27:dd|88
1621847784|3c:fa:43:b8:27:dd|88
1621860914|3d:18:39:bf:c8:22|77
1621852350|3d:1c:da:81:8d:17|75
1621943208|3d:2f:75:8e:0b:d8|81
1622013032|3d:61:b0:8f:a0:d1|74
1621855506|3d:61:e6:6c:48:cf|78
1621926865|3d:96:c6:64:c1:8e|77
1621849999|3d:c7:38:b6:54:17|83
1621839199|3d:cf:a8:fb:e6:2d|78
1621854461|3f:00:5e:b8:28:81|76
1621844291|3f:18:54:8a:6a:68|78
1621926742|3f:39:e0:f6:67:2f|82
1621837900|3f:4e:6c:d8:fa:5b|73
1621836599|3f:63:00:cd:2c:06|76
1621841133|3f:a2:c1:8a:f3:62|68
1621922598|3f:ca:04:4f:a3:63|70
1621943551|3f:d3:b6:ae:fe:09|78
1621851780|3f:d5:0b:03:8c:5b|75
1621947468|3f:dd:df:a8:07:cb|75
1621855633|40:24:ef:fe:d1:cf|68
1621850840|40:37:dd:d7:58:31|72
1621947836|40:3f:8c:43:77:ac|73
1622016901|40:42:58:8e:77:fd|71
1621840551|40:79:eb:11:da:33|76
1621946312|40:8c:03:36:50:02|72
1621863207|40:9b:cd:9c:d9:ad|93
1621954761|40:9c:28:55:1d:0a|86
1621937371|40:a1:08:a0:c9:a3|68
1621929654|40:a1:08:c5:1b:4c|76
1621863975|40:a1:08:e0:08:3c|83
1621953571|40:a1:08:e0:0e:c0|75
1621854719|40:b6:38:ab:f8:5c|77
1621942729|40:d3:ae:e7:c5:66|86
1621863360|40:d3:ae:fc:3d:e0|77
1622022448|40:f3:08:72:89:2d|88
1621940079|40:f3:08:72:89:2d|76
1622013209|40:f5:20:44:c5:24|66
1621924704|40:f5:20:44:c5:24|69
1621844358|40:f5:20:44:c6:14|92
1621839976|40:f5:20:44:c6:2c|90
1622017962|40:f5:20:44:c6:44|76
1621836055|40:f5:20:44:c6:44|72
1621923465|40:f5:20:44:c6:44|74
1621924703|40:f5:20:44:c7:98|79
1621836467|40:f5:20:44:c7:98|72
1621846646|40:f5:20:44:c8:08|89
1622011549|40:f5:20:44:c8:9c|82
1621836067|40:f5:20:44:c8:9c|81
1621924989|40:f5:20:44:c8:9c|77
1621836470|40:f5:20:44:c8:e4|81
1621925632|40:f5:20:44:c9:0c|84
1621839997|40:f5:20:44:c9:0c|84
1621924704|40:f5:20:44:c9:90|72
1621836258|40:f5:20:44:c9:90|77
1622014768|40:f5:20:44:c9:94|86
1622014704|40:f5:20:44:c9:e4|80
1621836470|40:f5:20:44:c9:e4|89
1621926511|40:f5:20:44:c9:e4|85
1621922949|40:f5:20:44:ca:1c|73
1622012006|40:f5:20:44:ca:70|75
1621923253|40:f5:20:44:ca:70|70
1621840162|40:f5:20:44:ca:7c|94
1621928946|40:f5:20:44:cb:80|91
1621839747|40:f5:20:44:cb:80|90
1622009161|40:f5:20:44:cb:a4|73
1621841033|40:f5:20:44:cb:ac|88
1621836266|40:f5:20:46:c2:dc|81
1621836515|40:f5:20:46:c2:f8|84
1622014561|40:f5:20:46:c2:f8|85
1622013801|40:f5:20:46:c4:08|79
1621836083|40:f5:20:46:c4:c0|83
1621924713|40:f5:20:46:c4:d0|77
1621836459|40:f5:20:46:c4:d0|78
1622012877|40:f5:20:46:c5:c0|87
1621841036|40:f5:20:46:c5:c0|86
1621945500|40:f5:20:46:c5:c0|85
1622011567|40:f5:20:46:c7:04|86
1621840159|40:f5:20:46:c8:38|86
1621837472|40:f5:20:48:8c:e0|74
1621836465|40:f5:20:48:8c:e8|87
1621926647|40:f5:20:48:8c:e8|88
1621924508|40:f5:20:48:8d:34|72
1621836075|40:f5:20:48:8d:34|82
1621839954|40:f5:20:48:8e:54|91
1622012639|40:f5:20:48:8f:00|86
1621836459|40:f5:20:48:8f:00|87
1621845682|41:0a:14:4b:cf:32|75
1621855741|41:10:1c:da:bc:31|71
1621932591|41:1b:a7:99:43:be|85
1621840148|41:5e:16:b4:27:e1|76
1622012263|41:89:fd:d9:66:db|71
1621842100|41:bf:60:76:91:05|84
1621929145|43:71:0f:20:d0:3a|84
1621858145|44:00:10:ce:8e:d9|88
1621929008|44:5c:e9:b1:ba:ac|78
1621923739|44:6d:6c:b9:1a:fe|81
1621929216|44:75:42:45:33:4c|88
1621930566|44:85:00:18:d4:ae|83
1622015047|44:85:00:18:d4:ae|81
1621836261|44:85:00:18:d4:ae|94
1621837473|44:cd:0b:a7:5e:d8|83
1622027597|44:d6:8b:de:cd:2a|71
1621860336|44:d7:91:d0:f5:9b|55
1621843278|44:d9:81:68:d8:f3|79
1621845474|44:dd:19:ff:25:4f|69
1621928799|45:10:15:fb:ea:59|66
1621923003|45:17:fc:5e:9f:8c|77
1621926968|45:26:a3:22:80:2e|89
1621842067|45:44:10:c1:e1:b9|72
1621838339|45:59:35:e4:74:7d|60
1621856947|45:5d:8e:19:13:4a|80
1622019380|45:85:30:91:7f:8c|87
1621940736|45:9a:32:60:57:9b|78
1621926897|45:b1:56:09:3d:b0|85
1622019019|45:df:99:c5:df:4d|78
1621861040|47:46:41:d9:a9:5c|76
1621850177|47:53:d4:b2:b4:44|77
1621931073|47:b5:ba:73:c6:b7|81
1621864493|48:01:c5:5d:75:05|89
1621928242|48:37:3b:73:a2:37|58
1621930748|48:5a:3f:8c:45:8b|82
1621853576|48:5e:bf:69:b3:38|85
1621923661|48:60:5f:2d:d1:3d|78
1621850095|48:79:4d:9d:c3:35|94
1622021712|48:79:4d:ad:2a:8d|76
1621843821|48:79:4d:ad:2a:8d|75
1621933453|48:79:4d:ad:2a:8d|74
1622024688|48:89:e7:62:ab:79|80
1621863245|48:89:e7:62:ab:79|77
1621925464|48:89:e7:62:ab:79|78
1621836030|48:89:e7:fd:05:48|77
1621948876|48:89:e7:fd:05:84|73
1621862248|48:89:e7:fd:05:84|76
1621931073|48:9d:24:7b:8d:28|83
1622012310|48:9d:24:84:5e:fd|83
1621845664|48:9d:24:84:5e:fd|79
1621923261|48:9d:24:84:5e:fd|79
1622015901|48:9d:d1:28:e9:c9|71
1621842849|48:9d:d1:28:e9:c9|85
1621951113|48:9d:d1:2a:26:8d|82
1621859738|48:9d:d1:96:f5:45|86
1621852920|48:a4:72:08:65:ec|80
1621836462|48:a4:72:4d:bd:e0|77
1622009482|48:a4:72:9d:22:81|77
1621923261|48:a4:72:9d:22:81|77
1622011902|48:a4:72:b2:c6:04|89
1621929502|48:d4:d1:4b:97:4f|79
1621836605|48:f1:7f:a3:dc:3e|86
1621842184|48:fc:b6:61:98:75|67
1621854665|48:fc:b6:64:fc:c6|80
1622028589|48:fc:b6:ef:1b:8b|62
1621862408|48:fc:b6:ef:1b:8b|76
1621946562|48:fc:b6:ef:1b:8b|73
1621853008|48:fd:a3:f0:59:19|86
1621854296|49:0a:18:d1:b9:d7|87
1621923976|49:2e:71:c8:78:18|89
1621931490|49:5c:55:dd:a8:d8|73
1621928072|49:a2:fa:73:f8:c5|75
1622010839|49:bd:f1:29:04:d5|68
1621925521|49:c9:56:6b:95:c8|76
1621930263|4b:13:7e:f4:58:d8|75
1621944434|4b:2e:8b:c3:13:42|85
1621947556|4b:70:a1:82:4d:8d|73
1622010035|4b:94:eb:26:d4:1b|79
1621861369|4b:a2:c1:ce:d6:dd|83
1621929235|4b:a6:a3:cf:dd:d8|80
1622016353|4b:a8:2e:86:67:cf|69
1621837067|4c:00:47:e8:3d:f9|81
1621865710|4c:02:20:06:6c:03|92
1621837981|4c:18:9a:42:e8:07|77
1622016001|4c:1d:96:13:48:86|86
1621925035|4c:1d:96:13:48:86|87
1622021792|4c:1d:96:ab:7a:98|80
1621923134|4c:1d:96:e6:e2:4f|79
1622027960|4c:2d:99:8b:9f:7e|85
1622018959|4c:34:88:68:ce:64|87
1621926059|4c:34:88:69:ba:b3|84
1622022130|4c:74:bf:77:fc:32|89
1621845419|4c:74:bf:77:fc:32|73
1621935826|4c:74:bf:77:fc:32|82
1622023560|4c:7a:5c:9e:55:e8|74
1621854047|4c:a0:15:3a:7f:c2|74
1622018486|4c:dd:31:f3:32:57|76
1621850082|4c:dd:31:f3:32:57|78
1621933104|4c:dd:31:f3:32:57|71
1621863162|4c:fe:35:af:99:77|87
1621930946|4d:15:88:19:52:10|83
1621837386|4d:85:1b:77:33:96|58
1621852088|4d:85:f8:c4:8f:b6|78
1621933897|4d:df:83:05:cd:89|69
1621856434|4d:ee:b2:e3:07:a2|81
1621922400|4d:f3:73:2e:4d:33|79
1621854765|4f:14:79:fa:26:1c|70
1621850894|4f:1d:6b:2d:99:8a|62
1621925217|4f:45:af:a3:68:e2|73
1622016399|4f:4a:1a:c1:fe:1f|69
1621850751|4f:74:c9:b8:52:df|75
1621851204|4f:93:86:0f:fb:60|81
1621848063|4f:a3:83:3a:4a:a8|78
1621927420|4f:a9:ca:cc:54:88|66
1621944484|4f:d4:df:d2:ec:c7|75
1621935085|4f:ff:bd:fc:e5:f9|78
1621941683|50:05:22:69:da:94|82
1622009690|50:2f:9b:79:b6:5c|89
1622011546|50:3d:c6:c1:6f:9a|84
1621860725|50:3d:c6:c1:6f:9a|81
1621928742|50:53:10:7b:b6:96|86
1621942379|50:58:b0:7c:85:1c|76
1622023529|50:7a:55:6a:4c:08|73
1621936975|50:8f:79:52:ca:af|68
1621845718|50:ad:a0:26:34:f1|70
1621846211|50:c8:eb:2c:1c:98|69
1621922531|50:eb:71:1f:71:01|84
1622025237|50:eb:71:9b:04:dd|85
1621941121|50:eb:71:9b:04:dd|89
1621942804|50:ed:3c:09:23:26|85
1622015840|50:ed:3c:48:74:1d|83
1621851024|50:f1:16:e9:3c:1c|81
1621930442|51:2c:5a:c1:52:c9|70
1622018354|51:8a:a2:45:71:5e|73
1621946872|51:97:f7:fb:db:9c|71
1621844311|51:ba:11:07:71:d2|80
1621949570|51:c4:c5:a6:85:74|85
1621937209|51:d0:70:71:c0:dc|80
1621940366|53:27:79:fb:40:a9|83
1621945764|53:2f:40:dc:73:80|76
1622023946|53:46:91:e0:e2:e5|76
1622025467|53:74:c8:38:d6:42|76
1621837050|53:9d:86:d0:b3:d9|79
1621839721|53:ca:ed:b4:b4:06|79
1621851072|53:ce:ab:1f:55:bf|69
1621840598|53:d2:e5:fa:01:37|70
1621929829|54:09:10:b6:a8:39|84
1622030633|54:51:96:6a:cf:46|81
1622030469|54:68:76:7f:fe:7c|71
1621928695|54:77:e9:33:35:8a|77
1622017323|54:7c:b5:29:bc:8e|78
1622012652|54:8d:5a:0d:02:fa|83
1621937261|54:8d:5a:c5:96:d5|67
1621937155|54:8d:5a:c5:96:d6|75
1621856413|54:8d:5a:cb:de:2d|84
1622014917|54:8d:5a:cb:de:2e|91
1621856425|54:8d:5a:cb:de:2e|85
1621941187|54:b2:9a:99:b8:e7|85
1622019260|54:b8:02:02:df:ea|82
1622018478|54:ba:d6:20:03:fa|87
1621850725|54:e2:fa:01:b2:e3|78
1621949240|54:fa:a0:70:4c:31|73
1621928581|54:fc:f0:9b:2d:2f|89
1622017955|55:4f:0f:1a:bd:0c|82
1622013572|55:61:37:ef:b0:9e|69
1621950330|57:03:11:2f:63:d3|78
1622030132|57:40:b5:62:9c:4e|80
1621935296|57:4e:1d:57:bf:7a|78
1621845073|57:58:91:b0:72:e8|75
1621927471|57:8a:0a:5f:9e:3b|85
1622025550|57:8e:7b:a4:f1:94|72
1621925572|57:8e:98:72:b3:88|78
1621851266|57:d8:d0:70:73:ff|65
1621927727|57:f6:3d:9f:d8:8c|85
1621842634|58:00:e3:ef:c0:a1|91
1621924241|58:0b:37:87:09:1d|82
1622017737|58:42:83:34:b8:99|92
1621927055|58:56:ae:a1:31:5a|88
1621938315|58:82:63:ae:21:3e|89
1621859737|58:85:e9:ae:82:a3|78
1621862253|58:a0:23:ed:af:94|91
1621940061|58:a0:23:ed:af:fd|91
1621945334|58:fb:84:02:5b:84|82
1621845552|59:1c:53:11:cc:85|78
1622029156|59:1e:41:a2:d9:f7|80
1622025400|59:55:7c:4c:bd:f9|72
1621938081|59:93:59:e6:12:62|75
1622016239|59:c2:89:b1:97:d9|71
1621934821|59:cb:1b:62:5e:df|71
1621941855|59:f4:ec:5a:e9:a4|74
1621840734|5b:1c:89:81:a1:6e|84
1621850454|5b:34:21:26:e1:12|88
1621855795|5b:62:da:7e:a7:28|79
1622013561|5b:64:44:a5:2e:7b|77
1621855314|5b:75:ae:0d:d3:bb|78
1622030480|5b:d7:f0:5c:9d:5d|72
1622020357|5c:18:41:d3:48:bb|74
1621923375|5c:23:3d:74:1a:cd|75
1621844792|5c:2e:59:cd:eb:27|85
1621836748|5c:5f:67:89:19:67|71
1621939662|5c:5f:67:d0:66:fa|95
1621948598|5c:66:6c:b6:c5:67|94
1621840620|5c:6a:ba:57:9d:c9|78
1621854956|5c:87:9c:c6:6c:a9|93
1621938519|5c:9a:0c:ff:5f:21|77
1621845605|5c:9c:a5:ad:ac:67|70
1621853863|5c:a1:0e:2f:a7:1a|83
1621838302|5c:ba:ef:f6:8b:49|77
1621923217|5c:c5:d4:b2:7b:72|82
1621922597|5c:c5:d4:e0:7a:95|75
1622013246|5c:ea:1d:90:12:d5|69
1621847052|5c:ea:1d:90:12:d5|74
1621940243|5c:ea:1d:90:12:d5|70
1622018591|5d:15:2a:9b:ca:c6|84
1621855711|5d:40:55:cf:ca:df|76
1621927483|5d:48:0a:87:fa:37|70
1621837261|5d:4f:7e:98:22:0f|82
1621855745|5d:60:65:ae:b8:83|66
1621925074|5d:c9:b1:f7:2a:48|88
1622018995|5f:0c:49:63:64:91|71
1621860206|5f:12:f1:90:23:de|88
1621845518|5f:2a:b4:e6:c9:78|67
1621857894|5f:49:41:9b:2a:a8|77
1621854731|5f:6c:6e:2c:a0:4f|73
1621843939|5f:71:64:3b:90:f3|82
1621942996|5f:8d:8a:fe:25:58|79
1621850735|5f:b5:58:f8:a6:fa|67
1621947408|5f:bc:a2:a1:d0:ee|79
1621934912|60:21:01:8e:5e:c1|84
1621845594|60:23:a4:df:d8:f4|82
1621844308|60:67:20:31:6a:94|92
1621845536|60:91:0b:40:58:cb|76
1622013151|60:9d:b0:9a:8c:5b|73
1621851004|60:a5:53:7f:73:b7|82
1622031385|60:ab:14:fe:e6:14|86
1622016722|60:af:6d:bd:f9:85|76
1621841811|60:b0:b1:24:d5:1c|75
1622028190|60:c7:c4:65:33:f0|80
1622014816|60:f1:89:47:1a:46|74
1621951287|60:f1:89:47:1a:46|82
1621922444|60:f2:62:1c:af:a2|81
1621836526|60:f2:62:1c:af:a2|81
1622028229|60:f2:62:1c:af:a3|83
1621849291|60:f2:62:1c:af:a3|80
1622025256|60:f2:62:dc:93:e9|71
1622028553|60:f2:62:dc:9d:30|80
1622010931|60:f6:77:ce:29:a8|74
1621838530|60:f6:77:ce:29:a8|68
1621924573|60:f6:77:ce:29:a8|72
1621929658|61:3b:2d:a6:f3:bc|73
1621854092|61:86:c7:d8:0a:e0|72
1621948541|61:ac:ed:de:e5:27|81
1621947132|61:d3:f2:f5:73:38|80
1621850883|63:40:60:cf:8d:8e|62
1621923369|63:4a:84:af:a6:d8|72
1621861230|63:50:7e:58:da:d1|78
1621937018|63:5f:b7:01:7e:55|86
1621929725|63:71:e3:90:27:fb|74
1621946789|64:1d:20:31:6d:74|76
1621936084|64:2c:ac:7a:f2:dc|68
1621947533|64:3c:f8:b4:bb:8d|72
1621947527|64:56:ac:f7:bb:f7|80
1622013224|64:5d:86:ac:f5:da|74
1621935760|64:5d:86:ac:f5:da|73
1621923175|64:68:f5:86:68:ef|82
1622025403|64:6e:54:e9:5c:42|75
1621927980|64:76:ba:d5:3a:32|83
1621922727|64:7e:85:80:2e:7d|67
1621939385|64:9f:24:48:31:cc|76
1621841446|64:b7:14:55:41:4f|73
1621841025|64:c7:53:de:88:90|69
1621840512|65:bb:eb:9c:17:89|70
1621858247|67:5a:d0:1a:3b:b0|77
1621846510|67:7b:dc:5f:07:8c|76
1621839507|67:7c:fa:6b:38:67|75
1622010654|67:93:a5:7d:31:14|73
1621927345|67:d3:bf:c3:e1:34|78
1621929819|67:d9:79:5e:4c:57|71
1621853260|68:17:29:0d:95:e4|78
1622020577|68:27:37:8d:c9:21|75
1621843722|68:40:29:6f:c3:77|79
1621923313|68:43:1b:85:c3:50|87
1622011580|68:54:5a:6e:b0:db|84
1622017595|68:54:5a:6e:b0:dc|84
1621838421|68:54:5a:6e:b0:dc|82
1621930915|68:54:5a:6e:b0:dc|82
1621839504|68:5a:c5:57:8f:06|78
1622010209|68:5a:cf:c3:cc:d5|68
1622022820|68:6c:76:f6:54:0a|83
1622015667|68:71:44:71:d8:4c|79
1621836915|68:bf:2e:07:27:9e|72
1622020338|68:db:f5:d4:61:f3|73
1622018054|68:e7:c2:24:de:ef|90
1621934146|68:e7:c2:24:de:ef|78
1621929527|68:e7:c2:ef:d6:d1|93
1621934989|68:ec:c5:55:ea:47|91
1621949648|69:0f:34:ff:37:a8|83
1621845614|69:12:29:b6:53:70|71
1621849603|69:6d:63:26:eb:f4|78
1622011957|69:a9:fc:ca:b3:f0|67
1621950841|69:f1:f7:e8:7b:bd|84
1621935413|69:f4:47:65:1a:a6|73
1622013835|6b:34:0a:af:fd:fc|62
1621922999|6b:64:e2:66:db:3a|71
1621856440|6b:73:48:fa:c1:aa|74
1621923017|6b:a6:d7:c5:6b:29|89
1621840741|6b:e7:43:38:c3:a6|82
1622013551|6c:4b:c3:ac:01:f7|68
1622009234|6c:4d:73:a6:bc:3e|82
1621838336|6c:68:38:ac:ec:2b|78
1621851469|6c:ac:a5:25:63:6c|80
1621836681|6c:c7:ec:13:a2:7c|87
1622020368|6c:c7:ec:1b:25:39|78
1621948002|6c:c7:ec:1b:25:39|83
1621937045|6c:c7:ec:2f:66:92|83
1621934484|6c:c7:ec:47:f7:6f|63
1621929456|6c:c7:ec:6a:7c:e3|91
1621838372|6c:c7:ec:6a:7c:e3|92
1621923695|6c:c7:ec:95:56:a5|88
1622010451|6c:c7:ec:9c:24:73|87
1621950227|6c:c7:ec:9e:9c:b1|73
1621862420|6c:c7:ec:b7:6b:82|82
1622021730|6c:c7:ec:d0:dd:39|78
1621923806|6c:c7:ec:d9:eb:c7|84
1622013690|6c:c7:ec:fd:9c:40|91
1621945669|6c:c7:ec:fd:9c:40|85
1622031093|6c:d1:37:7d:df:1f|72
1621935807|6c:de:0d:1f:ca:07|75
1621929724|6c:f2:f0:e4:c3:60|70
1622014370|6d:16:cc:b8:f6:36|81
1621837407|6d:1c:e8:c2:ec:92|63
1622011960|6d:3c:e3:36:c8:c9|75
1622027688|6d:93:7d:2a:ad:7a|70
1621858502|6d:a3:c8:59:fb:ac|84
1621839988|6d:e7:46:d8:24:aa|80
1621924147|6f:17:e1:87:02:c1|91
1621850531|6f:34:2a:5b:4e:4d|73
1621949272|6f:42:b4:c0:5d:d8|83
1621841407|6f:6b:a1:7a:3f:82|76
1621855439|6f:77:45:b3:77:28|78
1621946490|6f:88:23:df:3a:22|74
1621844654|6f:bf:e2:a3:3d:db|82
1622008832|70:03:9f:01:40:fe|84
1621926337|70:3a:51:31:43:10|93
1621927980|70:5a:ac:20:df:c7|77
1621925621|70:5a:ac:f0:f6:28|73
1621843604|70:5a:ac:f0:f6:28|74
1621839780|70:69:13:4d:93:6d|71
1621848322|70:6e:c6:49:db:00|78
1622014636|70:9c:d1:12:b5:e2|90
1621926394|70:9c:d1:12:b5:e2|87
1622013638|70:bb:e9:cd:22:99|75
1622030270|70:bc:10:73:00:91|82
1621933910|70:bc:10:73:00:91|90
1621836520|70:c2:a1:59:74:69|66
1621863957|70:c9:4e:6e:e5:71|69
1621854071|70:d7:e2:b3:66:5a|77
1621863837|70:dc:56:4f:55:ab|81
1621854411|71:11:47:69:f7:b9|81
1621856605|71:24:da:4d:7c:f7|81
1621930577|71:99:11:07:90:f5|77
1621922981|71:a5:63:fa:06:45|80
1621933723|71:d7:87:e2:34:40|75
1621923929|71:f8:72:6b:48:32|84
1621927043|73:06:06:61:95:82|67
1621854414|73:0b:72:5d:fa:fc|81
1622028019|73:21:b5:e5:2f:96|74
1622013531|73:34:c2:fd:fa:ed|68
1621851779|73:7a:67:ef:c4:c8|72
1621861429|73:88:09:b8:16:34|71
1621928742|73:bb:cf:34:ce:21|66
1621855729|73:e4:54:a0:d5:e0|71
1621839652|73:ea:2a:a7:64:f7|82
1621943017|74:50:2e:a9:21:eb|84
1621930937|74:58:18:7c:af:b7|81
1621860665|74:70:fd:a6:ca:ed|86
1621922860|74:70:fd:a6:d8:3a|86
1622013244|74:70:fd:a6:d8:3a|67
1622026405|74:7b:67:ed:7c:aa|85
1621953772|74:8a:28:30:04:c2|85
1621845424|74:c1:4f:c8:e7:d7|83
1622009316|74:d8:3e:9e:5b:d8|85
1621836553|74:d8:3e:9e:5b:d8|84
1621923875|74:d8:3e:9e:5b:d8|81
1622019387|74:d8:3e:fe:c1:21|81
1621936556|74:df:bf:48:3b:01|73
1621932832|74:eb:80:c8:60:bc|78
1621866964|74:eb:80:c8:60:bc|89
1621923141|74:eb:80:f8:50:48|81
1622022434|75:6a:cb:49:bd:d4|81
1621854486|75:da:65:ec:13:26|79
1621949046|75:dd:ee:e6:db:f7|83
1621935670|75:f0:ce:8d:bb:33|71
1621851110|77:46:e1:65:f6:37|79
1621934723|77:ae:28:ba:98:05|79
1621945962|77:bc:31:d7:b5:72|82
1622033107|77:cf:16:a4:d6:9e|79
1621934844|77:d6:47:2c:8d:ab|73
1622024106|77:da:a9:96:a4:96|78
1621927245|77:e4:00:e6:8c:e3|89
1621946584|77:e8:67:9e:8d:74|76
1621856564|78:05:6b:46:b2:48|74
1621948683|78:21:57:10:f9:61|72
1622018509|78:2d:47:cf:16:22|79
1622017631|78:3a:6c:a0:1b:a1|90
1621948635|78:3a:6c:a0:1b:a1|90
1621847839|78:4b:87:da:53:bb|90
1621922440|78:4b:87:da:53:bb|91
1621849775|78:4f:43:38:11:e5|77
1621837944|78:4f:43:7b:f4:81|89
1622024498|78:62:32:b7:71:79|70
1622026775|78:64:c0:d7:8f:dd|78
1621839992|78:64:d9:5a:1a:5c|76
1621927474|78:87:e2:fe:eb:5a|83
1621850219|78:88:6d:5c:3f:98|92
1621941940|78:8e:1f:85:34:96|81
1622014138|78:c3:e9:59:e2:18|79
1621929401|78:c4:2f:65:e6:14|79
1622009690|78:dd:d9:83:97:b9|90
1621856461|78:dd:d9:83:97:b9|97
1621854925|78:dd:d9:83:98:7d|94
1622017756|78:f3:47:a3:c5:ef|94
1621850923|79:2c:5e:ca:d3:a6|82
1621948847|79:3b:f1:69:90:e9|77
1621926694|79:63:5d:f7:1c:f7|80
1621845986|79:8b:f2:2e:ed:02|85
1622026904|79:8c:67:33:94:c2|71
1621846452|79:9c:6c:71:59:8f|79
1621837255|79:b8:9e:d4:00:4d|75
1621855598|79:f0:a7:18:43:85|69
1621860902|7b:07:1e:56:46:9f|85
1621930528|7b:25:3f:a9:91:dc|75
1621840217|7b:8f:e6:e2:37:10|79
1621851288|7b:b2:cf:c8:37:3d|70
1621839791|7b:b4:55:76:56:a6|81
1621923359|7b:c4:7c:15:0b:c3|78
1621936041|7b:ff:f5:3b:f0:cf|79
1621838572|7c:06:9e:bb:79:05|75
1621850280|7c:1c:68:4f:3b:48|91
1621840899|7c:23:02:38:90:f2|78
1621929854|7c:23:02:e9:66:ce|81
1621950205|7c:26:25:71:af:c1|72
1621836765|7c:3c:0a:f1:cc:b9|79
1621846839|7c:50:dd:f6:cb:88|84
1621867384|7c:67:a2:8e:07:60|93
1622026785|7c:67:a2:8e:07:97|90
1621943790|7c:67:d1:13:09:51|69
1622021782|7c:76:35:7c:b3:2a|86
1621842417|7c:76:68:79:8c:a5|77
1621840580|7c:76:68:f0:4d:f7|83
1621845418|7c:89:56:cd:4f:1c|92
1622014636|7c:a1:77:29:f7:9c|54
1621854478|7c:a1:77:29:f7:9c|86
1622013235|7c:b5:31:24:f1:e7|73
1622013201|7c:cc:a7:1f:76:cc|57
1621954076|7c:d6:61:ca:d8:95|88
1621867721|7c:d6:61:ca:d8:95|86
1621859140|7d:0e:db:7a:a7:9b|84
1621942750|7d:3b:12:c7:1a:54|78
1621932933|7d:3f:a4:9e:08:4d|90
1621851281|7d:4a:6d:6c:09:2e|78
1622018421|7d:57:2d:3a:04:86|83
1621935648|7d:62:b0:2f:a8:30|78
1621940486|7d:65:b2:4e:23:33|85
1622013394|7d:66:6d:d3:d0:08|70
1622013538|7d:d9:2f:e3:1d:dd|64
1621836584|7f:0f:cd:de:0a:40|67
1621838361|7f:16:46:0f:81:0b|58
1621842202|7f:37:17:d2:56:eb|81
1621928859|7f:8b:17:20:01:7d|74
1622023133|7f:9f:4d:16:e4:6f|75
1621850775|7f:d6:38:1c:cc:2c|72
1622013151|80:19:34:1c:f7:00|83
1621847827|80:19:34:1c:f7:00|90
1621855158|80:32:53:75:0e:95|85
1622010428|80:35:c1:cf:2b:90|92
1621945771|80:38:96:79:e5:55|81
1621856437|80:42:35:30:a3:9f|70
1621951566|80:4e:70:6c:6f:ea|86
1622021669|80:4e:70:e9:52:f2|86
1622009847|80:4e:70:fd:17:d8|82
1621925219|80:4e:70:fd:17:d8|76
1621929571|80:65:6d:75:b5:3a|81
1621948496|80:7f:cd:a8:88:62|70
1622010820|80:81:fc:e1:5b:2b|81
1621853734|80:84:d4:39:b0:7d|84
1622028745|80:a1:b5:36:e6:dc|80
1622021856|80:b0:3d:a5:57:b5|77
1621845137|80:b0:3d:a5:57:b5|75
1621927029|80:b0:3d:a5:57:b5|83
1621926672|80:b8:11:1b:d1:af|78
1621927210|80:be:05:5e:ca:8c|91
1621853972|80:be:05:5e:ca:8c|83
1622031095|80:ce:b9:07:75:68|92
1622017871|80:ce:b9:1a:b9:1a|74
1621844192|80:ce:b9:1a:b9:1a|74
1622014876|80:ce:b9:27:c5:d2|76
1622010379|80:ce:b9:c3:b8:65|82
1621836507|80:ce:b9:c3:b8:65|70
1621926462|80:ce:b9:c3:b8:65|66
1622027976|80:ce:b9:d5:f7:95|84
1622033000|80:cf:11:8d:e0:ec|82
1621852984|80:e9:01:c8:86:9f|83
1621930534|80:ed:2c:e2:f2:60|86
1621929280|80:fc:6e:6c:8a:1c|79
1621934819|81:36:9a:e1:d4:11|69
1621924245|81:86:5f:33:db:6a|83
1621852822|81:b6:50:74:0a:25|85
1621942419|81:db:b9:58:f1:cd|73
1621856456|83:35:b5:da:53:7b|71
1621850004|83:87:71:c4:82:78|80
1621942663|83:b6:df:88:99:0c|75
1621857500|83:c1:68:8c:77:3f|88
1621846182|83:ee:b5:25:06:32|77
1621949495|84:0e:50:00:e2:ba|75
1622008909|84:1b:77:f3:6c:6d|81
1621922544|84:1b:77:f3:6c:6d|79
1622021053|84:1b:77:f4:e8:31|81
1621923266|84:1b:77:fd:b2:95|67
1622021741|84:2e:27:37:89:04|80
1621927865|84:3d:2d:6f:af:fa|84
1621841715|84:66:5d:c1:1c:f5|69
1621929216|84:76:f9:9e:4b:05|69
1621949417|84:ab:1a:b3:bb:92|83
1621936898|84:ab:1a:c4:59:74|86
1621838584|84:af:03:a5:e1:e0|81
1622019372|84:c5:a6:fb:2b:f6|80
1621926166|84:f8:f6:53:31:b7|84
1621839881|85:03:fe:d9:78:bf|76
1621940686|85:46:bb:fd:f9:38|85
1621851110|85:82:80:fd:a0:b0|89
1621935648|85:8f:74:d4:94:f4|73
1621944707|85:c2:c1:bf:d6:5b|81
1621841112|85:c6:4a:98:64:b5|84
1621844559|85:f3:de:c8:36:00|87
1621840952|87:02:5c:b1:3e:6b|79
1621839560|87:56:d1:91:46:a5|81
1621837678|87:7d:63:38:90:12|86
1621931504|87:e4:82:17:e6:4d|63
1621840151|87:ed:ae:29:62:86|76
1622033036|88:07:4b:e7:cf:33|74
1622016490|88:10:8f:97:53:63|80
1621846119|88:10:8f:97:53:63|94
1621951400|88:3f:c3:38:92:99|90
1622018896|88:40:3b:2b:c1:4b|84
1621855657|88:40:3b:2b:c1:4b|75
1622011525|88:53:95:0f:37:0f|87
1621942630|88:5f:e8:71:02:5b|91
1622014120|88:83:22:2d:7d:2f|69
1621933808|88:83:22:83:fe:a6|84
1622020903|88:83:5d:96:cd:b0|95
1621861497|88:86:07:3c:3d:dc|87
1621846158|88:94:91:28:00:6b|75
1621939025|88:9f:6f:85:f1:10|82
1622017690|88:9f:6f:8a:4f:1e|85
1622022554|88:a4:79:14:6c:e5|85
1621846210|88:a4:79:14:6c:e5|89
1621930767|88:b1:11:2a:a0:53|89
1621839799|88:b1:11:2a:a0:53|85
1621922636|88:b1:11:2a:a0:54|90
1621932764|88:b4:a6:09:df:93|89
1621932539|88:b4:a6:0b:16:ca|87
1621843373|88:b4:a6:1b:4c:00|89
1621933188|88:b4:a6:33:64:18|86
1622013183|88:b4:a6:48:53:d0|81
1622013198|88:b4:a6:4d:21:d5|82
1621839558|88:b4:a6:4e:59:0d|91
1621838672|88:b4:a6:53:29:a6|85
1621838341|88:b4:a6:56:98:4c|90
1621836163|88:b4:a6:5b:66:e3|93
1622012298|88:b4:a6:5f:a1:1e|89
1622012092|88:b4:a6:61:13:c7|90
1622012869|88:b4:a6:64:df:93|87
1621839113|88:b4:a6:69:74:28|92
1622013218|88:b4:a6:6a:d2:86|86
1621837614|88:b4:a6:70:7b:2f|89
1621841381|88:b4:a6:79:73:f0|90
1622013153|88:b4:a6:89:94:48|86
1621841803|88:b4:a6:8b:5f:13|91
1622012935|88:b4:a6:92:d4:51|88
1621933198|88:b4:a6:95:d7:8b|89
1622012101|88:b4:a6:98:ed:a1|90
1621836041|88:b4:a6:9c:70:24|84
1621837124|88:b4:a6:9d:f0:a4|89
1621837055|88:b4:a6:a5:e7:9b|90
1621839208|88:b4:a6:aa:ec:a0|87
1622012925|88:b4:a6:b5:54:08|84
1621841476|88:b4:a6:b7:c2:76|90
1621933016|88:b4:a6:bf:ca:7e|87
1622012982|88:b4:a6:c3:ce:82|85
1621838177|88:b4:a6:c9:d4:51|86
1621932908|88:b4:a6:cb:c7:7b|84
1622013002|88:b4:a6:cf:37:eb|89
1621840392|88:b4:a6:d4:bd:71|92
1621836068|88:b4:a6:d6:09:bd|88
1621839606|88:b4:a6:d7:e2:96|88
1621843025|88:b4:a6:d9:8b:08|83
1622013376|88:b4:a6:dc:9f:1c|91
1621838389|88:b4:a6:e4:ef:a3|89
1622013498|88:b4:a6:ec:e8:65|88
1621836569|88:b4:a6:f1:fc:b0|87
1621838814|88:b4:a6:fa:3c:f0|85
1622012944|88:b4:a6:fc:e5:99|89
1622017520|88:b5:07:d3:2a:f6|86
1621940107|88:e6:02:6b:29:64|88
1621950983|88:e9:fe:84:75:85|93
1621839736|89:1c:40:8d:7d:55|80
1621928753|89:1d:84:2e:ed:8b|68
1622015664|89:23:7a:05:d6:2e|82
1621935328|89:5b:de:1f:75:20|69
1622018446|89:9b:5e:36:2c:99|81
1621837061|89:d7:80:d0:72:54|74
1621841140|8b:16:da:03:8a:fd|83
1622013397|8b:37:49:6b:f1:1b|70
1621838898|8b:b6:85:91:a1:1d|50
1621935651|8b:ca:1e:20:10:df|72
1621925644|8c:1a:bf:a3:89:76|85
1622030488|8c:24:87:fb:fc:7d|71
1621861234|8c:25:05:4a:7c:0b|73
1621851501|8c:42:cf:1d:4e:14|78
1621840521|8c:45:00:15:f4:b0|79
1621951849|8c:45:00:a5:d0:51|87
1621842505|8c:45:00:a6:14:bc|79
1621924332|8c:45:00:a6:14:bc|87
1621851507|8c:58:39:bb:ce:92|79
1621839758|8c:69:e3:a4:01:57|75
1621858762|8c:85:90:0f:e9:0e|85
1621927007|8c:85:90:75:1d:84|89
1621945620|8c:85:90:82:46:a4|90
1621861188|8c:85:90:82:46:a4|93
1621927526|8c:85:90:86:b9:e0|80
1621837345|8c:a1:bb:ac:02:c1|63
1621947296|8c:b0:67:04:5f:3f|89
1622013273|8c:b3:10:53:72:57|64
1622021560|8c:b8:4a:06:98:1a|86
1621857765|8c:b8:4a:06:98:1a|82
1621846711|8c:b8:4a:1e:2f:28|84
1622027110|8c:b8:4a:2a:69:06|90
1622010108|8c:b8:4a:32:b9:fe|84
1621946133|8c:b8:4a:49:ca:f1|77
1621843708|8c:b8:4a:57:49:fa|72
1622013080|8c:b8:4a:8a:21:cd|75
1621846458|8c:c6:81:1a:f3:5b|80
1622019553|8c:c6:81:6f:e4:42|73
1621945220|8c:c6:81:6f:e4:42|76
1621843927|8c:cb:fb:bc:c4:71|73
1621863604|8c:eb:c6:b3:94:55|88
1621944914|8c:eb:c6:b3:94:55|83
1622025413|8c:f5:a3:05:e2:47|85
1621863042|8c:f5:a3:05:e2:47|84
1621940366|8c:f5:a3:05:e2:47|84
1621849850|8c:f5:a3:66:8f:b4|83
1621933756|8c:f5:a3:d7:cc:2d|69
1621943949|8c:f5:a3:dd:36:35|90
1621926639|8d:0d:c9:62:57:54|90
1621848295|8d:16:22:ed:12:94|88
1621838584|8d:21:a5:cc:6b:d6|73
1621950221|8d:36:07:86:cd:99|90
1621948619|8d:4b:df:9b:44:bc|81
1621863290|8d:56:e7:ac:3e:05|88
1621938078|8d:6b:11:41:61:7a|83
1621932470|8d:b6:60:b0:62:42|78
1621934789|8d:cd:bd:3f:94:83|74
1622021764|8f:4c:f7:03:6c:91|82
1621841497|8f:4f:9b:02:d5:e5|67
1621941819|8f:56:1f:3b:7b:40|72
1621846130|8f:62:39:e6:9e:0e|78
1622015165|8f:90:a8:63:84:37|85
1621946449|8f:91:7b:b0:24:ee|71
1621839504|8f:97:23:f5:55:a9|77
1621860871|8f:a7:ed:a0:90:3d|83
1622022469|8f:c0:fc:f5:34:1e|75
1621845373|90:17:c8:0f:97:99|77
1621841236|90:1b:d8:0a:9c:f4|81
1622027271|90:32:4b:78:24:79|67
1621858226|90:32:4b:78:24:79|73
1621932848|90:78:41:9c:91:90|73
1621850767|90:97:f3:92:c0:b6|82
1622013797|90:9c:4a:b6:d5:f0|92
1621948681|90:a7:d7:e2:de:82|85
1622030027|90:b2:1f:c1:c7:6c|88
1622023397|90:b6:86:fe:db:11|89
1621929955|90:b9:f2:71:04:8f|70
1621862054|90:cc:df:c0:c1:9b|87
1621938522|90:ce:f3:5d:c5:6e|75
1621854936|90:e7:c4:8a:05:c2|82
1622010823|91:01:34:3e:08:51|70
1621850738|91:1b:d4:cb:af:de|70
1621839838|91:39:16:76:80:24|77
1621950023|91:50:50:e6:3f:3b|82
1621926984|91:5b:04:7f:01:20|70
1621846340|91:65:6e:fa:9d:53|74
1621937170|91:73:1e:96:10:26|86
1621841808|91:83:d0:d1:78:e5|71
1622013961|91:df:f5:c4:85:e0|79
1621852993|93:11:cd:5a:12:43|78
1622028285|93:6a:f9:98:ef:bb|82
1621946853|93:b1:d0:5a:23:0e|77
1621927622|93:e4:97:a3:ef:e6|75
1621938088|94:01:b0:01:7c:d6|78
1622032146|94:0e:6b:f0:ee:7c|88
1621850455|94:0e:6b:f0:ee:7c|73
1621851939|94:23:7f:e7:7f:b3|77
1621934103|94:2d:dc:7d:a3:40|77
1621837205|94:31:4d:6f:61:bf|75
1622025417|94:45:a4:68:ac:eb|79
1621840923|94:5f:55:5b:7d:92|81
1621924922|94:65:2d:3f:ef:09|79
1621838491|94:65:2d:3f:ef:09|76
1621837299|94:65:2d:d0:cc:ac|80
1622016032|94:65:2d:dc:ac:48|88
1621858473|94:65:2d:dc:ac:48|87
1621934891|94:65:2d:dc:ac:48|82
1622012846|94:65:9c:66:64:df|73
1621840489|94:75:24:b2:68:9f|71
1622026447|94:76:b7:01:d4:81|90
1622013653|94:8b:69:7b:a1:95|70
1621856117|94:94:26:5d:ac:89|91
1622028967|94:b1:0a:d0:e1:56|84
1621839458|94:b1:0a:d0:e1:56|85
1621836742|94:b7:ed:2b:7f:59|85
1622014957|94:bf:2d:d8:c3:d6|77
1622014839|94:bf:2d:d9:86:60|70
1621948538|94:d1:f5:c9:ad:88|89
1621924502|94:e6:f7:60:ba:ee|87
1621930269|94:e7:0b:af:a6:68|78
1621851515|95:3e:2a:19:86:a1|79
1621947215|95:58:ca:74:8f:95|74
1621926930|95:69:74:7a:25:d9|73
1621930177|95:a6:4b:f5:f8:f6|72
1621949662|95:bd:1e:2c:fe:fb|78
1621840103|95:dd:1a:74:05:21|69
1622015145|95:de:5d:b8:dd:8d|66
1621837873|97:16:f4:14:59:4d|84
1621927652|97:1e:d4:47:08:3f|78
1621935406|97:41:b9:86:6d:a3|72
1621938379|97:89:dc:39:1d:13|89
1621853938|97:fe:39:b9:d7:ae|90
1622018664|98:09:cf:64:f4:d2|74
1621848557|98:0d:51:52:c1:f2|91
1621951365|98:0d:51:52:c1:f2|86
1621836925|98:22:ef:b9:ba:91|84
1622023122|98:2c:bc:01:ea:8c|79
1621838011|98:2c:bc:01:ea:8c|83
1622009456|98:2c:bc:2f:53:a0|50
1621935099|98:2c:bc:2f:53:a0|69
1621925925|98:2c:bc:60:15:5d|77
1621838304|98:3e:4d:74:41:62|76
1621949655|98:45:ef:ce:58:2d|80
1621946392|98:46:0a:9b:6f:48|81
1621931386|98:54:1b:a2:7e:ed|93
1622015863|98:54:1b:a2:7e:ed|92
1621836013|98:54:1b:a2:7e:ed|67
1621836155|98:54:1b:a2:7e:ee|74
1622030271|98:54:1b:be:fb:b3|85
1621940430|98:5f:d3:ef:60:c3|75
1621861026|98:5f:d3:ef:60:c3|72
1621944601|98:65:10:ef:29:c7|75
1621854473|98:6a:be:4d:0e:27|71
1621852252|98:6f:60:a6:1b:89|92
1621940869|98:74:da:bf:d8:a6|77
1621844057|98:98:0e:e5:0b:7d|75
1622028698|98:af:65:33:9c:0d|83
1621947834|98:c8:ca:ac:cc:c6|83
1621854923|98:ca:33:db:07:c7|81
1622010211|98:dd:ea:d5:7d:a7|70
1621922460|98:dd:ea:d5:7d:a7|72
1621857483|98:e0:d9:32:cb:b8|78
1622014832|98:f1:70:1b:a8:59|70
1621923432|98:f1:70:1b:a8:59|78
1621948687|99:21:45:11:45:d7|71
1622030239|99:51:38:4a:d0:af|75
1621850314|99:5d:36:ad:6e:8e|87
1621864005|9b:03:53:a7:55:d1|82
1621947061|9b:74:80:64:7f:d4|77
1621861554|9b:85:7b:55:ec:c5|57
1621929614|9b:a0:6e:72:92:0c|72
1621851425|9b:ca:6d:9f:26:2e|76
1622010668|9b:d2:37:dd:4e:bb|77
1621862367|9b:d8:3d:ae:79:10|91
1621949451|9c:12:66:91:1a:1b|83
1621925643|9c:29:76:e3:f8:50|80
1622013904|9c:29:76:e3:f8:51|80
1621927664|9c:29:76:e3:f8:51|81
1621926355|9c:2b:d2:83:d2:89|78
1621841705|9c:2b:d2:83:d2:89|76
1622032516|9c:30:5b:6b:fa:a5|81
1621938958|9c:30:5b:6b:fa:a5|85
1621838332|9c:31:a7:2f:7c:87|80
1621841891|9c:3d:93:28:8b:88|84
1621838220|9c:3e:71:ac:32:c9|85
1621863947|9c:56:81:fa:b5:07|84
1621938306|9c:a5:13:54:fc:35|82
1621924090|9c:b6:d0:97:1b:9d|85
1621931499|9c:bf:d2:f2:2e:48|73
1621947534|9c:d6:28:09:85:75|78
1621923128|9c:df:fe:66:1f:a1|78
1621939336|9c:f3:87:bd:74:b8|79
1621944040|9c:f3:87:be:5d:5c|84
1622017572|9c:f3:87:c7:31:92|85
1621940875|9c:f3:87:c7:31:92|91
1621858380|9c:f3:87:c7:31:92|91
1621850797|9d:0b:f0:32:25:cf|81
1622030602|9d:1e:8c:80:a6:67|79
1621836925|9d:5c:f0:dc:ec:5e|74
1621837103|9d:73:bf:01:19:96|83
1621933945|9d:92:c9:fc:93:8d|71
1621928396|9d:a6:b1:2e:be:0a|74
1621931252|9d:b4:f6:ab:c5:27|74
1621850657|9d:d7:69:75:a6:ca|82
1621935742|9d:e5:b7:c4:14:e1|75
1621942915|9d:f9:24:1d:72:1b|77
1621923287|9f:19:e0:c1:4f:05|71
1622012134|9f:58:95:ce:e4:6a|72
1621950344|9f:65:d1:f2:66:d0|83
1621837159|9f:79:f1:f9:c8:28|66
1621839817|9f:b0:28:cb:a2:be|83
1621933116|9f:bf:32:06:1f:8b|74
1621925979|a0:18:28:84:31:e1|84
1621924429|a0:3e:5f:54:53:57|88
1621836179|a0:6c:7e:56:0d:78|84
1621851653|a0:6f:aa:87:90:60|79
1622018263|a0:6f:aa:87:90:60|86
1621847916|a0:6f:aa:ba:1c:00|84
1621857178|a0:74:14:37:41:63|79
1621946039|a0:78:17:93:ae:cf|71
1621941918|a0:86:23:75:3b:06|86
1621940214|a0:88:b4:15:4b:ec|75
1621852187|a0:a3:61:71:bd:9b|70
1621853294|a0:a4:c5:b1:fc:ba|84
1621935922|a0:c9:a0:82:b2:1c|87
1621927096|a0:c9:a0:b6:a2:46|85
1621849136|a0:c9:a0:b6:a2:46|81
1621842888|a0:c9:a0:c6:aa:1b|83
1621850007|a0:c9:a0:eb:da:fb|75
1621837949|a0:cc:2b:c8:75:21|67
1622024391|a0:d3:7a:c0:eb:12|88
1621938311|a0:d3:7a:c0:eb:12|92
1621864133|a0:d3:7a:c0:eb:12|92
1621852079|a0:d8:07:47:14:1e|84
1621932964|a0:e0:46:f8:a2:4f|86
1622031905|a0:e4:78:f4:fc:37|82
1621854754|a1:1e:2d:9c:86:9d|71
1622009992|a1:85:9a:7c:e8:c4|75
1621926193|a1:87:5a:20:fe:a2|83
1621851724|a1:a0:51:aa:be:42|78
1621928939|a1:a7:3c:47:f0:e8|85
1621941305|a1:b0:d3:86:c9:e0|77
1621928870|a1:e0:88:15:40:ff|85
1621936073|a1:fc:4f:fd:ac:49|77
1621923447|a3:27:e9:c8:e9:c4|85
1621949025|a3:39:73:42:df:e5|78
1621837041|a3:40:d0:af:77:bb|73
1621936815|a3:74:4f:47:7a:b0|76
1621940489|a3:7d:1f:9b:bb:21|86
1621843345|a3:94:af:48:d6:2f|75
1621925103|a3:b1:cd:a8:0e:59|69
1621949924|a3:d3:05:e7:e6:0b|78
1621843588|a3:f0:d8:f1:22:12|69
1621850573|a3:ff:3d:dd:d4:2c|87
1621851190|a4:21:98:a1:1a:e2|84
1621939199|a4:28:e3:12:2a:7a|79
1621841070|a4:45:19:4d:3c:4e|70
1622012182|a4:45:19:4d:3c:4e|70
1621922405|a4:4b:d5:56:46:b3|75
1621837365|a4:55:90:c4:5e:e6|70
1621839813|a4:57:f3:d7:8e:19|87
1621928275|a4:83:e7:3c:42:b3|85
1621949738|a4:83:e7:a4:7e:33|76
1622011336|a4:83:e7:a4:7e:33|72
1621932361|a4:84:3d:bf:49:78|90
1621855799|a4:8d:84:0c:b2:01|77
1621938934|a4:9b:4f:e3:b2:98|82
1622024563|a4:b1:c1:d6:51:cd|80
1621860891|a4:b1:c1:d6:51:cd|76
1621939163|a4:b1:c1:d6:51:cd|79
1621938460|a4:bd:a5:fd:af:40|84
1621859207|a4:c3:f0:c9:2c:cd|73
1622025240|a4:c4:94:45:e4:58|90
1621942795|a4:c4:94:45:e4:58|91
1622022449|a4:cb:0f:21:03:3b|75
1622029715|a4:cd:9c:64:c2:cb|77
1621924595|a4:d1:8c:e7:72:e8|73
1621836474|a4:d1:8c:e7:72:e8|82
1621855023|a4:d9:31:d8:79:11|81
1622022913|a4:e4:b8:80:55:71|84
1621851872|a4:e4:b8:80:55:71|77
1621943708|a4:e4:b8:80:55:71|69
1622018904|a4:e4:b8:94:90:67|76
1621844786|a4:e4:b8:94:90:67|82
1621924910|a4:e4:b8:ae:6e:b8|71
1621865997|a4:f0:5e:d2:cc:77|69
1621838296|a5:31:66:48:14:c9|71
1621949689|a5:3e:82:57:72:c3|74
1622025375|a5:7b:9e:7f:cf:4d|80
1621935398|a5:7d:b4:ee:16:9b|73
1621948861|a5:94:e7:6a:c8:0d|82
1621929629|a5:a5:96:1e:9e:72|72
1621939337|a5:d2:f7:f0:d4:b2|80
1621836964|a7:0c:c9:ef:cf:61|72
1621937332|a7:14:90:93:bb:f6|76
1621930667|a7:18:93:96:89:28|89
1621864038|a7:1b:1b:09:3d:ad|85
1621948486|a7:61:66:8d:5c:cd|81
1621837407|a7:7f:1d:48:8e:06|86
1621863409|a7:d1:00:b6:30:31|83
1621940506|a7:e7:08:bd:40:55|70
1621841055|a8:09:58:cc:67:0f|73
1621934458|a8:32:4d:b2:e1:e4|68
1621839148|a8:66:7f:64:04:08|79
1622010018|a8:6d:aa:0c:8a:69|86
1621846819|a8:6d:aa:0c:8a:69|91
1621842793|a8:6d:aa:c8:e6:41|73
1621840019|a8:81:7e:89:8b:2f|91
1621927970|a8:81:7e:8f:3c:21|80
1621839763|a8:81:7e:8f:3c:21|75
1621942432|a8:84:fe:fb:59:36|78
1621854313|a8:96:75:63:da:d8|90
1621933385|a8:9c:ed:6d:c8:bd|84
1621853305|a8:9c:ed:6d:c8:bd|85
1621924211|a8:9f:ba:bd:95:dc|87
1621847474|a8:9f:ba:bd:95:dc|81
1621840866|a8:ac:e3:00:31:7e|74
1621947761|a8:ce:6d:cf:69:2d|90
1622028256|a8:db:03:54:b1:1d|84
1621863450|a8:db:03:54:b1:1d|85
1621937555|a8:db:03:54:b1:1d|69
1621935301|a9:0f:e8:93:25:0a|78
1622028552|a9:12:9c:30:6b:d2|75
1621840497|a9:5c:f5:b8:9f:f5|79
1621937212|a9:70:71:77:d1:47|73
1622013881|a9:a8:67:c2:de:3e|72
1621922989|a9:af:f2:16:b1:87|84
1621851165|a9:b0:6d:f5:81:ff|88
1621855339|a9:c9:5a:0f:34:b1|78
1621935388|a9:d5:ae:2a:13:a3|75
1621930245|a9:dc:06:6f:ba:94|82
1621926745|ab:1f:d4:eb:fe:09|77
1621929539|ab:44:67:3a:04:8a|68
1621838349|ab:67:e8:40:57:27|80
1621855434|ab:a3:b8:7a:88:de|85
1621946551|ab:e6:7a:d1:e6:5e|81
1621838809|ab:e7:61:0a:6d:68|61
1621837735|ab:f3:0a:2b:4b:be|78
1621837312|ab:fc:a9:40:8c:7a|66
1622013762|ac:07:5f:2a:c1:44|79
1621928970|ac:1f:a4:d8:58:ad|77
1622019279|ac:29:3a:c0:7b:ac|89
1622023506|ac:3e:e7:aa:48:61|85
1621853087|ac:4b:6c:ac:1d:33|80
1621851275|ac:5f:3e:56:ac:6f|81
1622017733|ac:89:e3:7b:b9:93|92
1621846204|ac:a5:96:65:fa:bc|84
1621937534|ac:d5:64:02:f7:bf|60
1621861609|ac:dd:6e:c1:80:a5|73
1622024427|ac:fd:ce:37:75:12|83
1621949323|ad:03:2e:47:0d:b1|79
1621930902|ad:05:39:38:ba:dd|87
1621947541|ad:39:d7:8f:fa:60|74
1621929248|ad:5e:64:d1:5e:f0|73
1621838141|ad:9f:d4:99:be:11|69
1621841249|ad:ba:cc:63:92:f9|88
1621928746|ad:f4:53:bd:7c:05|69
1621927712|af:08:6c:3f:ac:45|78
1621841088|af:1c:a7:70:f7:83|76
1621851276|af:1e:b0:4b:e8:eb|61
1621850757|af:35:62:77:c2:95|86
1621839878|af:3b:33:9b:2c:f5|75
1622013643|af:49:34:f0:f3:6c|71
1621922977|af:61:f1:af:8f:c4|70
1621929290|af:c1:f7:29:60:dc|80
1621856444|af:c8:3b:23:60:1a|77
1621928467|af:e2:bf:17:cf:a0|87
1621946703|af:e9:60:75:93:94|79
1621838526|b0:02:aa:85:ae:5a|85
1621927638|b0:19:5c:33:20:e5|79
1621846134|b0:28:3d:ee:97:e5|78
1621945318|b0:35:9f:9d:d0:e1|86
1621944919|b0:35:9f:b9:2b:84|90
1621851767|b0:35:9f:b9:2b:84|95
1621923147|b0:35:b5:e5:7c:80|86
1621856699|b0:35:b5:e5:7c:80|88
1621848815|b0:35:c0:7b:d0:b4|83
1621928215|b0:53:17:d2:79:43|56
1621837601|b0:6f:e0:1e:1e:e8|84
1621841035|b0:6f:e0:b0:41:f2|89
1622011335|b0:70:2d:bc:e2:2a|81
1621951020|b0:72:bf:42:e9:d6|81
1621935710|b0:89:ef:e1:7d:1c|76
1621928827|b0:a4:60:93:b5:52|86
1621925107|b0:a4:60:9d:d8:bb|85
1622013646|b0:a9:2f:75:28:34|63
1621854402|b0:c7:6f:c1:32:d1|84
1621923367|b0:ce:23:db:18:ea|74
1621925413|b0:e1:7e:a6:4b:f5|72
1621853108|b0:e1:7e:a6:4b:f5|72
1622016656|b0:e2:35:27:28:ef|91
1621846320|b0:e2:35:27:28:ef|86
1622027787|b0:e2:35:c0:c3:11|88
1621948991|b0:e2:35:c0:c3:11|86
1622017928|b0:e2:35:c0:db:b6|85
1621863654|b0:e2:35:c0:db:d9|86
1622030664|b0:e2:35:c0:ef:53|87
1622009930|b0:e2:35:c1:04:b4|92
1621836040|b0:e2:35:c1:04:b4|91
1621943799|b0:e2:35:c1:19:46|86
1622032925|b0:e2:35:c1:1c:05|90
1622013841|b0:e2:35:c1:26:0e|86
1621836002|b0:e2:35:c1:26:0e|89
1621948919|b0:e2:35:c1:26:0e|85
1621927813|b0:e2:35:c1:27:b1|85
1621852951|b0:e2:35:c1:2f:22|89
1621940513|b0:e2:35:c1:2f:22|89
1621866430|b0:fc:36:a9:6a:2f|97
1621865722|b0:fc:36:aa:55:5f|91
1622010028|b0:fc:36:aa:71:6b|92
1621950289|b0:fc:36:aa:71:6b|91
1621836004|b0:fc:36:b1:07:25|89
1621948492|b0:fe:04:31:ad:69|70
1621845768|b1:1d:f6:b2:c0:63|72
1622018872|b1:3a:2c:1c:8e:5f|80
1621852197|b1:4c:61:c7:95:9d|77
1621925070|b1:64:e2:a0:44:95|88
1621843014|b1:9f:bc:5c:0c:39|79
1622015634|b1:a9:ad:51:29:6a|90
1621857863|b1:be:88:9e:d5:51|76
1621927534|b1:c6:31:d6:7e:4d|84
1621923973|b3:05:45:31:cb:b9|75
1621946056|b3:32:02:49:e7:aa|93
1621935205|b3:82:c0:ed:d3:d6|75
1622027952|b3:88:0c:d5:cf:a6|77
1621927805|b3:89:18:10:95:8d|76
1621928113|b3:c8:8d:e9:01:3b|75
1621836476|b4:26:06:7f:a3:d1|65
1621943570|b4:5f:18:a5:42:60|69
1621927152|b4:6a:2a:6e:d2:51|78
1621951401|b4:6b:fc:d0:78:07|91
1621837218|b4:6b:fc:d3:24:03|90
1622015392|b4:74:43:65:6d:79|86
1621934795|b4:79:54:02:ea:5b|89
1621948158|b4:86:a2:cf:ce:cb|81
1621928336|b4:88:7d:04:d0:41|84
1621850613|b4:8b:19:75:a2:1c|80
1621934935|b4:8b:19:da:a2:ef|89
1622009724|b4:ae:2b:e1:d7:d5|80
1621944768|b4:ae:2b:e1:d7:d5|77
1621941805|b4:b1:4a:3f:46:9b|80
1621943908|b4:b6:8d:e0:1d:cd|72
1621850379|b4:cc:02:98:e8:13|86
1621854579|b4:cd:27:15:6d:dd|89
1621933204|b4:e6:2a:02:53:9e|80
1621929923|b4:ec:8c:40:33:9b|86
1621836932|b5:77:e7:d3:eb:a9|73
1622030468|b5:86:41:3b:c9:82|66
1621858986|b5:a2:9e:69:19:b6|78
1621851073|b5:c1:0f:ca:17:a5|64
1621861530|b5:f0:db:a7:5b:3c|64
1621943214|b5:f5:1d:61:ba:7a|77
1621837114|b5:ff:92:8f:96:36|90
1621935241|b7:30:bb:62:98:6a|74
1621836717|b7:65:ba:fe:36:6b|74
1621928006|b7:af:35:fe:f3:ae|84
1621863530|b8:21:68:2e:14:31|85
1621864719|b8:44:d9:b6:64:87|88
1621856475|b8:48:31:bd:1b:7e|74
1621932303|b8:57:d8:a1:22:3a|84
1621850894|b8:78:51:98:02:65|66
1622032068|b8:8a:60:ed:5d:50|82
1621854450|b8:9c:50:a2:ea:a1|75
1622016622|b8:d7:af:02:86:de|84
1621947572|b8:d7:af:02:86:de|78
1622030906|b8:d7:af:b6:77:f7|83
1621940819|b8:d7:af:b6:77:f7|74
1622008853|b8:ee:65:67:04:86|68
1621839390|b8:f6:b1:d7:72:ad|90
1621929818|b9:40:6f:f1:7e:61|73
1621923109|b9:80:ff:d7:dc:24|81
1621860919|b9:ac:ab:9c:52:fd|70
1621947857|b9:ad:b2:aa:28:3c|80
1621851123|b9:be:c2:79:52:fd|66
1621947204|b9:d6:de:f5:83:31|85
1622011525|b9:e0:c8:1d:54:e1|77
1621946486|bb:45:f5:41:4f:04|75
1621838642|bb:87:7f:da:fa:ac|84
1621938919|bb:9d:11:14:89:82|72
1621930779|bb:e0:31:58:58:00|84
1621861223|bb:f0:53:7f:71:f8|75
1621939454|bb:f3:28:27:47:0a|70
1621846798|bc:09:63:1d:0b:b5|81
1621939020|bc:2e:f6:68:9a:c7|78
1622021242|bc:2f:3d:e3:70:cf|76
1621844709|bc:2f:3d:e3:70:cf|76
1621836386|bc:3a:ea:bc:1f:8c|78
1622028050|bc:4c:c4:b5:df:a6|72
1621932501|bc:4c:c4:b5:df:a6|78
1621859563|bc:51:06:42:8c:4e|81
1621935395|bc:5a:54:29:a0:a7|77
1621839889|bc:63:3e:ca:06:28|75
1621923817|bc:83:85:0f:41:06|88
1622021458|bc:83:85:12:f8:91|85
1621934248|bc:83:85:ef:10:d6|75
1622015902|bc:e2:65:77:12:cd|73
1621850756|bc:e2:65:e0:6d:34|84
1621926227|bc:ff:75:26:9d:be|84
1621930477|bc:ff:eb:b9:b9:35|74
1621845328|bd:42:f6:00:0b:99|77
1621860849|bd:75:9b:0b:14:c8|77
1621927487|bd:94:fd:6b:f9:90|72
1622022706|bd:c0:34:40:05:d7|75
1621937206|bf:50:d5:b4:62:8a|81
1621836575|bf:5a:f1:ee:ba:cb|75
1621923693|bf:6e:5b:79:9d:64|79
1621841485|bf:d4:55:f2:07:c4|73
1621854058|bf:f4:42:42:3c:21|75
1621851444|bf:f8:67:a6:40:49|85
1622009822|c0:05:d9:8f:64:24|74
1621946820|c0:0c:f6:43:c7:af|69
1622010293|c0:17:4d:13:3f:73|82
1622030601|c0:17:4d:14:52:71|79
1621836180|c0:17:4d:14:52:71|79
1621855609|c0:17:4d:2f:18:3f|87
1621838505|c0:17:4d:38:2f:34|85
1621867095|c0:17:4d:96:eb:7f|89
1622030249|c0:17:4d:c7:46:e7|91
1622032760|c0:48:94:98:55:ae|75
1621842267|c0:60:e3:fb:dc:46|74
1621849992|c0:66:53:ee:73:58|76
1621853204|c0:b5:d7:d0:a1:29|83
1621850349|c0:b5:d7:d9:00:6d|64
1621929945|c0:b6:58:52:15:74|84
1622014849|c0:b6:f9:3d:5a:8b|85
1621859274|c0:b6:f9:3d:5a:8b|86
1621944175|c0:b6:f9:3d:5a:8b|83
1621860595|c0:b6:f9:3d:5a:8c|89
1622030029|c0:b6:f9:aa:5f:0f|88
1621851346|c0:b6:f9:aa:5f:0f|93
1622015361|c0:b8:83:7c:e7:4b|81
1621850833|c0:b8:83:7c:e7:4b|82
1621922988|c0:b8:83:7c:e7:4b|84
1621837912|c0:b8:83:c9:f2:c5|78
1622017818|c0:bd:c8:fb:69:ef|78
1621931339|c0:bd:d1:7f:41:e0|83
1622023226|c0:d2:dd:66:05:c5|64
1621923542|c0:d2:dd:66:05:c5|70
1622031986|c0:d2:f3:84:bf:02|74
1621853367|c0:ee:fb:2f:81:e3|89
1622013818|c0:ee:fb:e0:6f:e0|77
1621944943|c0:ee:fb:e0:6f:e0|74
1621946571|c1:0f:35:c2:35:5c|80
1621856694|c1:44:96:8a:ef:51|76
1621851484|c1:46:a5:e6:2e:b2|79
1621838325|c1:55:07:d2:c1:f0|79
1622012110|c1:5a:0d:66:80:d9|87
1622013134|c1:79:8d:2b:d3:10|65
1621841654|c1:a6:97:c9:03:8b|76
1621923389|c1:c0:57:80:05:51|69
1621838557|c1:c6:28:a5:1a:d6|75
1621855230|c1:d3:41:e4:5b:94|87
1621839584|c3:0b:e0:1b:0f:6e|85
1621945483|c3:27:ad:ef:9d:b1|73
1622009870|c3:54:ad:4b:43:75|70
1621858069|c3:57:52:e0:63:5d|74
1621841056|c3:a6:ba:ea:bd:d5|76
1621859884|c3:ae:a2:8e:a5:4c|79
1621860429|c3:bc:96:9c:bd:2b|77
1621848781|c3:c3:e5:7e:76:65|81
1621926753|c3:cd:42:2a:de:dc|82
1621946860|c3:e8:73:29:60:de|75
1621941816|c3:fd:8c:fb:ca:61|68
1621837184|c4:04:74:67:f4:19|72
1621838691|c4:06:83:25:f3:02|79
1621838217|c4:3a:70:9b:8e:13|72
1622009374|c4:57:6e:4e:d2:b7|72
1621926522|c4:57:6e:4e:d2:b7|68
1621844919|c4:57:6e:4e:d2:b7|69
1621841683|c4:61:94:21:d2:a5|84
1622013399|c4:8e:8f:f3:80:bd|83
1621836082|c4:9d:ed:1e:a5:b5|84
1621923270|c4:9f:4c:84:b2:8b|92
1621925741|c4:a5:d9:b3:ba:0a|77
1621950099|c4:a9:98:b7:94:c4|83
1621922925|c4:bf:60:df:06:89|68
1621866407|c4:d9:87:f2:a9:40|92
1622009348|c5:0b:c9:11:04:ab|84
1622017574|c5:9a:71:5f:3d:2e|82
1621948996|c5:a0:b9:9a:20:92|84
1621854593|c5:f2:78:4a:10:2e|77
1621848234|c7:05:fa:ee:c5:e9|72
1621928700|c7:7a:2b:07:2b:87|87
1621845514|c7:7f:2d:bd:1d:54|68
1621853010|c7:a4:e8:d7:07:b5|79
1621947519|c7:a8:02:18:90:6c|75
1621841758|c8:02:10:bf:67:e0|78
1621926177|c8:02:10:bf:67:e0|81
1621838936|c8:1d:56:30:d0:21|57
1622029848|c8:1e:e7:8e:1a:bc|84
1622013140|c8:23:bd:d6:26:ed|64
1622020596|c8:34:8e:63:06:4e|77
1621923743|c8:45:e2:1c:07:41|81
1621939625|c8:53:58:51:4f:15|76
1621839276|c8:8b:47:74:19:c0|75
1621858352|c8:90:09:7e:fb:dd|71
1621933418|c8:aa:d3:4e:3a:91|76
1621837910|c8:b2:0c:3b:d5:d8|74
1621923431|c8:b5:58:ae:8f:b9|84
1621844810|c8:d0:83:0f:25:c6|87
1621927736|c8:d7:73:75:81:6d|85
1621937595|c8:dd:9d:89:a1:2a|83
1622011211|c8:e1:a7:09:48:a2|79
1621923421|c8:e1:a7:09:48:a2|85
1622013555|c8:e9:ca:6f:8b:ee|76
1621941107|c8:f7:33:db:5a:83|76
1621849159|c9:0c:bf:3c:bb:69|78
1621941534|c9:5d:da:32:42:18|85
1622023324|c9:72:fb:a1:5c:79|78
1621924248|c9:8d:c0:97:04:2a|83
1621928720|c9:ea:bd:5b:b4:d5|66
1621841476|cb:12:13:43:ca:16|62
1621930585|cb:24:0b:d3:76:99|79
1621922951|cb:54:04:b2:19:70|72
1621944942|cb:5a:7e:05:ef:88|93
1621854758|cb:78:9b:b9:7c:07|69
1621934673|cb:7f:7b:ee:e3:fd|79
1621840207|cb:b8:8a:e7:cb:9e|78
1621854950|cb:e3:b5:3d:04:a6|76
1622021205|cc:0f:a6:c1:97:24|91
1621851878|cc:20:e8:9f:f7:61|90
1621933211|cc:21:19:3d:04:29|92
1621855646|cc:3d:82:4f:04:39|89
1621836081|cc:46:4e:cf:02:6e|78
1621929752|cc:46:4e:eb:40:3a|75
1621944638|cc:4d:1c:80:04:85|72
1621861584|cc:a9:b8:bb:dc:fb|59
1621841187|cc:b0:62:db:00:ca|84
1622020386|cc:c0:79:fa:30:3d|90
1621941029|cc:c0:79:fa:30:3d|78
1621856207|cc:c7:60:86:61:5f|71
1622019514|cc:e9:e7:88:5c:73|76
1622032730|cd:20:97:d8:48:76|76
1621927228|cd:37:79:a2:d4:6b|87
1621837890|cd:9c:e7:31:5a:57|81
1622010917|cd:bc:16:87:11:07|74
1621851005|cd:bd:fe:9e:a1:f1|79
1622020764|cd:c1:0b:9a:f9:05|78
1621928231|cd:cf:99:cc:68:a3|64
1621925737|cd:e5:c7:73:fd:a6|75
1622015770|cf:30:39:8f:f0:5f|80
1622025451|cf:37:87:bb:d1:5b|85
1621925896|cf:5b:a7:95:8d:3d|78
1621850661|cf:82:5a:88:3b:8d|85
1621928859|cf:87:87:20:ac:be|72
1621943559|cf:bc:e6:c1:9d:e6|71
1621837332|cf:e8:7c:8b:5f:58|72
1621938541|d0:0c:1e:fc:67:dd|73
1621936726|d0:25:98:6f:08:4c|67
1621847400|d0:25:98:a4:d0:04|74
1621843957|d0:27:4d:f3:45:e2|75
1622029544|d0:53:49:df:f2:fd|91
1621927547|d0:57:4a:2e:e4:35|74
1622032973|d0:7f:a0:a7:0e:8f|90
1621934122|d0:ab:db:13:8b:7e|77
1621846261|d0:af:0e:da:ce:9e|82
1622010929|d0:c6:37:12:3b:3f|87
1621931066|d0:c6:37:c7:0d:f8|79
1621846051|d0:c6:37:d6:fa:fb|88
1621864808|d0:d0:03:0a:93:28|88
1621928083|d1:0d:33:d6:4c:58|85
1621939629|d1:60:b6:0a:e7:43|74
1621854147|d1:7a:0f:d4:98:77|83
1621929224|d1:95:15:41:fa:0c|50
1621850795|d1:9d:f3:a2:bb:17|68
1621846433|d1:c8:34:49:af:05|81
1621838579|d1:c8:df:26:d9:2f|81
1621938579|d3:2f:fa:90:27:d1|79
1621946452|d3:45:b6:28:b7:da|72
1621928113|d3:57:90:70:1a:40|78
1621943906|d3:73:40:fd:30:94|76
1621842272|d3:93:1f:41:86:e0|84
1621936521|d3:9f:59:79:ff:b8|83
1621848328|d3:b1:f5:8c:6d:14|88
1621929178|d3:e9:42:59:65:3c|76
1621949663|d3:f1:4c:0f:14:33|69
1621928234|d3:f5:01:47:94:6b|68
1621850984|d4:02:8a:9e:f5:13|65
1621837877|d4:3b:04:79:25:8e|79
1621841797|d4:3b:04:a0:aa:55|86
1621927784|d4:3b:04:a0:aa:55|83
1621927739|d4:43:95:f5:9a:82|81
1621942213|d4:4d:a4:fb:89:da|84
1621836731|d4:6d:6d:e0:e8:c2|90
1622010760|d4:7f:63:d9:77:63|83
1621923574|d4:90:9c:71:ca:12|92
1621836725|d4:90:9c:95:53:5d|85
1621847954|d4:93:4e:e7:36:59|81
1621842281|d4:ae:05:39:ce:27|86
1621938115|d4:b7:61:87:81:5b|92
1621858924|d4:b7:61:a0:6f:0d|97
1621935481|d4:bf:3b:0b:8a:ed|76
1621922434|d4:d2:52:b8:18:70|89
1621849612|d5:39:60:3d:24:40|84
1621848052|d5:57:5a:67:6a:8c|78
1621935320|d5:6a:43:a0:a1:b6|70
1621938451|d5:ba:2f:d5:f2:cb|79
1622016387|d5:d2:61:fe:72:65|70
1621929148|d5:f1:6a:dc:ab:a8|78
1621935725|d7:5b:ce:8f:16:ab|74
1622014477|d7:93:10:0f:3e:d7|78
1621935316|d7:b7:f4:a7:96:8b|77
1621948386|d8:03:e7:36:84:43|88
1621841854|d8:15:2e:c9:94:3d|83
1621940041|d8:1c:79:ad:a4:d0|86
1622025701|d8:1e:dd:b0:55:af|77
1621952576|d8:32:e3:50:2a:2a|80
1621837957|d8:44:49:84:96:98|82
1622014303|d8:4c:90:b3:ff:30|80
1621858077|d8:4c:90:b3:ff:30|90
1621940314|d8:4c:90:b3:ff:30|76
1621838285|d8:51:e4:df:d9:56|73
1621851174|d8:56:05:1f:2f:0d|77
1621841489|d8:8e:43:41:2b:4b|70
1621946597|d8:8f:76:54:fa:2d|70
1621841028|d8:91:97:f8:69:d1|70
1621927154|d8:9c:67:92:75:77|66
1621836055|d8:9c:67:92:75:77|69
1622017373|d8:9e:61:e8:92:59|84
1621842472|d8:9e:61:e8:92:59|71
1622012027|d8:b5:00:41:fd:e5|69
1621838125|d8:bb:2c:46:1a:fe|80
1621842981|d8:bb:2c:f3:51:ac|88
1621837927|d8:c4:6a:d0:71:0a|78
1622026255|d8:d6:a6:ca:5d:45|81
1622031407|d8:f2:ca:11:cb:b4|81
1621861722|d8:f2:ca:11:cb:b4|79
1622009942|d8:f2:ca:b4:e4:9d|80
1621837523|d8:f2:ca:b4:e4:9d|82
1621923907|d8:f2:ca:b4:e4:9d|81
1621939878|d9:11:4b:f1:a4:34|85
1621838535|d9:15:60:54:ce:fa|77
1622018026|d9:1b:2a:48:d3:ad|81
1621936979|d9:1f:7e:6a:e4:91|66
1621838539|d9:39:20:d6:c5:87|60
1621934980|d9:43:40:57:ed:07|75
1622021299|d9:4b:8d:be:8c:72|89
1621837954|d9:77:c9:89:83:2d|80
1622015132|d9:dc:ad:8c:4c:a1|75
1621943918|db:0a:fb:16:c8:38|71
1621838779|db:1b:e7:04:0c:75|54
1621948879|db:2c:7a:df:7e:b3|81
1621928355|db:3d:61:29:d6:b6|79
1622019007|db:81:59:f5:17:e0|76
1622017370|db:85:e0:af:5a:4d|92
1621855722|db:96:62:bc:9a:69|77
1622012266|db:a9:6a:e0:b6:4b|72
1621922938|db:d8:e0:ac:fa:7b|93
1621851321|dc:10:59:ad:bc:b0|75
1621855430|dc:16:b2:53:78:d6|66
1621838810|dc:16:b2:89:23:f3|84
1622027149|dc:37:14:6b:95:f7|78
1621854120|dc:57:36:6b:02:36|73
1621928814|dc:66:72:c8:54:03|79
1621864378|dc:72:9b:05:a9:a4|90
1621945201|dc:72:9b:76:b1:e2|76
1621850782|dc:74:a8:ac:ca:b2|84
1622010468|dc:85:de:c0:4c:df|88
1621840179|dc:85:de:c0:4c:df|77
1622032809|dc:8b:28:41:99:fc|80
1621944536|dc:8b:28:65:9c:35|65
1622023253|dc:8b:28:77:df:e4|72
1621855604|dc:98:24:3a:a4:26|73
1622021735|dc:a9:04:8b:73:d0|81
1621931133|dc:b7:2e:b6:ae:7a|81
1621846045|dc:b7:2e:bb:2b:e4|95
1621932161|dc:b7:2e:bb:2b:e4|79
1621942094|dc:cf:96:36:ef:85|85
1622021895|dc:d9:16:4c:5d:5b|82
1621841616|dc:ea:fa:2e:04:02|75
1622029097|dc:ef:ca:39:fb:f1|82
1621943349|dc:ef:ca:d0:b6:00|82
1622009118|dc:f0:90:bf:1e:84|65
1621836064|dc:f0:90:bf:1e:84|71
1621923194|dc:f0:90:bf:1e:84|72
1621863811|dc:f7:56:07:94:c8|68
1621937591|dc:f7:a7:ab:21:4e|72
1621924186|dc:fb:48:8a:de:c8|72
1621849780|dc:fb:48:8a:de:c8|85
1621923469|dc:fb:8a:b5:f3:b8|76
1622032666|dd:20:c7:da:af:f4|78
1621837403|dd:3a:66:74:5b:d0|69
1621859582|dd:60:01:ec:54:b0|83
1621850758|dd:95:0d:0f:92:dc|71
1622024495|dd:9d:79:14:ef:31|71
1621854589|dd:d7:4e:20:e8:f0|76
1622028600|dd:d9:8a:85:2e:ab|79
1621859119|dd:de:f9:5f:0d:80|75
1621856617|df:59:f4:fa:a0:3b|83
1621837192|df:61:04:b6:55:7f|77
1622022683|df:6b:3b:f1:00:08|81
1621850702|df:b8:ef:74:b9:63|65
1621840339|e0:0a:8d:b7:fa:5e|78
1621850701|e0:0e:cd:51:03:0f|88
1622013035|e0:3d:ac:f8:51:9b|64
1621944015|e0:5f:45:bc:fa:7e|84
1621937247|e0:69:9c:14:1e:86|73
1621928204|e0:83:b6:04:a9:e4|61
1621838471|e0:89:7e:16:7b:fc|84
1622009453|e0:aa:96:0b:f7:ce|90
1621836604|e0:aa:96:0b:f7:ce|90
1621948480|e0:aa:96:17:f9:36|90
1621837224|e0:aa:96:17:f9:36|80
1621851188|e0:f8:71:10:35:1e|76
1621928412|e1:14:a0:21:35:ff|72
1621850901|e1:26:5f:eb:7c:6d|71
1621937266|e1:71:89:38:51:c6|70
1621948818|e1:74:96:51:97:25|81
1621947124|e1:80:7a:01:90:0a|74
1621936612|e1:d1:e7:ff:d7:70|75
1621840152|e1:db:ea:71:94:19|82
1621837091|e1:fa:15:c6:aa:4e|74
1621861937|e3:0e:1c:60:17:eb|84
1621940139|e3:0f:fb:5e:ad:82|74
1621836959|e3:45:16:7a:ae:e0|77
1622027895|e3:49:95:34:c0:9c|80
1621941313|e3:9f:6f:9e:5c:6e|83
1622032308|e3:d2:b7:97:ea:91|75
1621945875|e4:08:78:32:77:b3|79
1622022005|e4:0e:ee:7e:92:40|76
1621843449|e4:0e:ee:9d:d5:53|83
1622017004|e4:0e:ee:b9:0d:5b|88
1621933926|e4:0e:ee:e4:dd:b8|69
1621851116|e4:23:d0:07:7b:1a|70
1622009398|e4:2b:34:e5:1f:49|63
1621847318|e4:2b:34:e5:1f:49|72
1621836466|e4:5d:30:36:8f:11|83
1621922441|e4:a4:71:ae:bb:90|69
1622014733|e4:a4:71:b6:54:0e|90
1621951399|e4:a4:71:b6:54:0e|94
1621931455|e4:aa:ea:cd:96:f3|79
1621954762|e4:b2:fb:41:fd:a7|90
1621922638|e4:b3:18:9c:52:34|90
1621839996|e4:c4:83:e8:a7:f7|73
1621838588|e4:dc:e7:d0:f4:ae|82
1621839824|e4:f3:82:17:c3:92|82
1621923259|e4:f8:9c:34:dd:d4|69
1621850363|e5:19:20:76:f9:91|86
1621846456|e5:7d:60:76:61:47|81
1621934034|e5:ad:58:cb:e2:94|72
1622018916|e5:d4:e6:1c:79:a4|75
1621838146|e5:ea:30:dd:cc:2e|69
1621836956|e5:f0:f8:3a:89:18|70
1621948522|e7:0e:6d:ce:6d:2c|74
1621851492|e7:13:4a:25:d8:7f|82
1622027863|e7:53:14:96:37:78|74
1622013103|e7:5a:51:b6:2f:d9|79
1621943798|e7:61:74:b4:b2:c7|68
1621937225|e7:7d:44:06:5c:bc|84
1621933923|e7:bb:17:64:1e:ea|64
1621846899|e7:be:47:01:2e:85|89
1622029808|e7:c0:c2:a6:5b:4e|78
1621852076|e8:1d:98:e2:3f:4b|81
1621934393|e8:3c:a5:26:6f:46|76
1621848141|e8:55:c6:1b:9b:9a|73
1621940404|e8:5a:8b:49:a2:a9|87
1621837479|e8:5a:8b:62:63:17|74
1621939140|e8:5a:8b:62:63:17|79
1622012271|e8:93:09:2e:01:ee|75
1621842213|e8:93:09:2e:01:ee|79
1622020546|e8:d0:fc:f6:9c:2f|73
1621938549|e8:d1:86:3e:c6:4e|72
1621852467|e9:43:8e:2b:eb:0a|87
1621853482|e9:6f:7a:4c:34:c8|82
1621851334|e9:92:6a:ad:1a:f0|64
1621929234|e9:ae:bf:4b:03:f7|61
1621850761|e9:da:ae:c8:42:84|77
1621852799|e9:ff:c6:36:76:62|76
1621864167|eb:18:0d:78:ad:81|84
1621836151|eb:33:cb:66:56:05|84
1621934456|eb:3c:8c:7b:a9:ec|74
1622013599|eb:69:88:64:f7:25|80
1621864036|eb:9d:40:c1:e6:b7|87
1622030485|eb:b1:fb:2a:13:ac|71
1621937244|eb:c4:5e:70:de:1c|81
1621949861|eb:cc:f6:98:c1:1f|78
1621949459|eb:d3:6c:b6:c4:e2|87
1621838979|ec:01:ee:d0:10:6f|76
1621947784|ec:0b:dd:13:b7:2e|83
1622028907|ec:1f:72:11:3b:8d|79
1621843956|ec:1f:72:11:3b:8d|72
1621944722|ec:1f:72:11:3b:8d|73
1621939810|ec:1f:72:2b:f8:b6|80
1621841432|ec:1f:72:2b:f8:b6|84
1622029398|ec:1f:72:66:0c:0a|93
1622028498|ec:1f:72:7b:e0:80|81
1621929557|ec:1f:72:7b:e0:80|85
1622012344|ec:1f:72:80:10:d2|68
1621866947|ec:1f:72:83:3b:dd|91
1621836092|ec:1f:72:83:9f:04|70
1621861539|ec:56:23:fa:15:d9|80
1621838353|ec:6f:8f:b9:0f:3a|80
1621845478|ec:7b:2a:8d:ff:ef|71
1622016518|ec:8c:9a:d6:70:98|78
1621844751|ec:8c:9a:d6:70:98|71
1621839303|ec:9b:f3:ab:a6:5a|80
1621840324|ec:de:f7:71:67:35|77
1621854399|ed:44:f8:9f:e9:21|86
1621944211|ed:5e:50:cb:21:3e|72
1621929167|ed:93:60:04:4e:f1|74
1621837413|ed:a3:1e:8c:d0:f8|58
1621855053|ed:d2:6a:db:23:31|80
1621861647|ed:f0:59:fa:83:f0|67
1621946660|ef:16:78:5b:a6:c7|78
1621942394|ef:b9:29:43:50:86|83
1621947672|ef:bd:3b:63:89:7d|75
1622013128|f0:0a:ac:f7:26:b0|72
1621938286|f0:0b:5c:40:77:e4|85
1621859181|f0:0f:ec:59:af:fb|89
1622020926|f0:15:4e:9f:72:10|79
1621926815|f0:2e:27:2c:24:8b|82
1622013043|f0:32:4e:5e:64:45|76
1622027163|f0:50:49:1d:65:d3|76
1622017226|f0:67:28:a0:bf:5d|73
1622028033|f0:6c:63:44:ab:f0|66
1621846828|f0:6d:78:5a:ad:4d|85
1621838750|f0:6e:0b:e3:c3:f7|68
1621844099|f0:8a:76:4f:76:2c|86
1621938774|f0:98:9d:9e:ea:42|93
1621934939|f0:99:b6:d1:3c:7b|88
1621842574|f0:99:b6:d1:3c:7b|85
1621846375|f0:9d:3f:1b:95:6a|73
1621931736|f0:c8:50:0a:dd:c0|94
1621946506|f0:c9:d6:1a:c7:e5|79
1622016624|f0:d5:bf:29:6a:bc|80
1622016763|f0:d5:bf:29:6a:bd|83
1621851683|f0:d5:bf:94:ec:29|92
1621941157|f0:d5:bf:94:ec:29|88
1622015049|f0:d5:bf:bb:9e:41|79
1622013334|f0:d5:bf:bb:9e:42|83
1621923687|f0:d5:bf:bb:9e:42|84
1622008831|f0:f6:1c:6a:8b:f2|80
1621861474|f0:f6:1c:6a:8b:f2|71
1621838670|f1:41:d2:bc:0f:c6|60
1621837400|f1:67:ac:2f:4d:9f|74
1621853466|f1:7a:83:dc:81:2b|89
1621941202|f1:80:a9:97:f5:cf|86
1621950350|f1:a5:ca:20:16:e5|74
1621851281|f1:b2:fb:62:71:dc|67
1622027950|f3:0e:f8:3d:40:88|73
1621932642|f3:15:79:d3:02:6c|85
1621944653|f3:3f:8e:df:35:fd|79
1621855034|f3:6b:78:55:bd:b5|87
1621845560|f3:90:f3:4f:57:41|75
1621933676|f3:de:bd:63:bf:f6|79
1622016404|f4:06:69:66:c2:22|78
1621839180|f4:06:69:66:c2:22|78
1622014155|f4:0e:22:b7:7d:3f|73
1621934489|f4:0f:24:1f:fc:8b|87
1621864400|f4:0f:24:32:95:e6|93
1621930498|f4:23:d0:da:4c:6a|77
1621945210|f4:5c:89:a9:4f:db|76
1622021521|f4:61:41:2f:ae:4f|82
1622013238|f4:71:54:2e:57:da|68
1622026692|f4:71:90:0d:4d:ab|93
1622023355|f4:71:90:58:0d:f5|92
1622020083|f4:7f:f4:69:57:8c|74
1621945666|f4:8c:50:c8:a5:14|67
1622019492|f4:8c:50:d5:79:e7|75
1621857538|f4:96:34:81:11:db|91
1622011006|f4:96:34:99:a8:36|82
1622018174|f4:96:34:99:a8:37|80
1621926291|f4:96:34:99:a8:37|76
1622028521|f4:96:f6:a9:cd:01|70
1622010050|f4:9b:29:9d:c4:f4|75
1621837876|f4:a5:9d:22:e2:e1|54
1621858732|f4:c2:48:1c:39:41|81
1621836771|f4:c2:48:73:ec:87|78
1622027265|f4:c2:48:8a:0b:85|82
1621848058|f4:d1:ad:cd:c5:6e|79
1622023611|f4:d5:9a:a8:8f:05|80
1622019643|f4:e6:55:b2:f3:73|80
1621923299|f4:fc:e0:62:d8:f4|73
1622010657|f5:61:73:90:3d:f0|72
1621850954|f5:89:9e:c9:5e:bb|80
1621837283|f5:c9:0f:42:83:48|66
1621842244|f5:cd:a5:7b:2b:cb|83
1621839922|f5:f5:81:0e:23:60|82
1621849989|f7:08:7d:b6:b1:1f|78
1622024734|f7:20:1d:aa:3b:13|83
1621948690|f7:50:a1:3b:ad:ab|77
1621937305|f7:63:18:42:3f:bf|75
1621945814|f7:8a:d7:ca:9c:15|88
1622030624|f7:d2:f3:8a:48:e8|70
1621931490|f7:fb:8f:67:03:5b|76
1621922631|f8:59:71:32:6d:e3|82
1621930476|f8:63:3f:94:59:80|67
1621838553|f8:70:5c:a1:02:13|71
1621846520|f8:87:f1:43:7e:38|88
1622014426|f8:94:c2:09:20:f9|73
1622011933|f8:94:c2:09:21:30|71
1621938425|f8:94:c2:09:21:30|75
1621922513|f8:a2:d6:e3:d6:4d|73
1622031182|f8:bc:69:2f:9b:8a|67
1621836001|f8:c3:9e:bd:24:a8|75
1622011844|f8:da:0c:4e:06:cb|78
1621843478|f8:e0:79:65:10:78|87
1621846031|f8:e4:e3:67:29:6f|73
1621933712|f8:e4:e3:91:ee:c0|83
1621854960|f8:e4:e3:91:ee:c0|87
1621926212|f8:e4:e3:e4:6a:06|87
1621838526|f8:e4:e3:e4:6a:06|83
1621941750|f8:e7:a0:21:57:77|71
1621836553|f8:e9:4e:b0:58:77|69
1622023627|f8:ef:ff:35:8e:93|73
1621931198|f8:ff:c2:03:88:ee|74
1622015259|f8:ff:c2:53:af:bc|74
1621925286|f8:ff:c2:53:af:bc|77
1622027108|f8:ff:c2:55:88:41|85
1621935144|f8:ff:c2:66:ad:4e|76
1621930217|f9:17:eb:f8:52:62|84
1622010334|f9:99:19:a0:af:39|79
1621846522|f9:ba:80:57:0d:65|75
1621850756|f9:ee:44:69:b4:76|69
1622009798|f9:f3:87:6f:6b:ba|67
1621939750|fb:28:13:5b:39:f0|77
1621841060|fb:48:b2:a3:02:7e|76
1621850808|fb:60:9c:e5:e7:f8|65
1621938784|fb:93:0b:4f:02:18|75
1621849961|fb:b8:c3:87:78:85|77
1621852483|fb:bb:b8:7a:54:45|82
1621923345|fb:c4:97:2c:5d:a6|81
1622014398|fb:fa:ea:2d:12:ef|73
1621929199|fc:3f:02:52:8f:26|84
1621844031|fc:42:03:bf:e2:94|82
1622014762|fc:49:7d:a0:ab:42|81
1622009910|fc:66:cf:e1:47:39|90
1621854769|fc:77:74:f2:8e:66|82
1622011170|fc:77:74:f2:c7:db|81
1621923461|fc:77:74:f2:c7:db|76
1621948444|fc:87:43:be:65:83|87
1621945266|fc:aa:b6:64:33:e0|87
1622017547|fc:ab:90:4f:07:dd|89
1621864485|fc:ab:90:4f:07:dd|90
1621944372|fc:ab:90:4f:07:dd|90
1621943808|fc:c1:8c:cb:50:b4|77
1622011757|fc:db:b3:1b:cb:72|90
1621860144|fc:f2:36:0f:7b:3e|83
1621837890|fd:0d:bb:83:d4:21|84
1621850519|fd:19:9c:1a:22:b5|78
1621850504|fd:1c:dc:77:68:b2|78
1621947871|fd:53:a0:60:db:86|77
1621850995|fd:aa:0d:7c:fd:ce|65
1621844671|fd:b3:bc:b1:fc:42|86
1622027545|fd:de:23:9d:25:1b|66
1621948642|ff:06:1a:c4:82:eb|79
1621949045|ff:2b:da:c0:7e:7a|78
1621853746|ff:6d:8b:41:08:89|85
1621850719|ff:73:1a:e2:5a:76|69
1621851008|ff:8d:d7:f8:a6:93|58
1621938538|ff:ac:43:0a:01:de|72
1621929263|ff:b1:f8:32:99:17|79
1621841800|ff:d3:fb:a7:72:d2|80
1622013252|ff:e2:17:88:1a:67|70
1621851084|ff:f3:a0:8d:c1:4b|64