1615186591|44:5e:cd:b2:3b:41|70
1615186591|6c:21:a2:44:c4:a6|78
1615186606|6c:21:a2:44:c4:a6|76
1615186606|44:5e:cd:b2:3b:41|70
1615186621|6c:21:a2:44:c4:a6|79
1615186636|74:df:bf:4c:51:59|57
1615186636|6c:21:a2:44:c4:a6|78
1615186651|44:5e:cd:b2:3b:41|63
1615186651|6c:21:a2:44:c4:a6|77
1615186651|74:df:bf:4c:51:59|57
1615186666|6c:21:a2:44:c4:a6|76
1615186666|44:5e:cd:b2:3b:41|63
1615186681|6c:21:a2:44:c4:a6|72
1615186696|74:df:bf:4c:51:59|66
1615186696|00:0c:e7:40:9e:10|88
1615186696|6c:21:a2:44:c4:a6|80
1615186711|6c:21:a2:44:c4:a6|76
1615186711|74:df:bf:4c:51:59|66
1615186726|6c:21:a2:44:c4:a6|77
1615186741|44:5e:cd:b2:3b:41|65
1615186741|6c:21:a2:44:c4:a6|77
1615186756|74:df:bf:4c:51:59|51
1615186756|6c:21:a2:44:c4:a6|81
1615186756|44:5e:cd:b2:3b:41|65
1615186771|6c:21:a2:44:c4:a6|80
1615186771|74:df:bf:4c:51:59|51
1615186786|b0:fc:36:1c:5b:c1|63
1615186786|6c:21:a2:44:c4:a6|73
1615186801|6c:21:a2:44:c4:a6|75
1615186801|b0:fc:36:1c:5b:c1|63
1615186816|74:df:bf:4c:51:59|53
1615186816|6c:21:a2:44:c4:a6|73
1615186831|6c:21:a2:44:c4:a6|79
1615186831|48:d2:24:8e:09:8b|81
1615186831|74:df:bf:4c:51:59|53
1615186846|6c:21:a2:44:c4:a6|74
1615186861|6c:21:a2:44:c4:a6|73
1615186876|74:df:bf:4c:51:59|62
1615186876|6c:21:a2:44:c4:a6|72
1615186891|6c:21:a2:44:c4:a6|77
1615186891|74:df:bf:4c:51:59|62
1615186906|a4:c3:f0:c9:2c:cd|56
1615186906|6c:21:a2:44:c4:a6|73
1615186921|3c:f8:62:43:8b:b3|73
1615186921|6c:21:a2:44:c4:a6|77
1615186921|a4:c3:f0:c9:2c:cd|56
1615186936|74:df:bf:4c:51:59|61
1615186936|ac:5f:3e:f4:e0:3f|55
1615186936|6c:21:a2:44:c4:a6|75
1615186936|3c:f8:62:43:8b:b3|73
1615186951|ac:5f:3e:f4:e0:3f|56
1615186951|6c:21:a2:44:c4:a6|74
1615186951|74:df:bf:4c:51:59|61
1615186966|08:25:25:52:43:e8|81
1615186966|ac:5f:3e:f4:e0:3f|60
1615186966|6c:21:a2:44:c4:a6|73
1615186981|6c:21:a2:44:c4:a6|73
1615186981|08:25:25:52:43:e8|81
1615186996|74:df:bf:4c:51:59|63
1615186996|e0:13:b5:73:5d:57|74
1615186996|08:25:25:52:43:e8|78
1615186996|28:e3:47:12:4b:4a|83
1615186996|6c:21:a2:44:c4:a6|79
1615187011|48:d2:24:8e:09:8b|92
1615187011|6c:21:a2:44:c4:a6|77
1615187011|74:df:bf:4c:51:59|63
1615187026|6c:21:a2:44:c4:a6|74
1615187026|48:d2:24:8e:09:8b|92
1615187041|c4:3a:35:d3:86:1d|77
1615187041|08:25:25:52:43:e8|86
1615187041|6c:21:a2:44:c4:a6|72
1615187056|74:df:bf:4c:51:59|57
1615187056|08:25:25:52:43:e8|77
1615187056|6c:21:a2:44:c4:a6|75
1615187056|c4:3a:35:d3:86:1d|77
1615187071|ec:9b:f3:c4:ef:87|95
1615187071|b4:d5:bd:a7:6f:43|73
1615187071|48:d2:24:8e:09:8b|86
1615187071|6c:21:a2:44:c4:a6|75
1615187071|74:df:bf:4c:51:59|57
1615187086|6c:21:a2:44:c4:a6|77
1615187086|98:22:ef:7c:81:a9|59
1615187086|ac:5f:3e:f4:e0:3f|70
1615187086|ec:9b:f3:c4:ef:87|95
1615187101|08:25:25:52:43:e8|80
1615187101|6c:21:a2:44:c4:a6|76
1615187116|74:df:bf:4c:51:59|54
1615187116|6c:21:a2:44:c4:a6|73
1615187116|08:25:25:52:43:e8|80
1615187131|48:d2:24:8e:09:8b|88
1615187131|6c:21:a2:44:c4:a6|71
1615187131|74:df:bf:4c:51:59|54
1615187146|5c:51:4f:bd:06:7d|85
1615187146|6c:21:a2:44:c4:a6|76
1615187146|48:d2:24:8e:09:8b|88
1615187161|5c:51:4f:bd:06:7d|85
1615187176|74:df:bf:4c:51:59|60
1615187176|6c:21:a2:44:c4:a6|76
1615187176|5c:51:4f:bd:06:7d|85
1615187191|48:d2:24:8e:09:8b|90
1615187191|70:28:8b:7f:9b:94|67
1615187191|6c:21:a2:44:c4:a6|75
1615187191|08:25:25:52:43:e8|77
1615187191|74:df:bf:4c:51:59|60
1615187206|a4:c3:f0:c9:2c:cd|55
1615187206|6c:21:a2:44:c4:a6|72
1615187206|48:d2:24:8e:09:8b|90
1615187221|44:5e:cd:b2:3b:41|61
1615187221|6c:21:a2:44:c4:a6|76
1615187221|a4:c3:f0:c9:2c:cd|55
1615187236|70:28:8b:7f:9b:94|60
1615187236|74:df:bf:4c:51:59|65
1615187236|6c:21:a2:44:c4:a6|74
1615187236|44:5e:cd:b2:3b:41|61
1615187251|6c:21:a2:44:c4:a6|75
1615187251|ac:5f:3e:f4:e0:3f|67
1615187251|70:28:8b:7f:9b:94|57
1615187266|e0:13:b5:73:5d:57|81
1615187266|ac:5f:3e:f4:e0:3f|69
1615187266|70:28:8b:7f:9b:94|59
1615187266|6c:21:a2:44:c4:a6|74
1615187281|6c:21:a2:44:c4:a6|75
1615187281|70:28:8b:7f:9b:94|56
1615187281|e0:13:b5:73:5d:57|81
1615187296|74:df:bf:4c:51:59|59
1615187296|6c:21:a2:44:c4:a6|71
1615187311|48:d2:24:8e:09:8b|90
1615187311|6c:21:a2:44:c4:a6|77
1615187311|74:df:bf:4c:51:59|59
1615187326|00:0c:e7:c3:78:76|76
1615187326|6c:21:a2:44:c4:a6|77
1615187326|48:d2:24:8e:09:8b|90
1615187341|6c:21:a2:44:c4:a6|75
1615187341|00:0c:e7:c3:78:76|76
1615187356|74:df:bf:4c:51:59|55
1615187356|6c:21:a2:44:c4:a6|74
1615187371|6c:21:a2:44:c4:a6|75
1615187371|ac:5f:3e:f4:e0:3f|62
1615187371|74:df:bf:4c:51:59|55
1615187386|ac:5f:3e:f4:e0:3f|64
1615187386|98:22:ef:7c:81:a9|58
1615187386|6c:21:a2:44:c4:a6|75
1615187401|44:5e:cd:b2:3b:41|59
1615187401|6c:21:a2:44:c4:a6|76
1615187401|ac:5f:3e:f4:e0:3f|64
1615187416|74:df:bf:4c:51:59|61
1615187416|6c:21:a2:44:c4:a6|78
1615187416|44:5e:cd:b2:3b:41|59
1615187431|48:d2:24:8e:09:8b|89
1615187431|6c:21:a2:44:c4:a6|76
1615187431|74:df:bf:4c:51:59|61
1615187446|6c:21:a2:44:c4:a6|75
1615187461|44:5e:cd:b2:3b:41|66
1615187461|6c:21:a2:44:c4:a6|72
1615187476|74:df:bf:4c:51:59|61
1615187476|6c:21:a2:44:c4:a6|72
1615187476|44:5e:cd:b2:3b:41|60
1615187491|74:df:bf:4c:51:59|61
1615187506|6c:21:a2:44:c4:a6|75
1615187521|6c:21:a2:44:c4:a6|76
1615187536|44:5e:cd:b2:3b:41|62
1615187536|74:df:bf:4c:51:59|61
1615187536|6c:21:a2:44:c4:a6|73
1615187551|ac:5f:3e:f4:e0:3f|63
1615187551|6c:21:a2:44:c4:a6|75
1615187551|44:5e:cd:b2:3b:41|62
1615187566|44:5e:cd:b2:3b:41|64
1615187566|6c:21:a2:44:c4:a6|73
1615187566|ac:5f:3e:f4:e0:3f|63
1615187581|6c:21:a2:44:c4:a6|81
1615187581|44:5e:cd:b2:3b:41|64
1615187596|44:5e:cd:b2:3b:41|56
1615187596|74:df:bf:4c:51:59|57
1615187596|28:e3:47:12:4b:4a|86
1615187596|6c:21:a2:44:c4:a6|76
1615187611|48:d2:24:8e:09:8b|85
1615187611|48:5f:99:cf:bc:af|72
1615187611|6c:21:a2:44:c4:a6|74
1615187611|44:5e:cd:b2:3b:41|56
1615187626|6c:21:a2:44:c4:a6|74
1615187626|48:d2:24:8e:09:8b|85
1615187641|6c:21:a2:44:c4:a6|74
1615187656|74:df:bf:4c:51:59|60
1615187656|6c:21:a2:44:c4:a6|78
1615187671|b4:d5:bd:a7:6f:43|73
1615187671|6c:21:a2:44:c4:a6|76
1615187671|74:df:bf:4c:51:59|60
1615187686|6c:21:a2:44:c4:a6|75
1615187686|b4:d5:bd:a7:6f:43|73
1615187701|6c:21:a2:44:c4:a6|74
1615187701|08:25:25:52:43:e8|73
1615187716|74:df:bf:4c:51:59|59
1615187716|08:25:25:52:43:e8|74
1615187716|6c:21:a2:44:c4:a6|74
1615187731|44:5e:cd:b2:3b:41|59
1615187731|98:22:ef:7c:81:a9|58
1615187731|48:d2:24:8e:09:8b|94
1615187731|6c:21:a2:44:c4:a6|73
1615187731|74:df:bf:4c:51:59|59
1615187746|6c:21:a2:44:c4:a6|77
1615187746|5c:51:4f:bd:06:7d|83
1615187746|44:5e:cd:b2:3b:41|59
1615187761|6c:21:a2:44:c4:a6|74
1615187776|74:df:bf:4c:51:59|73
1615187776|08:25:25:52:43:e8|85
1615187776|6c:21:a2:44:c4:a6|75
1615187791|48:d2:24:8e:09:8b|92
1615187791|6c:21:a2:44:c4:a6|71
1615187791|74:df:bf:4c:51:59|73
1615187806|a4:c3:f0:c9:2c:cd|53
1615187806|6c:21:a2:44:c4:a6|74
1615187806|48:d2:24:8e:09:8b|92
1615187821|a4:c3:f0:c9:2c:cd|53
1615187836|74:df:bf:4c:51:59|58
1615187836|44:5e:cd:b2:3b:41|65
1615187836|6c:21:a2:44:c4:a6|77
1615187836|3c:f8:62:43:8b:b3|58
1615187836|a4:c3:f0:c9:2c:cd|53
1615187851|48:d2:24:8e:09:8b|86
1615187851|ac:5f:3e:f4:e0:3f|66
1615187851|6c:21:a2:44:c4:a6|78
1615187851|74:df:bf:4c:51:59|58
1615187866|ac:5f:3e:f4:e0:3f|65
1615187866|6c:21:a2:44:c4:a6|71
1615187866|48:d2:24:8e:09:8b|86
1615187881|8c:8e:f2:93:4d:8a|75
1615187881|6c:21:a2:44:c4:a6|74
1615187881|ac:5f:3e:f4:e0:3f|65
1615187896|74:df:bf:4c:51:59|54
1615187896|28:e3:47:12:4b:4a|82
1615187896|6c:21:a2:44:c4:a6|73
1615187896|8c:8e:f2:93:4d:8a|75
1615187911|6c:21:a2:44:c4:a6|79
1615187911|48:d2:24:8e:09:8b|87
1615187911|74:df:bf:4c:51:59|54
1615187926|44:5e:cd:b2:3b:41|61
1615187926|6c:21:a2:44:c4:a6|73
1615187941|6c:21:a2:44:c4:a6|75
1615187941|44:5e:cd:b2:3b:41|60
1615187956|74:df:bf:4c:51:59|59
1615187956|6c:21:a2:44:c4:a6|72
1615187971|48:d2:24:8e:09:8b|90
1615187971|6c:21:a2:44:c4:a6|74
1615187971|74:df:bf:4c:51:59|59
1615187986|48:d2:24:8e:09:8b|90
1615188001|6c:21:a2:44:c4:a6|76
1615188016|44:5e:cd:b2:3b:41|63
1615188016|74:df:bf:4c:51:59|74
1615188016|08:25:25:52:43:e8|80
1615188016|6c:21:a2:44:c4:a6|76
1615188031|ac:5f:3e:f4:e0:3f|61
1615188031|6c:21:a2:44:c4:a6|74
1615188031|44:5e:cd:b2:3b:41|63
1615188046|5c:51:4f:bd:06:7d|81
1615188046|44:5e:cd:b2:3b:41|66
1615188046|6c:21:a2:44:c4:a6|74
1615188046|ac:5f:3e:f4:e0:3f|62
1615188061|44:5e:cd:b2:3b:41|70
1615188061|4c:18:9a:a5:12:f6|93
1615188061|6c:21:a2:44:c4:a6|73
1615188061|5c:51:4f:bd:06:7d|81
1615188076|74:df:bf:4c:51:59|67
1615188076|6c:21:a2:44:c4:a6|77
1615188076|44:5e:cd:b2:3b:41|70
1615188091|48:d2:24:8e:09:8b|91
1615188091|08:25:25:52:43:e8|69
1615188091|6c:21:a2:44:c4:a6|74
1615188091|74:df:bf:4c:51:59|67
1615188106|a4:c3:f0:c9:2c:cd|53
1615188106|6c:21:a2:44:c4:a6|75
1615188121|6c:21:a2:44:c4:a6|72
1615188121|a4:c3:f0:c9:2c:cd|53
1615188136|74:df:bf:4c:51:59|56
1615188136|6c:21:a2:44:c4:a6|75
1615188151|ac:5f:3e:f4:e0:3f|52
1615188151|6c:21:a2:44:c4:a6|72
1615188151|74:df:bf:4c:51:59|56
1615188166|ac:5f:3e:f4:e0:3f|54
1615188166|6c:21:a2:44:c4:a6|77
1615188166|08:25:25:52:43:e8|81
1615188181|6c:21:a2:44:c4:a6|77
1615188181|ac:5f:3e:f4:e0:3f|54
1615188196|74:df:bf:4c:51:59|65
1615188196|28:e3:47:12:4b:4a|81
1615188196|6c:21:a2:44:c4:a6|74
1615188211|48:d2:24:8e:09:8b|89
1615188211|6c:21:a2:44:c4:a6|72
1615188211|74:df:bf:4c:51:59|65
1615188226|6c:21:a2:44:c4:a6|74
1615188226|48:d2:24:8e:09:8b|89
1615188241|08:25:25:52:43:e8|83
1615188241|6c:21:a2:44:c4:a6|77
1615188256|74:df:bf:4c:51:59|65
1615188256|ec:9b:f3:c4:ef:87|92
1615188256|6c:21:a2:44:c4:a6|75
1615188256|08:25:25:52:43:e8|74
1615188271|b4:d5:bd:a7:6f:43|73
1615188271|48:d2:24:8e:09:8b|88
1615188271|6c:21:a2:44:c4:a6|72
1615188271|74:df:bf:4c:51:59|57
1615188286|6c:21:a2:44:c4:a6|73
1615188286|b4:d5:bd:a7:6f:43|73
1615188301|6c:21:a2:44:c4:a6|76
1615188316|6c:21:a2:44:c4:a6|73
1615188331|ac:5f:3e:f4:e0:3f|59
1615188331|74:df:bf:4c:51:59|62
1615188331|6c:21:a2:44:c4:a6|75
1615188346|6c:21:a2:44:c4:a6|75
1615188346|ac:5f:3e:f4:e0:3f|61
1615188361|6c:21:a2:44:c4:a6|74
1615188361|08:25:25:52:43:e8|79
1615188376|6c:21:a2:44:c4:a6|75
1615188391|48:d2:24:8e:09:8b|86
1615188391|74:df:bf:4c:51:59|65
1615188391|6c:21:a2:44:c4:a6|73
1615188406|6c:21:a2:44:c4:a6|78
1615188406|48:d2:24:8e:09:8b|86
1615188421|44:5e:cd:b2:3b:41|64
1615188421|6c:21:a2:44:c4:a6|75
1615188482|6c:21:a2:44:c4:a6|75
1615188482|e0:13:b5:73:5d:57|80
1615188497|44:5e:cd:b2:3b:41|68
1615188497|28:e3:47:12:4b:4a|74
1615188497|6c:21:a2:44:c4:a6|73
1615188512|6c:21:a2:44:c4:a6|77
1615188512|48:d2:24:8e:09:8b|91
1615188512|74:df:bf:4c:51:59|55
1615188512|44:5e:cd:b2:3b:41|68
1615188527|44:5e:cd:b2:3b:41|65
1615188527|6c:21:a2:44:c4:a6|75
1615188542|6c:21:a2:44:c4:a6|73
1615188542|44:5e:cd:b2:3b:41|65
1615188557|44:5e:cd:b2:3b:41|60
1615188557|6c:21:a2:44:c4:a6|73
1615188572|a4:c3:f0:c9:2c:cd|55
1615188572|6c:21:a2:44:c4:a6|72
1615188572|74:df:bf:4c:51:59|61
1615188587|6c:21:a2:44:c4:a6|78
1615188587|a4:c3:f0:c9:2c:cd|55
1615188602|6c:21:a2:44:c4:a6|75
1615188617|6c:21:a2:44:c4:a6|74
1615188632|48:d2:24:8e:09:8b|82
1615188632|74:df:bf:4c:51:59|66
1615188632|6c:21:a2:44:c4:a6|74
1615188647|5c:51:4f:bd:06:7d|77
1615188647|6c:21:a2:44:c4:a6|72
1615188647|48:d2:24:8e:09:8b|82
1615188662|6c:21:a2:44:c4:a6|72
1615188662|5c:51:4f:bd:06:7d|77
1615188677|08:25:25:52:43:e8|76
1615188677|6c:21:a2:44:c4:a6|76
1615188692|48:d2:24:8e:09:8b|89
1615188692|6c:21:a2:44:c4:a6|73
1615188692|74:df:bf:4c:51:59|59
1615188692|08:25:25:52:43:e8|76
1615188707|44:5e:cd:b2:3b:41|61
1615188707|08:25:25:52:43:e8|74
1615188707|6c:21:a2:44:c4:a6|75
1615188707|48:d2:24:8e:09:8b|89
1615188722|08:25:25:52:43:e8|71
1615188722|6c:21:a2:44:c4:a6|71
1615188722|44:5e:cd:b2:3b:41|61
1615188737|44:5e:cd:b2:3b:41|61
1615188737|6c:21:a2:44:c4:a6|74
1615188737|08:25:25:52:43:e8|75
1615188752|74:df:bf:4c:51:59|55
1615188752|44:5e:cd:b2:3b:41|61
1615188767|44:5e:cd:b2:3b:41|60
1615188767|08:25:25:52:43:e8|80
1615188767|6c:21:a2:44:c4:a6|73
1615188767|74:df:bf:4c:51:59|55
1615188782|6c:21:a2:44:c4:a6|78
1615188782|44:5e:cd:b2:3b:41|60
1615188797|28:e3:47:12:4b:4a|84
1615188797|44:5e:cd:b2:3b:41|66
1615188797|6c:21:a2:44:c4:a6|74
1615188812|e0:13:b5:73:5d:57|92
1615188812|48:d2:24:8e:09:8b|90
1615188812|6c:21:a2:44:c4:a6|75
1615188812|74:df:bf:4c:51:59|62
1615188812|28:e3:47:12:4b:4a|84
1615188827|6c:21:a2:44:c4:a6|73
1615188827|44:5e:cd:b2:3b:41|62
1615188827|e0:13:b5:73:5d:57|92
1615188842|6c:21:a2:44:c4:a6|78
1615188857|44:5e:cd:b2:3b:41|59
1615188857|ec:9b:f3:c4:ef:87|93
1615188857|6c:21:a2:44:c4:a6|74
1615188872|a4:c3:f0:c9:2c:cd|76
1615188872|48:d2:24:8e:09:8b|86
1615188872|6c:21:a2:44:c4:a6|76
1615188872|74:df:bf:4c:51:59|77
1615188872|44:5e:cd:b2:3b:41|59
1615188887|6c:21:a2:44:c4:a6|72
1615188887|a4:c3:f0:c9:2c:cd|76
1615188902|6c:21:a2:44:c4:a6|74
1615188917|6c:21:a2:44:c4:a6|75
1615188932|74:df:bf:4c:51:59|63
1615188932|6c:21:a2:44:c4:a6|77
1615188947|6c:21:a2:44:c4:a6|74
1615188947|44:5e:cd:b2:3b:41|60
1615188947|74:df:bf:4c:51:59|63
1615188962|6c:21:a2:44:c4:a6|73
1615188977|6c:21:a2:44:c4:a6|75
1615188992|48:d2:24:8e:09:8b|89
1615188992|74:df:bf:4c:51:59|55
1615188992|6c:21:a2:44:c4:a6|74
1615189007|6c:21:a2:44:c4:a6|76
1615189022|08:25:25:52:43:e8|69
1615189022|6c:21:a2:44:c4:a6|74
1615189037|6c:21:a2:44:c4:a6|75
1615189037|3c:f8:62:43:8b:b3|62
1615189037|08:25:25:52:43:e8|69
1615189052|74:df:bf:4c:51:59|63
1615189052|6c:21:a2:44:c4:a6|71
1615189067|44:5e:cd:b2:3b:41|65
1615189067|48:9d:d1:23:c2:46|94
1615189067|6c:21:a2:44:c4:a6|74
1615189082|b8:8d:12:39:ae:cc|87
1615189082|44:5e:cd:b2:3b:41|65
1615189097|44:5e:cd:b2:3b:41|61
1615189097|6c:21:a2:44:c4:a6|77
1615189097|b8:8d:12:39:ae:cc|87
1615189112|48:d2:24:8e:09:8b|85
1615189112|6c:21:a2:44:c4:a6|79
1615189112|74:df:bf:4c:51:59|62
1615189112|44:5e:cd:b2:3b:41|67
1615189127|44:5e:cd:b2:3b:41|64
1615189127|6c:21:a2:44:c4:a6|74
1615189127|48:d2:24:8e:09:8b|85
1615189142|6c:21:a2:44:c4:a6|73
1615189142|44:5e:cd:b2:3b:41|64
1615189157|6c:21:a2:44:c4:a6|73
1615189172|44:5e:cd:b2:3b:41|65
1615189172|48:d2:24:8e:09:8b|88
1615189172|74:df:bf:4c:51:59|65
1615189172|6c:21:a2:44:c4:a6|79
1615189187|ec:9b:f3:c4:ef:87|92
1615189187|6c:21:a2:44:c4:a6|75
1615189187|44:5e:cd:b2:3b:41|65
1615189202|e0:13:b5:73:5d:57|78
1615189202|6c:21:a2:44:c4:a6|74
1615189202|ec:9b:f3:c4:ef:87|92
1615189217|6c:21:a2:44:c4:a6|73
1615189217|e0:13:b5:73:5d:57|78
1615189232|48:d2:24:8e:09:8b|90
1615189232|08:25:25:52:43:e8|76
1615189232|74:df:bf:4c:51:59|55
1615189232|6c:21:a2:44:c4:a6|75
1615189247|6c:21:a2:44:c4:a6|72
1615189247|48:d2:24:8e:09:8b|90
1615189262|3c:f8:62:43:8b:b3|55
1615189262|5c:51:4f:bd:06:7d|85
1615189262|6c:21:a2:44:c4:a6|76
1615189277|6c:21:a2:44:c4:a6|74
1615189292|48:d2:24:8e:09:8b|89
1615189292|44:5e:cd:b2:3b:41|62
1615189292|74:df:bf:4c:51:59|58
1615189292|6c:21:a2:44:c4:a6|74
1615189307|44:5e:cd:b2:3b:41|65
1615189307|6c:21:a2:44:c4:a6|72
1615189307|48:d2:24:8e:09:8b|89
1615189322|3c:f8:62:43:8b:b3|61
1615189322|6c:21:a2:44:c4:a6|73
1615189322|44:5e:cd:b2:3b:41|65
1615189337|6c:21:a2:44:c4:a6|78
1615189337|3c:f8:62:43:8b:b3|61
1615189352|e0:13:b5:73:5d:57|84
1615189352|74:df:bf:4c:51:59|59
1615189352|6c:21:a2:44:c4:a6|74
1615189367|08:25:25:52:43:e8|75
1615189367|44:5e:cd:b2:3b:41|61
1615189367|e0:13:b5:73:5d:57|84
1615189382|8c:8e:f2:93:4d:8a|76
1615189382|44:5e:cd:b2:3b:41|62
1615189382|6c:21:a2:44:c4:a6|71
1615189382|08:25:25:52:43:e8|75
1615189397|6c:21:a2:44:c4:a6|70
1615189397|8c:8e:f2:93:4d:8a|76
1615189412|48:d2:24:8e:09:8b|86
1615189412|44:5e:cd:b2:3b:41|65
1615189412|28:e3:47:12:4b:4a|83
1615189412|74:df:bf:4c:51:59|74
1615189412|6c:21:a2:44:c4:a6|74
1615189427|6c:21:a2:44:c4:a6|76
1615189427|48:d2:24:8e:09:8b|86
1615189442|08:25:25:52:43:e8|73
1615189442|6c:21:a2:44:c4:a6|77
1615189457|44:5e:cd:b2:3b:41|65
1615189457|6c:21:a2:44:c4:a6|75
1615189457|08:25:25:52:43:e8|73
1615189472|b4:d5:bd:a7:6f:43|77
1615189472|48:d2:24:8e:09:8b|88
1615189472|6c:21:a2:44:c4:a6|71
1615189472|74:df:bf:4c:51:59|61
1615189472|44:5e:cd:b2:3b:41|65
1615189487|6c:21:a2:44:c4:a6|72
1615189487|a4:c3:f0:c9:2c:cd|54
1615189487|b4:d5:bd:a7:6f:43|77
1615189502|08:25:25:52:43:e8|74
1615189502|6c:21:a2:44:c4:a6|78
1615189517|6c:21:a2:44:c4:a6|74
1615189517|08:25:25:52:43:e8|74
1615189532|44:5e:cd:b2:3b:41|65
1615189532|74:df:bf:4c:51:59|54
1615189532|6c:21:a2:44:c4:a6|74
1615189547|44:5e:cd:b2:3b:41|68
1615189547|08:25:25:52:43:e8|77
1615189547|6c:21:a2:44:c4:a6|74
1615189562|6c:21:a2:44:c4:a6|74
1615189562|44:5e:cd:b2:3b:41|68
1615189577|e0:dc:ff:30:2c:7c|75
1615189577|08:25:25:52:43:e8|75
1615189577|6c:21:a2:44:c4:a6|72
1615189592|6c:21:a2:44:c4:a6|76
1615189592|48:d2:24:8e:09:8b|90
1615189592|44:5e:cd:b2:3b:41|68
1615189592|74:df:bf:4c:51:59|57
1615189592|e0:dc:ff:30:2c:7c|75
1615189607|70:66:55:d2:45:1b|71
1615189607|6c:21:a2:44:c4:a6|74
1615189622|6c:21:a2:44:c4:a6|74
1615189622|08:25:25:52:43:e8|78
1615189622|70:66:55:d2:45:1b|71
1615189637|70:66:55:d2:45:1b|65
1615189637|6c:21:a2:44:c4:a6|73
1615189652|48:d2:24:8e:09:8b|86
1615189652|6c:21:a2:44:c4:a6|74
1615189652|74:df:bf:4c:51:59|68
1615189652|70:66:55:d2:45:1b|65
1615189667|e0:dc:ff:30:2c:7c|77
1615189667|48:d2:24:8e:09:8b|86
1615189682|6c:21:a2:44:c4:a6|76
1615189682|b4:c4:fc:ab:ad:4a|76
1615189697|08:25:25:52:43:e8|81
1615189697|6c:21:a2:44:c4:a6|76
1615189712|6c:21:a2:44:c4:a6|73
1615189712|74:df:bf:4c:51:59|67
1615189727|6c:21:a2:44:c4:a6|74
1615189727|08:25:25:52:43:e8|82
1615189742|6c:21:a2:44:c4:a6|73
1615189757|ec:9b:f3:c4:ef:87|92
1615189757|6c:21:a2:44:c4:a6|76
1615189757|e0:dc:ff:30:2c:7c|82
1615189772|6c:21:a2:44:c4:a6|78
1615189772|74:df:bf:4c:51:59|55
1615189787|6c:21:a2:44:c4:a6|75
1615189802|6c:21:a2:44:c4:a6|72
1615189817|6c:21:a2:44:c4:a6|75
1615189832|e0:13:b5:73:5d:57|78
1615189832|74:df:bf:4c:51:59|63
1615189832|6c:21:a2:44:c4:a6|75
1615189847|5c:51:4f:bd:06:7d|79
1615189847|6c:21:a2:44:c4:a6|76
1615189862|44:5e:cd:b2:3b:41|63
1615189862|6c:21:a2:44:c4:a6|77
1615189862|5c:51:4f:bd:06:7d|79
1615189877|08:25:25:52:43:e8|77
1615189877|6c:21:a2:44:c4:a6|73
1615189877|44:5e:cd:b2:3b:41|63
1615189892|48:d2:24:8e:09:8b|86
1615189892|44:5e:cd:b2:3b:41|67
1615189892|6c:21:a2:44:c4:a6|75
1615189892|74:df:bf:4c:51:59|63
1615189892|08:25:25:52:43:e8|77
1615189907|44:5e:cd:b2:3b:41|73
1615189907|6c:21:a2:44:c4:a6|72
1615189907|e0:dc:ff:30:2c:7c|80
1615189907|48:d2:24:8e:09:8b|86
1615189922|3c:f8:62:43:8b:b3|71
1615189922|6c:21:a2:44:c4:a6|77
1615189922|44:5e:cd:b2:3b:41|71
1615189937|6c:21:a2:44:c4:a6|74
1615189937|3c:f8:62:43:8b:b3|71
1615189952|74:df:bf:4c:51:59|64
1615189952|6c:21:a2:44:c4:a6|74
1615189967|b4:c4:fc:ab:ad:4a|69
1615189967|08:25:25:52:43:e8|77
1615189967|6c:21:a2:44:c4:a6|73
1615189982|6c:21:a2:44:c4:a6|74
1615189982|b4:c4:fc:ab:ad:4a|69
1615189997|6c:21:a2:44:c4:a6|71
1615190012|48:d2:24:8e:09:8b|91
1615190012|28:e3:47:12:4b:4a|81
1615190012|6c:21:a2:44:c4:a6|76
1615190012|74:df:bf:4c:51:59|55
1615190012|68:84:70:26:27:f0|92
1615190027|6c:21:a2:44:c4:a6|74
1615190027|48:d2:24:8e:09:8b|91
1615190042|6c:21:a2:44:c4:a6|74
1615190057|6c:21:a2:44:c4:a6|73
1615190072|44:5e:cd:b2:3b:41|62
1615190072|48:d2:24:8e:09:8b|91
1615190072|74:df:bf:4c:51:59|59
1615190072|6c:21:a2:44:c4:a6|72
1615190087|6c:21:a2:44:c4:a6|76
1615190087|b4:d5:bd:a7:6f:43|73
1615190087|44:5e:cd:b2:3b:41|68
1615190102|44:5e:cd:b2:3b:41|70
1615190102|a4:c3:f0:c9:2c:cd|56
1615190102|6c:21:a2:44:c4:a6|75
1615190117|6c:21:a2:44:c4:a6|74
1615190117|44:5e:cd:b2:3b:41|66
1615190132|74:df:bf:4c:51:59|55
1615190132|6c:21:a2:44:c4:a6|71
1615190147|5c:51:4f:bd:06:7d|79
1615190147|44:78:3e:2b:10:24|93
1615190147|6c:21:a2:44:c4:a6|75
1615190147|74:df:bf:4c:51:59|55
1615190162|6c:21:a2:44:c4:a6|73
1615190162|5c:51:4f:bd:06:7d|79
1615190177|d8:9b:3b:4f:9b:35|94
1615190177|6c:21:a2:44:c4:a6|75
1615190192|48:d2:24:8e:09:8b|85
1615190192|6c:21:a2:44:c4:a6|77
1615190192|74:df:bf:4c:51:59|62
1615190192|08:25:25:52:43:e8|71
1615190192|d8:9b:3b:4f:9b:35|94
1615190207|6c:21:a2:44:c4:a6|74
1615190207|48:d2:24:8e:09:8b|85
1615190222|6c:21:a2:44:c4:a6|73
1615190237|6c:21:a2:44:c4:a6|74
1615190252|48:d2:24:8e:09:8b|90
1615190252|74:df:bf:4c:51:59|61
1615190252|6c:21:a2:44:c4:a6|79
1615190267|6c:21:a2:44:c4:a6|74
1615190267|48:d2:24:8e:09:8b|90
1615190282|08:25:25:52:43:e8|75
1615190282|6c:21:a2:44:c4:a6|74
