1614577407|da:a1:19:df:e3:30|94
1614577422|da:a1:19:df:e3:30|94
1614577437|da:a1:19:df:e3:30|94
1614577452|da:a1:19:df:e3:30|94
1614577467|da:a1:19:df:e3:30|94
1614577482|00:02:36:f0:05:7c|94
1614577497|c0:8c:71:8d:97:e2|91
1614577497|00:02:36:f0:05:7c|94
1614577512|c0:8c:71:8d:97:e2|91
1614577527|ac:5f:3e:f4:e0:3f|58
1614577527|02:61:e3:fa:a2:0a|71
1614577527|c0:8c:71:8d:97:e2|91
1614577542|ac:5f:3e:f4:e0:3f|53
1614577557|ac:5f:3e:f4:e0:3f|52
1614577572|ac:5f:3e:f4:e0:3f|52
1614577587|ac:5f:3e:f4:e0:3f|52
1614577602|ac:5f:3e:f4:e0:3f|52
1614577617|9e:22:91:59:70:89|93
1614577617|ac:5f:3e:f4:e0:3f|52
1614577632|9e:22:91:59:70:89|93
1614577647|9e:22:91:59:70:89|93
1614577662|9e:22:91:59:70:89|93
1614577677|9e:22:91:59:70:89|93
1614577692|9e:22:91:59:70:89|93
1614577707|9e:22:91:59:70:89|93
1614577722|ac:5f:3e:f4:e0:3f|64
1614577722|02:1e:b0:37:d7:b3|71
1614577722|9e:22:91:59:70:89|93
1614577737|a2:f9:34:72:28:08|85
1614577737|ac:5f:3e:f4:e0:3f|57
1614577752|ac:5f:3e:f4:e0:3f|65
1614577752|a2:f9:34:72:28:08|85
1614577767|00:02:36:f0:05:a3|92
1614577767|ac:5f:3e:f4:e0:3f|65
1614577782|00:02:36:f0:05:a3|92
1614577797|94:7b:e7:11:6b:1a|93
1614577797|00:02:36:f0:05:a3|92
1614577812|94:7b:e7:11:6b:1a|93
1614577827|a4:c3:f0:c9:2c:cd|50
1614577827|02:63:b3:72:5a:ee|72
1614577827|94:7b:e7:11:6b:1a|93
1614577842|ac:5f:3e:f4:e0:3f|64
1614577842|a4:c3:f0:c9:2c:cd|50
1614577857|ac:5f:3e:f4:e0:3f|54
1614577872|ac:5f:3e:f4:e0:3f|56
1614577887|ac:5f:3e:f4:e0:3f|56
1614577902|02:86:56:5f:5d:92|65
1614577902|02:0d:c2:14:d3:66|74
1614577917|02:5d:93:3c:1a:8b|69
1614577917|02:86:56:5f:5d:92|65
1614577932|02:e2:1d:10:be:ee|52
1614577932|02:5d:93:3c:1a:8b|69
1614577947|02:e2:1d:10:be:ee|52
1614577962|02:e2:1d:10:be:ee|52
1614577977|02:e2:1d:10:be:ee|52
1614577992|02:e2:1d:10:be:ee|52
1614578007|02:e2:1d:10:be:ee|52
1614578022|02:e2:1d:10:be:ee|52
1614578037|02:d4:0b:a7:de:c8|72
1614578037|02:20:69:a7:9c:cd|69
1614578037|02:e2:1d:10:be:ee|52
1614578052|02:8d:2c:6a:8a:88|55
1614578052|02:d6:32:a0:9f:9c|67
1614578052|02:87:e1:85:b4:13|67
1614578052|02:d4:0b:a7:de:c8|72
1614578067|02:50:26:87:8e:ca|76
1614578067|02:fa:44:7e:0a:63|58
1614578067|02:8d:2c:6a:8a:88|55
1614578082|02:42:d4:b3:16:20|74
1614578082|02:99:ef:26:12:f8|59
1614578082|02:ae:74:60:b7:3b|73
1614578082|02:50:26:87:8e:ca|76
1614578097|02:29:8c:3d:54:86|68
1614578097|02:35:93:85:e3:95|55
1614578097|02:42:d4:b3:16:20|74
1614578112|02:29:8c:3d:54:86|68
1614578142|60:1d:91:92:2d:08|92
1614578157|60:1d:91:92:2d:08|92
1614578172|60:1d:91:92:2d:08|92
1614578187|48:c7:96:87:ba:31|91
1614578187|a4:c3:f0:c9:2c:cd|53
1614578202|48:c7:96:87:ba:31|91
1614578217|48:c7:96:87:ba:31|91
1614578232|da:a1:19:0e:9b:7c|92
1614578232|48:c7:96:87:ba:31|93
1614578247|da:a1:19:0e:9b:7c|92
1614578277|02:af:ea:a1:eb:8b|83
1614578277|02:28:f8:f3:26:c7|78
1614578292|02:97:6d:b9:ab:f0|71
1614578292|02:7e:80:06:69:0f|85
1614578292|02:ea:28:36:8b:e2|75
1614578292|02:af:ea:a1:eb:8b|83
1614578307|02:83:c9:7b:e0:ed|81
1614578307|02:0d:eb:c6:f4:f3|81
1614578307|02:8e:79:4b:43:6a|83
1614578307|02:97:6d:b9:ab:f0|71
1614578322|02:5f:b8:86:26:bb|74
1614578322|02:83:c9:7b:e0:ed|81
1614578337|02:5f:b8:86:26:bb|74
1614578352|02:5f:b8:86:26:bb|74
1614578367|02:5f:b8:86:26:bb|74
1614578382|02:5f:b8:86:26:bb|74
1614578397|02:5f:b8:86:26:bb|74
1614578412|02:5f:b8:86:26:bb|74
1614578427|02:5f:b8:86:26:bb|74
1614578442|02:5f:b8:86:26:bb|74
1614578457|02:5f:b8:86:26:bb|74
1614578472|02:5f:b8:86:26:bb|74
1614578487|a4:c3:f0:c9:2c:cd|59
1614578487|02:5f:b8:86:26:bb|74
1614578502|a4:c3:f0:c9:2c:cd|59
1614578517|a4:c3:f0:c9:2c:cd|59
1614578532|a4:c3:f0:c9:2c:cd|59
1614578547|a4:c3:f0:c9:2c:cd|59
1614578562|c2:0f:23:8c:c0:db|92
1614578562|a4:c3:f0:c9:2c:cd|59
1614578577|8e:62:d5:26:bc:22|91
1614578577|c2:0f:23:8c:c0:db|92
1614578592|00:02:36:f0:04:dc|94
1614578607|00:02:36:f0:04:dc|94
1614578622|00:02:36:f0:04:dc|94
1614578637|00:02:36:f0:04:dc|94
1614578682|02:cf:71:bc:94:6d|77
1614578697|02:33:6c:0b:d1:ec|60
1614578697|02:cf:71:bc:94:6d|77
1614578712|02:87:73:45:70:d4|72
1614578712|02:1c:71:b9:2f:12|73
1614578712|02:11:60:f9:00:ec|60
1614578712|00:02:36:f0:05:a3|92
1614578727|02:c7:ae:1f:16:33|66
1614578727|02:d3:4c:15:2a:71|76
1614578727|02:36:14:45:3f:cf|61
1614578727|02:87:73:45:70:d4|72
1614578742|02:c7:ae:1f:16:33|66
1614578892|02:d3:aa:fe:61:a1|69
1614578892|02:ff:06:f0:ad:4a|77
1614578907|02:1e:8a:21:25:b8|71
1614578907|02:14:b2:5c:97:41|73
1614578907|02:0c:a0:f2:ac:37|67
1614578907|76:60:fa:11:8d:0d|92
1614578907|02:d3:aa:fe:61:a1|69
1614578922|02:7a:29:49:4b:17|76
1614578922|02:79:0a:ff:49:d5|73
1614578922|02:fe:59:05:a5:20|83
1614578922|02:1e:8a:21:25:b8|71
1614578937|a2:f9:34:72:28:08|92
1614578937|02:b8:0b:61:d6:97|72
1614578937|02:7a:29:49:4b:17|76
1614578952|02:2b:ff:8f:d4:60|72
1614578952|02:30:fb:b3:8e:ee|65
1614578952|a2:f9:34:72:28:08|92
1614578967|02:2b:ff:8f:d4:60|72
1614578982|02:2b:ff:8f:d4:60|72
1614578997|02:2b:ff:8f:d4:60|72
1614579012|02:2b:ff:8f:d4:60|72
1614579027|02:2b:ff:8f:d4:60|72
1614579042|02:2b:ff:8f:d4:60|72
1614579087|a4:c3:f0:c9:2c:cd|54
1614579087|02:ee:ef:eb:aa:f0|92
1614579102|a4:c3:f0:c9:2c:cd|54
