1616061506|00:d0:c9:f3:00:70|87
1616061506|3c:bb:fd:3a:b7:31|95
1616061521|00:d0:c9:f3:00:70|88
1616061536|28:f0:76:14:84:f2|95
1616061536|00:d0:c9:f3:00:70|90
1616061551|3c:bb:fd:3a:b7:31|92
1616061551|00:d0:c9:f3:00:70|88
1616061551|28:f0:76:14:84:f2|95
1616061566|00:d0:c9:f3:00:70|90
1616061566|3c:bb:fd:3a:b7:31|92
1616061581|00:d0:c9:f3:00:70|88
1616061596|40:f5:20:48:8c:e8|69
1616061596|c0:8c:71:8d:ad:24|94
1616061596|00:d0:c9:f3:00:70|88
1616061611|40:f5:20:46:c1:e4|55
1616061611|00:d0:c9:f3:00:70|90
1616061611|dc:74:a8:cf:98:17|95
1616061626|00:d0:c9:f3:00:70|90
1616061626|40:f5:20:46:c1:e4|55
1616061641|40:f5:20:48:8c:e8|71
1616061641|00:d0:c9:f3:00:70|87
1616061656|28:f0:76:14:84:f2|91
1616061656|40:f5:20:46:c1:e4|56
1616061656|40:f5:20:44:c3:a4|69
1616061656|40:f5:20:48:8c:e8|73
1616061671|00:d0:c9:f3:00:70|87
1616061671|28:f0:76:14:84:f2|91
1616061686|00:d0:c9:f3:00:70|87
1616061701|00:d0:c9:f3:00:70|89
1616061716|00:d0:c9:f3:00:70|89
1616061746|40:f5:20:46:c1:e4|54
1616061746|00:d0:c9:f3:00:70|86
1616061761|00:d0:c9:f3:00:70|89
1616061761|40:f5:20:46:c1:e4|54
1616061776|28:f0:76:14:84:f2|91
1616061776|00:d0:c9:f3:00:70|86
1616061791|80:4e:70:50:34:26|95
1616061791|00:d0:c9:f3:00:70|91
1616061791|28:f0:76:14:84:f2|91
1616061806|00:d0:c9:f3:00:70|89
1616061806|40:f5:20:48:8c:e8|71
1616061821|00:d0:c9:f3:00:70|88
1616061836|14:9f:3c:c4:1f:a0|91
1616061836|00:d0:c9:f3:00:70|87
1616061851|00:d0:c9:f3:00:70|89
1616061866|00:d0:c9:f3:00:70|87
1616061881|00:d0:c9:f3:00:70|90
1616061896|28:f0:76:14:84:f2|92
1616061896|00:d0:c9:f3:00:70|90
1616061911|00:d0:c9:f3:00:70|87
1616061911|28:f0:76:14:84:f2|92
1616061926|40:f5:20:48:8c:e8|73
1616061926|00:d0:c9:f3:00:70|89
1616061941|00:d0:c9:f3:00:70|90
1616061941|40:f5:20:48:8c:e8|73
1616061956|00:d0:c9:f3:00:70|87
1616061971|00:d0:c9:f3:00:70|88
1616061986|00:d0:c9:f3:00:70|91
1616061986|04:bd:70:2a:92:a0|92
1616062001|00:d0:c9:f3:00:70|88
1616062016|40:f5:20:48:8c:e8|70
1616062016|00:d0:c9:f3:00:70|90
1616062031|00:d0:c9:f3:00:70|87
1616062031|40:f5:20:48:8c:e8|70
1616062046|00:d0:c9:f3:00:70|87
1616062061|00:d0:c9:f3:00:70|89
1616062076|00:d0:c9:f3:00:70|90
1616062091|40:f5:20:46:c1:e4|57
1616062091|00:d0:c9:f3:00:70|89
1616062106|b0:6f:e0:f3:4f:8a|95
1616062106|00:d0:c9:f3:00:70|89
1616062106|40:f5:20:46:c1:e4|57
1616062121|40:f5:20:46:c1:e4|54
1616062121|00:d0:c9:f3:00:70|87
1616062136|00:d0:c9:f3:00:70|84
1616062136|40:f5:20:46:c1:e4|57
1616062151|00:d0:c9:f3:00:70|88
1616062166|40:f5:20:46:c1:e4|66
1616062166|40:f5:20:48:8c:e8|68
1616062166|00:d0:c9:f3:00:70|89
1616062181|00:d0:c9:f3:00:70|91
1616062181|40:f5:20:46:c1:e4|66
1616062196|00:10:40:b9:59:df|87
1616062196|00:d0:c9:f3:00:70|92
1616062211|18:e7:77:89:c5:d3|88
1616062211|00:d0:c9:f3:00:70|88
1616062211|28:f0:76:14:84:f2|90
1616062226|18:e7:77:89:c5:d3|93
1616062226|40:f5:20:46:c1:e4|67
1616062241|00:d0:c9:f3:00:70|90
1616062241|18:e7:77:89:c5:d3|93
1616062256|40:f5:20:46:c1:e4|65
1616062256|00:d0:c9:f3:00:70|91
1616062271|40:f5:20:46:c1:e4|65
1616062286|00:d0:c9:f3:00:70|91
1616062316|24:46:c8:d3:2a:63|94
1616062316|00:d0:c9:f3:00:70|92
1616062316|18:e7:77:89:c5:d3|92
1616062331|28:f0:76:14:84:f2|93
1616062331|00:d0:c9:f3:00:70|87
1616062331|24:46:c8:d3:2a:63|94
1616062346|00:d0:c9:f3:00:70|85
1616062361|00:d0:c9:f3:00:70|89
1616062376|00:d0:c9:f3:00:70|89
1616062391|28:f0:76:14:84:f2|93
1616062391|00:d0:c9:f3:00:70|87
1616062406|40:f5:20:46:c1:e4|65
1616062406|00:d0:c9:f3:00:70|86
1616062406|28:f0:76:14:84:f2|93
1616062421|60:a4:d0:58:d0:44|93
1616062421|00:d0:c9:f3:00:70|89
1616062421|40:f5:20:46:c1:e4|66
1616062436|00:d0:c9:f3:00:70|87
1616062451|40:f5:20:46:c1:e4|64
1616062451|28:f0:76:14:84:f2|90
1616062451|00:d0:c9:f3:00:70|91
1616062466|00:d0:c9:f3:00:70|89
1616062466|40:f5:20:46:c1:e4|62
1616062481|00:d0:c9:f3:00:70|86
1616062496|00:d0:c9:f3:00:70|89
1616062511|00:d0:c9:f3:00:70|88
1616062526|00:d0:c9:f3:00:70|88
1616062541|00:d0:c9:f3:00:70|87
1616062556|00:d0:c9:f3:00:70|89
1616062571|40:f5:20:46:c1:e4|62
1616062571|28:f0:76:14:84:f2|91
1616062571|00:d0:c9:f3:00:70|87
1616062586|00:d0:c9:f3:00:70|89
1616062586|40:f5:20:46:c1:e4|62
1616062601|00:d0:c9:f3:00:70|85
1616062616|c0:8c:71:8d:63:86|93
1616062616|00:d0:c9:f3:00:70|86
1616062631|00:d0:c9:f3:00:70|88
1616062646|00:d0:c9:f3:00:70|87
1616062661|40:f5:20:48:8c:e8|66
1616062661|00:d0:c9:f3:00:70|86
1616062676|24:46:c8:d3:2a:63|94
1616062676|00:d0:c9:f3:00:70|86
1616062676|40:f5:20:48:8c:e8|66
1616062691|00:d0:c9:f3:00:70|87
1616062706|00:d0:c9:f3:00:70|86
1616062706|40:f5:20:48:8c:e8|65
1616062721|00:d0:c9:f3:00:70|89
1616062736|00:d0:c9:f3:00:70|87
1616062751|28:f0:76:14:84:f2|90
1616062751|00:d0:c9:f3:00:70|90
1616062751|18:01:f1:d3:ab:dd|94
1616062766|a4:83:e7:97:3a:8b|95
1616062766|00:d0:c9:f3:00:70|87
1616062766|28:f0:76:14:84:f2|90
1616062781|70:dd:a8:76:2b:a8|91
1616062781|00:d0:c9:f3:00:70|86
1616062796|7c:c3:a1:a1:b7:b0|92
1616062796|00:d0:c9:f3:00:70|88
1616062796|70:dd:a8:76:2b:a8|91
1616062811|28:f0:76:14:84:f2|94
1616062811|00:d0:c9:f3:00:70|86
1616062811|7c:c3:a1:a1:b7:b0|92
1616062826|7c:c3:a1:a1:b7:b0|92
1616062826|00:d0:c9:f3:00:70|87
1616062826|28:f0:76:14:84:f2|94
1616062841|54:b8:02:e4:e5:68|93
1616062841|00:d0:c9:f3:00:70|92
1616062856|00:d0:c9:f3:00:70|88
1616062856|54:b8:02:e4:e5:68|93
1616062871|3c:57:6c:bf:ca:46|92
1616062871|28:f0:76:14:84:f2|90
1616062871|00:d0:c9:f3:00:70|88
1616062886|00:d0:c9:f3:00:70|90
1616062886|60:1d:91:92:b6:03|96
1616062886|3c:57:6c:bf:ca:46|92
1616062901|00:d0:c9:f3:00:70|86
1616062916|40:f5:20:48:8c:e8|65
1616062916|00:d0:c9:f3:00:70|87
1616062931|00:d0:c9:f3:00:70|90
1616062931|40:f5:20:48:8c:e8|65
1616062946|00:d0:c9:f3:00:70|89
1616062961|3c:57:6c:bf:ca:46|95
1616062961|18:01:f1:d3:ab:dd|90
1616062961|00:d0:c9:f3:00:70|87
1616062976|00:d0:c9:f3:00:70|87
1616062976|3c:57:6c:bf:ca:46|95
1616062991|00:d0:c9:f3:00:70|88
1616063006|00:d0:c9:f3:00:70|88
1616063021|00:d0:c9:f3:00:70|88
1616063036|00:d0:c9:f3:00:70|90
1616063051|40:f5:20:48:8c:e8|65
1616063051|00:d0:c9:f3:00:70|86
1616063066|00:d0:c9:f3:00:70|88
1616063066|40:f5:20:48:8c:e8|65
1616063081|00:d0:c9:f3:00:70|87
1616063096|00:d0:c9:f3:00:70|90
1616063111|00:d0:c9:f3:00:70|87
1616063126|7c:23:02:c4:91:bc|94
1616063126|00:d0:c9:f3:00:70|87
1616063141|00:d0:c9:f3:00:70|87
1616063141|7c:23:02:c4:91:bc|94
1616063156|00:d0:c9:f3:00:70|88
1616063171|28:f0:76:14:84:f2|93
1616063171|00:d0:c9:f3:00:70|91
1616063186|00:d0:c9:f3:00:70|89
1616063186|28:f0:76:14:84:f2|93
1616063201|40:f5:20:46:c1:e4|66
1616063201|00:d0:c9:f3:00:70|88
1616063216|00:d0:c9:f3:00:70|88
1616063216|40:f5:20:46:c1:e4|66
1616063231|a0:9d:c1:55:b4:13|95
1616063231|40:f5:20:46:c1:e4|65
1616063231|28:f0:76:14:84:f2|94
1616063231|00:d0:c9:f3:00:70|86
1616063246|40:f5:20:48:8c:e8|64
1616063246|00:d0:c9:f3:00:70|88
1616063246|a0:9d:c1:55:b4:13|95
1616063261|00:d0:c9:f3:00:70|86
1616063261|40:f5:20:48:8c:e8|64
1616063276|00:d0:c9:f3:00:70|89
1616063291|28:f0:76:14:84:f2|93
1616063291|00:d0:c9:f3:00:70|87
1616063306|00:d0:c9:f3:00:70|88
1616063306|28:f0:76:14:84:f2|93
1616063321|00:d0:c9:f3:00:70|89
1616063336|00:d0:c9:f3:00:70|88
1616063351|00:d0:c9:f3:00:70|90
1616063366|40:f5:20:46:c1:e4|67
1616063366|00:d0:c9:f3:00:70|88
1616063381|00:d0:c9:f3:00:70|88
1616063381|40:f5:20:46:c1:e4|67
1616063396|00:d0:c9:f3:00:70|89
1616063411|00:d0:c9:f3:00:70|87
1616063426|00:d0:c9:f3:00:70|89
1616063441|40:f5:20:48:8c:e8|66
1616063441|00:d0:c9:f3:00:70|90
1616063456|00:d0:c9:f3:00:70|88
1616063456|40:f5:20:48:8c:e8|66
1616063471|7c:c3:a1:a1:b7:b0|91
1616063471|00:d0:c9:f3:00:70|89
1616063486|d4:c9:4b:6f:9e:a8|95
1616063486|00:d0:c9:f3:00:70|89
1616063501|00:d0:c9:f3:00:70|86
1616063501|d4:c9:4b:6f:9e:a8|95
1616063516|c8:70:3c:80:f6:ef|93
1616063516|00:d0:c9:f3:00:70|88
1616063516|40:f5:20:48:8c:e8|66
1616063531|00:d0:c9:f3:00:70|89
1616063531|c8:70:3c:80:f6:ef|93
1616063546|40:f5:20:48:8c:e8|66
1616063546|40:f5:20:46:c1:e4|62
1616063546|00:d0:c9:f3:00:70|88
1616063561|ac:5f:3e:f4:e0:3f|58
1616063561|00:d0:c9:f3:00:70|87
1616063561|40:f5:20:48:8c:e8|66
1616063576|00:d0:c9:f3:00:70|87
1616063576|ac:5f:3e:f4:e0:3f|59
1616063591|00:d0:c9:f3:00:70|86
1616063606|00:d0:c9:f3:00:70|86
1616063621|40:f5:20:48:8c:e8|64
1616063621|00:d0:c9:f3:00:70|89
1616063636|d4:11:a3:87:6c:fb|92
1616063636|00:d0:c9:f3:00:70|89
1616063636|40:f5:20:48:8c:e8|64
1616063651|40:f5:20:48:8c:e8|64
1616063651|00:d0:c9:f3:00:70|87
1616063651|d4:11:a3:87:6c:fb|92
1616063666|ac:5f:3e:f4:e0:3f|61
1616063666|00:d0:c9:f3:00:70|88
1616063666|40:f5:20:48:8c:e8|64
1616063681|00:d0:c9:f3:00:70|89
1616063681|ac:5f:3e:f4:e0:3f|61
1616063696|00:d0:c9:f3:00:70|87
1616063711|40:f5:20:46:c1:e4|65
1616063711|00:d0:c9:f3:00:70|90
1616063726|f0:25:b7:00:74:6b|94
1616063726|00:d0:c9:f3:00:70|89
1616063726|40:f5:20:46:c1:e4|65
1616063741|00:d0:c9:f3:00:70|87
1616063741|f0:25:b7:00:74:6b|94
1616063756|00:d0:c9:f3:00:70|86
1616063771|28:f0:76:14:84:f2|90
1616063771|40:f5:20:48:8c:e8|66
1616063771|00:d0:c9:f3:00:70|90
1616063786|00:d0:c9:f3:00:70|88
1616063786|28:f0:76:14:84:f2|90
1616063801|10:44:00:b2:29:2c|90
1616063801|00:d0:c9:f3:00:70|87
1616063816|c0:8c:71:8d:61:d6|92
1616063816|00:d0:c9:f3:00:70|87
1616063831|e1:b8:5f:65:61:72|92
1616063831|28:f0:76:14:84:f2|92
1616063831|ec:f3:42:80:00:77|89
1616063831|00:d0:c9:f3:00:70|88
1616063831|c0:8c:71:8d:61:d6|92
1616063846|00:d0:c9:f3:00:70|88
1616063846|e1:b8:5f:65:61:72|92
1616063861|a0:27:b6:46:3d:37|92
1616063861|00:d0:c9:f3:00:70|89
1616063876|40:f5:20:48:8c:e8|65
1616063876|40:f5:20:46:c1:e4|65
1616063876|00:d0:c9:f3:00:70|88
1616063876|a0:27:b6:46:3d:37|93
1616063891|28:f0:76:14:84:f2|94
1616063891|98:49:14:b2:36:0c|95
1616063891|00:d0:c9:f3:00:70|88
1616063891|40:f5:20:46:c1:e4|65
1616063891|40:f5:20:48:8c:e8|65
1616063906|00:d0:c9:f3:00:70|90
1616063906|28:f0:76:14:84:f2|94
1616063921|00:d0:c9:f3:00:70|87
1616063936|00:d0:c9:f3:00:70|87
1616063951|00:d0:c9:f3:00:70|85
1616063966|90:21:81:b5:b5:17|92
1616063966|00:d0:c9:f3:00:70|88
1616063981|00:d0:c9:f3:00:70|88
1616063981|90:21:81:b5:b5:17|92
1616063996|00:d0:c9:f3:00:70|87
1616064011|28:f0:76:14:84:f2|91
1616064011|00:d0:c9:f3:00:70|88
1616064026|d4:c9:4b:6f:c9:38|94
1616064026|00:d0:c9:f3:00:70|87
1616064026|28:f0:76:14:84:f2|91
1616064041|a4:83:e7:97:3a:8b|94
1616064041|00:d0:c9:f3:00:70|87
1616064041|d4:c9:4b:6f:c9:38|94
1616064056|00:d0:c9:f3:00:70|87
1616064056|a4:83:e7:97:3a:8b|94
1616064071|00:d0:c9:f3:00:70|89
1616064086|40:f5:20:46:c1:e4|61
1616064086|00:d0:c9:f3:00:70|87
1616064101|00:d0:c9:f3:00:70|88
1616064101|40:f5:20:46:c1:e4|64
1616064116|a8:7d:12:8d:5f:d7|91
1616064116|00:d0:c9:f3:00:70|88
1616064131|00:d0:c9:f3:00:70|90
1616064146|1c:48:ce:41:ea:a6|94
1616064146|00:d0:c9:f3:00:70|88
1616064161|00:d0:c9:f3:00:70|88
1616064176|00:d0:c9:f3:00:70|87
1616064191|00:d0:c9:f3:00:70|87
1616064206|ac:5f:3e:f4:e0:3f|61
1616064206|00:d0:c9:f3:00:70|87
1616064221|00:d0:c9:f3:00:70|87
1616064236|40:f5:20:46:c1:e4|64
1616064236|00:d0:c9:f3:00:70|90
1616064251|00:d0:c9:f3:00:70|85
1616064251|40:f5:20:46:c1:e4|64
1616064266|00:d0:c9:f3:00:70|88
1616064281|24:46:c8:d3:1b:21|94
1616064281|40:f5:20:48:8c:e8|64
1616064281|00:d0:c9:f3:00:70|87
1616064296|00:d0:c9:f3:00:70|87
1616064296|24:46:c8:d3:1b:21|94
1616064311|28:f0:76:14:84:f2|91
1616064311|00:d0:c9:f3:00:70|89
1616064326|ac:5f:3e:f4:e0:3f|73
1616064326|00:be:3b:df:6a:eb|94
1616064326|00:d0:c9:f3:00:70|90
1616064326|28:f0:76:14:84:f2|91
1616064341|00:d0:c9:f3:00:70|87
1616064341|ac:5f:3e:f4:e0:3f|66
1616064356|00:d0:c9:f3:00:70|88
1616064371|40:f5:20:46:c1:e4|62
1616064371|00:d0:c9:f3:00:70|86
1616064386|00:d0:c9:f3:00:70|89
1616064386|40:f5:20:46:c1:e4|62
1616064401|40:f5:20:48:8c:e8|66
1616064401|00:d0:c9:f3:00:70|88
1616064416|00:d0:c9:f3:00:70|87
1616064416|40:f5:20:48:8c:e8|66
1616064431|00:d0:c9:f3:00:70|88
1616064446|ac:5f:3e:f4:e0:3f|72
1616064446|00:d0:c9:f3:00:70|89
1616064461|00:02:36:f0:05:e0|94
1616064461|00:d0:c9:f3:00:70|87
1616064461|ac:5f:3e:f4:e0:3f|70
1616064476|24:46:c8:d3:e4:d1|95
1616064476|00:d0:c9:f3:00:70|90
1616064476|00:02:36:f0:05:e0|92
1616064491|00:d0:c9:f3:00:70|87
1616064491|24:46:c8:d3:e4:d1|95
1616064506|40:f5:20:48:8c:e8|65
1616064506|00:d0:c9:f3:00:70|86
1616064521|d0:b1:28:34:58:59|92
1616064521|00:d0:c9:f3:00:70|87
1616064521|40:f5:20:48:8c:e8|65
1616064536|40:f5:20:48:8c:e8|65
1616064536|00:d0:c9:f3:00:70|87
1616064551|28:f0:76:14:84:f2|89
1616064551|00:d0:c9:f3:00:70|89
1616064551|40:f5:20:48:8c:e8|65
1616064566|00:d0:c9:f3:00:70|87
1616064566|28:f0:76:14:84:f2|89
1616064581|00:d0:c9:f3:00:70|87
1616064596|00:d0:c9:f3:00:70|88
1616064611|00:d0:c9:f3:00:70|88
1616064626|00:d0:c9:f3:00:70|90
1616064641|00:d0:c9:f3:00:70|88
1616064656|bc:3d:85:a9:9b:7a|91
1616064656|34:8b:75:36:52:8a|90
1616064656|00:d0:c9:f3:00:70|89
1616064671|d4:c9:4b:6f:dd:06|93
1616064671|00:d0:c9:f3:00:70|87
1616064671|bc:3d:85:a9:9b:7a|91
1616064686|ac:5f:3e:f4:e0:3f|73
1616064686|bc:3d:85:a9:9b:7a|92
1616064686|00:d0:c9:f3:00:70|85
1616064686|28:f0:76:14:84:f2|92
1616064686|d4:c9:4b:6f:dd:06|93
1616064701|00:d0:c9:f3:00:70|89
1616064701|ac:5f:3e:f4:e0:3f|79
1616064716|40:f5:20:46:c1:e4|62
1616064716|00:d0:c9:f3:00:70|88
1616064716|38:d4:0b:15:50:64|94
1616064731|00:d0:c9:f3:00:70|86
1616064731|40:f5:20:46:c1:e4|62
1616064746|00:d0:c9:f3:00:70|87
1616064746|28:f0:76:14:84:f2|92
1616064761|9c:e0:63:ef:a3:3b|94
1616064761|00:d0:c9:f3:00:70|88
1616064776|00:d0:c9:f3:00:70|86
1616064776|9c:e0:63:ef:a3:3b|94
1616064791|00:d0:c9:f3:00:70|89
1616064806|ac:5f:3e:f4:e0:3f|72
1616064806|00:d0:c9:f3:00:70|86
1616064821|40:f5:20:46:c1:e4|66
1616064821|00:d0:c9:f3:00:70|87
1616064821|ac:5f:3e:f4:e0:3f|72
1616064836|40:f5:20:48:8c:e8|66
1616064836|9c:e0:63:ef:a3:3b|92
1616064836|00:d0:c9:f3:00:70|87
1616064836|40:f5:20:46:c1:e4|65
1616064851|00:d0:c9:f3:00:70|89
1616064851|48:9d:d1:20:10:b6|91
1616064866|40:f5:20:46:c1:e4|65
1616064866|28:f0:76:14:84:f2|91
1616064866|00:d0:c9:f3:00:70|89
1616064881|30:b4:b8:1a:25:b6|94
1616064881|00:d0:c9:f3:00:70|86
1616064881|40:f5:20:46:c1:e4|65
1616064896|40:f5:20:48:8c:e8|68
1616064896|00:d0:c9:f3:00:70|85
1616064896|30:b4:b8:1a:25:b6|96
1616064911|7c:23:02:c4:91:bc|92
1616064911|00:d0:c9:f3:00:70|89
1616064911|40:f5:20:48:8c:e8|68
1616064926|ac:5f:3e:f4:e0:3f|64
1616064926|00:0c:e7:54:79:a2|94
1616064926|28:f0:76:14:84:f2|93
1616064926|00:d0:c9:f3:00:70|88
1616064926|7c:23:02:c4:91:bc|92
1616064941|00:d0:c9:f3:00:70|87
1616064941|ac:5f:3e:f4:e0:3f|64
1616064956|00:d0:c9:f3:00:70|87
1616064971|40:f5:20:46:c1:e4|66
1616064971|00:d0:c9:f3:00:70|86
1616064986|28:f0:76:14:84:f2|91
1616064986|00:d0:c9:f3:00:70|88
1616064986|40:f5:20:46:c1:e4|66
1616065001|00:d0:c9:f3:00:70|88
1616065001|28:f0:76:14:84:f2|91
1616065016|48:fd:a3:ef:bc:f6|91
1616065016|00:d0:c9:f3:00:70|88
1616065031|00:d0:c9:f3:00:70|88
1616065031|48:fd:a3:ef:bc:f6|91
1616065046|ac:5f:3e:f4:e0:3f|63
1616065046|00:d0:c9:f3:00:70|89
1616065061|00:d0:c9:f3:00:70|90
1616065061|ac:5f:3e:f4:e0:3f|63
1616065076|00:d0:c9:f3:00:70|89
1616065091|40:f5:20:46:c1:e4|64
1616065091|00:d0:c9:f3:00:70|89
1616065106|28:f0:76:14:84:f2|92
1616065106|00:d0:c9:f3:00:70|87
1616065121|40:d3:ae:9d:f8:4a|91
1616065121|00:d0:c9:f3:00:70|90
1616065121|28:f0:76:14:84:f2|92
1616065136|00:d0:c9:f3:00:70|90
1616065136|40:d3:ae:9d:f8:4a|91
1616065151|40:f5:20:46:c1:e4|63
1616065151|00:d0:c9:f3:00:70|87
1616065166|00:d0:c9:f3:00:70|86
1616065166|40:f5:20:46:c1:e4|63
1616065181|00:d0:c9:f3:00:70|90
1616065181|ac:5f:3e:f4:e0:3f|72
1616065196|00:d0:c9:f3:00:70|87
1616065196|ac:5f:3e:f4:e0:3f|68
1616065211|30:b4:b8:18:03:c8|91
1616065211|00:d0:c9:f3:00:70|89
1616065226|40:f5:20:46:c1:e4|63
1616065226|00:d0:c9:f3:00:70|86
1616065226|30:b4:b8:18:03:c8|91
1616065241|00:d0:c9:f3:00:70|86
1616065241|40:f5:20:46:c1:e4|63
1616065256|40:f5:20:48:8c:e8|65
1616065256|00:d0:c9:f3:00:70|89
1616065271|00:d0:c9:f3:00:70|89
1616065271|30:b4:b8:1a:25:b6|90
1616065286|40:f5:20:46:c1:e4|66
1616065286|28:f0:76:14:84:f2|91
1616065286|00:d0:c9:f3:00:70|87
1616065301|00:d0:c9:f3:00:70|86
1616065301|40:f5:20:46:c1:e4|66
1616065316|00:d0:c9:f3:00:70|86
1616065331|00:d0:c9:f3:00:70|89
1616065346|28:f0:76:14:84:f2|92
1616065346|00:d0:c9:f3:00:70|90
1616065361|00:d0:c9:f3:00:70|87
1616065361|28:f0:76:14:84:f2|92
1616065376|00:d0:c9:f3:00:70|89
1616065391|40:f5:20:48:8c:e8|66
1616065391|40:f5:20:46:c1:e4|65
1616065391|d4:c9:4b:6f:d8:2c|94
1616065391|00:d0:c9:f3:00:70|87
1616065406|00:d0:c9:f3:00:70|88
1616065406|28:f0:76:14:84:f2|92
1616065406|40:f5:20:48:8c:e8|66
1616065421|24:46:c8:d4:05:a1|95
1616065421|00:d0:c9:f3:00:70|89
1616065436|00:d0:c9:f3:00:70|90
1616065436|24:46:c8:d4:05:a1|95
1616065451|00:d0:c9:f3:00:70|89
1616065466|40:f5:20:46:c1:e4|66
1616065466|00:d0:c9:f3:00:70|89
1616065481|c0:8c:71:8d:74:0c|94
1616065481|00:d0:c9:f3:00:70|88
1616065481|fc:aa:b6:50:c6:f2|93
1616065481|d8:68:c3:1d:35:55|93
1616065481|40:f5:20:46:c1:e4|66
1616065496|00:d0:c9:f3:00:70|88
1616065496|c0:8c:71:8d:74:0c|94
1616065511|c0:8c:71:8d:74:0c|92
1616065511|00:d0:c9:f3:00:70|90
1616065526|40:f5:20:48:8c:e8|65
1616065526|c0:8c:71:8d:74:0c|92
1616065541|00:d0:c9:f3:00:70|90
1616065556|00:d0:c9:f3:00:70|89
1616065571|3c:20:f6:d4:c7:6e|92
1616065571|00:d0:c9:f3:00:70|91
1616065586|28:f0:76:14:84:f2|95
1616065586|00:d0:c9:f3:00:70|88
1616065586|3c:20:f6:d4:c7:6e|92
1616065601|00:d0:c9:f3:00:70|87
1616065601|28:f0:76:14:84:f2|95
1616065616|00:d0:c9:f3:00:70|88
1616065631|00:d0:c9:f3:00:70|89
1616065646|60:1d:91:9e:21:9b|94
1616065646|a8:87:b3:05:cf:0b|93
1616065646|28:f0:76:14:84:f2|91
1616065646|00:d0:c9:f3:00:70|87
1616065661|04:f0:21:45:91:47|93
1616065661|00:d0:c9:f3:00:70|86
1616065661|60:1d:91:9e:21:9b|94
1616065676|00:d0:c9:f3:00:70|87
1616065676|04:f0:21:45:91:47|93
1616065691|00:d0:c9:f3:00:70|86
1616065706|28:f0:76:14:84:f2|94
1616065706|40:f5:20:46:c1:e4|67
1616065706|00:d0:c9:f3:00:70|88
1616065721|40:f5:20:48:8c:e8|67
1616065721|00:d0:c9:f3:00:70|90
1616065721|28:f0:76:14:84:f2|94
1616065736|04:f0:21:45:92:58|91
1616065736|40:f5:20:46:c1:e4|65
1616065736|00:d0:c9:f3:00:70|88
1616065736|40:f5:20:48:8c:e8|67
1616065751|00:d0:c9:f3:00:70|87
1616065751|04:f0:21:45:92:58|91
1616065766|28:f0:76:14:84:f2|91
1616065766|00:d0:c9:f3:00:70|88
1616065781|00:d0:c9:f3:00:70|87
1616065796|00:d0:c9:f3:00:70|87
1616065811|40:f5:20:48:8c:e8|66
1616065811|00:d0:c9:f3:00:70|86
1616065826|00:d0:c9:f3:00:70|86
1616065826|28:f0:76:14:84:f2|92
1616065826|40:f5:20:48:8c:e8|66
1616065841|40:f5:20:46:c1:e4|67
1616065841|00:d0:c9:f3:00:70|88
1616065856|00:d0:c9:f3:00:70|88
1616065856|40:f5:20:46:c1:e4|67
1616065871|c0:8c:71:8d:74:0c|93
1616065871|00:d0:c9:f3:00:70|90
1616065871|3c:57:6c:3d:d8:53|94
1616065886|c0:8c:71:8d:74:0c|93
1616065886|00:d0:c9:f3:00:70|87
1616065886|3c:57:6c:3d:d8:53|94
1616065886|40:f5:20:46:c1:e4|75
1616065886|40:f5:20:48:8c:e8|66
1616065901|60:1d:91:91:e4:15|93
1616065901|00:d0:c9:f3:00:70|89
1616065901|c0:8c:71:8d:74:0c|93
1616065916|00:d0:c9:f3:00:70|87
1616065916|60:1d:91:91:e4:15|93
1616065931|00:d0:c9:f3:00:70|83
1616065946|40:f5:20:48:8c:e8|71
1616065946|28:f0:76:14:84:f2|92
1616065946|00:d0:c9:f3:00:70|85
1616065961|40:f5:20:46:c1:e4|31
1616065961|40:f5:20:48:8c:e8|71
1616066006|00:d0:c9:f3:00:70|88
1616066021|00:d0:c9:f3:00:70|90
1616066036|00:d0:c9:f3:00:70|90
1616066051|40:49:0f:28:f2:af|91
1616066051|00:d0:c9:f3:00:70|92
1616066066|6c:21:a2:44:c4:a6|64
1616066066|40:49:0f:28:f2:af|91
1616066081|6c:21:a2:44:c4:a6|80
1616066096|5c:51:4f:bd:06:7d|80
1616066096|b8:8d:12:39:ae:cc|93
1616066096|6c:21:a2:44:c4:a6|74
1616066111|40:f5:20:46:c1:e4|32
1616066111|08:25:25:52:43:e8|74
1616066111|6c:21:a2:44:c4:a6|80
1616066111|5c:51:4f:bd:06:7d|80
