1622029563|00:01:2f:f4:ad:00|70
1622021262|00:0a:f5:49:a3:90|78
1621927981|00:0c:e7:00:7a:f1|85
1621841897|00:0c:e7:00:82:19|81
1622012702|00:0c:e7:00:bf:83|77
1621928379|00:0c:e7:01:06:21|85
1621843133|00:0c:e7:01:33:cb|77
1621856355|00:0c:e7:01:9b:5e|74
1621864970|00:0c:e7:01:f7:e3|71
1621933272|00:0c:e7:02:0b:50|85
1621938113|00:0c:e7:02:0c:e5|88
1622030351|00:0c:e7:02:57:e5|69
1622010891|00:0c:e7:02:8a:2e|79
1621862983|00:0c:e7:02:d2:5e|81
1621938120|00:0c:e7:03:a3:72|74
1622027609|00:0c:e7:05:21:23|83
1621861714|00:0c:e7:05:2a:89|77
1621849041|00:0c:e7:05:c0:c3|76
1621858216|00:0c:e7:06:11:11|79
1621943593|00:0c:e7:06:1e:56|82
1621925222|00:0c:e7:06:8f:4d|92
1621950979|00:0c:e7:06:a1:47|71
1621845999|00:0c:e7:06:a8:a6|75
1621937109|00:0c:e7:06:cd:a3|68
1621845866|00:0c:e7:07:9e:d4|77
1621859799|00:0c:e7:08:a6:71|71
1622012762|00:0c:e7:09:6a:4c|81
1621851409|00:0c:e7:09:82:d1|76
1621864729|00:0c:e7:09:8b:ee|70
1622026672|00:0c:e7:0a:17:f2|81
1621858944|00:0c:e7:0a:22:2f|84
1621925070|00:0c:e7:0a:d5:ab|72
1621942582|00:0c:e7:0d:79:12|78
1621858581|00:0c:e7:0d:ba:3c|75
1621854019|00:0c:e7:0d:ee:8c|84
1621949829|00:0c:e7:0e:4b:2c|76
1622016207|00:0c:e7:0e:c2:64|77
1621940938|00:0c:e7:0f:5f:95|74
1621836374|00:0c:e7:0f:70:5c|86
1622011378|00:0c:e7:0f:8d:41|90
1621945864|00:0c:e7:10:d9:f2|75
1621858116|00:0c:e7:12:94:00|66
1622034634|00:0c:e7:12:a0:b1|88
1621837811|00:0c:e7:13:2b:94|75
1621926498|00:0c:e7:14:5a:ec|81
1622011499|00:0c:e7:14:83:89|84
1621947141|00:0c:e7:14:99:98|71
1621855164|00:0c:e7:15:0b:61|75
1621944451|00:0c:e7:15:a0:b3|79
1622032821|00:0c:e7:16:21:5b|75
1621923139|00:0c:e7:16:89:6d|83
1622030719|00:0c:e7:16:9b:34|56
1621942476|00:0c:e7:18:18:10|64
1622022879|00:0c:e7:18:73:ac|76
1621931723|00:0c:e7:19:01:b4|70
1621840640|00:0c:e7:19:2f:06|81
1622034744|00:0c:e7:19:3e:cc|70
1621928727|00:0c:e7:19:68:10|76
1622015280|00:0c:e7:19:fb:b3|71
1622028608|00:0c:e7:1a:f7:2c|86
1621859235|00:0c:e7:1b:0f:d4|71
1621859723|00:0c:e7:1b:57:81|74
1621925004|00:0c:e7:1b:f7:ec|83
1621930148|00:0c:e7:1d:12:6a|76
1622027322|00:0c:e7:1d:75:bf|77
1621925925|00:0c:e7:1e:6b:0b|80
1621941744|00:0c:e7:1e:88:b6|88
1621945618|00:0c:e7:1e:cd:92|77
1621928977|00:0c:e7:1f:85:a2|83
1621943624|00:0c:e7:20:08:07|72
1622015440|00:0c:e7:20:bf:95|70
1621926623|00:0c:e7:21:ed:05|87
1621854601|00:0c:e7:22:9d:3b|84
1621930117|00:0c:e7:22:e4:34|73
1621937199|00:0c:e7:23:01:ba|69
1621945656|00:0c:e7:23:56:82|82
1621848562|00:0c:e7:23:71:24|79
1621856655|00:0c:e7:23:7d:e5|78
1621935585|00:0c:e7:23:b1:95|79
1621864487|00:0c:e7:25:0d:3a|71
1621934995|00:0c:e7:25:ef:4c|70
1621946633|00:0c:e7:26:05:e7|83
1621933611|00:0c:e7:26:9c:bf|80
1622022582|00:0c:e7:26:a7:99|74
1622018588|00:0c:e7:26:e3:b1|76
1621923467|00:0c:e7:27:16:63|85
1621924618|00:0c:e7:27:ba:35|69
1621935644|00:0c:e7:28:1e:7b|77
1621943714|00:0c:e7:29:30:f0|80
1621938614|00:0c:e7:29:62:8f|75
1621931452|00:0c:e7:29:fa:d0|82
1621929503|00:0c:e7:2b:0f:a3|76
1621928779|00:0c:e7:2b:1e:82|76
1621949094|00:0c:e7:2b:96:cb|76
1621942205|00:0c:e7:2b:a7:a6|71
1621843892|00:0c:e7:2b:ff:b9|77
1622022995|00:0c:e7:2c:0f:94|70
1621936365|00:0c:e7:2c:a5:81|85
1621946794|00:0c:e7:2c:c2:7b|75
1621847423|00:0c:e7:2d:12:36|82
1621865092|00:0c:e7:2d:42:28|76
1621937723|00:0c:e7:2d:6b:33|77
1622028632|00:0c:e7:2d:d4:55|87
1621854175|00:0c:e7:2e:13:c7|77
1621937499|00:0c:e7:2e:35:8e|84
1621862495|00:0c:e7:2f:a5:08|86
1621863742|00:0c:e7:31:1b:db|77
1621849007|00:0c:e7:31:45:00|67
1622026371|00:0c:e7:31:56:76|82
1621930667|00:0c:e7:31:8a:09|66
1621930514|00:0c:e7:31:b6:09|79
1621863733|00:0c:e7:32:40:a8|80
1621859408|00:0c:e7:32:4b:38|77
1621860092|00:0c:e7:32:4c:3b|77
1621943220|00:0c:e7:33:31:9b|80
1622012349|00:0c:e7:34:72:3f|90
1621931061|00:0c:e7:35:1a:94|66
1621858122|00:0c:e7:35:4a:ff|76
1621948371|00:0c:e7:35:d9:72|76
1622016364|00:0c:e7:36:3d:d0|70
1621931217|00:0c:e7:36:6a:fe|89
1622010156|00:0c:e7:36:91:7d|73
1621949909|00:0c:e7:37:59:72|76
1621948493|00:0c:e7:37:72:3b|79
1621952475|00:0c:e7:38:16:f3|83
1622032169|00:0c:e7:38:fd:71|79
1622014795|00:0c:e7:39:52:b1|63
1622019780|00:0c:e7:3a:fe:01|83
1622022768|00:0c:e7:3b:6e:26|59
1621945855|00:0c:e7:3b:89:2d|70
1622017912|00:0c:e7:3c:29:8f|83
1621925557|00:0c:e7:3c:4f:96|83
1621942825|00:0c:e7:3c:c4:5b|79
1622035075|00:0c:e7:3c:dd:20|76
1621925414|00:0c:e7:3c:ff:1f|83
1621849148|00:0c:e7:3d:9a:e4|74
1622023120|00:0c:e7:3d:fe:2b|77
1621947021|00:0c:e7:3e:69:e4|83
1621950404|00:0c:e7:3e:f3:3c|83
1622014084|00:0c:e7:3f:18:c9|76
1621858703|00:0c:e7:3f:1f:d3|78
1622028117|00:0c:e7:3f:29:f0|81
1621836517|00:0c:e7:3f:ee:0c|79
1621925140|00:0c:e7:3f:f9:44|78
1621934092|00:0c:e7:40:85:65|82
1622032188|00:0c:e7:41:5a:aa|79
1622016210|00:0c:e7:42:4f:af|88
1621857725|00:0c:e7:42:93:9f|71
1621858966|00:0c:e7:42:b2:99|77
1621943339|00:0c:e7:43:b2:5c|85
1621926939|00:0c:e7:43:e3:03|66
1621837240|00:0c:e7:44:14:03|87
1622021653|00:0c:e7:44:e1:ff|75
1621840826|00:0c:e7:45:84:f3|82
1621942693|00:0c:e7:47:e7:8a|74
1621930779|00:0c:e7:48:40:77|77
1622030189|00:0c:e7:48:64:58|77
1622021090|00:0c:e7:48:a3:ac|86
1622008959|00:0c:e7:48:a9:16|83
1621948341|00:0c:e7:48:dd:11|73
1621836543|00:0c:e7:48:e4:3e|71
1621927181|00:0c:e7:49:c7:55|71
1621926469|00:0c:e7:49:f0:22|80
1621864850|00:0c:e7:4a:3a:fc|71
1621935425|00:0c:e7:4a:4d:45|81
1621862415|00:0c:e7:4a:98:6d|77
1621927132|00:0c:e7:4b:41:3b|71
1621950363|00:0c:e7:4c:78:bd|83
1621850454|00:0c:e7:4d:20:6a|84
1621848069|00:0c:e7:4d:64:82|76
1621864517|00:0c:e7:4d:b8:11|78
1622021217|00:0c:e7:4d:cd:f3|80
1621843781|00:0c:e7:4d:f2:ef|78
1621944923|00:0c:e7:4e:ea:3d|76
1621950431|00:0c:e7:4f:5a:94|76
1621849086|00:0c:e7:4f:6c:94|81
1621853531|00:0c:e7:50:1f:8e|85
1621932174|00:0c:e7:50:24:70|82
1621947837|00:0c:e7:50:36:e9|64
1621932301|00:0c:e7:50:79:0a|73
1621849250|00:0c:e7:50:db:e9|86
1621862080|00:0c:e7:51:04:5e|73
1622010285|00:0c:e7:51:3d:0a|85
1621931663|00:0c:e7:51:81:6a|78
1622014672|00:0c:e7:51:97:21|66
1621849036|00:0c:e7:51:a5:df|71
1622030556|00:0c:e7:51:cd:fd|79
1621943212|00:0c:e7:52:cc:13|72
1621937060|00:0c:e7:52:cc:27|72
1621862503|00:0c:e7:53:22:8d|79
1622030474|00:0c:e7:53:46:a0|78
1621933628|00:0c:e7:53:70:9d|74
1621923345|00:0c:e7:53:84:a3|81
1621864278|00:0c:e7:53:b3:a9|71
1621930309|00:0c:e7:54:de:46|89
1621929872|00:0c:e7:55:c3:7d|76
1621859099|00:0c:e7:55:dc:5e|75
1621939781|00:0c:e7:56:14:c8|80
1621930932|00:0c:e7:56:cc:8a|75
1622031473|00:0c:e7:57:20:3c|84
1621928485|00:0c:e7:57:ac:8c|73
1621946344|00:0c:e7:58:2f:8f|83
1622013861|00:0c:e7:58:42:8d|79
1621860252|00:0c:e7:58:7c:60|74
1622026871|00:0c:e7:58:b3:87|76
1622030865|00:0c:e7:59:3b:3b|87
1621932272|00:0c:e7:59:74:44|77
1621923177|00:0c:e7:59:b4:ee|80
1621936716|00:0c:e7:5a:46:0b|71
1621931580|00:0c:e7:5a:fb:be|79
1621850288|00:0c:e7:5c:1f:df|71
1621945740|00:0c:e7:5d:5f:f5|72
1621933671|00:0c:e7:5d:75:c1|76
1621946940|00:0c:e7:5d:82:5a|73
1621848375|00:0c:e7:5e:9a:bb|77
1621930692|00:0c:e7:5e:ec:02|78
1621842872|00:0c:e7:5f:01:85|76
1621842216|00:0c:e7:5f:5d:aa|80
1621862123|00:0c:e7:5f:89:c6|84
1622026863|00:0c:e7:60:41:aa|79
1621942527|00:0c:e7:60:a2:b6|76
1621936250|00:0c:e7:61:9c:fa|86
1621945503|00:0c:e7:61:f0:72|71
1621848079|00:0c:e7:61:fc:ea|71
1621852852|00:0c:e7:62:48:d9|79
1621930313|00:0c:e7:62:8f:32|74
1621855752|00:0c:e7:62:e4:0e|79
1621949038|00:0c:e7:63:2c:f6|66
1621945149|00:0c:e7:63:51:32|82
1621949450|00:0c:e7:63:b5:92|83
1621950101|00:0c:e7:63:e9:60|80
1621938181|00:0c:e7:64:8e:6b|77
1622030548|00:0c:e7:64:cc:0a|79
1622032713|00:0c:e7:65:26:ac|86
1621934823|00:0c:e7:65:45:49|82
1621863118|00:0c:e7:65:94:43|78
1621950408|00:0c:e7:65:b1:e8|87
1622027686|00:0c:e7:65:b7:5c|89
1621931737|00:0c:e7:67:a5:82|70
1621944030|00:0c:e7:67:f9:51|78
1621859503|00:0c:e7:68:21:01|86
1621853996|00:0c:e7:68:8b:60|80
1621861303|00:0c:e7:68:95:e7|75
1621922881|00:0c:e7:68:da:d1|72
1621926982|00:0c:e7:69:5d:85|86
1621930771|00:0c:e7:69:69:5b|80
1621859636|00:0c:e7:6a:6d:1a|72
1622021686|00:0c:e7:6a:86:30|79
1621935983|00:0c:e7:6a:ba:6f|74
1621923618|00:0c:e7:6b:0b:b4|81
1621860560|00:0c:e7:6b:95:e6|72
1621937596|00:0c:e7:6b:dd:75|70
1621931753|00:0c:e7:6c:74:8f|79
1622028687|00:0c:e7:6d:85:7c|81
1622011620|00:0c:e7:6d:e8:8b|86
1621922789|00:0c:e7:6e:a8:0d|87
1621943686|00:0c:e7:6e:b4:8c|85
1622015159|00:0c:e7:6f:13:5c|67
1621849218|00:0c:e7:6f:8a:82|75
1621846763|00:0c:e7:6f:cb:68|78
1621841046|00:0c:e7:70:7c:cf|77
1621849541|00:0c:e7:70:ea:9a|75
1621854849|00:0c:e7:71:25:79|82
1622026463|00:0c:e7:71:4c:62|77
1621930729|00:0c:e7:71:5f:91|83
1621938024|00:0c:e7:71:a8:a1|70
1621930807|00:0c:e7:72:d9:23|82
1621948608|00:0c:e7:73:29:df|77
1621935649|00:0c:e7:73:39:72|72
1621930156|00:0c:e7:73:46:69|73
1621853680|00:0c:e7:73:6f:9f|71
1621945761|00:0c:e7:73:c7:dc|72
1621858000|00:0c:e7:73:de:78|77
1621926278|00:0c:e7:74:9c:e3|83
1622022707|00:0c:e7:75:36:99|76
1621858909|00:0c:e7:76:c0:bb|75
1621931955|00:0c:e7:77:17:30|74
1621946660|00:0c:e7:77:19:42|73
1621931062|00:0c:e7:77:8c:e9|59
1621854394|00:0c:e7:77:ee:9b|84
1621928692|00:0c:e7:78:a2:da|86
1621864498|00:0c:e7:79:31:07|75
1621860333|00:0c:e7:7a:8f:3a|74
1622021929|00:0c:e7:7a:90:97|69
1621858871|00:0c:e7:7b:8b:48|75
1621863377|00:0c:e7:7b:d7:c7|71
1621841122|00:0c:e7:7d:43:99|81
1621863625|00:0c:e7:7d:bd:77|75
1622018015|00:0c:e7:7d:e6:6d|70
1622021062|00:0c:e7:7d:f4:06|75
1621941551|00:0c:e7:7d:f8:c7|70
1622018464|00:0c:e7:7e:13:80|86
1622034770|00:0c:e7:7e:40:cf|75
1621846024|00:0c:e7:7f:3a:08|86
1621855877|00:0c:e7:7f:77:99|78
1621843128|00:0c:e7:7f:95:c0|85
1622016062|00:0c:e7:7f:bd:83|68
1621934951|00:0c:e7:7f:fe:83|91
1621860713|00:0c:e7:80:28:80|75
1621925502|00:0c:e7:80:84:33|70
1621856919|00:0c:e7:81:83:11|72
1621946778|00:0c:e7:82:27:f0|71
1621849055|00:0c:e7:82:89:67|71
1622016240|00:0c:e7:83:18:49|78
1621945218|00:0c:e7:84:85:b0|75
1621844079|00:0c:e7:84:fc:07|80
1622031960|00:0c:e7:85:08:5e|79
1621837740|00:0c:e7:85:96:46|69
1621929751|00:0c:e7:86:85:8f|83
1621943793|00:0c:e7:86:a6:5b|84
1621930124|00:0c:e7:86:b2:c1|79
1621858555|00:0c:e7:86:f4:ba|84
1621859656|00:0c:e7:87:0b:2f|74
1621854115|00:0c:e7:87:71:04|82
1621942599|00:0c:e7:88:05:13|66
1621857879|00:0c:e7:88:4d:51|76
1621850090|00:0c:e7:88:52:49|76
1622027562|00:0c:e7:88:92:4a|85
1621857031|00:0c:e7:89:34:67|89
1621931681|00:0c:e7:89:ab:b8|77
1621852784|00:0c:e7:8a:56:ff|89
1621950395|00:0c:e7:8a:7c:46|85
1621850210|00:0c:e7:8a:cc:3c|75
1621859966|00:0c:e7:8b:0d:bf|73
1621943204|00:0c:e7:8b:2f:b8|71
1621937904|00:0c:e7:8b:ab:c6|71
1622023551|00:0c:e7:8b:f5:fb|79
1621924833|00:0c:e7:8c:0b:c8|79
1622026688|00:0c:e7:8c:27:00|76
1622025953|00:0c:e7:8c:ab:8c|74
1621860351|00:0c:e7:8c:d0:07|76
1621931701|00:0c:e7:8d:4f:92|75
1621843562|00:0c:e7:8e:43:60|85
1621930481|00:0c:e7:8e:7c:b3|70
1621844111|00:0c:e7:8f:81:eb|82
1622031183|00:0c:e7:90:2c:5f|72
1621860540|00:0c:e7:90:71:65|69
1621948222|00:0c:e7:91:6f:1a|75
1621946543|00:0c:e7:91:85:bf|76
1621931176|00:0c:e7:93:03:3d|63
1621849173|00:0c:e7:93:3d:56|79
1621861716|00:0c:e7:93:4f:86|84
1621846767|00:0c:e7:94:76:ac|78
1621857916|00:0c:e7:94:7a:73|74
1621938042|00:0c:e7:95:1c:39|79
1621934371|00:0c:e7:95:2d:d4|81
1621858160|00:0c:e7:95:33:62|74
1621929255|00:0c:e7:95:67:27|78
1621843625|00:0c:e7:95:7a:2f|77
1621951645|00:0c:e7:95:99:5b|86
1622016500|00:0c:e7:95:9c:ff|70
1622026575|00:0c:e7:96:0d:6c|79
1622026236|00:0c:e7:96:7c:c0|74
1621934625|00:0c:e7:97:08:95|78
1621926360|00:0c:e7:97:46:ec|82
1622027948|00:0c:e7:99:da:99|87
1622036380|00:0c:e7:9b:22:25|76
1622015295|00:0c:e7:9b:48:99|83
1622011428|00:0c:e7:9b:5b:18|78
1622016447|00:0c:e7:9b:85:39|75
1621943833|00:0c:e7:9b:ba:ba|74
1621844820|00:0c:e7:9c:50:dc|82
1621853403|00:0c:e7:9c:be:48|85
1621931421|00:0c:e7:9c:d4:77|72
1621838361|00:0c:e7:9d:54:b7|79
1622010313|00:0c:e7:9d:5c:df|79
1621928224|00:0c:e7:9d:7c:88|72
1622028544|00:0c:e7:9e:79:7a|78
1621863225|00:0c:e7:9e:ad:68|78
1621927620|00:0c:e7:a0:45:9c|87
1621853968|00:0c:e7:a0:76:61|84
1622025629|00:0c:e7:a0:bd:fc|73
1622021071|00:0c:e7:a2:ba:0b|83
1621928749|00:0c:e7:a2:c0:cc|75
1621854639|00:0c:e7:a3:2d:23|80
1621927540|00:0c:e7:a3:51:8a|73
1621837402|00:0c:e7:a3:5a:a3|74
1621844525|00:0c:e7:a3:a3:dc|86
1621862080|00:0c:e7:a4:01:e5|85
1621854226|00:0c:e7:a4:10:b8|82
1622022546|00:0c:e7:a4:95:0b|76
1621845910|00:0c:e7:a4:f0:a7|75
1621836533|00:0c:e7:a5:05:2a|66
1621848181|00:0c:e7:a5:1b:cf|71
1621864398|00:0c:e7:a5:44:fe|71
1621927107|00:0c:e7:a5:60:6a|83
1621932626|00:0c:e7:a5:8a:c0|83
1621935686|00:0c:e7:a5:f2:8d|86
1621853066|00:0c:e7:a6:77:6d|87
1621925032|00:0c:e7:a6:8e:6f|71
1621854506|00:0c:e7:a7:87:da|80
1621929382|00:0c:e7:a7:88:20|76
1621928445|00:0c:e7:a7:89:c8|71
1622027324|00:0c:e7:a8:08:f3|82
1621857500|00:0c:e7:a8:6b:79|74
1621859687|00:0c:e7:a8:cd:6c|71
1621945693|00:0c:e7:a9:67:b3|78
1621946389|00:0c:e7:aa:1b:15|78
1621859685|00:0c:e7:aa:40:11|64
1621943021|00:0c:e7:aa:5d:54|70
1621853527|00:0c:e7:aa:e5:81|76
1621843341|00:0c:e7:ab:60:4c|69
1621931300|00:0c:e7:ac:33:b1|76
1621848870|00:0c:e7:ac:53:a6|73
1621934840|00:0c:e7:ac:55:15|77
1621846108|00:0c:e7:ad:2f:bc|75
1622014916|00:0c:e7:ae:73:80|81
1621931115|00:0c:e7:ae:bc:7d|84
1621940052|00:0c:e7:ae:bd:96|83
1621932530|00:0c:e7:b0:06:34|83
1622019068|00:0c:e7:b0:6f:8c|76
1621858824|00:0c:e7:b0:86:31|79
1621930370|00:0c:e7:b0:95:82|87
1622024517|00:0c:e7:b1:61:6b|83
1621930076|00:0c:e7:b1:73:1a|65
1621836945|00:0c:e7:b1:e6:c8|71
1621925300|00:0c:e7:b4:41:a0|75
1621849245|00:0c:e7:b5:44:a3|74
1621859480|00:0c:e7:b5:78:69|78
1621943581|00:0c:e7:b5:a5:aa|82
1621847989|00:0c:e7:b5:b9:2b|76
1621945245|00:0c:e7:b5:c0:f8|74
1621924489|00:0c:e7:b6:51:22|84
1621858426|00:0c:e7:b7:36:24|81
1621837549|00:0c:e7:b7:39:47|70
1621931890|00:0c:e7:b7:3c:a5|75
1621943062|00:0c:e7:b7:eb:1e|77
1621950440|00:0c:e7:b7:ed:d2|92
1621859808|00:0c:e7:b8:38:ff|72
1622035545|00:0c:e7:b8:3c:32|88
1621941818|00:0c:e7:b9:1b:80|64
1622022108|00:0c:e7:b9:64:f3|74
1621942760|00:0c:e7:b9:65:fd|74
1622031351|00:0c:e7:b9:a2:15|69
1621858641|00:0c:e7:b9:c4:b3|87
1621945880|00:0c:e7:b9:e5:3c|74
1622032510|00:0c:e7:b9:ed:31|80
1621929593|00:0c:e7:ba:3d:ca|80
1621922959|00:0c:e7:ba:85:6c|80
1621854311|00:0c:e7:ba:e4:a8|75
1622011142|00:0c:e7:bb:2a:df|82
1621842970|00:0c:e7:bb:b5:4b|86
1621929120|00:0c:e7:bb:cb:49|69
1621936778|00:0c:e7:bb:e4:9e|76
1621837049|00:0c:e7:bc:93:ff|71
1621863262|00:0c:e7:bc:a7:9d|88
1622016031|00:0c:e7:bc:b5:61|83
1622034832|00:0c:e7:bd:78:fd|84
1621836920|00:0c:e7:be:37:5d|77
1621861087|00:0c:e7:be:88:7d|68
1622014801|00:0c:e7:be:cd:9a|69
1621849113|00:0c:e7:bf:4e:c9|78
1621936385|00:0c:e7:bf:b7:30|77
1621926352|00:0c:e7:c0:44:c5|79
1621850172|00:0c:e7:c0:5b:d3|84
1622008823|00:0c:e7:c0:6f:11|81
1621841655|00:0c:e7:c0:77:86|94
1621863350|00:0c:e7:c1:56:22|83
1621843755|00:0c:e7:c2:1e:ee|72
1621934975|00:0c:e7:c2:cc:3c|73
1621939640|00:0c:e7:c3:00:b6|86
1622028417|00:0c:e7:c3:b3:62|69
1621856153|00:0c:e7:c4:13:28|81
1621864238|00:0c:e7:c4:30:5f|75
1621925422|00:0c:e7:c4:3f:eb|80
1622009165|00:0c:e7:c5:3d:6a|81
1622019111|00:0c:e7:c5:97:92|76
1622027129|00:0c:e7:c5:db:0b|78
1621941555|00:0c:e7:c6:09:59|73
1621935718|00:0c:e7:c6:3f:8e|73
1621930838|00:0c:e7:c7:20:8a|92
1621934352|00:0c:e7:c7:40:eb|81
1621842083|00:0c:e7:c7:fd:73|73
1621923038|00:0c:e7:c8:68:e2|79
1621862251|00:0c:e7:c9:1a:05|79
1621855783|00:0c:e7:c9:62:da|88
1622031107|00:0c:e7:c9:b6:af|78
1622024882|00:0c:e7:ca:5b:0e|79
1621931413|00:0c:e7:cb:52:d9|80
1621842017|00:0c:e7:cc:0b:6f|77
1621864608|00:0c:e7:cc:9d:88|72
1621934665|00:0c:e7:cd:29:2d|78
1621937435|00:0c:e7:cd:60:c9|77
1622010018|00:0c:e7:cd:ca:50|87
1621856032|00:0c:e7:ce:d0:ad|72
1621864104|00:0c:e7:cf:31:27|79
1621842962|00:0c:e7:cf:5a:ab|90
1621863104|00:0c:e7:cf:e2:b0|81
1622031716|00:0c:e7:d0:c7:90|85
1621847722|00:0c:e7:d0:d8:a4|82
1621842224|00:0c:e7:d0:d9:25|78
1621837968|00:0c:e7:d1:4f:71|73
1621844815|00:0c:e7:d1:6b:79|74
1622012994|00:0c:e7:d2:30:87|84
1621848548|00:0c:e7:d2:3f:4b|82
1621935114|00:0c:e7:d2:9c:02|65
1622035717|00:0c:e7:d5:1e:4d|67
1621856878|00:0c:e7:d5:da:11|75
1621855722|00:0c:e7:d6:da:f5|74
1621842247|00:0c:e7:d7:6e:94|73
1621942195|00:0c:e7:d8:bf:e5|69
1622030751|00:0c:e7:d9:3b:f2|72
1621849420|00:0c:e7:d9:be:7a|70
1621946324|00:0c:e7:da:1f:5c|88
1622018909|00:0c:e7:da:99:cc|75
1621926910|00:0c:e7:da:a4:7b|71
1621930015|00:0c:e7:da:aa:ca|74
1622025537|00:0c:e7:da:ea:09|73
1622014073|00:0c:e7:db:47:d6|82
1622010207|00:0c:e7:db:b6:b2|72
1621859295|00:0c:e7:db:ba:78|76
1622028931|00:0c:e7:dc:78:de|73
1621943909|00:0c:e7:dc:fd:a3|73
1622023608|00:0c:e7:dd:90:10|76
1621936852|00:0c:e7:dd:c7:e1|80
1621943218|00:0c:e7:de:19:dd|83
1621948834|00:0c:e7:de:56:1f|75
1621846274|00:0c:e7:de:f6:ec|78
1621865148|00:0c:e7:df:1a:1b|81
1622028505|00:0c:e7:df:1c:5f|77
1621836548|00:0c:e7:df:2d:06|76
1621836818|00:0c:e7:df:f4:2f|75
1621837732|00:0c:e7:df:f7:dc|66
1621923202|00:0c:e7:df:f7:ea|75
1622034601|00:0c:e7:e2:af:81|74
1622025007|00:0c:e7:e2:b7:c5|78
1621931430|00:0c:e7:e3:8d:14|80
1621926775|00:0c:e7:e4:16:c5|76
1621837943|00:0c:e7:e4:27:0d|65
1622024012|00:0c:e7:e4:43:b9|86
1622025125|00:0c:e7:e4:73:0a|71
1621857605|00:0c:e7:e5:04:49|83
1622015690|00:0c:e7:e5:64:8a|84
1621854218|00:0c:e7:e5:ca:8e|80
1621949401|00:0c:e7:e6:4e:9b|75
1622018154|00:0c:e7:e7:e3:41|87
1621849261|00:0c:e7:e7:f5:54|80
1621931231|00:0c:e7:e7:ff:32|82
1622020266|00:0c:e7:e8:2b:39|84
1622013240|00:0c:e7:e8:3b:b8|79
1621851859|00:0c:e7:e8:b4:83|89
1621925823|00:0c:e7:e9:99:b6|79
1621928899|00:0c:e7:ea:83:23|68
1622019988|00:0c:e7:eb:b7:12|81
1621841803|00:0c:e7:ec:60:af|84
1621937907|00:0c:e7:ec:92:a4|61
1621945898|00:0c:e7:ed:17:5b|91
1621856521|00:0c:e7:ed:31:03|76
1621861075|00:0c:e7:ed:9c:b9|74
1621843299|00:0c:e7:ee:1c:1a|79
1621857210|00:0c:e7:ee:8e:de|77
1621924659|00:0c:e7:ef:c7:bb|76
1621842058|00:0c:e7:f0:17:e3|76
1621845945|00:0c:e7:f0:1a:6d|78
1622024089|00:0c:e7:f0:1e:54|81
1621942352|00:0c:e7:f0:3b:fe|70
1621859601|00:0c:e7:f1:02:64|78
1622025248|00:0c:e7:f1:06:8c|77
1621928206|00:0c:e7:f1:52:07|71
1621941578|00:0c:e7:f2:75:98|78
1621937636|00:0c:e7:f2:ce:aa|75
1621843791|00:0c:e7:f4:75:a0|80
1621850081|00:0c:e7:f4:85:46|75
1621856278|00:0c:e7:f4:8e:51|73
1621837826|00:0c:e7:f5:00:9a|75
1622023735|00:0c:e7:f5:26:d2|76
1621923014|00:0c:e7:f5:68:0d|79
1621864157|00:0c:e7:f6:22:9f|72
1621841886|00:0c:e7:f6:a0:05|71
1621845014|00:0c:e7:f6:d8:0d|89
1621943635|00:0c:e7:f7:30:57|74
1621850214|00:0c:e7:f7:e6:0f|78
1621949919|00:0c:e7:f8:56:fa|76
1621860600|00:0c:e7:f8:6a:50|82
1621838542|00:0c:e7:f8:ba:83|78
1621936054|00:0c:e7:f8:d0:b7|77
1622028378|00:0c:e7:f9:26:a5|77
1621926855|00:0c:e7:f9:6a:44|70
1621858582|00:0c:e7:fa:44:25|78
1622028820|00:0c:e7:fa:7e:ca|74
1622027137|00:0c:e7:fb:18:6d|83
1621841826|00:0c:e7:fc:5c:68|75
1622015660|00:0c:e7:fd:38:14|76
1621925425|00:0c:e7:fd:79:f5|74
1621927403|00:0c:e7:fe:13:42|78
1621859400|00:0c:e7:fe:76:57|72
1621857120|00:0c:e7:fe:7c:69|74
1621855584|00:0c:e7:ff:75:4c|78
1621930121|00:0c:e7:ff:87:7b|77
1622010995|00:0c:e7:ff:f5:b2|96
1621928928|00:11:4d:0f:2e:97|77
1622022840|00:23:15:d1:c3:3d|82
1621844499|00:23:15:d1:c3:3d|83
1621938103|00:23:a7:48:a2:c8|81
1621860474|00:23:a7:48:a2:c8|87
1621929160|00:26:69:01:9e:90|92
1622012985|00:28:f8:2b:3a:45|77
1621924262|00:28:f8:2b:3a:45|70
1622013003|00:28:f8:2b:3a:46|79
1621923933|00:28:f8:2b:3a:46|76
1622009537|00:28:f8:a0:5f:cd|68
1621929063|00:32:0c:6f:65:0a|80
1621843279|00:34:fe:fe:9e:f2|77
1621925339|00:3f:88:5e:fc:c5|76
1622023605|00:71:cc:62:e8:8b|93
1621940454|00:71:cc:62:e8:8b|94
1621923093|00:7c:2d:ed:47:c4|76
1621928511|00:9b:5d:fd:ac:92|83
1621924517|00:9d:6b:37:5f:0d|81
1622021258|00:a7:59:51:23:91|77
1622009503|00:ae:fa:56:cc:3c|87
1621862698|00:ae:fa:56:cc:3c|89
1621923243|00:b5:d0:43:ef:a1|89
1622015488|00:b5:d0:43:ef:a1|87
1621838850|00:b5:d0:43:ef:a1|79
1622020080|00:bb:60:b8:26:26|78
1621923181|00:e1:8c:ba:cb:c9|90
1622008978|00:e1:8c:ba:cb:c9|90
1621849694|00:e1:8c:ba:cb:ca|88
1621844683|00:e1:8c:f2:db:1d|88
1622025299|00:ec:0a:4a:48:36|71
1621839562|00:ec:0a:4a:48:36|72
1621840730|01:52:32:69:df:7b|78
1621926850|01:60:64:78:0c:11|74
1621852432|01:78:02:7b:58:0d|74
1621929182|01:95:4e:e0:c5:ad|77
1621947428|01:c3:1a:4a:ec:8d|81
1621851562|01:ca:1e:c3:51:8a|68
1621837630|03:d7:86:70:93:f4|74
1622026019|04:4a:6c:d3:02:e4|74
1621929347|04:50:6c:9d:0b:6c|87
1621937231|04:ba:8d:bd:77:f7|69
1621856805|04:c2:3e:97:7d:77|73
1622017057|04:c8:07:14:72:ac|67
1622019507|04:d3:b0:8f:79:fb|77
1622018899|04:d6:aa:0e:68:12|72
1621841975|04:d6:aa:0f:30:00|86
1622024356|04:d6:aa:1f:68:71|87
1622016113|04:d6:aa:22:9d:01|77
1621862801|04:d6:aa:3b:68:ab|83
1622011355|04:d6:aa:53:53:0f|95
1622012752|04:d6:aa:57:50:a9|85
1622009003|04:d6:aa:65:0d:c1|90
1622020121|04:d6:aa:68:2a:b1|86
1621840500|04:d6:aa:68:2a:b1|83
1621932314|04:d6:aa:6e:b9:2d|80
1621845583|04:d6:aa:9b:fd:43|86
1622025190|04:d6:aa:ac:07:a9|74
1621856497|04:d6:aa:b2:ac:f8|91
1621850092|04:d6:aa:c0:da:d8|69
1621865216|04:d6:aa:e2:02:b3|94
1621931779|04:d6:aa:fa:aa:64|95
1621840471|04:d6:aa:fa:aa:64|88
1621922835|04:e5:36:32:d3:38|76
1621845807|04:e5:36:32:d3:38|67
1622035663|04:e5:98:a8:f6:2f|79
1621926811|04:ea:c4:3e:e2:99|73
1622009156|04:ed:33:b4:55:7d|74
1621927841|05:33:af:49:5d:d4|78
1621840284|05:46:32:2a:03:de|76
1622022694|07:0a:2c:e9:14:6f|69
1621854121|07:4a:dd:15:af:1f|86
1621846494|07:c0:ee:0c:9a:14|78
1621948370|07:f2:1a:0b:9a:4e|78
1621927300|08:25:25:2c:de:13|86
1621838507|08:4a:ee:b8:d1:d6|72
1621952968|08:53:92:ff:dc:87|86
1621936862|08:7f:98:90:11:b9|77
1621949494|08:be:b4:67:d9:0e|83
1621846582|08:bf:a0:86:b3:c8|90
1622033928|08:c5:e1:06:49:af|93
1622031842|08:c5:e1:0b:3c:74|89
1621923156|08:c5:e1:0c:ff:06|85
1622030816|08:c5:e1:19:81:72|66
1621932401|08:c5:e1:19:81:72|70
1622010827|08:c5:e1:25:31:82|70
1621935576|08:c5:e1:25:31:82|73
1621843168|08:c5:e1:38:21:27|89
1621946603|08:c5:e1:45:b7:54|87
1621862113|08:c5:e1:71:bd:b1|91
1622028970|08:c5:e1:90:81:e1|84
1621949078|08:c5:e1:b2:ea:71|85
1621933021|08:c5:e1:b3:d4:86|73
1621933223|08:c5:e1:ee:9d:ac|85
1622014532|08:f6:9c:1e:79:d1|60
1621840311|09:14:69:59:f3:ab|82
1621925313|09:1f:52:af:11:c0|74
1621842195|09:6c:af:b7:8d:2c|79
1621850526|09:88:55:2f:1e:42|73
1621949560|09:ad:10:1f:be:61|64
1621850467|0b:3b:0b:9e:37:54|70
1621927962|0b:67:f0:7e:00:2f|72
1622015556|0c:30:7b:f1:52:08|84
1621850170|0c:32:3e:65:47:0c|71
1621931595|0c:54:82:d1:2d:b2|80
1621844833|0c:70:4a:db:bf:d9|62
1621853952|0c:75:01:72:09:56|72
1622014051|0c:7a:15:8e:46:44|78
1621924512|0c:8c:24:bf:0f:65|69
1622030043|0c:8c:24:bf:12:72|74
1621856639|0c:8f:ff:17:4a:75|75
1621843702|0c:96:e6:76:6e:eb|86
1621933883|0c:96:e6:76:6f:a7|91
1622024563|0c:96:e6:76:6f:a7|91
1621930260|0c:d6:0e:0f:f8:90|87
1622031985|0c:eb:59:83:95:5b|80
1621945534|0c:f3:46:ce:ad:6b|73
1622021023|0c:f3:46:f6:ca:79|81
1621930375|0c:f3:46:f6:ca:79|88
1621940102|0d:4a:b7:47:c4:db|68
1621850770|0d:55:b2:18:17:92|85
1621925390|0d:5a:d9:5b:03:ff|75
1621854178|0d:a9:56:50:ce:4d|75
1621855758|0d:ea:62:1e:4b:56|88
1621943791|0f:64:a9:ed:83:6a|89
1621927265|0f:d0:9a:49:b8:5f|71
1621851613|0f:ef:62:44:a3:d7|80
1622017285|10:02:b5:46:93:5d|71
1622009283|10:02:b5:50:2c:65|87
1622014349|10:02:b5:50:2c:66|83
1622021889|10:28:d5:a3:bc:0e|78
1621856686|10:3a:1c:57:2f:26|81
1622035156|10:3f:44:1a:3f:b3|86
1621953415|10:3f:44:25:21:0b|79
1621945435|10:41:7f:39:23:31|69
1621868336|10:41:7f:db:c7:9a|90
1621859127|10:44:00:39:7b:c9|63
1621837290|10:8e:e0:67:f5:f0|75
1621864284|10:bc:97:b6:c7:cd|85
1621948358|10:c4:9b:c8:ed:17|73
1621837174|10:da:a4:d6:71:b6|88
1622029185|10:e2:88:5a:88:ec|77
1621844019|10:e9:53:54:47:62|70
1621927273|10:f8:ed:96:dc:2f|67
1621863974|11:77:89:27:17:04|76
1622014677|11:e8:35:4d:c7:f9|80
1621840201|11:f0:8f:87:31:d6|72
1621850675|13:34:fe:a1:4c:8b|73
1621840385|13:91:d7:20:4a:14|70
1621939638|13:99:47:c2:bc:d0|87
1621949525|13:d6:fc:ae:66:3d|76
1621932634|14:1f:78:e1:97:31|82
1622018252|14:20:5e:e9:17:7a|80
1621864130|14:30:7c:cf:92:74|89
1621840375|14:32:d1:72:61:5f|86
1622012721|14:4f:8a:c2:9b:92|92
1621854679|14:4f:8a:c2:9b:92|89
1621941626|14:56:8e:76:31:29|77
1621846125|14:95:db:aa:bc:62|85
1621948160|14:9f:3c:bd:42:71|86
1622016540|14:9f:a8:e4:e1:b1|76
1621928713|14:a5:1a:df:ea:83|83
1621928165|14:ab:c5:3c:8d:fe|86
1622013201|14:ab:c5:5e:0d:e9|90
1621857117|14:ab:c5:e0:f6:55|81
1621852320|14:ea:df:64:83:49|68
1621949238|15:66:68:6c:da:c3|85
1621837712|15:b7:6c:b1:c1:7d|75
1621842433|15:df:38:97:56:46|71
1621924079|17:17:2b:43:dc:9d|65
1621940467|17:24:64:ef:36:97|86
1621928654|17:3f:9e:57:5c:96|69
1621940297|17:6f:0d:79:94:06|80
1621925201|17:e4:8d:18:da:fb|79
1621839462|17:f1:b3:e8:dd:15|71
1621839079|18:1b:bc:16:0c:0a|91
1622031956|18:26:3b:1c:f8:ba|79
1622018639|18:3e:ef:c0:6f:98|75
1622019558|18:3e:ef:c5:75:f3|81
1621858715|18:3e:ef:c5:75:f3|78
1621935484|18:47:3d:e4:91:f7|89
1622013103|18:47:3d:e4:91:f7|87
1621859178|18:47:3d:e4:91:f7|86
1621845163|18:54:cf:45:cc:6a|77
1622031572|18:56:80:35:8b:ad|92
1621855819|18:56:80:35:8b:ad|88
1621940547|18:56:80:35:8b:ad|92
1621863635|18:56:80:35:8c:98|75
1621850470|18:56:80:6e:ca:03|64
1621849686|18:5f:9b:cc:a3:95|68
1622011623|18:63:d1:86:70:7f|83
1621853420|18:64:b6:62:4d:08|76
1621859093|18:67:90:44:dc:c5|73
1622020053|18:76:42:90:ec:65|82
1622032234|18:84:e3:57:a9:b1|90
1622032348|18:a3:44:71:81:48|79
1621851740|18:cc:18:9b:9e:2a|74
1621922446|18:cc:18:9b:9e:2a|80
1621922504|18:cc:18:9b:9e:2b|83
1621851854|18:cc:18:9b:9e:2b|83
1621923516|18:df:b1:1a:c6:29|75
1622017701|18:f6:43:1c:6b:4b|80
1621838466|19:56:a0:96:f4:e3|78
1621949452|19:70:87:ab:09:8e|73
1621946070|19:7f:04:5a:4f:82|64
1621946115|1b:17:db:d6:a6:79|72
1621854563|1b:a1:88:37:23:1f|73
1621853155|1b:bf:0a:de:86:91|70
1621853149|1b:e5:3e:44:12:6f|74
1621926487|1b:fd:d5:e6:72:58|82
1622023006|1c:13:86:03:3c:be|77
1621836830|1c:13:86:03:3c:be|74
1622013552|1c:15:1f:59:1c:27|83
1622014649|1c:15:1f:c3:1e:4a|83
1622029427|1c:1a:c0:21:43:e9|90
1621944339|1c:1a:c0:21:43:e9|86
1621857364|1c:1a:c0:21:43:e9|86
1622020142|1c:1b:57:14:f1:c6|77
1622020466|1c:42:7d:90:43:fb|80
1621856286|1c:4d:70:23:62:6b|90
1621858233|1c:67:58:4a:ec:ad|84
1621859179|1c:73:d2:9a:a7:69|91
1622010631|1c:b7:96:f7:c1:2b|87
1622033007|1c:cc:d6:2a:fa:04|91
1622016869|1c:cc:d6:ea:11:47|80
1622022988|1c:cc:d6:fa:18:ff|74
1621929125|1d:04:1c:9e:3d:ad|73
1621838109|1d:59:78:56:5f:30|72
1621927212|1d:b1:6a:f8:65:02|78
1622027693|1f:c5:b2:dc:02:93|84
1621924003|1f:d3:d8:11:e1:40|67
1621842033|20:12:d2:85:85:e3|80
1622031737|20:31:1c:e9:ef:87|80
1621928291|20:79:18:30:2d:75|89
1622018538|20:79:18:30:2d:75|83
1621852757|20:79:18:30:2d:75|85
1621852668|20:79:18:30:2d:76|82
1621849966|20:79:18:7f:09:90|87
1621836904|20:79:18:93:a3:2d|68
1621926713|20:79:18:fb:4f:9b|73
1622020053|20:98:43:3f:a5:6b|84
1621866241|20:a6:0c:30:2f:19|72
1622019597|20:c4:59:2c:27:5b|71
1621852446|20:ef:94:9f:0c:52|70
1621839401|21:0b:c3:25:5e:7e|68
1621945472|21:32:a4:87:62:23|85
1621838768|21:51:21:4b:4b:a0|78
1621854552|21:d3:02:39:7e:53|75
1621930691|23:34:1c:e4:66:8a|80
1621851499|23:ae:04:5d:52:23|77
1621836895|23:b7:0e:40:8b:21|79
1621843081|23:cd:ba:d2:48:3d|91
1621863046|24:17:26:5b:73:30|67
1622024328|24:18:1d:09:da:56|79
1622019022|24:18:1d:0a:05:13|80
1621930851|24:18:1d:1d:c0:95|79
1622016811|24:18:1d:83:a5:e4|84
1621928140|24:18:1d:8c:86:db|83
1621846278|24:18:1d:8c:86:db|87
1622032985|24:18:1d:8d:bb:f2|87
1621941905|24:18:1d:92:2c:71|77
1621857686|24:18:1d:9b:6d:4c|87
1622016746|24:18:1d:aa:40:de|89
1621853881|24:18:1d:aa:40:de|94
1621935765|24:18:1d:aa:40:de|86
1622012217|24:18:1d:fc:01:80|70
1621842251|24:2a:24:4d:a5:b4|81
1621854495|24:4a:e5:aa:1f:83|73
1621926829|24:77:03:25:42:f4|86
1621850357|24:7d:9e:23:54:6d|68
1621837408|24:85:6e:f3:5e:a4|78
1621838377|24:ad:39:cb:03:0e|80
1621948799|24:b3:e7:88:0d:76|76
1621837130|24:c1:5a:f8:4a:46|76
1621952329|24:db:ed:f6:7d:f2|89
1622022729|24:e3:14:49:87:16|82
1621839653|24:e3:14:49:87:16|62
1621854256|24:ee:27:cd:97:53|72
1622037019|24:ee:9a:06:ae:05|91
1622027418|24:ee:9a:3a:90:ad|86
1621838191|24:ee:9a:53:b0:1a|85
1622015617|24:ee:9a:7a:a1:66|77
1621927138|24:fb:65:b2:8f:31|95
1621838745|25:0b:cd:77:a2:43|82
1621841435|25:20:7e:b0:63:10|72
1621854048|25:68:23:1c:20:91|86
1621940671|25:69:9a:f9:c6:95|86
1621925262|25:7e:f1:6a:c5:da|64
1621927938|25:cb:6d:cc:d4:66|68
1621928602|25:d9:7e:16:af:84|72
1621948861|25:dc:90:78:9c:f7|73
1621850841|25:eb:18:c4:81:cb|74
1621851546|25:eb:25:b8:09:ec|72
1621927959|27:2d:78:bf:aa:27|70
1621925703|27:4e:c5:9f:48:78|66
1621947537|27:75:f5:21:85:10|87
1622016094|28:02:d8:2e:8c:52|64
1621936651|28:16:a8:71:f7:46|91
1621925498|28:26:12:78:ad:5d|78
1621949546|28:2b:cf:ce:83:87|66
1621842349|28:39:5e:d7:66:99|83
1621924082|28:55:2d:20:1e:4f|70
1621922483|28:6a:ba:d3:9b:29|83
1621838716|28:7f:cf:de:a4:d1|75
1622020315|28:7f:cf:de:a4:d2|79
1621927955|28:a5:7b:dd:27:96|74
1621944088|28:c6:3f:04:e3:0e|81
1622034823|28:c6:3f:c7:d3:46|91
1622029137|28:f9:fe:b8:3d:86|72
1621942952|28:fb:d3:fa:8e:7f|88
1621854345|28:fb:d3:fa:8e:7f|87
1622009089|28:fb:d3:fa:8e:a1|94
1621949869|28:fb:d3:fa:8e:a1|88
1621861006|28:fb:d3:fa:8e:a1|86
1622025449|28:fb:d3:fa:8e:aa|85
1621837447|28:fb:d3:fa:8e:c1|89
1621836899|28:fb:d3:fa:8e:c9|78
1621853245|28:fb:d3:fa:8e:fd|90
1621930231|29:01:05:6b:3c:8f|72
1621928610|29:13:e2:35:3b:97|64
1621841433|29:86:6a:97:30:11|72
1621923197|2c:4c:c6:b7:b9:e7|83
1621846719|2c:8d:b0:c3:0b:3d|77
1621949516|2c:a9:f0:4d:bb:4b|86
1621933111|2c:b9:8d:b6:69:8f|83
1621837138|2c:f7:fd:3d:b7:03|74
1622019226|2c:fd:ab:a8:3d:21|91
1621849087|2c:fd:ab:a8:3d:21|92
1621951062|2c:fd:ab:a8:3d:21|91
1621948362|2d:35:bb:e2:d3:3f|73
1622029948|2d:fd:e8:d8:9b:34|81
1621853857|2f:67:dd:3d:98:b5|88
1621843134|2f:82:98:32:83:2d|76
1621923322|2f:c4:e1:38:28:67|88
1621851252|30:04:98:ad:41:eb|81
1622015024|30:07:4d:0d:9e:da|80
1622012766|30:07:4d:44:ce:2b|91
1621948050|30:07:4d:4d:3e:bd|93
1622013930|30:07:4d:54:65:25|86
1621837626|30:07:4d:54:65:25|88
1622011381|30:07:4d:58:14:be|71
1621930490|30:07:4d:6a:3f:82|92
1621941541|30:07:4d:80:01:1b|86
1621925694|30:07:4d:8f:de:25|73
1622014521|30:07:4d:9e:b8:95|88
1621950321|30:07:4d:ab:fc:07|87
1622031434|30:07:4d:ab:fc:07|87
1621837774|30:07:4d:ab:fc:07|78
1621842355|30:07:4d:bd:c3:37|80
1621851549|30:0c:f5:33:19:f8|73
1621947383|30:1a:31:f8:35:2d|85
1621853457|30:25:ce:30:5a:57|74
1621840942|30:45:96:13:af:68|82
1622026672|30:45:96:91:00:4d|89
1622032722|30:5e:16:84:70:5d|84
1621953001|30:6f:d7:8a:02:81|85
1621862002|30:89:d3:15:65:4a|68
1621925566|30:95:e3:3d:c3:80|71
1621857478|30:95:e3:3d:c3:80|78
1621839932|30:a0:f8:9f:b0:80|87
1621946391|30:a1:fa:08:3e:e2|79
1621856620|30:a1:fa:08:3e:e2|91
1622027348|30:a1:fa:82:f9:38|90
1621934464|30:a9:de:da:03:a2|79
1621929163|30:a9:de:da:6b:84|84
1621843316|30:a9:de:da:6b:84|88
1622013254|30:a9:de:da:6f:6e|90
1621861525|30:a9:de:da:6f:6e|81
1622019733|30:a9:de:da:6f:70|90
1621950159|30:a9:de:da:bb:de|75
1622020133|30:db:fd:84:c1:93|77
1622029148|30:dc:c4:2f:d0:c3|72
1621928449|30:f3:1c:d9:f1:b6|77
1621928801|33:48:4a:ea:b9:e5|65
1621856499|33:86:11:e6:4b:4f|83
1621931270|33:d4:de:9b:a9:d3|80
1621845917|34:12:98:46:f8:60|81
1621933925|34:12:f9:4e:a2:8a|81
1622018361|34:12:f9:4e:a2:8a|73
1621848161|34:12:f9:4e:a2:8a|75
1622028248|34:12:f9:70:a4:23|81
1621857051|34:12:f9:70:a4:23|78
1622018139|34:12:f9:fd:68:af|74
1621950883|34:12:f9:fd:68:af|91
1621948059|34:2e:b7:d8:05:ef|91
1621929279|34:35:29:1c:ce:83|69
1622020416|34:36:3b:85:1e:32|86
1621925369|34:36:3b:86:fc:56|72
1622010052|34:41:5d:a6:33:67|77
1621838363|34:41:5d:a6:33:67|73
1621923848|34:41:5d:bf:bd:e6|90
1622014424|34:41:5d:bf:bd:e6|89
1621844241|34:41:5d:bf:bd:e6|84
1621845855|34:54:01:a5:8d:de|87
1621844221|34:5f:db:2b:92:ed|68
1622013198|34:8b:75:30:61:44|78
1621841075|34:8b:75:30:61:44|85
1621943145|34:8b:75:59:f7:90|87
1622030519|34:8b:75:6d:4d:92|86
1622023234|34:8b:75:ec:bd:d7|76
1621944261|34:8b:75:ec:bd:d7|88
1621839258|34:9b:fe:31:fb:c7|77
1621847257|34:a2:4d:8e:70:4e|89
1621838061|34:a3:95:b2:3b:55|90
1621931443|34:b0:c1:fd:cd:66|89
1621924074|34:b2:0a:f1:08:04|85
1621851343|34:b2:0a:f1:08:04|72
1621925983|34:bb:1f:ce:36:a8|83
1621922401|34:e1:2d:6a:a5:09|68
1622009029|34:e1:2d:6a:a5:09|70
1621863101|34:e1:2d:6a:a5:09|71
1622024349|34:e6:ad:75:38:6b|93
1622011985|34:f3:9a:02:63:bd|65
1621858810|34:f3:9a:02:63:bd|62
1622029922|34:f3:9a:2a:8d:de|71
1621927354|34:f3:9a:6e:9e:f2|79
1622011139|34:f3:9a:6e:9e:f2|76
1621851153|34:f3:9a:6e:9e:f2|84
1621842640|35:0c:59:9c:c7:2f|80
1621853409|35:27:87:17:df:8a|80
1621942431|35:2b:e5:c7:22:88|90
1622023731|35:3b:11:2b:c6:bf|80
1621945812|35:40:df:d2:c7:fa|80
1621848195|35:4d:c2:ca:65:32|78
1621926209|35:6a:84:e4:0e:5e|68
1621841884|35:ac:4c:f2:5e:ae|78
1622027275|35:bf:7a:67:8c:62|88
1621852526|35:ce:61:23:2d:26|90
1621927624|35:d9:3a:d2:ed:b6|70
1622013173|35:ec:cd:5c:f9:92|91
1621924117|35:ff:7c:f5:80:65|72
1621854231|37:0d:c1:98:4d:e6|71
1621929122|37:12:be:64:94:86|74
1621842246|37:45:77:cc:0e:39|84
1621854937|37:65:bc:89:52:df|68
1621929758|37:66:ee:cc:f0:a8|87
1621937063|37:c1:98:4e:72:3a|87
1621854516|37:ef:cc:75:51:15|65
1621837643|38:2d:e8:20:69:7d|78
1621934776|38:53:9c:8e:25:c3|73
1622020113|38:68:a4:ec:83:15|76
1621945896|38:73:ee:24:b4:5d|86
1621845631|38:78:62:6b:0a:e2|75
1621947419|38:87:e1:fd:0c:cf|92
1622021033|38:9d:eb:ca:d3:a4|84
1621926108|38:cb:64:33:1b:c2|65
1621849269|38:ee:c5:f1:58:81|71
1622013641|38:f9:d3:2b:3c:dd|93
1621864119|38:fb:14:b5:65:67|90
1621839330|39:b4:bf:c9:a6:48|80
1621853070|3b:0a:54:4e:bd:82|74
1621946729|3b:69:90:f4:65:44|87
1621949550|3b:c0:8b:4c:3e:1b|76
1621851204|3b:c7:b2:52:32:d9|71
1621836459|3b:fc:09:31:c4:42|82
1621940033|3c:05:18:a9:cf:83|66
1622034830|3c:20:f6:90:32:15|83
1622036600|3c:20:f6:d6:8f:cd|89
1621940477|3c:20:f6:db:c2:50|81
1622035678|3c:20:f6:f7:f6:35|91
1621859336|3c:22:fb:bb:e4:15|84
1622017149|3c:2e:ff:b2:76:a9|74
1621846346|3c:3b:9c:c0:fd:5e|85
1621940719|3c:45:8a:9f:34:ae|78
1621866952|3c:57:6c:0e:80:a6|91
1622033656|3c:57:6c:3a:82:58|86
1621838560|3c:57:6c:c7:6e:20|75
1622010027|3c:57:6c:c7:9d:04|74
1621854230|3c:57:6c:d8:b6:d5|86
1622010020|3c:58:c2:bf:97:d5|73
1621858677|3c:58:c2:bf:97:d5|90
1622026288|3c:58:c2:d4:c6:91|81
1622026326|3c:58:c2:d4:c6:92|82
1621948821|3c:64:05:8c:12:4e|91
1622008820|3c:91:80:02:54:2d|68
1621836533|3c:9c:0f:65:12:38|87
1621945948|3c:c0:b8:2d:44:ee|77
1621841219|3c:d2:fc:3f:fc:54|89
1621857802|3c:f7:a4:25:44:2f|83
1622036149|3c:f7:a4:a9:04:ab|92
1622034220|3c:fa:43:b8:27:dd|93
1621947471|3f:dd:df:a8:07:cb|82
1621851020|40:17:f3:70:c6:19|71
1622035833|40:3f:8c:43:77:ac|86
1621836751|40:3f:8c:43:77:ac|88
1621837382|40:79:21:67:43:c6|76
1621954707|40:9c:28:55:1d:0a|91
1621935677|40:a1:08:a0:c9:a3|81
1622014982|40:a1:08:c5:1b:4c|87
1621928860|40:bf:28:f3:88:e0|81
1621951569|40:d3:ae:e7:c5:66|80
1622034842|40:d3:ae:fc:3d:e0|84
1621865251|40:d3:ae:fc:3d:e0|88
1622023723|40:d5:c7:e8:a2:2f|77
1621924085|40:dd:41:82:2b:f5|65
1621946984|40:f3:08:72:89:2d|80
1622031733|40:f3:08:72:89:2d|85
1621836256|40:f5:20:44:c4:48|90
1621924855|40:f5:20:44:c4:48|88
1621924855|40:f5:20:44:c5:24|89
1621840003|40:f5:20:44:c6:2c|78
1621923471|40:f5:20:44:c6:44|87
1622030038|40:f5:20:44:c6:44|86
1621836284|40:f5:20:44:c6:44|87
1621836996|40:f5:20:44:c7:98|94
1621840004|40:f5:20:44:c8:08|69
1621924622|40:f5:20:44:c8:9c|78
1622011540|40:f5:20:44:c8:9c|81
1621836244|40:f5:20:44:c8:9c|79
1622016409|40:f5:20:44:c8:e4|84
1621836308|40:f5:20:44:c8:e4|78
1621836320|40:f5:20:44:c9:0c|68
1621924984|40:f5:20:44:c9:90|90
1621836397|40:f5:20:44:c9:90|94
1622014698|40:f5:20:44:c9:e4|76
1621836460|40:f5:20:44:c9:e4|77
1621924562|40:f5:20:44:ca:1c|91
1621924581|40:f5:20:44:ca:70|85
1621840085|40:f5:20:44:ca:7c|66
1621928938|40:f5:20:44:cb:80|70
1621839729|40:f5:20:44:cb:80|70
1622009167|40:f5:20:44:cb:a4|87
1621840038|40:f5:20:44:cb:ac|81
1622014575|40:f5:20:46:c2:f8|83
1621836310|40:f5:20:46:c2:f8|81
1622016273|40:f5:20:46:c4:08|88
1621836443|40:f5:20:46:c4:08|92
1621923285|40:f5:20:46:c4:08|91
1621836227|40:f5:20:46:c4:c0|81
1621924703|40:f5:20:46:c4:d0|88
1621836286|40:f5:20:46:c4:d0|87
1621930194|40:f5:20:46:c5:c0|77
1622012883|40:f5:20:46:c5:c0|80
1621839748|40:f5:20:46:c5:c0|79
1622014707|40:f5:20:46:c8:38|74
1621836340|40:f5:20:46:c8:38|76
1621836458|40:f5:20:48:8c:e0|87
1621925071|40:f5:20:48:8c:e8|76
1621836448|40:f5:20:48:8c:e8|82
1621838138|40:f5:20:48:8d:34|93
1621840024|40:f5:20:48:8e:54|70
1621836288|40:f5:20:48:8f:00|79
1621852280|41:56:2d:34:91:aa|76
1621949799|41:74:15:13:cb:28|83
1621924059|41:b3:24:fb:10:34|67
1622013848|41:b4:75:f9:4c:c8|86
1621927475|41:d0:29:c2:65:95|68
1621850369|43:62:5e:76:d0:e3|74
1621929149|43:71:0f:20:d0:3a|78
1621839652|43:a3:77:b3:11:36|84
1621928087|43:f9:40:23:18:03|68
1621950285|43:fe:1b:2b:fc:ee|85
1621843592|44:4a:db:60:cc:2b|88
1621950282|44:59:e3:7e:36:5c|71
1621929220|44:75:42:45:33:4c|77
1621837083|44:85:00:18:d4:ae|79
1622032056|44:c2:87:4d:dc:ea|89
1622019323|44:cb:8b:48:ad:08|93
1621851613|45:3b:6c:6f:a5:00|72
1621856950|45:5d:8e:19:13:4a|87
1621926900|45:b1:56:09:3d:b0|74
1621926540|45:be:b2:5d:5d:0d|88
1621849706|47:0e:53:f1:10:7d|74
1621838179|47:eb:a0:a1:7f:b5|71
1621952850|48:02:1a:86:37:28|87
1621952864|48:15:c4:a8:23:1d|81
1622020194|48:1c:dd:4e:e0:2e|76
1621952927|48:1f:4e:11:17:36|80
1621849967|48:28:5e:68:16:f8|69
1621940121|48:5a:3f:8c:45:8b|85
1621923664|48:60:5f:2d:d1:3d|80
1622035982|48:79:4d:9d:c3:35|91
1621934325|48:79:4d:9d:c3:35|63
1622025108|48:89:e7:62:ab:79|87
1621925468|48:89:e7:62:ab:79|89
1621846893|48:89:e7:62:ab:79|90
1622034179|48:9d:24:7b:8d:28|87
1621931114|48:9d:24:7b:8d:28|93
1621862276|48:9d:24:7b:8d:28|90
1621923155|48:9d:24:84:5e:fd|83
1622014086|48:9d:24:84:5e:fd|88
1621843484|48:9d:24:84:5e:fd|77
1621929408|48:9d:d1:28:e9:c9|92
1621842828|48:9d:d1:28:e9:c9|86
1621836101|48:a4:72:4d:bd:e0|76
1621923380|48:a4:72:9d:22:81|93
1622018029|48:a4:72:9d:22:81|88
1622011903|48:a4:72:b2:c6:04|77
1621923386|48:a4:72:b2:c6:04|71
1621842065|48:fc:b6:57:b4:b8|87
1622030081|48:fc:b6:ef:1b:8b|92
1621867579|48:fc:b6:ef:1b:8b|81
1621859216|48:fd:a3:ef:d1:a1|86
1621852772|48:fd:a3:f0:59:19|87
1621925878|49:c4:d2:fb:b3:1f|66
1621940859|49:ce:a6:6e:cc:ae|88
1621852198|49:f7:a0:27:1a:ed|69
1621849928|4b:07:a9:0c:a0:2f|70
1621847996|4b:1e:a0:86:d1:d1|79
1621838232|4c:18:9a:42:e8:07|83
1622016004|4c:1d:96:13:48:86|60
1621924679|4c:1d:96:13:48:86|72
1622028210|4c:1d:96:ab:7a:98|85
1621923139|4c:1d:96:e6:e2:4f|80
1621841562|4c:1d:96:e6:e2:4f|79
1622027964|4c:2d:99:8b:9f:7e|88
1622018961|4c:34:88:68:ce:64|72
1621926199|4c:34:88:69:ba:b3|75
1621926669|4c:66:41:3a:5b:d1|88
1622020808|4c:66:41:52:30:3f|61
1621838133|4c:6d:d1:f5:a5:b4|73
1621942119|4c:74:bf:77:fc:32|78
1621845432|4c:74:bf:77:fc:32|74
1622021531|4c:7c:5f:16:e3:97|91
1622019903|4c:c9:98:4a:3a:fb|75
1621946994|4c:dd:31:5f:ff:00|72
1621933743|4c:dd:31:f3:32:57|66
1622018331|4c:dd:31:f3:32:57|80
1621850387|4c:dd:31:f3:32:57|91
1622034149|4c:fd:c3:53:00:9b|75
1621854034|4d:70:36:be:af:2a|70
1621852610|4d:a1:2d:5e:69:4a|67
1621863970|4d:b4:6b:7d:57:43|87
1621840944|4d:e0:d2:ff:58:bb|80
1621927140|4f:20:b4:8f:81:9f|78
1621840364|4f:7a:85:6c:90:98|74
1621944488|4f:d4:df:d2:ec:c7|85
1622015124|50:2f:9b:79:b6:5c|89
1621866923|50:3c:ea:67:7d:d5|86
1622036674|50:3d:c6:c1:6f:9a|76
1621863950|50:3d:c6:c1:6f:9a|81
1621853228|50:49:ce:32:1b:b9|60
1621838635|50:69:c3:c0:f2:c5|82
1621951995|50:7a:55:6a:4c:08|84
1622035161|50:7a:55:6a:4c:08|79
1621868323|50:7a:55:6a:4c:08|89
1621836503|50:82:d5:78:f0:22|79
1621851360|50:8e:dd:a8:37:a3|76
1621948576|50:e5:bf:de:56:1f|80
1621838461|50:e6:14:9a:5d:db|68
1622022634|50:eb:71:1f:71:01|56
1621922415|50:eb:71:1f:71:01|64
1622025242|50:eb:71:9b:04:dd|79
1621942269|50:eb:71:9b:04:dd|76
1621861159|50:ed:3c:2c:57:cc|75
1622016431|50:ed:3c:48:74:1d|87
1621855034|50:ed:3c:48:74:1d|84
1621953230|50:f0:d3:17:27:1a|60
1621851026|50:f1:16:e9:3c:1c|79
1621949156|51:92:61:47:5c:1b|75
1621946063|51:ac:28:2d:07:50|69
1621949573|51:c4:c5:a6:85:74|70
1621940371|53:27:79:fb:40:a9|80
1621836863|53:b8:0a:4e:24:62|68
1621851596|53:d3:98:72:1b:eb|82
1621928527|54:09:10:b6:a8:39|87
1622021850|54:27:58:d1:f5:95|82
1621953011|54:39:0a:d9:1c:1f|77
1622032130|54:5a:86:12:5c:da|88
1622012616|54:8d:5a:0d:02:fa|77
1621942640|54:8d:5a:c5:96:d5|81
1621937126|54:8d:5a:c5:96:d6|80
1621856416|54:8d:5a:cb:de:2d|68
1622014887|54:8d:5a:cb:de:2d|72
1622014881|54:8d:5a:cb:de:2e|66
1621856419|54:8d:5a:cb:de:2e|68
1621841283|54:92:e1:03:9e:bb|66
1622035999|54:ae:27:2a:72:0c|88
1622013339|54:b8:02:02:df:ea|67
1621850728|54:e2:fa:01:b2:e3|74
1621949245|54:fa:a0:70:4c:31|85
1621840399|55:1a:ca:6e:6f:7e|73
1621945872|55:58:a9:99:5b:f4|85
1621838155|55:8e:94:ad:fb:f7|56
1621929020|57:2b:18:d9:08:a9|75
1621851062|57:3a:ad:33:56:ea|71
1622030137|57:40:b5:62:9c:4e|65
1621845075|57:58:91:b0:72:e8|84
1621836853|57:83:f4:16:7d:73|65
1621838202|58:00:e3:ef:c0:a1|67
1621842113|58:1d:bf:09:da:a4|83
1622026396|58:40:4e:49:df:87|87
1621859739|58:85:e9:ae:82:a3|80
1621944522|58:85:e9:ce:48:97|83
1621862347|58:a0:23:ed:af:94|66
1621932139|58:a0:23:ed:af:fd|71
1621860517|58:a0:23:ed:af:fd|73
1622020271|58:cf:af:d3:c9:6f|77
1621945333|58:fb:84:02:5b:84|77
1621840890|59:26:07:b8:56:d4|63
1621926173|59:88:22:bc:7b:5f|73
1621949737|59:bb:8e:88:eb:55|74
1621854075|59:dd:a3:5a:a8:1f|79
1621850140|59:fd:f9:05:cd:f3|74
1621855963|5b:a6:61:61:55:f0|80
1622023213|5b:b8:33:85:31:ee|76
1621844529|5c:2e:59:cd:eb:27|78
1621850693|5c:47:8d:17:60:a6|76
1621849052|5c:5f:67:89:19:67|85
1621943390|5c:5f:67:d0:66:fa|74
1622036618|5c:66:6c:b6:c5:67|86
1621839853|5c:ba:ef:f6:8b:49|82
1621922595|5c:c5:d4:e0:7a:95|86
1622013453|5c:ea:1d:90:12:d5|90
1621953034|5c:f2:a3:78:83:20|79
1621924109|5d:19:f3:54:c6:14|73
1621850001|5d:5f:ed:18:6a:18|75
1622013264|5d:77:96:21:a3:af|82
1621927661|5d:a3:8a:26:19:7d|77
1621856930|5d:be:76:1b:8d:53|87
1621860209|5f:12:f1:90:23:de|72
1621853475|5f:1b:78:80:bf:c4|68
1621946186|5f:34:6b:3b:46:b3|79
1622030772|5f:55:cd:fa:59:82|76
1621840465|5f:6e:b5:67:fd:a4|78
1622026688|5f:8b:0b:0e:6f:41|89
1622011407|60:03:08:8a:14:8c|89
1621840352|60:03:08:8a:14:8c|92
1621934677|60:21:01:8e:5e:c1|81
1622024347|60:23:a4:df:d8:d0|68
1621836985|60:23:a4:df:d8:d0|72
1621934703|60:23:a4:df:d8:f4|77
1621952981|60:37:37:98:77:aa|81
1621928481|60:3c:3d:50:01:7a|74
1621843990|60:67:20:31:6a:94|72
1621837619|60:b1:38:91:66:99|79
1622032328|60:cf:55:a0:60:65|95
1622015320|60:f1:89:47:1a:46|77
1621951191|60:f1:89:47:1a:46|80
1621922447|60:f2:62:1c:af:a2|82
1622027031|60:f2:62:1c:af:a2|73
1622028229|60:f2:62:1c:af:a3|81
1621849297|60:f2:62:1c:af:a3|86
1622026037|60:f2:62:dc:93:e9|84
1622029703|60:f2:62:dc:9d:30|85
1621930512|60:f6:77:ce:29:a8|88
1622010946|60:f6:77:ce:29:a8|86
1621842574|60:f6:77:ce:29:a8|86
1622032024|60:fb:22:a1:6c:e8|84
1621927712|61:54:03:36:85:15|71
1621855766|61:5b:34:57:33:df|90
1621928174|61:88:32:02:1c:40|83
1621948435|61:c2:6c:ca:80:9e|73
1622016721|61:da:5a:89:56:8a|72
1621943988|61:e2:67:99:1e:bf|88
1621841340|61:f7:8d:6d:19:f3|77
1622027355|64:03:7f:d2:b9:4b|80
1622013236|64:5d:86:ac:f5:da|84
1621935756|64:5d:86:ac:f5:da|88
1622025408|64:6e:54:e9:5c:42|87
1622033646|64:88:7f:30:3a:c7|86
1621948566|64:9a:4e:30:16:e5|89
1621840527|64:b0:9f:ed:aa:99|77
1621841031|64:c7:53:de:88:90|92
1621925202|65:88:6e:8d:05:8c|75
1621932473|65:a4:62:f0:19:57|88
1621925274|65:dd:10:e7:c5:10|70
1621928661|67:0f:23:6e:75:47|69
1621852203|67:3c:59:a6:12:26|83
1621942970|67:b0:d9:98:d7:29|80
1621853278|67:cf:d6:fc:ba:14|71
1621853742|67:d3:f3:f5:97:02|78
1621853525|68:17:29:0d:95:e4|92
1621933362|68:27:37:8d:c9:21|93
1621851165|68:2c:84:b9:25:74|72
1621852845|68:47:c4:e4:d6:b6|73
1622011465|68:54:5a:6e:b0:db|74
1622017596|68:54:5a:6e:b0:dc|83
1621838015|68:54:5a:6e:b0:dc|84
1622010733|68:5a:cf:c3:cc:d5|69
1622020191|68:73:b1:5e:40:d8|73
1621838599|68:9f:a0:a7:72:2f|67
1622023658|68:db:f5:d4:61:f3|74
1621846048|68:e7:c2:cd:f9:1d|72
1621934993|68:ec:c5:55:ea:47|85
1621928951|68:fc:5a:b7:88:e1|95
1622029180|69:10:36:4f:2e:ad|69
1621851210|69:31:ea:16:36:fe|69
1621927983|69:df:98:74:75:f8|73
1621837164|6b:4e:66:bd:7d:32|82
1621930811|6b:51:1f:4a:a4:a8|67
1621926781|6b:90:b0:49:de:4f|74
1621850851|6b:b5:85:1a:45:7f|76
1621928521|6b:c5:82:03:90:3a|71
1621924125|6b:dd:d1:0f:59:7a|71
1621840744|6b:e7:43:38:c3:a6|78
1622022281|6c:4d:73:a6:bc:3e|86
1621837085|6c:81:f9:0c:97:24|90
1621838765|6c:a9:20:ec:3e:18|74
1621840019|6c:b7:49:cf:bb:bf|73
1621837182|6c:c7:ec:13:a2:7c|86
1622019091|6c:c7:ec:2a:5f:70|76
1621944529|6c:c7:ec:2f:66:92|92
1622023645|6c:c7:ec:47:f7:6f|93
1621930460|6c:c7:ec:6a:7c:e3|86
1621839823|6c:c7:ec:6a:7c:e3|80
1622012333|6c:c7:ec:7b:fb:b1|91
1621837660|6c:c7:ec:7b:fb:b1|87
1621923138|6c:c7:ec:95:56:a5|88
1622010577|6c:c7:ec:9c:24:73|80
1621950231|6c:c7:ec:9e:9c:b1|87
1621862513|6c:c7:ec:b7:6b:82|86
1622020225|6c:c7:ec:d0:dd:39|90
1622031177|6c:c7:ec:d6:79:a0|88
1621926629|6c:d0:94:b7:64:46|72
1621837958|6d:44:78:7f:ae:d1|67
1621851057|6d:4b:b4:8a:6c:5f|73
1621851571|6d:c9:a1:de:af:41|67
1621938665|6d:d9:61:6f:1b:b9|71
1621844605|6f:15:c4:04:2b:b8|80
1621924150|6f:17:e1:87:02:c1|71
1621842690|6f:21:5f:78:22:7d|76
1621842293|6f:5d:bf:86:0d:81|78
1621940594|6f:62:eb:eb:76:d6|87
1621841519|6f:c8:ae:8c:7d:bb|83
1622008955|70:03:9f:01:40:fe|94
1621925909|70:3a:51:31:43:10|82
1621927745|70:5a:ac:20:df:c7|77
1621948977|70:5a:ac:ef:24:ad|82
1621863202|70:5a:ac:ef:24:ad|86
1621927527|70:5a:ac:f0:f6:28|60
1621841249|70:5a:ac:f0:f6:28|75
1622016441|70:9c:d1:12:b5:e2|79
1621943811|70:9f:a9:eb:a6:d8|89
1622012768|70:bb:e9:cd:22:99|92
1622030240|70:bc:10:73:00:91|90
1621935128|70:bc:10:73:00:91|80
1621862379|70:c9:4e:12:0a:3c|89
1622026447|70:c9:4e:12:0a:3c|91
1621864626|70:c9:4e:6e:e5:71|92
1621850265|71:27:98:77:f9:26|65
1622011564|71:92:20:87:f6:4b|75
1621841216|71:a1:49:2d:af:16|85
1621865721|71:b1:cb:27:1d:0a|66
1621927683|73:3b:06:80:39:96|76
1621849212|73:3f:83:09:b6:43|68
1621928822|73:ab:3a:fa:93:47|72
1621933244|73:bd:e5:c9:ac:ba|89
1621839654|73:ea:2a:a7:64:f7|80
1622031880|74:13:94:c2:23:b9|80
1621924260|74:53:ec:52:5c:90|70
1621860687|74:70:fd:a6:ca:ed|75
1622020824|74:70:fd:a6:d8:3a|90
1621928069|74:ac:b3:4d:e8:c5|76
1621930243|74:b1:52:c1:11:b3|71
1621934310|74:b5:87:9a:a6:69|81
1621928011|74:c1:4f:f3:09:55|84
1622034169|74:c1:7d:8a:27:bb|90
1621922756|74:d8:3e:9e:5b:d8|78
1622010108|74:d8:3e:9e:5b:d8|79
1621836314|74:d8:3e:9e:5b:d8|93
1622019692|74:d8:3e:fe:c1:21|87
1622015431|74:d8:3e:ff:41:a5|87
1621936021|74:d8:3e:ff:41:a5|93
1621936649|74:df:bf:48:3b:01|92
1622012668|74:df:bf:48:3b:01|87
1622035624|74:eb:80:6d:14:b6|91
1621837460|74:eb:80:f8:50:48|91
1621937575|74:f2:eb:85:4a:11|68
1621928669|75:3d:61:b6:1f:e0|71
1621854526|75:b2:2d:8c:9a:85|74
1621927248|77:e4:00:e6:8c:e3|68
1621949868|78:3d:55:2c:ff:94|77
1621923676|78:4b:87:da:53:bb|74
1622010077|78:4b:87:da:53:bb|92
1621849953|78:4f:43:38:11:e5|71
1622017439|78:4f:43:85:e8:b3|80
1621836292|78:50:2b:40:b0:56|72
1622022826|78:64:c0:d7:8f:dd|93
1622035678|78:7e:61:93:2f:29|89
1621864026|78:7e:61:93:2f:29|90
1621928065|78:94:04:0f:d5:31|72
1621851006|78:9b:15:ea:44:44|72
1621850955|78:ad:0f:b5:69:53|87
1622014143|78:c3:e9:59:e2:18|74
1621836002|78:c3:e9:59:e2:18|74
1621943580|78:c3:e9:7d:72:d4|96
1621926734|78:fb:a5:87:d5:cb|69
1621944639|79:70:0d:29:48:e5|85
1621923372|79:b2:a7:9d:ea:df|83
1621850197|79:ca:5d:59:b4:fa|70
1621839393|79:cd:b1:8f:cd:b7|66
1621928119|79:e1:e5:40:52:3d|82
1621949449|79:e4:6d:66:a8:25|86
1621840787|7b:0d:ba:c3:17:4a|80
1621854171|7b:8b:e1:48:87:77|70
1621840219|7b:8f:e6:e2:37:10|81
1621838180|7b:af:15:7c:c9:f3|75
1621938563|7b:da:a5:a1:51:21|89
1621856499|7b:e2:43:5d:57:93|85
1622020229|7c:0b:bb:4c:4c:5a|73
1621842766|7c:23:02:38:90:f2|70
1621929458|7c:23:02:e9:66:ce|83
1621922740|7c:2a:31:82:40:8d|77
1621857183|7c:3d:26:d7:c8:8f|75
1622020296|7c:40:6f:46:96:1a|73
1621922959|7c:46:85:5f:52:5c|86
1622031915|7c:67:4e:c0:8b:73|75
1621947149|7c:67:a2:8c:fe:92|93
1621864940|7c:67:a2:8c:fe:92|91
1621951393|7c:67:a2:8e:06:ca|93
1621864024|7c:67:a2:8e:06:ca|91
1621838567|7c:72:57:2c:29:7a|70
1622014825|7c:76:35:7c:b3:2a|75
1622015096|7c:76:35:7c:b3:2b|77
1621837735|7c:76:68:f0:4d:f7|77
1621845623|7c:89:56:cd:4f:1c|78
1621931790|7c:8f:5c:94:31:86|83
1622014853|7c:a1:77:29:f7:9c|87
1621928222|7c:a1:77:29:f7:9c|78
1621840473|7c:d3:92:b1:e3:54|83
1621854200|7d:09:08:de:81:15|73
1621928638|7d:0c:a7:08:eb:3e|71
1622011568|7d:33:21:23:29:dc|88
1621926897|7d:3d:f9:4e:97:5a|75
1622012711|7d:51:c9:02:1b:51|68
1621855196|7d:ac:70:c1:37:e4|76
1622030117|7d:df:ed:01:7b:78|68
1621850714|7d:eb:9f:24:64:da|79
1621927651|7d:f6:2c:1e:3d:2d|73
1621927945|7f:13:9c:4c:c3:f2|68
1621860768|7f:e6:69:c1:ac:ac|68
1621932823|7f:f0:7c:b5:73:8e|71
1621855093|80:32:53:75:0e:95|80
1621925528|80:42:cb:ce:be:67|64
1621951702|80:4e:70:6c:6f:ea|89
1621922421|80:4e:70:fd:17:d8|87
1622031294|80:5e:4f:ce:5c:7b|90
1622020123|80:62:e4:38:d2:f7|75
1621853736|80:84:d4:39:b0:7d|71
1621926547|80:89:68:43:99:29|69
1622030124|80:94:25:53:54:f8|67
1622028750|80:a1:b5:36:e6:dc|75
1621927018|80:b0:3d:a5:57:b5|70
1622021958|80:b0:3d:a5:57:b5|71
1621851122|80:b0:3d:a5:57:b5|81
1621925515|80:be:05:5e:ca:8c|78
1621854016|80:be:05:5e:ca:8c|80
1622016212|80:ce:b9:c3:b8:65|65
1621838080|80:ce:b9:c3:b8:65|71
1621948091|80:ce:b9:d5:f7:95|92
1621946081|80:e0:31:d7:1f:05|68
1622023743|81:37:96:a1:9a:f1|81
1621926769|81:6e:61:cf:22:da|68
1621855703|81:b4:12:de:08:54|82
1621932918|83:5c:86:7c:04:35|80
1621927922|84:06:0f:a8:e2:66|74
1621923330|84:1b:77:fd:b2:95|79
1622019883|84:2e:27:37:89:04|84
1621945721|84:2e:27:37:89:04|74
1621841775|84:66:5d:c1:1c:f5|81
1621861122|84:9f:b5:74:0d:5e|91
1621948953|84:ab:1a:b3:bb:92|89
1622015369|84:ab:1a:c8:d5:38|82
1622019317|84:c5:a6:fb:2b:f6|88
1621838432|84:e6:cd:41:c3:44|77
1621926170|84:f8:f6:53:31:b7|71
1621937779|85:2a:fd:57:6b:b1|85
1621925592|85:44:62:dc:05:34|68
1622030019|87:4d:b5:43:40:5a|82
1622027405|87:55:9f:da:cc:74|88
1621839563|87:56:d1:91:46:a5|80
1621950099|87:6a:d1:bb:85:76|83
1621839060|87:76:54:94:93:d4|84
1622016769|87:8b:85:29:d7:f9|88
1622033053|88:07:4b:e7:cf:33|94
1622016496|88:10:8f:97:53:63|79
1622011783|88:53:95:0f:37:0f|79
1621942308|88:5f:e8:71:02:5b|74
1621862257|88:66:a5:d8:5e:8f|85
1621931889|88:7e:18:c9:2b:f0|81
1622014124|88:83:22:2d:7d:2f|82
1621836443|88:83:22:2d:7d:2f|68
1621935694|88:83:22:83:fe:a6|73
1621938872|88:9f:6f:85:f1:10|78
1622017635|88:9f:6f:8a:4f:1e|87
1621864603|88:9f:fa:fe:a3:03|79
1621846212|88:a4:79:14:6c:e5|75
1621928018|88:b1:11:2a:a0:53|71
1621842704|88:b1:11:2a:a0:54|70
1621932867|88:b4:a6:03:0e:c2|79
1621837963|88:b4:a6:03:0e:c2|87
1622013407|88:b4:a6:03:d7:8b|89
1621842710|88:b4:a6:06:11:c5|83
1622012208|88:b4:a6:09:14:c8|89
1621837173|88:b4:a6:0a:4c:00|85
1621932867|88:b4:a6:0b:df:5c|79
1622012997|88:b4:a6:13:1e:d2|84
1622013464|88:b4:a6:16:21:d5|86
1621931833|88:b4:a6:19:b8:35|80
1621841261|88:b4:a6:22:8a:3e|84
1622013006|88:b4:a6:24:20:d4|82
1621841569|88:b4:a6:25:9e:1b|82
1622012911|88:b4:a6:27:69:1d|89
1622012243|88:b4:a6:28:90:44|88
1622013036|88:b4:a6:30:98:4c|89
1621932876|88:b4:a6:35:77:2b|78
1622013519|88:b4:a6:3a:ff:b3|89
1622013281|88:b4:a6:3c:47:fb|89
1621931653|88:b4:a6:41:83:00|83
1621840771|88:b4:a6:44:4f:03|79
1621844042|88:b4:a6:48:8a:3e|89
1622012892|88:b4:a6:56:61:15|87
1621932767|88:b4:a6:5c:d7:8b|80
1621924799|88:b4:a6:5e:a0:1d|81
1621839068|88:b4:a6:5f:33:e7|83
1621839163|88:b4:a6:60:6b:1f|87
1621933202|88:b4:a6:61:6c:20|77
1622012159|88:b4:a6:68:aa:27|83
1622013616|88:b4:a6:6c:77:2b|90
1622013129|88:b4:a6:6c:e7:9b|88
1622012313|88:b4:a6:73:7e:32|89
1621923271|88:b4:a6:79:84:38|92
1621840582|88:b4:a6:7c:9c:50|84
1621838390|88:b4:a6:7e:af:63|87
1621837726|88:b4:a6:82:56:d3|83
1622012332|88:b4:a6:85:c7:7b|89
1621843517|88:b4:a6:88:93:47|74
1621933330|88:b4:a6:8e:99:4d|82
1621840896|88:b4:a6:91:e8:65|86
1621837679|88:b4:a6:94:90:44|85
1621838580|88:b4:a6:94:d6:53|82
1621933202|88:b4:a6:9d:05:b9|78
1621933338|88:b4:a6:9f:73:27|83
1621837774|88:b4:a6:9f:e1:5e|86
1621933241|88:b4:a6:a1:d2:86|82
1621839450|88:b4:a6:a7:e9:9d|78
1621932892|88:b4:a6:b2:88:3c|81
1621838721|88:b4:a6:b2:bd:71|82
1621837616|88:b4:a6:b4:51:05|83
1621843713|88:b4:a6:bd:c8:7c|86
1622012293|88:b4:a6:be:00:b4|91
1622013291|88:b4:a6:c0:72:26|83
1622013504|88:b4:a6:c4:06:ba|86
1622013110|88:b4:a6:cc:d7:8b|86
1621836936|88:b4:a6:d6:3e:f2|88
1621842420|88:b4:a6:d8:09:bd|83
1621932563|88:b4:a6:da:e5:62|84
1622013233|88:b4:a6:da:e5:99|89
1621933154|88:b4:a6:dc:1e:9b|81
1622013016|88:b4:a6:de:e9:9d|90
1622012114|88:b4:a6:df:23:d7|85
1621840435|88:b4:a6:e2:ed:6a|84
1621933029|88:b4:a6:e8:9a:4e|89
1621837057|88:b4:a6:e8:f3:70|81
1621932767|88:b4:a6:ee:30:ad|78
1622013483|88:b4:a6:ee:f9:ad|86
1622013138|88:b4:a6:f0:fb:af|89
1621932402|88:b4:a6:f1:7d:fa|79
1621933096|88:b4:a6:f3:11:c5|80
1621923271|88:b4:a6:f5:a7:5b|87
1621837379|88:b4:a6:fc:ae:62|83
1621924773|88:b4:a6:fe:fa:77|86
1621855282|88:df:d4:8c:67:47|86
1621863898|88:fd:37:2a:39:5c|82
1621941255|89:4f:db:f5:81:e3|79
1621838170|89:76:f8:3b:34:b5|76
1621927709|89:ef:59:f1:53:3d|72
1621945640|8b:0a:cb:73:25:59|84
1621927874|8b:33:9c:c7:ad:5f|79
1621841423|8b:38:a3:1d:4b:1a|74
1621842246|8b:82:c6:d7:98:85|75
1621849520|8b:c1:d7:ed:da:06|70
1621845961|8b:c4:97:46:04:80|80
1621841816|8c:0c:a5:20:0f:ce|80
1621840214|8c:45:00:15:f4:b0|81
1622037054|8c:45:00:81:6e:07|90
1621865140|8c:45:00:81:6e:07|86
1621931052|8c:70:5a:15:3e:58|65
1622032277|8c:73:7f:21:03:17|92
1621838766|8c:79:f5:0e:e2:82|68
1622009406|8c:79:f5:0e:e4:f6|77
1621857880|8c:85:90:0f:e9:0e|84
1621926376|8c:85:90:75:1d:84|91
1621926258|8c:85:90:86:b9:e0|66
1621922616|8c:85:90:92:f4:e8|91
1622021625|8c:b8:4a:06:98:1a|82
1621857938|8c:b8:4a:06:98:1a|79
1621939999|8c:b8:4a:32:b9:fe|90
1621846656|8c:b8:4a:49:41:9a|87
1622016832|8c:b8:4a:4c:f7:ea|82
1621846456|8c:c6:81:1a:f3:5b|86
1621934259|8c:c6:81:1d:d7:92|91
1621944038|8c:c6:81:6f:e4:42|92
1621854570|8c:d1:95:de:4d:fc|68
1621944949|8c:eb:c6:b3:94:55|83
1621864330|8c:eb:c6:b3:94:55|91
1621849502|8c:f5:a3:66:8f:b4|81
1621933478|8c:f5:a3:d7:cc:2d|78
1621943925|8c:f5:a3:dd:36:35|69
1621854979|8c:f8:20:c5:fa:41|73
1621848297|8d:16:22:ed:12:94|77
1621929049|8d:4e:da:53:db:20|69
1621853009|8d:7d:60:ba:f9:bb|69
1621949813|8d:9e:b2:ed:7e:01|85
1621927245|8d:a8:6c:7b:f0:67|70
1621837606|8d:b2:5f:e5:f0:5c|80
1621929227|8f:2b:dd:e5:37:6d|71
1621850493|8f:3d:4b:dd:25:9c|75
1621847331|8f:4e:e6:eb:0d:e1|84
1621848563|8f:b5:b3:a6:2d:40|76
1622022475|8f:c0:fc:f5:34:1e|83
1622036005|90:06:28:fa:ae:f7|92
1621844501|90:17:c8:0f:97:99|92
1622031950|90:27:71:3e:20:16|78
1621943048|90:2b:d2:5d:e3:c7|67
1621952864|90:30:55:f7:a8:e0|82
1621936038|90:32:4b:78:24:79|88
1622014658|90:32:4b:78:24:79|83
1622014517|90:61:ae:fc:b8:d1|75
1621926080|90:61:ae:fc:b8:d1|81
1622014694|90:61:ae:fc:b8:d2|77
1621926175|90:61:ae:fc:b8:d2|76
1621927722|90:84:30:55:cb:21|77
1622012381|90:8d:6c:aa:80:03|93
1621941709|90:97:f3:92:c0:b6|86
1621842195|90:97:f3:b5:c5:ea|83
1622015743|90:9c:4a:b6:d5:f0|74
1622030735|90:b6:86:fe:db:11|76
1621862089|90:cc:df:c0:c1:9b|77
1622028658|91:33:dc:4c:e5:c8|73
1622027277|91:70:fd:c2:bb:12|75
1621854238|91:af:b0:1b:a5:48|77
1622009089|93:0f:8a:dd:12:2f|83
1621851124|93:e3:f4:9b:9d:42|82
1621850720|94:0e:6b:f0:ee:7c|75
1622028444|94:17:00:e4:f7:7a|87
1621928885|94:25:6d:20:04:95|72
1621931297|94:2d:dc:7d:a3:40|88
1621840925|94:5f:55:5b:7d:92|76
1621836395|94:65:2d:d0:cc:ac|70
1621934307|94:65:2d:dc:ac:48|74
1622023546|94:65:2d:dc:ac:48|83
1621858396|94:65:2d:dc:ac:48|70
1622013018|94:65:9c:66:64:df|87
1622026293|94:76:b7:01:d4:81|87
1621953344|94:94:26:5d:ac:89|93
1621928441|94:96:41:1d:16:2f|77
1621949342|94:aa:7d:db:e9:c3|81
1622029146|94:b1:0a:d0:e1:56|70
1621839461|94:b1:0a:d0:e1:56|91
1622022487|94:b8:6d:92:f1:99|88
1622014962|94:bf:2d:d8:c3:d6|84
1622014722|94:bf:2d:d9:86:60|81
1621924482|94:e6:f7:60:ba:ee|84
1622017787|94:e7:0b:af:a6:68|91
1622009646|94:e9:6a:8a:4e:32|87
1621949354|95:86:d7:c6:b7:46|78
1621943086|95:8e:0e:59:64:19|91
1622034929|95:9a:77:38:36:ce|78
1621850202|95:bf:08:1a:6d:e8|71
1622015150|95:de:5d:b8:dd:8d|83
1621851553|97:34:20:14:84:2f|74
1621853940|97:fe:39:b9:d7:ae|69
1622021764|98:09:cf:64:f4:d2|78
1621935295|98:0d:51:52:c1:f2|84
1622021600|98:0d:51:52:c1:f2|75
1621839394|98:0d:51:52:c1:f2|74
1621836926|98:22:ef:b9:ba:91|65
1621930364|98:2c:bc:01:ea:8c|89
1622016680|98:2c:bc:2f:53:a0|81
1621842708|98:2c:bc:2f:53:a0|88
1621926427|98:2c:bc:60:15:5d|88
1621927147|98:37:e5:cc:29:a0|77
1622019074|98:3b:8f:0d:da:4b|87
1621931717|98:3b:8f:b5:ad:15|75
1621840641|98:54:1b:a2:7e:ed|83
1621836148|98:54:1b:a2:7e:ee|88
1622030175|98:54:1b:be:fb:b3|69
1621852433|98:6f:60:a6:1b:89|83
1621935036|98:74:da:bf:d8:a6|76
1622033899|98:74:da:c1:4d:d7|82
1621949027|98:74:da:ef:d2:9a|73
1622029987|98:9e:63:68:61:cc|91
1622009781|98:a4:e7:25:5a:48|91
1622028643|98:af:65:33:9c:0d|60
1621951282|98:ca:33:db:07:c7|76
1622022960|98:dd:ea:d5:7d:a7|90
1621840696|98:dd:ea:d5:7d:a7|75
1622015138|98:e0:d9:32:cb:b8|90
1621837480|98:e0:d9:32:cb:b8|74
1622014823|98:f1:70:1b:a8:59|78
1621923434|98:f1:70:1b:a8:59|84
1621862355|98:f6:21:2d:f6:26|89
1621857191|99:2d:5f:b7:4c:56|69
1621864007|9b:03:53:a7:55:d1|71
1621924092|9b:5a:70:26:89:da|68
1621948406|9b:b4:24:35:ef:3c|70
1621849386|9b:c1:8f:64:94:a6|73
1621850478|9c:04:28:0d:ad:dc|79
1621949456|9c:12:66:91:1a:1b|78
1621924626|9c:29:76:e3:f8:50|75
1622013909|9c:29:76:e3:f8:51|84
1621927672|9c:29:76:e3:f8:51|84
1621930864|9c:2b:d2:83:d2:89|81
1621841705|9c:2b:d2:83:d2:89|77
1622032198|9c:30:5b:6b:fa:a5|74
1621936958|9c:30:5b:6b:fa:a5|82
1621838222|9c:3e:71:ac:32:c9|70
1622015532|9c:9d:55:39:c0:54|73
1621942170|9c:a5:13:54:fc:35|89
1621841928|9c:ad:97:8a:14:cb|89
1621837343|9c:b2:51:f1:66:72|72
1621929598|9c:b6:d0:97:1b:9d|90
1621851469|9c:f3:87:c7:31:92|90
1621848899|9d:07:27:b3:20:fe|71
1621950029|9d:2c:fe:c5:35:01|89
1621849745|9d:4a:35:b0:32:6e|82
1622017030|9d:8d:10:59:72:20|84
1621946001|9f:20:a5:e9:df:04|84
1622018536|9f:4c:f0:34:05:e9|83
1621840939|9f:58:68:32:dd:aa|80
1621852794|9f:5b:72:7f:71:59|71
1621839819|9f:b0:28:cb:a2:be|76
1621840923|9f:e0:39:4f:7c:a9|72
1621851892|9f:e3:d4:a3:fb:fb|77
1621851094|9f:f7:ff:d5:7b:e1|69
1622013765|a0:28:ed:05:f7:db|59
1621867870|a0:4c:5b:cb:60:9d|96
1621856375|a0:57:e3:32:1f:f4|83
1621946493|a0:78:17:93:ae:cf|93
1621940963|a0:88:b4:15:4b:ec|86
1622017899|a0:99:9b:05:cc:5b|93
1621938801|a0:a4:38:88:e1:8b|72
1621857045|a0:a4:c5:b1:fc:ba|89
1621844231|a0:c9:a0:c6:aa:1b|82
1621864397|a0:c9:a0:d2:7c:f6|93
1621922718|a0:cc:2b:07:93:fa|84
1621847981|a0:cc:2b:c8:75:21|88
1621937059|a0:ef:f3:3f:f2:2a|83
1621926934|a1:1e:ef:59:a2:5c|77
1621854054|a1:e5:7e:d0:45:a7|68
1621845508|a1:f6:0e:3f:73:a2|73
1621838137|a3:36:c7:ff:01:5e|70
1621931869|a3:70:38:d8:6b:01|86
1621850576|a3:ff:3d:dd:d4:2c|72
1621946409|a4:07:b6:6d:c6:6a|87
1622024272|a4:45:19:54:b8:10|90
1621863944|a4:45:19:54:b8:10|86
1621846506|a4:50:46:10:7a:b7|85
1621950564|a4:55:90:c2:66:ac|87
1622029134|a4:59:f5:00:cc:db|72
1621926314|a4:83:e7:3c:42:b3|76
1622020330|a4:83:e7:a4:7e:33|86
1621939074|a4:9b:4f:e3:b2:98|74
1621939227|a4:b1:c1:d6:51:cd|81
1622024641|a4:b1:c1:d6:51:cd|80
1621860894|a4:b1:c1:d6:51:cd|68
1621859325|a4:c3:f0:c9:2c:cd|90
1622021230|a4:c4:94:45:e4:58|64
1621942491|a4:c4:94:45:e4:58|61
1622022454|a4:cb:0f:21:03:3b|83
1621855283|a4:d9:31:d8:79:11|85
1621937211|a4:e4:b8:80:55:71|86
1622022556|a4:e4:b8:80:55:71|72
1621857330|a4:e4:b8:80:55:71|84
1621944712|a4:e4:b8:94:90:67|86
1622018935|a4:e4:b8:94:90:67|88
1621840639|a4:e5:86:2e:e6:6e|84
1621954430|a4:f0:5e:d2:cc:77|88
1621855091|a4:f0:5e:d2:cc:77|83
1621949693|a5:3e:82:57:72:c3|82
1621935402|a5:7d:b4:ee:16:9b|90
1621849887|a5:b2:bd:31:41:ff|74
1621928310|a7:41:c7:d7:92:7a|77
1621837409|a7:7f:1d:48:8e:06|72
1621837553|a7:a4:9b:ad:2c:13|74
1621854961|a8:16:c1:55:89:c3|75
1622031973|a8:30:6e:54:18:d0|80
1621934462|a8:32:4d:b2:e1:e4|88
1621952972|a8:47:3d:c6:ac:92|79
1621928449|a8:51:5b:2e:d0:b3|88
1621840469|a8:62:b9:56:65:fc|81
1621840918|a8:66:7f:64:04:08|71
1622009953|a8:6d:aa:0c:8a:69|67
1621841195|a8:6d:aa:0c:8a:69|62
1621845415|a8:6d:aa:c8:e6:41|85
1621840052|a8:81:7e:89:8b:2f|75
1621929945|a8:81:7e:8f:3c:21|82
1622017603|a8:81:7e:8f:3c:21|83
1621839449|a8:81:7e:8f:3c:21|76
1621953726|a8:96:75:35:9a:40|68
1621852061|a8:96:75:63:da:d8|82
1621934854|a8:9c:ed:6d:c8:bd|84
1621847086|a8:9c:ed:6d:c8:bd|86
1621864144|a8:db:03:54:b1:1d|66
1621842150|a8:db:03:7d:f4:eb|86
1621927085|a8:ea:a9:dc:96:fc|74
1621864160|a9:28:07:2d:6c:45|83
1621840499|a9:5c:f5:b8:9f:f5|75
1621851169|a9:b0:6d:f5:81:ff|74
1621855437|ab:a3:b8:7a:88:de|82
1621848775|ab:a9:0d:b2:59:11|67
1621850081|ab:aa:9d:09:48:ff|75
1621837738|ab:f3:0a:2b:4b:be|82
1622016071|ac:07:5f:2a:c1:44|78
1621843011|ac:23:ea:96:e5:75|85
1621852260|ac:27:c5:68:32:f5|69
1621940347|ac:5f:3e:f4:e0:3f|84
1622015020|ac:64:cf:f4:01:6b|72
1621856343|ac:78:91:dc:11:41|73
1621937538|ac:d5:64:02:f7:bf|84
1621861611|ac:dd:6e:c1:80:a5|84
1621837612|ac:eb:39:4e:19:c9|78
1622023222|ac:fd:ce:37:75:12|83
1621857006|ac:fd:ce:37:75:12|76
1621927407|ad:2d:10:9f:b2:3e|67
1621858857|ad:4c:5a:2f:7a:e9|83
1622019909|ad:cd:1c:9e:87:c4|93
1621850699|af:1e:dc:ec:91:0e|81
1621929712|af:b5:aa:8f:a4:bb|69
1621948601|b0:13:07:79:4d:36|85
1621943858|b0:35:9f:9d:d0:e1|76
1621923210|b0:35:b5:e5:7c:80|70
1621852668|b0:35:b5:e5:7c:80|74
1621848057|b0:6f:e0:1e:1e:e8|81
1621840781|b0:6f:e0:b0:41:f2|76
1622011397|b0:70:2d:bc:e2:2a|83
1621951671|b0:72:bf:42:e9:d6|72
1621849948|b0:80:2b:3e:70:5d|73
1621952646|b0:a2:e7:cf:24:4c|88
1621856438|b0:a2:e7:cf:24:4c|91
1621922884|b0:a4:60:93:b5:52|80
1621836439|b0:a4:60:93:b5:52|75
1621925710|b0:a4:60:9d:d8:bb|75
1621930519|b0:a6:67:0f:a6:ba|84
1621926968|b0:b6:f6:0e:01:80|72
1622010226|b0:ca:1c:75:35:89|78
1621925417|b0:e1:7e:a6:4b:f5|80
1621853111|b0:e1:7e:a6:4b:f5|84
1621862849|b0:e2:35:c1:1c:05|71
1622030822|b0:e2:35:c1:1d:86|94
1621928306|b0:e2:35:c1:27:b1|72
1621932124|b0:e5:ed:99:de:a8|79
1622029224|b0:ef:8e:15:a8:9b|80
1621923582|b0:fc:36:aa:55:5f|93
1621950533|b0:fc:36:aa:71:6b|88
1621836023|b0:fc:36:aa:71:6b|92
1621848755|b1:69:b5:5c:1b:dd|74
1621836842|b1:7a:12:41:a5:13|75
1621838462|b1:bd:0b:2f:e4:5d|64
1621942151|b1:d8:60:8d:b0:f5|84
1621928720|b3:20:70:49:8b:f1|72
1621946060|b3:32:02:49:e7:aa|69
1621852621|b3:41:a8:21:64:f1|66
1622027957|b3:88:0c:d5:cf:a6|87
1621846802|b3:c5:2f:ba:63:a0|82
1621863823|b4:18:d1:ab:89:f3|93
1621924840|b4:4b:d2:7a:66:04|94
1622035509|b4:52:7d:dc:f1:37|88
1621839721|b4:52:7d:dc:f1:37|80
1621837287|b4:6b:fc:d3:24:03|67
1622015395|b4:74:43:65:6d:79|72
1621948161|b4:86:a2:cf:ce:cb|91
1621854028|b4:8b:19:75:a2:1c|89
1621929915|b4:8b:19:da:a2:ef|78
1621864201|b4:8e:40:96:da:48|89
1622034729|b4:ae:2b:e1:d7:d5|76
1621938459|b4:cf:46:03:7a:f6|70
1621859564|b4:f1:da:b9:1b:67|72
1621939542|b4:f7:a1:85:44:84|89
1621856167|b5:c1:42:33:44:89|75
1621858509|b5:db:b3:21:a7:b7|74
1621837117|b5:ff:92:8f:96:36|72
1621845664|b7:7f:38:bf:47:2e|75
1621926159|b8:53:ac:c7:31:1b|89
1622010313|b8:53:ac:c7:31:1b|89
1621843142|b8:53:ac:c7:31:1b|92
1621932068|b8:57:d8:a1:22:3a|75
1621838413|b8:86:77:27:21:8a|79
1622032070|b8:8a:60:ed:5d:50|77
1622023150|b8:97:fe:2b:fc:40|75
1622009764|b8:9a:2a:af:32:ff|70
1622037095|b8:c9:b5:ca:58:dd|86
1621837954|b8:d6:e1:16:b5:bc|74
1621951187|b8:d7:af:02:86:de|92
1622030416|b8:d7:af:02:86:de|95
1621864790|b8:d7:af:02:86:de|88
1622027411|b8:d7:af:0b:b1:a7|80
1622030911|b8:d7:af:b6:77:f7|84
1621944645|b8:d7:af:b6:77:f7|84
1622008859|b8:ee:65:67:04:86|88
1621851480|b9:99:5b:80:a6:b8|78
1621839839|b9:c2:c1:27:df:c4|69
1621840351|bb:06:71:56:6f:a7|73
1622023225|bb:e9:21:7a:93:4f|80
1621846889|bc:09:63:1d:0b:b5|82
1622016392|bc:17:b8:3f:bb:e6|70
1621926623|bc:1a:03:2e:6f:45|70
1621946585|bc:2e:f6:68:9a:c7|81
1622021109|bc:2f:3d:e3:70:cf|69
1621853892|bc:2f:3d:e3:70:cf|70
1621949321|bc:30:1d:39:f9:6c|84
1621836590|bc:3a:ea:bc:1f:8c|89
1621836187|bc:3b:af:4f:79:3c|85
1621859224|bc:3d:85:c0:5c:7b|79
1622031952|bc:41:39:9b:51:99|83
1621929227|bc:44:34:12:cb:e5|81
1621951271|bc:4c:c4:b5:df:a6|87
1622012773|bc:54:51:9e:bb:86|90
1621859209|bc:54:51:9e:bb:86|76
1621923842|bc:83:85:0f:41:06|72
1622021323|bc:83:85:12:f8:91|74
1621934328|bc:83:85:ef:10:d6|77
1621836715|bc:83:85:ef:10:d6|78
1621863212|bc:a5:8b:e0:f3:f2|88
1621929378|bc:ae:84:43:3d:ab|80
1622029185|bc:bc:60:38:c7:a8|77
1621926231|bc:ff:75:26:9d:be|74
1621842999|bd:0f:3d:7c:d9:60|77
1621924062|bd:2b:62:d9:e8:58|65
1621839566|bd:44:09:d5:8d:5e|77
1621927447|bd:4c:c7:cf:46:c0|92
1621949394|bd:5e:4f:fc:9f:42|67
1621948939|bd:77:c3:88:95:1b|83
1621850649|bf:32:cc:d7:11:95|78
1621927915|bf:4a:72:23:ad:78|64
1622015895|bf:96:04:46:08:2c|77
1621929215|bf:9b:15:bb:85:6d|70
1621851467|bf:bf:8b:12:c4:08|81
1621866121|c0:10:b1:18:44:1e|92
1621934618|c0:10:b1:44:ce:44|94
1622037122|c0:17:4d:13:3f:73|87
1621867691|c0:17:4d:13:3f:73|87
1622030612|c0:17:4d:14:52:71|76
1621836108|c0:17:4d:14:52:71|71
1621854817|c0:17:4d:2f:18:3f|74
1621841319|c0:17:4d:38:2f:34|88
1622031314|c0:17:4d:c7:46:e7|90
1621928096|c0:82:88:cc:e9:33|76
1621851405|c0:93:dc:f0:5e:cd|74
1621850359|c0:b5:d7:d9:00:6d|82
1621928827|c0:b6:58:52:15:74|76
1621945122|c0:b6:f9:3d:5a:8b|89
1622014849|c0:b6:f9:3d:5a:8b|81
1621859273|c0:b6:f9:3d:5a:8b|84
1621944233|c0:b6:f9:3d:5a:8c|89
1621850148|c0:b6:f9:aa:5f:0f|77
1621922993|c0:b8:83:7c:e7:4b|79
1621850799|c0:b8:83:7c:e7:4b|79
1621840301|c0:b8:83:c9:f2:c5|67
1622017847|c0:bd:c8:fb:69:ef|72
1621923287|c0:d2:dd:66:05:c5|83
1621836296|c0:d2:dd:66:05:c5|88
1622031986|c0:d2:f3:84:bf:02|79
1622033574|c0:ee:fb:e0:6f:e0|85
1621938143|c0:f4:e6:02:86:9c|83
1621851486|c1:46:a5:e6:2e:b2|72
1621925228|c1:76:ae:ac:73:f1|69
1621855334|c1:b8:13:54:1b:7e|75
1621945487|c3:27:ad:ef:9d:b1|89
1621925205|c3:3b:7a:56:78:49|66
1621841059|c3:a6:ba:ea:bd:d5|84
1621838634|c4:06:83:25:f3:02|70
1621927611|c4:50:01:87:88:56|80
1621928076|c4:57:6e:4e:d2:b7|82
1622011196|c4:57:6e:4e:d2:b7|90
1621851202|c4:7b:7c:2a:f4:7b|68
1622013875|c4:8e:8f:f3:80:bd|85
1622023571|c4:98:63:b4:e9:f0|66
1621933432|c4:9d:ed:1e:a5:b5|86
1621836804|c4:9d:ed:1e:a5:b5|77
1622014534|c4:9f:4c:84:93:da|66
1621923570|c4:9f:4c:84:b2:8b|64
1621950103|c4:a9:98:b7:94:c4|78
1622015797|c4:df:b7:ee:63:28|88
1622020495|c4:fe:5b:b0:b6:29|79
1621927016|c5:77:1e:5a:6b:ac|69
1621929403|c5:f2:ef:74:14:b6|76
1621924024|c7:09:e3:b5:46:2c|74
1621850630|c7:12:96:aa:b6:b1|74
1621837732|c7:64:d9:6a:1e:4a|70
1621928703|c7:7a:2b:07:2b:87|70
1621926175|c8:02:10:bf:67:e0|76
1622023057|c8:02:10:bf:67:e0|87
1621841734|c8:02:10:bf:67:e0|79
1622011790|c8:16:da:5d:53:1d|86
1621928762|c8:8b:a7:aa:29:29|71
1621948489|c8:c1:ed:56:2b:a9|85
1622015220|c8:d0:83:0f:25:c6|92
1622010653|c8:e1:a7:09:48:a2|76
1621923452|c8:e1:a7:09:48:a2|66
1621836054|c8:e1:a7:09:48:a2|76
1621941919|c8:f7:33:db:5a:83|84
1621850516|c8:f9:09:e0:b3:9b|72
1622023329|c9:72:fb:a1:5c:79|91
1622030190|c9:9e:7f:c8:6e:2d|75
1621839435|c9:ef:50:7e:bf:9c|64
1622029017|c9:f2:17:4c:20:4e|76
1621859192|cb:4e:ce:74:77:27|82
1621863329|cb:ab:e9:94:70:92|87
1621839732|cb:dc:ea:db:31:98|77
1621851402|cb:df:b5:4f:d5:5b|71
1621927251|cb:e0:14:bd:d1:1e|72
1621859260|cc:21:19:89:75:37|82
1622020558|cc:21:19:89:75:37|76
1621848187|cc:3a:61:90:fb:13|78
1621855528|cc:3d:82:4f:04:39|77
1621840975|cc:3d:82:4f:21:7b|68
1621836373|cc:46:4e:cf:02:6e|76
1622018671|cc:89:03:5b:6b:5f|86
1621842002|cc:92:7d:73:f2:90|68
1621861587|cc:a9:b8:bb:dc:fb|85
1622015100|cc:c0:79:fa:30:3d|80
1621843017|cc:c7:60:86:61:5f|83
1621926005|cc:f3:ce:7f:fd:8c|70
1621853058|cd:a7:54:1d:f0:0b|70
1621940146|cd:dc:f1:f8:b9:4f|86
1621846072|cd:e4:cb:2a:9b:17|83
1621846273|cf:a0:8b:b3:cc:44|86
1621848985|d0:25:98:a4:d0:04|82
1622030173|d0:31:69:52:b0:7c|88
1621926441|d0:31:69:52:b0:7c|79
1622025848|d0:53:49:df:f2:fd|72
1622033566|d0:7f:a0:a7:0e:8f|92
1621928266|d0:85:cf:0b:d0:a7|81
1622036482|d0:b1:28:fc:62:77|92
1622010934|d0:c6:37:12:3b:3f|81
1621836826|d0:c6:37:12:3b:3f|80
1622020704|d0:c6:37:c7:0b:14|92
1621860970|d0:c6:37:c7:0b:14|97
1621843448|d0:c6:37:c7:0d:f8|82
1621846049|d0:c6:37:d6:fa:fb|71
1621953128|d0:d4:bd:55:8f:8f|92
1622015685|d0:e4:03:a8:97:67|86
1621851234|d1:06:a9:c6:f3:ef|74
1621851885|d1:d0:69:ec:1b:b6|71
1621838611|d3:72:b8:d9:9e:27|82
1621948787|d3:73:40:f6:6d:b0|91
1621840911|d3:ba:08:89:3a:3d|88
1621837709|d4:3b:04:79:25:8e|81
1622020276|d4:3b:04:a0:aa:55|72
1621929613|d4:3b:04:a0:aa:55|74
1621841656|d4:3b:04:a0:aa:55|72
1621942237|d4:4d:a4:fb:89:da|78
1621944766|d4:62:ea:38:0c:a1|78
1621844679|d4:62:ea:a6:76:2d|82
1621836055|d4:6d:6d:e0:e8:c2|66
1622010562|d4:90:9c:71:ca:12|84
1621837737|d4:90:9c:95:53:5d|84
1621864804|d4:9d:c0:43:9c:44|68
1621842758|d4:9d:c0:44:86:26|67
1621847313|d4:9d:c0:46:0a:fc|63
1621843659|d4:ae:05:39:ce:27|83
1622008851|d4:b7:61:87:81:5b|92
1621941136|d4:b7:61:87:81:5b|92
1621862986|d4:b7:61:87:81:5b|93
1622020092|d4:c3:31:24:e5:9a|87
1621928873|d4:cb:4c:aa:1c:16|73
1621922437|d4:d2:52:b8:18:70|88
1621841021|d5:31:72:9d:a7:30|77
1621928234|d5:46:56:dd:76:33|83
1621926244|d5:81:e5:23:bf:a9|78
1621925639|d5:d2:bb:c5:b0:df|71
1621922776|d5:de:b5:b8:63:66|91
1621948391|d8:03:e7:36:84:43|69
1621936072|d8:1c:79:ad:a4:d0|60
1622025731|d8:1e:dd:b0:55:af|84
1621866588|d8:1e:dd:b0:68:df|74
1621952798|d8:32:e3:50:2a:2a|90
1621940321|d8:4c:90:b3:ff:30|84
1622017531|d8:4c:90:b3:ff:30|84
1621861242|d8:4c:90:b3:ff:30|73
1621934741|d8:68:c3:8c:38:c1|74
1621930315|d8:85:4c:41:32:59|83
1622020266|d8:9b:e6:8d:7b:5f|78
1621836921|d8:9c:67:92:75:77|86
1622015356|d8:9e:61:e8:92:59|84
1621842557|d8:9e:61:e8:92:59|83
1621933556|d8:a1:43:8d:9b:e2|84
1622011057|d8:ab:81:67:08:78|87
1621837226|d8:bb:2c:46:1a:fe|74
1621948211|d8:bc:1e:83:f1:90|91
1621938944|d8:c4:50:f6:7b:a1|74
1621853501|d8:d7:9c:33:8c:f6|75
1622030284|d8:f2:ca:11:cb:b4|79
1621861725|d8:f2:ca:11:cb:b4|78
1622015175|d8:f2:ca:b4:e4:9d|88
1621843786|d8:f2:ca:b4:e4:9d|89
1621947502|d9:6a:70:d7:d8:09|88
1621854260|d9:8e:07:f8:77:61|74
1621924010|db:0f:76:c8:15:3f|65
1621943124|db:39:e4:77:1b:24|82
1621928473|db:dc:07:b3:60:e3|74
1622011597|db:e5:ba:32:4c:7a|72
1621927442|dc:16:b2:89:23:f3|69
1621928622|dc:2d:bf:07:65:2f|68
1621929948|dc:66:72:c8:54:03|78
1621944641|dc:8b:28:65:9c:35|87
1622023258|dc:8b:28:77:df:e4|88
1621855607|dc:98:24:3a:a4:26|86
1622023961|dc:a9:04:8b:73:d0|94
1621932392|dc:b0:54:01:06:57|86
1621926202|dc:b1:3a:b7:71:59|72
1621932195|dc:b7:2e:bb:2b:e4|78
1621857650|dc:b7:2e:bb:2b:e4|91
1622030885|dc:cf:14:74:92:0e|81
1622020225|dc:e5:05:dc:6c:d1|80
1622029979|dc:ef:ca:39:fb:f1|74
1621922588|dc:f0:90:bf:1e:84|77
1622009051|dc:f0:90:bf:1e:84|73
1621836967|dc:f0:90:bf:1e:84|78
1621945261|dc:f7:56:07:94:c8|82
1622030692|dc:fb:48:11:89:79|88
1621849780|dc:fb:48:8a:de:c8|81
1621927096|dd:ce:71:9a:1e:b2|69
1621841014|df:2e:53:b6:fc:1a|73
1621837195|df:61:04:b6:55:7f|81
1622020296|df:d3:da:11:0d:51|78
1621930478|df:e3:17:73:99:19|84
1621840341|e0:0a:8d:b7:fa:5e|72
1621862284|e0:37:bf:d8:dc:b2|88
1621944487|e0:5f:45:bc:fa:7e|81
1621854760|e0:85:50:30:53:ba|82
1621838802|e0:89:7e:16:7b:fc|87
1622028973|e0:9e:70:13:de:09|77
1621848092|e0:aa:96:0b:f7:ce|85
1621856399|e0:b5:2d:0b:9b:1b|71
1622024365|e0:b5:2d:0b:9b:1b|64
1621842790|e0:d5:80:de:0b:6a|85
1621856329|e0:fc:0e:37:e3:3f|76
1621946463|e1:49:b4:53:2f:5c|82
1621927067|e1:d6:8c:d8:2e:da|76
1621854203|e3:10:19:f8:4d:01|76
1621930448|e3:4b:5a:53:05:2e|88
1621941316|e3:9f:6f:9e:5c:6e|89
1622010369|e3:d2:7e:9c:80:e5|86
1621926925|e3:e1:af:7e:b9:70|77
1621945879|e4:08:78:32:77:b3|85
1621933923|e4:0e:ee:e4:dd:b8|86
1622024629|e4:29:da:c2:e1:f8|67
1622013488|e4:2b:34:e5:1f:49|92
1621848147|e4:2b:34:e5:1f:49|87
1621923372|e4:a4:71:ae:bb:90|82
1622008856|e4:b3:18:9c:52:34|54
1621922641|e4:b3:18:9c:52:34|67
1621924528|e4:b3:18:c7:54:bb|91
1622011737|e4:b3:18:c7:54:bb|87
1621840204|e4:c4:83:e8:a7:f7|77
1621839826|e4:f3:82:17:c3:92|72
1621850366|e5:19:20:76:f9:91|78
1621925263|e5:4d:bb:3b:be:d7|84
1621925641|e5:b7:b7:91:63:72|66
1621926521|e5:d0:6b:ab:e9:c3|75
1621855675|e7:2c:ec:b2:f1:3f|82
1621860833|e7:4f:8b:b2:6d:fb|84
1622013107|e7:5a:51:b6:2f:d9|76
1621848958|e8:2a:ea:19:b9:2d|66
1622029238|e8:4a:80:d4:c9:7d|87
1621850360|e8:59:ef:fd:de:f1|78
1622012537|e8:5a:8b:62:63:17|79
1621843061|e8:5a:8b:62:63:17|83
1621836834|e8:61:31:dc:eb:ba|68
1622010256|e8:93:09:2e:01:ee|76
1621843426|e8:93:09:2e:01:ee|75
1621949090|e8:aa:7c:e4:eb:14|74
1621836907|e8:b1:6b:4b:28:10|75
1622016486|e8:b4:c8:05:ff:0b|83
1621838461|e8:da:08:7a:25:23|75
1621924072|e9:47:79:a8:8c:fd|69
1621852031|e9:59:24:e1:e1:90|75
1622034953|e9:78:b3:28:82:c1|73
1621838476|e9:98:60:19:3c:21|72
1621949466|e9:ce:c3:d3:8e:aa|80
1621850590|eb:0e:c2:dd:79:2a|73
1621836818|eb:4f:55:0b:04:25|78
1621842460|eb:53:b8:f1:97:d8|84
1621864038|eb:9d:40:c1:e6:b7|72
1621949557|eb:a0:ac:d9:51:83|63
1621839287|ec:01:ee:d0:10:6f|76
1622029836|ec:10:7b:5e:84:75|88
1621945137|ec:1f:72:11:3b:8d|89
1621843978|ec:1f:72:11:3b:8d|83
1621935683|ec:1f:72:2b:f8:b6|69
1622031973|ec:1f:72:2b:f8:b6|67
1622021866|ec:1f:72:7b:e0:80|71
1621929595|ec:1f:72:7b:e0:80|72
1622012837|ec:1f:72:80:10:d2|86
1621836439|ec:1f:72:83:9f:04|76
1622034486|ec:1f:72:b9:5a:78|91
1621850743|ec:4b:c7:d8:1a:ca|68
1621953059|ec:71:f6:8c:13:02|83
1621946071|ec:77:57:14:6f:ee|70
1622009341|ec:9b:7c:b3:81:56|86
1621838792|ec:9b:f3:ab:a6:5a|68
1622035593|ec:9b:f3:d1:58:e4|81
1621837991|ec:9b:f3:d1:58:e4|81
1621850931|ec:d9:c4:02:d8:61|76
1621948826|ec:de:e6:00:3d:d1|73
1621840326|ec:de:f7:71:67:35|80
1621923999|ed:0f:b6:6b:07:6f|73
1621841418|ed:3c:e7:a1:38:98|81
1621852913|ed:b5:c3:c7:21:d4|67
1621927843|ed:bf:b2:da:40:49|69
1621924113|ed:e0:dd:46:76:39|70
1621837655|ed:f4:53:e5:e3:44|77
1621929932|ef:b4:a5:06:32:53|91
1621852409|ef:d3:bf:c0:a5:83|74
1622031037|f0:0e:1d:c1:57:ff|86
1621854142|f0:25:74:20:e1:2f|71
1621841403|f0:3e:82:b0:72:82|76
1621927023|f0:5e:a3:92:d3:82|79
1622030351|f0:6d:78:5a:ad:4d|74
1621836242|f0:6d:78:5a:ad:4d|81
1621839032|f0:6e:0b:e3:c3:f7|86
1621841672|f0:79:60:24:57:02|93
1621837651|f0:92:7e:21:47:a3|79
1622032051|f0:96:f1:b9:e1:8c|88
1621845069|f0:98:9d:9e:ea:42|59
1621838764|f0:98:9d:ae:7a:e1|75
1621929438|f0:98:9d:e7:9a:9a|70
1621934699|f0:99:b6:d1:3c:7b|76
1621843596|f0:c3:71:01:7b:6b|82
1622016699|f0:d5:bf:29:6a:bc|90
1622013336|f0:d5:bf:bb:9e:41|92
1622015002|f0:d5:bf:bb:9e:42|85
1621924672|f0:d5:bf:bb:9e:42|88
1622019632|f0:f6:1c:6a:8b:f2|80
1622030819|f1:1d:45:ce:21:bb|71
1621837953|f1:2b:76:39:58:e0|68
1621838487|f1:cc:92:3b:5a:ea|72
1621948459|f1:e2:7c:60:f9:5c|78
1621857882|f3:08:94:f4:cc:61|80
1621838647|f3:64:1d:66:d6:e6|83
1622013532|f3:90:0c:79:29:5a|87
1622013645|f3:d1:1b:32:0f:a1|88
1622016831|f4:06:69:66:c2:22|89
1621839358|f4:06:69:66:c2:22|84
1621837339|f4:07:8d:b3:80:4b|80
1621856470|f4:0b:9f:41:62:98|83
1621931210|f4:0f:24:1f:fc:8b|73
1621927730|f4:3c:f6:26:4b:c6|77
1621945496|f4:5c:89:a9:4f:db|79
1621948893|f4:60:51:48:f3:e2|71
1621951084|f4:60:e2:89:86:92|88
1621951246|f4:63:1f:84:c6:ed|89
1622013837|f4:72:3f:94:9a:0e|84
1621926587|f4:78:cd:25:a3:7a|71
1621851534|f4:80:77:2d:9e:a4|73
1621853934|f4:83:01:9b:4e:07|64
1622028271|f4:8c:50:d5:79:e7|91
1621850484|f4:8c:50:d5:79:e7|72
1621857156|f4:8c:50:fd:c6:c7|94
1621854103|f4:93:bc:0f:a9:d8|76
1622010848|f4:96:34:99:a8:37|92
1621923752|f4:96:34:99:a8:37|89
1621836774|f4:c2:48:73:ec:87|84
1622027380|f4:c2:48:8a:0b:85|86
1621852855|f5:05:2a:ff:30:ae|68
1621853973|f5:46:d0:ba:6c:dc|72
1622034374|f5:60:2b:4d:e8:90|78
1621925487|f5:7b:23:54:09:84|78
1621852465|f5:7b:84:58:dc:38|77
1621926597|f5:a5:34:73:03:8c|74
1621925346|f5:a5:63:73:83:38|67
1621841654|f7:2f:52:e9:4b:5d|74
1621854488|f7:70:16:3b:0c:83|74
1621932832|f7:81:c1:a4:09:aa|85
1621845549|f7:e2:41:88:97:6d|75
1621952932|f8:08:c4:6d:ad:eb|78
1621952963|f8:36:4b:2c:59:58|85
1621858595|f8:59:71:32:6d:e2|93
1621922636|f8:59:71:32:6d:e3|92
1622035791|f8:59:71:32:6d:e3|87
1621845642|f8:59:71:c5:e1:12|87
1621924931|f8:63:3f:94:59:80|79
1621854965|f8:78:de:90:ff:38|76
1621846964|f8:87:f1:43:7e:38|88
1622014747|f8:94:c2:09:20:f9|88
1622012003|f8:94:c2:09:21:30|91
1621938802|f8:94:c2:09:21:30|89
1621922854|f8:a2:d6:e3:d6:4d|91
1621940592|f8:ac:65:80:24:5b|78
1621836010|f8:c3:9e:bd:24:a8|72
1621852211|f8:d9:43:b1:5c:aa|75
1622012395|f8:da:0c:4e:06:cb|91
1621847554|f8:e4:e3:67:29:6f|84
1621931714|f8:e4:e3:91:ee:c0|68
1621856222|f8:e4:e3:91:ee:c0|90
1621922548|f8:e4:e3:e4:6a:06|73
1621836103|f8:e4:e3:e4:6a:06|67
1621941558|f8:e7:a0:21:57:77|82
1621838945|f8:e9:4e:b0:58:77|84
1621937964|f8:ff:c2:03:88:ee|82
1621848496|f8:ff:c2:03:88:ee|92
1622015309|f8:ff:c2:53:af:bc|82
1621925283|f8:ff:c2:53:af:bc|84
1621927504|f9:1f:16:8e:34:48|73
1621948428|f9:25:d8:5c:b1:be|72
1621846059|f9:3e:5f:df:11:aa|89
1621841840|f9:46:ed:04:89:88|89
1621929118|f9:59:e0:88:c6:6d|71
1621855109|f9:b9:84:e5:d1:22|73
1621849964|fb:b8:c3:87:78:85|76
1621923348|fb:c4:97:2c:5d:a6|89
1621926522|fb:ed:5a:bd:a3:5d|77
1622031905|fc:3b:c7:29:f4:fa|78
1621942138|fc:42:03:10:1d:6d|85
1621844638|fc:42:03:bf:e2:94|83
1622009833|fc:66:cf:e1:47:39|75
1621854774|fc:77:74:f2:8e:65|81
1621854767|fc:77:74:f2:8e:66|87
1622011355|fc:77:74:f2:c7:db|87
1621923465|fc:77:74:f2:c7:db|82
1621945429|fc:aa:b6:64:33:e0|66
1622011340|fc:db:b3:1b:cb:72|82
1621851192|fd:19:0a:4a:c1:54|74
1621923462|fd:3a:de:4e:04:55|81
1621923201|fd:60:b8:a6:9d:f8|87
1621850376|fd:d5:e4:d3:44:40|75
1621949050|ff:2b:da:c0:7e:7a|77
1621853748|ff:6d:8b:41:08:89|71
1621854641|ff:70:81:44:b0:a7|83
1621851087|ff:f3:a0:8d:c1:4b|83